# vvf statistics with RF=500
# gcat file: /disk2/salam/Abacus/AbacusCosmos_720box_products/GCAT_derivative/AbacusCosmos_720box_planck_rockstar_halos_z0.100_Mr21_hod-sigma-pos_real-9.gcat.rsd_zz.1pz0.100by100
# stats order in row: stdvvf,p2.5,p16,p50,p84,p97.5,rho
# columns: numbers, mean, sigma,All, jnrealizations
0.000000000000000000e+00 1.406753519619229120e+00 4.584024248643771282e-03 1.406753731449941647e+00 1.407098869256451446e+00 1.406466095822433093e+00 1.406539166857101675e+00 1.406850410829413311e+00 1.407119973981683314e+00 1.406785896299620253e+00 1.407241262477061161e+00 1.405981515871254528e+00 1.405631944764860419e+00 1.406631202011376258e+00 1.407343132770207061e+00 1.407150587177481427e+00 1.406886410732999027e+00 1.406900477918263448e+00 1.406894786812290521e+00 1.406896823403725350e+00 1.407082351012189481e+00 1.406753367434069535e+00 1.406892181438572642e+00 1.407064317572175538e+00 1.406757071109617563e+00 1.407397702183676103e+00 1.406570243894980310e+00 1.406813853517096202e+00 1.406704383646910195e+00 1.407053294738757954e+00 1.407132194525002156e+00 1.406283194356339861e+00 1.407207906186474178e+00 1.406696954619940598e+00 1.406662812813164631e+00 1.406262891039526952e+00 1.406631944087051833e+00 1.406875613831815031e+00 1.406171118222194316e+00 1.406402632772104644e+00 1.406852792021365817e+00 1.406789062347547414e+00 1.406813690180137577e+00 1.407049240892815245e+00 1.406495244297488512e+00 1.406808264429541433e+00 1.407016913037140604e+00 1.406516239276274893e+00 1.406136052372066736e+00 1.406853458728746231e+00 1.406318052044583267e+00 1.407087216291605491e+00 1.406892503746873802e+00 1.406516329881207117e+00 1.406111246094624567e+00 1.406507510523449245e+00 1.406580230777450646e+00 1.406618405829795249e+00 1.406250756923514089e+00 1.406678783121315224e+00 1.406587837995718626e+00 1.406851915438971146e+00 1.406722459178849194e+00 1.406314238140379702e+00 1.407035279802391958e+00 1.407026049492300812e+00 1.406973377645256207e+00 1.406959645678444337e+00 1.406821651861777323e+00 1.406103855518091583e+00 1.407187446595260960e+00 1.407074340844879590e+00 1.407290165721202024e+00 1.406653254116886798e+00 1.406751629693140382e+00 1.407126538097296375e+00 1.406434580709025495e+00 1.406833410154171959e+00 1.406453350308254135e+00 1.406812132795340231e+00 1.406793749567717411e+00 1.406484966878058351e+00 1.406684638867244486e+00 1.406438588533195810e+00 1.406360311724109691e+00 1.406854904827578245e+00 1.405912821718128924e+00 1.406865880737237617e+00 1.406460484395699151e+00 1.407007898223776365e+00 1.406719255751267772e+00 1.407130794527668538e+00 1.406499819932898188e+00 1.406448030636929580e+00 1.406883856669551625e+00 1.406756224166582969e+00 1.407046973535611478e+00 1.407190126125172025e+00 1.406499729017495426e+00 1.406777881243301831e+00 1.407005887572521985e+00 1.406837668623516224e+00 1.406782728075597566e+00 1.406651963423363405e+00 1.406895174962880857e+00 1.406416608065323981e+00 1.406467772185984844e+00 1.406741902901242458e+00 1.406761095265914197e+00 1.407004850576323074e+00 1.406576334333170752e+00 1.406915670113695560e+00 1.406534528190034772e+00 1.406759049911726178e+00 1.406967430111026207e+00 1.406709270946500556e+00 1.406794122166007188e+00 1.406139374923622842e+00 1.407288880192031355e+00 1.407237755190467787e+00 1.406976145270941503e+00 1.406773091520517660e+00 1.406244669269227643e+00 1.406916827662868741e+00 1.406763390961590421e+00 1.406609223983981138e+00 1.406763510512310189e+00 1.406429844254889039e+00 1.406390048410314675e+00 1.407019956097641966e+00 1.407225123208574624e+00 1.407086327597221409e+00 1.406542367882484212e+00 1.406649032234895236e+00 1.406864258967544856e+00 1.406495131709678770e+00 1.406440540674682937e+00 1.406980166968684109e+00 1.406665903758296921e+00 1.407074753137740997e+00 1.407110206740816105e+00 1.406525947331982662e+00 1.406153658778039661e+00 1.406140118570798681e+00 1.406680190351621507e+00 1.407035123363199913e+00 1.406952860094961455e+00 1.406870341620715115e+00 1.407074132835524294e+00 1.406702289280199691e+00 1.406720023441415446e+00 1.406861645221247237e+00 1.406399289656637075e+00 1.406416328248449643e+00 1.406406593460560739e+00 1.406647423910570627e+00 1.405986801004674103e+00 1.407065494438920261e+00 1.406725674993071662e+00 1.407242465405591059e+00 1.406922196538990422e+00 1.407082538055435483e+00 1.406335103556668020e+00 1.406827623165251451e+00 1.407095053557563480e+00 1.406902183662560368e+00 1.406926518614451727e+00 1.406735506291595383e+00 1.406705187098856058e+00 1.406464638060251460e+00 1.406347143357678409e+00 1.406584946683489656e+00 1.406916592826913392e+00 1.406568548988291090e+00 1.406907539006300834e+00 1.406490858283568679e+00 1.407290606624779228e+00 1.406586853770996237e+00 1.406762884888049792e+00 1.406992820109614017e+00 1.407231240478519885e+00 1.406691528162684612e+00 1.406729544128084042e+00 1.407062629989396019e+00 1.406920852314502257e+00 1.406961649830885230e+00 1.406860778173616655e+00 1.407181887915809115e+00 1.407228191233571346e+00 1.407090219490862548e+00 1.407188740179144748e+00 1.406651887884958319e+00 1.406035041237711836e+00 1.407057208536017567e+00 1.406676941405057946e+00 1.407002933825724833e+00 1.407209462292058566e+00 1.406703822687652483e+00 1.406397284039473616e+00 1.406533455190447368e+00 1.407163944934805455e+00 1.406856358813345143e+00 1.406953142010262114e+00 1.406564420937769677e+00 1.406800122416183685e+00 1.406668291501742329e+00 1.406680363080987206e+00 1.406513180998110624e+00 1.406780428161937602e+00 1.406807851386201014e+00 1.406662335668608321e+00 1.406724056118136446e+00 1.406564274889371191e+00 1.406678359156723346e+00 1.407071048099525212e+00 1.406702311175901832e+00 1.406561160718526660e+00 1.406475864954969124e+00 1.406355547781757087e+00 1.406938563299772627e+00 1.406924359266294555e+00 1.406523343874676035e+00 1.406942881606675133e+00 1.406657689106743492e+00 1.407395530496859948e+00 1.407085421630490440e+00 1.406867111199640474e+00 1.406244625714687224e+00 1.406846805121349853e+00
1.000000000000000000e+00 2.399999990209441755e-02 1.693467211290173278e-04 2.400000000000000050e-02 2.399397081489870742e-02 2.399317984387893538e-02 2.400967035352055690e-02 2.399644543609237221e-02 2.401686443528425197e-02 2.399553142609348738e-02 2.401939377430553635e-02 2.398737810655041103e-02 2.401018676390964321e-02 2.400543201265499527e-02 2.400694648353140018e-02 2.400948086859464731e-02 2.400797046044158417e-02 2.402600012110177666e-02 2.399900099548258128e-02 2.399232241701737545e-02 2.400711959388451139e-02 2.398784988272678609e-02 2.399656814542218061e-02 2.399238957031285535e-02 2.398887908445984651e-02 2.400130131411892451e-02 2.399300040502006306e-02 2.400378274882204038e-02 2.401537780114752774e-02 2.400605134639559324e-02 2.400521249764671350e-02 2.400124564613986475e-02 2.401418259549433637e-02 2.398832315542464427e-02 2.397481624387144336e-02 2.397312648072342026e-02 2.400081059053602028e-02 2.399665884183519587e-02 2.397669655400441746e-02 2.399384022765589652e-02 2.398974466487448221e-02 2.398806236382888812e-02 2.399779693196915989e-02 2.398708982879581286e-02 2.398344169749156915e-02 2.401252310303541443e-02 2.401679592479138287e-02 2.401334665414313341e-02 2.398534436413809687e-02 2.399840590033149729e-02 2.398227276968525196e-02 2.401186425351439779e-02 2.400904981095338189e-02 2.399826727671407894e-02 2.399138542664846357e-02 2.399696033092426142e-02 2.399015257781369342e-02 2.398960291479816306e-02 2.398211248300742560e-02 2.398425342643231706e-02 2.400594944464997521e-02 2.400811458873356591e-02 2.399295093124436534e-02 2.399487176694694440e-02 2.400015270872045414e-02 2.399438982958168251e-02 2.400289621552093022e-02 2.400472045845854566e-02 2.398966638678962787e-02 2.395911613994873915e-02 2.400075659489650862e-02 2.400015546135555664e-02 2.400006484600367834e-02 2.400267131248150221e-02 2.399461431841969430e-02 2.399160919462037939e-02 2.398666271355672994e-02 2.401206180293579892e-02 2.400654992057439652e-02 2.400855177383025632e-02 2.398565430269196386e-02 2.399374629278551441e-02 2.398773646437220991e-02 2.398330394713052427e-02 2.397477246063998632e-02 2.400119722250083215e-02 2.401181223499620696e-02 2.400196789216731824e-02 2.401393932369729964e-02 2.402130605012603448e-02 2.400551180672613402e-02 2.401115380903875648e-02 2.399602692273953772e-02 2.397922372269197314e-02 2.399796674243416875e-02 2.399299437454451706e-02 2.400556329125465987e-02 2.402138129302725314e-02 2.399624495755955933e-02 2.401238209380823774e-02 2.401267694350410833e-02 2.401189534339185847e-02 2.402021958366399451e-02 2.400954395111027512e-02 2.400530227046157594e-02 2.399072667680545931e-02 2.400834928551310102e-02 2.400152265083803013e-02 2.399420727436759465e-02 2.400410005459261906e-02 2.399525878594732306e-02 2.400695330630857327e-02 2.400692999529085644e-02 2.401040819162982010e-02 2.400115977813182047e-02 2.400596308648268035e-02 2.399385068416134623e-02 2.398013408846537409e-02 2.401107000943913591e-02 2.401640660541513525e-02 2.400025853404872192e-02 2.400378300333668238e-02 2.398857984896340598e-02 2.399347107110652924e-02 2.398978528977721222e-02 2.400000267959067485e-02 2.401470217810348917e-02 2.401984217789263770e-02 2.402833531353633714e-02 2.401503651472147727e-02 2.400737151739367609e-02 2.400209746465629262e-02 2.397535374693019611e-02 2.400598716530149418e-02 2.399571065300838690e-02 2.397887612433692237e-02 2.399739569052854876e-02 2.402048419090199727e-02 2.399676909073579500e-02 2.399521124326983029e-02 2.400369651601477056e-02 2.399586917895242186e-02 2.398791687188384786e-02 2.400724048425943030e-02 2.400770484085064382e-02 2.401538144710239561e-02 2.401282967554341924e-02 2.399240081648995951e-02 2.400323395787326911e-02 2.398657054168167047e-02 2.399542663171283854e-02 2.398052859431095557e-02 2.401024257205980339e-02 2.400267274390962408e-02 2.398290634143362271e-02 2.400616496668150912e-02 2.399940122740439746e-02 2.400366822263631100e-02 2.400626810395038030e-02 2.401912694789981595e-02 2.399682294332679267e-02 2.399917736291715467e-02 2.397853110134537391e-02 2.399254322649172280e-02 2.399643083314002140e-02 2.399049777198740407e-02 2.399919908685590672e-02 2.399467954555875929e-02 2.398716266672756836e-02 2.401147915593577348e-02 2.399017463722556698e-02 2.398945684937971168e-02 2.401373847355307845e-02 2.399538923732508211e-02 2.400677278963611605e-02 2.400146882341578150e-02 2.400135042397546353e-02 2.399415469235375090e-02 2.399041722360228251e-02 2.399755470826326828e-02 2.401193581667128082e-02 2.401091153992883018e-02 2.400496426078469608e-02 2.401976930625473322e-02 2.401076154402288429e-02 2.400489891599481146e-02 2.400718722059303964e-02 2.401609558963001961e-02 2.400260743111807399e-02 2.400411047891058344e-02 2.400261517845759043e-02 2.399728866039053596e-02 2.399425874180805690e-02 2.400564482895113996e-02 2.401008369160682887e-02 2.400063128577052673e-02 2.400342141243968358e-02 2.400656722517270636e-02 2.399574716848364153e-02 2.398264186824302160e-02 2.400264690785528648e-02 2.401609793571236190e-02 2.401013950334309963e-02 2.400252336992878682e-02 2.399298985968747328e-02 2.400017735983435083e-02 2.399340723348493409e-02 2.398559066891391839e-02 2.401418729292938148e-02 2.401609461788860658e-02 2.400592216025471820e-02 2.399329078316748964e-02 2.399457132774878224e-02 2.399093152082842559e-02 2.400735757811353274e-02 2.402034078872809439e-02 2.401964159741180535e-02 2.399555611975451655e-02 2.396842605485212385e-02 2.399207851001704944e-02 2.398920836657453259e-02 2.400284324937020444e-02 2.399333192518798147e-02 2.398905851355144156e-02 2.399963692568855833e-02 2.400001994506560654e-02 2.401244630854619186e-02 2.399559045893048803e-02 2.399585316831337814e-02
2.000000000000000000e+00 1.119999995431072704e-01 7.902846986020692441e-04 1.120000000000000023e-01 1.119718638028606161e-01 1.119681726047683512e-01 1.120451283164292516e-01 1.119834120350977347e-01 1.120787006979931805e-01 1.119791466551029319e-01 1.120905042800925122e-01 1.119410978305685894e-01 1.120475382315783280e-01 1.120253493923899779e-01 1.120324169231465272e-01 1.120442440534416828e-01 1.120371954820607308e-01 1.121213338984749508e-01 1.119953379789187103e-01 1.119641712794144373e-01 1.120332247714610485e-01 1.119432994527250064e-01 1.119839846786368498e-01 1.119644846614600009e-01 1.119481023941459596e-01 1.120060727992216454e-01 1.119673352234269587e-01 1.120176528278361977e-01 1.120717630720217961e-01 1.120282396165127592e-01 1.120243249890180148e-01 1.120058130153193665e-01 1.120661854456402456e-01 1.119455080586483353e-01 1.118824758047334000e-01 1.118745902433759681e-01 1.120037827558347521e-01 1.119844079285642335e-01 1.118912505853539574e-01 1.119712543957275264e-01 1.119521417694142457e-01 1.119442910312014872e-01 1.119897190158560818e-01 1.119397525343804600e-01 1.119227279216273296e-01 1.120584411474986053e-01 1.120783809823597821e-01 1.120622843860012985e-01 1.119316070326444590e-01 1.119925608682136586e-01 1.119172729251978471e-01 1.120553665164005230e-01 1.120422324511157891e-01 1.119919139579990397e-01 1.119597986576928716e-01 1.119858148776465556e-01 1.119540453631305554e-01 1.119514802690580874e-01 1.119165249207013241e-01 1.119265159900174750e-01 1.120277640750332177e-01 1.120378680807566363e-01 1.119671043458070475e-01 1.119760682457524165e-01 1.120007126406954712e-01 1.119738192047145114e-01 1.120135156724310077e-01 1.120220288061398728e-01 1.119517764716849301e-01 1.118092086530941137e-01 1.120035307761837184e-01 1.120007254863259194e-01 1.120003026146838276e-01 1.120124661249136816e-01 1.119748668192918906e-01 1.119608429082284418e-01 1.119377593299313994e-01 1.120562884137003973e-01 1.120305662960138504e-01 1.120399082778745226e-01 1.119330534125625026e-01 1.119708160329990626e-01 1.119427701670703268e-01 1.119220850866091133e-01 1.118822714829866005e-01 1.120055870383372121e-01 1.120551237633156394e-01 1.120091834967808231e-01 1.120650501772540719e-01 1.120994282339214942e-01 1.120257217647219472e-01 1.120520511088475279e-01 1.119814589727845117e-01 1.119030440392292103e-01 1.119905114646927852e-01 1.119673070812077509e-01 1.120259620258550748e-01 1.120997793674605170e-01 1.119824764686112584e-01 1.120577831044384243e-01 1.120591590696858320e-01 1.120555116024953279e-01 1.120943580570986642e-01 1.120445384385146126e-01 1.120247439288206692e-01 1.119567244917588217e-01 1.120389633323944645e-01 1.120071057039108142e-01 1.119729672803821130e-01 1.120191335880988820e-01 1.119778743344208294e-01 1.120324487627733373e-01 1.120323399780240037e-01 1.120485715609391558e-01 1.120054122979484978e-01 1.120278277369191750e-01 1.119713031927529467e-01 1.119072924128384217e-01 1.120516600440493032e-01 1.120765641586039668e-01 1.120012064922273620e-01 1.120176540155712053e-01 1.119467059618292210e-01 1.119695316651638101e-01 1.119523313522936547e-01 1.120000125047564687e-01 1.120686101644829541e-01 1.120925968301656334e-01 1.121322314631695710e-01 1.120701704020335698e-01 1.120344004145038125e-01 1.120097881683960322e-01 1.118849841523409105e-01 1.120279401047403062e-01 1.119799830473724722e-01 1.119014219135723021e-01 1.119878465557998942e-01 1.120955928908759780e-01 1.119849224234337193e-01 1.119776524685925367e-01 1.120172504080689246e-01 1.119807228351113043e-01 1.119436120687912900e-01 1.120337889265440173e-01 1.120359559239696712e-01 1.120717800864778346e-01 1.120598718192026277e-01 1.119645371436198134e-01 1.120150918034085868e-01 1.119373291945144622e-01 1.119786576146599155e-01 1.119091334401177973e-01 1.120477986696123973e-01 1.120124728049115836e-01 1.119202295933569014e-01 1.120287698445137092e-01 1.119972057278871835e-01 1.120171183723027986e-01 1.120292511517684414e-01 1.120892590901991365e-01 1.119851737355250371e-01 1.119961610269467334e-01 1.118998118062784208e-01 1.119652017236280467e-01 1.119833438879867665e-01 1.119556562692745477e-01 1.119962624053275901e-01 1.119751712126075410e-01 1.119400924447286616e-01 1.120535693943669475e-01 1.119541483070526366e-01 1.119507986304386499e-01 1.120641128765810235e-01 1.119784831075170406e-01 1.120316063516352129e-01 1.120068545092736401e-01 1.120063019785521863e-01 1.119727218976508260e-01 1.119552803768106564e-01 1.119885886385619256e-01 1.120557004777993082e-01 1.120509205196678765e-01 1.120231665503285678e-01 1.120922567625220745e-01 1.120502205387734485e-01 1.120228616079757822e-01 1.120335403627674975e-01 1.120751127516067674e-01 1.120121680118843221e-01 1.120191822349160538e-01 1.120122041661354151e-01 1.119873470818224942e-01 1.119732074617709322e-01 1.120263425351053083e-01 1.120470572274985255e-01 1.120029460002624627e-01 1.120159665913851854e-01 1.120306470508059538e-01 1.119801534529236697e-01 1.119189953851340985e-01 1.120123522366579943e-01 1.120751236999910222e-01 1.120473176822678052e-01 1.120117757263343339e-01 1.119672860118748614e-01 1.120008276792269497e-01 1.119692337562630258e-01 1.119327564549316145e-01 1.120662073670037895e-01 1.120751082168134904e-01 1.120276367478553470e-01 1.119686903214482943e-01 1.119746661961609768e-01 1.119576804305326551e-01 1.120343353645298079e-01 1.120949236807311095e-01 1.120916607879217652e-01 1.119792618921877370e-01 1.118526549226432354e-01 1.119630330467462354e-01 1.119496390440144762e-01 1.120132684970609471e-01 1.119688823175438858e-01 1.119489397299067296e-01 1.119983056532132676e-01 1.120000930769728259e-01 1.120580827732155504e-01 1.119794221416756108e-01 1.119806481187957670e-01
3.000000000000000000e+00 4.940088324671291775e-01 3.571168235885625267e-03 4.939999999999999947e-01 4.938758992733317532e-01 4.938596184531747757e-01 4.941990481099647892e-01 4.939268352262346506e-01 4.943471262929342025e-01 4.939080218537575950e-01 4.943991885211222459e-01 4.937401993598293237e-01 4.942096775571401257e-01 4.941118089271486213e-01 4.941429817860213403e-01 4.941951478785731600e-01 4.941640586440892990e-01 4.945351691593449228e-01 4.939794371570164766e-01 4.938419697502742789e-01 4.941465449741228033e-01 4.937499100861263424e-01 4.939293609932732254e-01 4.938433519889396384e-01 4.937710944884652342e-01 4.940267853822811750e-01 4.938559250033295878e-01 4.940778615799203410e-01 4.943165264069532827e-01 4.941245568799758625e-01 4.941072905765615531e-01 4.940256395497121811e-01 4.942919250905917772e-01 4.937596516158239135e-01 4.934816343530205596e-01 4.934468533948904168e-01 4.940166846551997115e-01 4.939312278277744328e-01 4.935203374032576251e-01 4.938732113525838852e-01 4.937889110186663988e-01 4.937542836554779657e-01 4.939546535163652496e-01 4.937342656427137766e-01 4.936591749400348061e-01 4.942577672041456038e-01 4.943457161186226578e-01 4.942747186311128305e-01 4.936983381618424982e-01 4.939671881151566635e-01 4.936351145093548221e-01 4.942442058848380282e-01 4.941862752754571098e-01 4.939643347790314554e-01 4.938226833651809811e-01 4.939374334781910791e-01 4.937973072266651497e-01 4.937859933295954962e-01 4.936318152752361965e-01 4.936758830273985099e-01 4.941224594023786998e-01 4.941670252847658595e-01 4.938549066681132138e-01 4.938944438696579731e-01 4.940031432544960688e-01 4.938845239922229347e-01 4.940596137694724943e-01 4.940971627699383695e-01 4.937872997947531650e-01 4.951550668922738985e-01 4.940155732449531545e-01 4.940031999129018692e-01 4.940013347469089933e-01 4.940549845152442665e-01 4.938891447208053620e-01 4.938272892559361638e-01 4.937254741873760011e-01 4.942482721104284882e-01 4.941348191984896721e-01 4.941760240113394209e-01 4.937047177304096368e-01 4.938712778598352005e-01 4.937475755583280446e-01 4.936563395784366315e-01 4.934807331481730897e-01 4.940246428298087911e-01 4.942431351703385767e-01 4.940405057804440059e-01 4.942869177461027830e-01 4.944385495317608625e-01 4.941134513551129204e-01 4.942295825693810429e-01 4.939182208263888096e-01 4.935723549587430758e-01 4.939581487817699679e-01 4.938558008760413065e-01 4.941145110783250471e-01 4.944400982814776135e-01 4.939227087097676216e-01 4.942548647642195370e-01 4.942609337537928749e-01 4.942448458181490922e-01 4.944161864304172371e-01 4.941964463270198116e-01 4.941091384003341025e-01 4.938091240975790996e-01 4.941718561268113041e-01 4.940313412297494544e-01 4.938807663973996398e-01 4.940843927903647570e-01 4.939024100107490822e-01 4.941431222215181274e-01 4.941426424030701536e-01 4.942142352777137981e-01 4.940238720998799682e-01 4.941227401967684951e-01 4.938734265823210290e-01 4.935910933209122775e-01 4.942278576942888968e-01 4.943377026281282061e-01 4.940053214925028691e-01 4.940778668186800449e-01 4.937649352244967704e-01 4.938656128802760836e-01 4.937897472145809652e-01 4.940000551549080243e-01 4.943026198326301301e-01 4.944084181616233975e-01 4.945832352036229618e-01 4.943095015946837867e-01 4.941517303996864618e-01 4.940431728141753132e-01 4.934926979576465533e-01 4.941232358191224305e-01 4.939117109410893214e-01 4.935652002259349747e-01 4.939463946300459152e-01 4.944216329293994461e-01 4.939334971176451150e-01 4.939014314239706382e-01 4.940760866213040337e-01 4.939149739334373623e-01 4.937512889462759014e-01 4.941490333010066238e-01 4.941585913075090541e-01 4.943166014528576069e-01 4.942640774882687271e-01 4.938435834727517015e-01 4.940665656328914190e-01 4.937235769829476650e-01 4.939058648360892811e-01 4.935992135662338187e-01 4.942108262748975966e-01 4.940550139788064676e-01 4.936481555278420807e-01 4.941268955641943683e-01 4.939876752640738333e-01 4.940755042492641635e-01 4.941290184729786317e-01 4.943936963442712162e-01 4.939346055834765159e-01 4.939830673867114386e-01 4.935580985026923329e-01 4.938465147452879567e-01 4.939265346487987651e-01 4.938044124734073947e-01 4.939835145377841075e-01 4.938904873127510919e-01 4.937357648901424256e-01 4.942362792930113380e-01 4.937977612828928775e-01 4.937829868163990388e-01 4.942827835806341552e-01 4.939050951349412411e-01 4.941394065866767105e-01 4.940302332819748177e-01 4.940277962268282974e-01 4.938796840842813451e-01 4.938027545191470136e-01 4.939496677450856410e-01 4.942456788931505196e-01 4.942245958635350656e-01 4.941021810344849441e-01 4.944069182204099411e-01 4.942215084478043252e-01 4.941008360208932193e-01 4.941479369572067126e-01 4.943313008865512503e-01 4.940536696238470027e-01 4.940846073575761999e-01 4.940538290899186835e-01 4.939441915930385396e-01 4.938818257688824542e-01 4.941161893959109541e-01 4.942075559855738653e-01 4.940129939654433477e-01 4.940704240727168406e-01 4.941351753848048367e-01 4.939124625512883449e-01 4.936427117880021753e-01 4.940544821866879599e-01 4.943313491767460932e-01 4.942087047771455133e-01 4.940519393643675317e-01 4.938557079452338683e-01 4.940036506565903540e-01 4.938642988892315566e-01 4.937034079351447780e-01 4.942920217794631865e-01 4.943312808848737694e-01 4.941218977985762373e-01 4.938619019535308019e-01 4.938882598294957460e-01 4.938133404703851093e-01 4.941514434828369051e-01 4.944186812346532678e-01 4.944042895467263277e-01 4.939085301316137877e-01 4.933501029623728606e-01 4.938369493311842717e-01 4.937778722119924302e-01 4.940585235495366656e-01 4.938627487934525440e-01 4.937747877372671845e-01 4.939925267204228199e-01 4.940004105359336872e-01 4.942561865175757463e-01 4.939092369463192189e-01 4.939146443811170406e-01
4.000000000000000000e+00 1.823937594954132324e+00 9.269719147288715128e-03 1.824000000000000066e+00 1.823541781932301653e+00 1.823481668134799172e+00 1.824734946867561991e+00 1.823729853143019941e+00 1.823280291711996126e+00 1.823660388383104847e+00 1.823472310699361998e+00 1.825039684273377372e+00 1.824774194057132704e+00 1.824412832961779252e+00 1.824527932748386760e+00 1.822719755940810149e+00 1.824605754993560147e+00 1.823973842526976252e+00 1.823924075656676136e+00 1.823416503693320534e+00 1.824541089135222727e+00 1.825075578577463054e+00 1.823739179052085824e+00 1.823421607343777229e+00 1.823154810418948557e+00 1.824098899873038082e+00 1.823468030781524751e+00 1.824287488910475208e+00 1.823167431403783123e+00 1.824459902326064809e+00 1.824396149821150503e+00 1.824094669106629762e+00 1.823076695374611589e+00 1.825111586741891667e+00 1.824083935887885755e+00 1.823955373075040187e+00 1.824061604880737431e+00 1.823746071979474692e+00 1.824226996150502877e+00 1.823531857301848191e+00 1.825219739919200057e+00 1.825091744847981312e+00 1.823832566829656221e+00 1.825017751140881384e+00 1.824740189150816594e+00 1.822950712238772031e+00 1.823275090623745820e+00 1.823013233493699925e+00 1.824884950371507220e+00 1.823878848425193766e+00 1.824651253226886372e+00 1.822900694579301373e+00 1.824687785632457038e+00 1.823868313030270194e+00 1.823345292425283315e+00 1.823768985150243882e+00 1.823251595913840450e+00 1.823209821524660379e+00 1.824639058082148324e+00 1.824801948194392009e+00 1.824452157793398088e+00 1.824616708743751037e+00 1.823464270774572071e+00 1.823610254287967969e+00 1.824011605862754681e+00 1.823573627048207690e+00 1.824220112379590697e+00 1.824358754842849262e+00 1.823214645396011857e+00 1.822889419647766518e+00 1.824057501212134724e+00 1.824011815063022235e+00 1.824004928296279360e+00 1.824203019748594112e+00 1.823590688199896892e+00 1.823362298791148861e+00 1.822986366230311406e+00 1.822915691872875943e+00 1.824497793963654191e+00 1.824649934811099383e+00 1.824908531529813693e+00 1.823524718251699150e+00 1.825066949330985455e+00 1.824729708644180715e+00 1.824080604713692377e+00 1.824090988910063160e+00 1.824897729859711770e+00 1.824149559804716159e+00 1.823058226990686759e+00 1.823617484305401382e+00 1.824418897311186338e+00 1.822846760002858835e+00 1.823698046128204853e+00 1.824419271568147316e+00 1.823845472424996839e+00 1.823467572465383268e+00 1.824422810135354123e+00 1.823623196495652410e+00 1.823714616774526398e+00 1.822940007288275321e+00 1.822962391294353779e+00 1.824904046097781229e+00 1.823535003393158327e+00 1.824725340284380826e+00 1.824402972555079661e+00 1.823295227437214949e+00 1.824634545698995636e+00 1.824115721463690054e+00 1.823559752851937166e+00 1.824311604149039034e+00 1.823639667731996594e+00 1.824528451279451513e+00 1.824526679642104909e+00 1.824791022563866161e+00 1.824088143138018037e+00 1.824453194572683623e+00 1.823532651996262244e+00 1.824488535230740505e+00 1.822840398216587721e+00 1.823245534794432521e+00 1.824019648587702935e+00 1.824287508253587875e+00 1.823132068521218674e+00 1.823503801404096292e+00 1.823223682023068060e+00 1.824000203648891150e+00 1.823116140354356540e+00 1.823506352005015874e+00 1.824151122552633897e+00 1.823141522075939047e+00 1.824560235321919244e+00 1.824159407313878045e+00 1.824124830912272399e+00 1.824455024562913641e+00 1.823674009628637460e+00 1.824392825126634143e+00 1.823802072480169567e+00 1.823555091492643276e+00 1.823754450895920698e+00 1.823636054488507074e+00 1.824280935217122535e+00 1.823686057600384158e+00 1.825080675335829516e+00 1.824550276803716731e+00 1.824585567904648764e+00 1.823167708192523495e+00 1.822973986201671170e+00 1.823422462053237103e+00 1.824245780798368299e+00 1.822979361167806900e+00 1.823652424010175466e+00 1.824518550550491947e+00 1.824778435476545280e+00 1.824203128537131402e+00 1.824699457477408249e+00 1.824468537467794693e+00 1.823954493282733846e+00 1.824278784920359886e+00 1.824476375900228708e+00 1.823452054128060995e+00 1.823758543692836298e+00 1.823937479581704046e+00 1.824366574627360738e+00 1.823433285213371224e+00 1.823728743318641543e+00 1.823277830671042654e+00 1.823939130601049063e+00 1.823595645462465553e+00 1.823024362671294973e+00 1.824872415851118701e+00 1.823253272429143035e+00 1.825197841956972988e+00 1.823042979117237783e+00 1.823649582036706018e+00 1.824514732012344709e+00 1.824111630579599463e+00 1.824102632222134979e+00 1.823555756618885137e+00 1.825270910429073856e+00 1.823814157828008486e+00 1.822906127415627964e+00 1.824829277034591080e+00 1.824377283819636819e+00 1.823500819833172137e+00 1.822816980550403976e+00 1.824372317615605699e+00 1.822545629830021552e+00 1.823221923512745812e+00 1.824198164764973429e+00 1.824312396397204328e+00 1.824198753562776831e+00 1.823793938189680608e+00 1.823563664377412241e+00 1.824429007000286429e+00 1.824766360562118939e+00 1.824047977718560087e+00 1.824260027345415924e+00 1.824499109113125517e+00 1.823676784804756812e+00 1.824679335475489772e+00 1.824201164997001801e+00 1.823222101619496716e+00 1.824770602254075724e+00 1.824191776114587826e+00 1.823467229336248163e+00 1.824013479347410538e+00 1.823498949744854603e+00 1.824903690059867190e+00 1.823077051988222674e+00 1.823221849741376577e+00 1.824450084179358500e+00 1.823490099520729268e+00 1.823587420908907353e+00 1.823310795582960386e+00 1.824559175936628641e+00 1.823544204877607822e+00 1.823491124603513036e+00 1.823662265101343216e+00 1.823597749006665936e+00 1.823397966761295841e+00 1.823179835859664477e+00 1.824216086952135329e+00 1.823493226314286453e+00 1.825167535239372363e+00 1.823972406352330378e+00 1.824001515824986042e+00 1.822944882257131693e+00 1.823664874878716979e+00 1.823684840791816697e+00
5.000000000000000000e+00 4.961879644578988113e+00 1.803504627152632822e-02 4.961999999999999744e+00 4.962752963548216378e+00 4.960589932721969575e+00 4.961998539727581203e+00 4.961265093912097690e+00 4.963485316625411592e+00 4.963075749963669736e+00 4.962006430541952007e+00 4.959390423529297820e+00 4.962105264541325944e+00 4.961122615948698744e+00 4.963436185470117223e+00 4.961959379509560897e+00 4.961647228491260719e+00 4.961369025007516420e+00 4.961793455816024156e+00 4.962412019919760553e+00 4.963471976035622291e+00 4.961486950743990043e+00 4.963290178078154646e+00 4.962425909459708961e+00 4.961699823969111911e+00 4.964269155136930678e+00 4.960552833737898126e+00 4.960781768089888466e+00 4.963178078903822232e+00 4.963251115867287844e+00 4.963077683888458935e+00 4.960257433535572247e+00 4.962931069735496692e+00 4.961584839313664119e+00 4.960789061127733213e+00 4.958441660429627973e+00 4.962167589593321715e+00 4.963308937119579767e+00 4.959180070586580946e+00 4.960726467067856582e+00 4.961878854851538456e+00 4.961530898918608656e+00 4.961544515684623846e+00 4.961329746255933593e+00 4.960575191097839287e+00 4.962588107960652195e+00 4.961469758129819496e+00 4.960757196301735839e+00 4.960968725982563221e+00 4.961670419893537520e+00 4.960333417863233230e+00 4.962451945726308544e+00 4.963871048414612019e+00 4.961641759460635903e+00 4.960218936959570613e+00 4.961371548418590294e+00 4.961963224844464726e+00 4.961849536210753087e+00 4.960300265235369821e+00 4.960743083700417166e+00 4.961229551894328793e+00 4.961677015004936742e+00 4.962542017612376455e+00 4.960939737816280726e+00 4.962031572527954459e+00 4.962839629751811366e+00 4.962598792558952532e+00 4.960975561414765700e+00 4.961862664334321771e+00 4.957540447957726748e+00 4.964156489044428078e+00 4.964032154590373835e+00 4.964013412315093632e+00 4.960552071246177697e+00 4.962886061526472936e+00 4.962264501753981705e+00 4.959242516027853931e+00 4.962492772606731606e+00 4.961353650252042335e+00 4.961767366591586459e+00 4.961032831606788207e+00 4.960707046033404843e+00 4.961463492047652579e+00 4.960546699731496645e+00 4.960780001647424164e+00 4.962247525752046862e+00 4.960440210879633050e+00 4.964407025696607079e+00 4.960879631953800661e+00 4.962401474855202999e+00 4.963139566040628559e+00 4.962305120534676206e+00 4.961178566276399415e+00 4.959702773310122659e+00 4.961579623998264132e+00 4.962551003134957561e+00 4.961149746859295995e+00 4.961065816086721370e+00 4.961223644975438773e+00 4.962558966053702392e+00 4.962619901657515875e+00 4.962458370967651078e+00 4.962177028991920480e+00 4.961972416562789867e+00 4.961095802562058843e+00 4.962081967652595793e+00 4.959724823232248170e+00 4.962314808060762417e+00 4.962801871248363916e+00 4.962847686287023663e+00 4.961019753994609260e+00 4.963437596079296910e+00 4.961432199026777567e+00 4.960150158920860086e+00 4.962239784128753328e+00 4.961232371206421021e+00 4.962728116507372000e+00 4.959891067297587774e+00 4.962287801950754584e+00 4.963390698452461613e+00 4.962053451914573365e+00 4.960781820689581068e+00 4.959638883773184403e+00 4.962649599873867778e+00 4.961887257435586562e+00 4.960000553782072608e+00 4.963038450141388225e+00 4.960097409734829377e+00 4.961851242245253424e+00 4.963107546375772117e+00 4.963524061221142425e+00 4.962433650817688502e+00 4.960900279468972940e+00 4.961237347495641714e+00 4.963112820063901864e+00 4.960430174254311098e+00 4.961461559016776768e+00 4.962231692437170771e+00 4.963331740267187264e+00 4.963009525482976692e+00 4.964764562729055086e+00 4.961145952748413634e+00 4.961500806334642633e+00 4.961496366746949604e+00 4.961592333775799446e+00 4.963178832401161422e+00 4.962101172265295901e+00 4.962428235544006583e+00 4.962668620790298135e+00 4.961222340371158168e+00 4.961054456106629651e+00 4.961971041639508861e+00 4.962116798225692627e+00 4.960552367074655855e+00 4.960464461619854326e+00 4.961274093114178108e+00 4.959876253663574985e+00 4.962758405030058384e+00 4.961295408149744901e+00 4.963952902565962333e+00 4.961343143532814359e+00 4.961929916355559911e+00 4.959559516128268619e+00 4.962457690679371147e+00 4.963261777321127610e+00 4.962034622506060977e+00 4.963834344464697068e+00 4.962899552673070147e+00 4.961344811568151769e+00 4.962372358893393454e+00 4.959968606246385470e+00 4.961819325013370197e+00 4.962839284534302564e+00 4.961046724816960740e+00 4.961399709858130613e+00 4.960303556839261496e+00 4.963379262051452301e+00 4.960791482644137496e+00 4.962017962415072425e+00 4.963494232159119335e+00 4.962466735445397958e+00 4.962255051585291454e+00 4.961025947228836941e+00 4.964085656625978338e+00 4.962224052431396082e+00 4.963012850881927562e+00 4.963485957857610487e+00 4.963326421856870674e+00 4.962539086383661591e+00 4.962849841514763050e+00 4.962540688146106937e+00 4.961439430535743433e+00 4.960812994868815551e+00 4.963167068385647696e+00 4.962083962932077874e+00 4.962130518333056628e+00 4.962707377021904342e+00 4.961357226535692000e+00 4.961120727083993209e+00 4.960409759748264591e+00 4.964547468774735073e+00 4.961325565219245171e+00 4.962095497357574381e+00 4.962521706732776927e+00 4.962550069312025691e+00 4.962036669145751588e+00 4.962636396125800431e+00 4.961019670020362149e+00 4.962932040538739820e+00 4.959323538593997327e+00 4.961223913119308548e+00 4.961512617824153537e+00 4.962877169622705864e+00 4.962124336224679411e+00 4.963521179274973605e+00 4.962202067938078720e+00 4.962057626665322019e+00 4.963080857435892668e+00 4.959466824516485239e+00 4.962361571821859663e+00 4.961767930486498557e+00 4.962587841807289735e+00 4.962620819859712817e+00 4.961736935886223776e+00 4.963924904129916271e+00 4.964004125304402493e+00 4.962572237099545980e+00 4.959088694845633860e+00 4.963142296979484058e+00
6.000000000000000000e+00 3.359482226626515303e-03 2.846153874904109042e-05 3.374413258744855988e-03 3.358480152606310026e-03 3.358429248113854564e-03 3.360797646604938432e-03 3.358873992626886136e-03 3.361657664609053655e-03 3.358970443244170285e-03 3.362249764231824405e-03 3.357553155006858577e-03 3.360955718449931597e-03 3.360141246570644627e-03 3.360411844135802271e-03 3.361041452331961759e-03 3.360291280864197410e-03 3.363211591220850553e-03 3.359171382030178531e-03 3.358573924039780570e-03 3.360288601680384239e-03 3.357563871742112564e-03 3.358908822016460835e-03 3.358437285665294945e-03 3.357909486454046816e-03 3.359203532235939624e-03 3.358378343621399101e-03 3.359739368998628135e-03 3.361555855624142729e-03 3.360151963305898614e-03 3.360093021262002769e-03 3.359508959190671967e-03 3.361679098079561195e-03 3.357593342764060487e-03 3.355846514917695290e-03 3.355878665123456818e-03 3.359543788580247100e-03 3.358930255486968375e-03 3.356210883916323912e-03 3.358707883230452589e-03 3.357676397462277043e-03 3.357866619513031736e-03 3.359262474279835469e-03 3.357628172153635186e-03 3.357218257030178312e-03 3.360955718449931597e-03 3.361882716049382613e-03 3.361204882544581701e-03 3.357395083161865412e-03 3.359404471021947870e-03 3.356650270061728274e-03 3.361036093964334549e-03 3.360717271090535047e-03 3.359053497942386841e-03 3.358196159122085224e-03 3.359171382030178531e-03 3.358005937071330532e-03 3.357871977880658512e-03 3.357017318244170066e-03 3.357220936213991917e-03 3.360243055555555552e-03 3.360679762517146743e-03 3.358164008916323696e-03 3.358750750171467670e-03 3.359283907750343010e-03 3.358528377914951884e-03 3.359851894718793048e-03 3.360058191872428070e-03 3.358105066872427852e-03 3.353681734396433273e-03 3.359455375514403333e-03 3.359364283264746395e-03 3.359503600823045191e-03 3.359876007373113760e-03 3.358466756687242868e-03 3.358295288923182544e-03 3.357630851337448357e-03 3.361282578875171480e-03 3.360285922496570633e-03 3.361178090706447383e-03 3.357156635802469296e-03 3.358407814643347023e-03 3.357593342764060487e-03 3.357025355795610448e-03 3.355597350823045187e-03 3.359817065329217915e-03 3.361245070301783176e-03 3.359567901234567812e-03 3.361464763374485791e-03 3.362391760973936806e-03 3.360422560871056258e-03 3.360701195987654284e-03 3.358860596707818977e-03 3.356508273319615872e-03 3.359294624485596563e-03 3.358496227709190790e-03 3.360151963305898614e-03 3.362772205075445758e-03 3.358469435871056039e-03 3.361614797668038574e-03 3.361124507030178316e-03 3.361028056412894167e-03 3.362573945473251117e-03 3.360577953532235818e-03 3.360127850651577468e-03 3.358030049725651677e-03 3.360602066186556963e-03 3.359634880829904038e-03 3.358442644032921722e-03 3.359959062071330750e-03 3.358565886488340188e-03 3.360556520061728277e-03 3.360460069444444562e-03 3.360794967421124827e-03 3.359503600823045191e-03 3.360323431069958938e-03 3.358482831790123632e-03 3.356663665980795432e-03 3.361025377229080995e-03 3.361510309499314043e-03 3.359632201646090433e-03 3.360023362482853371e-03 3.357845186042524195e-03 3.358501586076817567e-03 3.358048804012345612e-03 3.359490204903978032e-03 3.361427254801097487e-03 3.362105088305898399e-03 3.363444680212619893e-03 3.361545138888888742e-03 3.360259130658436316e-03 3.359728652263374582e-03 3.356103716563786209e-03 3.360218942901234407e-03 3.358970443244170285e-03 3.356226959019204242e-03 3.359056177126200447e-03 3.362303347908093473e-03 3.358865955075445754e-03 3.358911501200274440e-03 3.359918874314128841e-03 3.358691808127571825e-03 3.357561192558298959e-03 3.360360939643347242e-03 3.360575274348422646e-03 3.361320087448559785e-03 3.361228995198902413e-03 3.358367626886145547e-03 3.359825102880658297e-03 3.357456704389574862e-03 3.358852559156378596e-03 3.356690457818930183e-03 3.360977151920439138e-03 3.359857253086419825e-03 3.356891396604938429e-03 3.360272526577503475e-03 3.359626843278463657e-03 3.359988533093278672e-03 3.360138567386831455e-03 3.362316743827160632e-03 3.358903463648834058e-03 3.359050818758573236e-03 3.356248392489711782e-03 3.358528377914951884e-03 3.359179419581618479e-03 3.358099708504801075e-03 3.359125835905349845e-03 3.358761466906721657e-03 3.357515646433470707e-03 3.361304012345679021e-03 3.357829110939643431e-03 3.357625492969821580e-03 3.361979166666666761e-03 3.358823088134430673e-03 3.360224301268861617e-03 3.359725973079560977e-03 3.359425904492455411e-03 3.358533736282578661e-03 3.358099708504801075e-03 3.358973122427983456e-03 3.360998585390946678e-03 3.361070923353909681e-03 3.360253772290809540e-03 3.362150634430727085e-03 3.360971793552811927e-03 3.360141246570644627e-03 3.360342185356652873e-03 3.361523705418381202e-03 3.359610768175582893e-03 3.360138567386831455e-03 3.359790273491083598e-03 3.359139231824417003e-03 3.358951688957475916e-03 3.360004608196159002e-03 3.361089677640603617e-03 3.359308020404663721e-03 3.359972457990397909e-03 3.360248413923182329e-03 3.358640903635116796e-03 3.356843171296296138e-03 3.359752764917695294e-03 3.361657664609053655e-03 3.360931605795610452e-03 3.359843857167352666e-03 3.358514981995884725e-03 3.359340170610425249e-03 3.358539094650205871e-03 3.357387045610425030e-03 3.361183449074074160e-03 3.361574609910836665e-03 3.360537765775034342e-03 3.358579282407407347e-03 3.358461398319616091e-03 3.358228309327846318e-03 3.360591349451302976e-03 3.362271197702331946e-03 3.362257801783264787e-03 3.358890067729766900e-03 3.354766803840877887e-03 3.358150612997256538e-03 3.357906807270233211e-03 3.359873328189300588e-03 3.358330118312757243e-03 3.358196159122085224e-03 3.359179419581618479e-03 3.359281228566529404e-03 3.361078960905349629e-03 3.359013310185185366e-03 3.358868634259259359e-03
