# vvf statistics with RF=500
# gcat file: /disk2/salam/Abacus/AbacusCosmos_720box_products/GCAT_derivative/AbacusCosmos_720box_planck_rockstar_halos_z0.100_Mr21_hod-gammaHV-pos_real-0.gcat.rsd_zz.1pz0.100by100
# stats order in row: stdvvf,p2.5,p16,p50,p84,p97.5,rho
# columns: numbers, mean, sigma,All, jnrealizations
0.000000000000000000e+00 1.434363608763269626e+00 5.033788598736810976e-03 1.434363841552427132e+00 1.434764507311917736e+00 1.434268049045380522e+00 1.434211551251914685e+00 1.434306198240327124e+00 1.434728407756332924e+00 1.434603090696406680e+00 1.434423532948010616e+00 1.433374683805572536e+00 1.433330560865391456e+00 1.434259183523287629e+00 1.434977925462310289e+00 1.434621981972016513e+00 1.434446559313105052e+00 1.433986308636242990e+00 1.434691999404954288e+00 1.434434642102942581e+00 1.434633471440020402e+00 1.434208967714249550e+00 1.434732769505176142e+00 1.434677678480587693e+00 1.434545390059683623e+00 1.435121841977494483e+00 1.434309727523437550e+00 1.434587784562493473e+00 1.434353015792513730e+00 1.434682762503447950e+00 1.434717476964795013e+00 1.434287442778975352e+00 1.434809419940629382e+00 1.434320405330584691e+00 1.434257279953228048e+00 1.433910716063644841e+00 1.434586055959294892e+00 1.434416353030116609e+00 1.433749171806132816e+00 1.433592538475559452e+00 1.434409578591945067e+00 1.434171287574185216e+00 1.434305144664657083e+00 1.434683082889604000e+00 1.434309677706956609e+00 1.434199194616669448e+00 1.434551022839332113e+00 1.434203952733199783e+00 1.433650507806085495e+00 1.434425159469380873e+00 1.434147625858564812e+00 1.434714806098642104e+00 1.434452754031951827e+00 1.434226926469246211e+00 1.433691938276673516e+00 1.434124274705450564e+00 1.434314394529438097e+00 1.434573454064367537e+00 1.433685750463410846e+00 1.434248450860194479e+00 1.434093447804622778e+00 1.434373607456313371e+00 1.434418920851237900e+00 1.433608826897666777e+00 1.434700339811660674e+00 1.434556584727522122e+00 1.434730036762396299e+00 1.434380621798269750e+00 1.434413771967328222e+00 1.433633534226407047e+00 1.434749767018202338e+00 1.434916518794864260e+00 1.434930318027119345e+00 1.434098296305091669e+00 1.434582934437201862e+00 1.434862734243496751e+00 1.433926769819981573e+00 1.434437673970166527e+00 1.434477101982410963e+00 1.434505023737911333e+00 1.434333094510568118e+00 1.434122237077569917e+00 1.434524315369144487e+00 1.434147854147861167e+00 1.434136158209028844e+00 1.434395406010150920e+00 1.433659329968851370e+00 1.434580926052913652e+00 1.433908930127669956e+00 1.434883383846905058e+00 1.434241637655856438e+00 1.434627804451638733e+00 1.434109898091450175e+00 1.433847115027228725e+00 1.434716579699856442e+00 1.434296666932636910e+00 1.434539846630648041e+00 1.434666902664218258e+00 1.433940550191695751e+00 1.434191173006356568e+00 1.434882294618273546e+00 1.434435838109681116e+00 1.434379220204563321e+00 1.434358708294297013e+00 1.434298542127032450e+00 1.433883382457955991e+00 1.434154220002654023e+00 1.434269036644361783e+00 1.434339835957739728e+00 1.434387894285193088e+00 1.434235300480372288e+00 1.434455266440991306e+00 1.434216128834059356e+00 1.434365742671594779e+00 1.434793557194600000e+00 1.434425648621217908e+00 1.434416703319503661e+00 1.433949578764097010e+00 1.434766385889019391e+00 1.434608023305019131e+00 1.434562582147580034e+00 1.434259933558732936e+00 1.433842406367612066e+00 1.434468719383172441e+00 1.434411203329724716e+00 1.434330895720837606e+00 1.434542773080139444e+00 1.434009057741184368e+00 1.434338265649299560e+00 1.434439521920207961e+00 1.434909977880081566e+00 1.434668313858752819e+00 1.434301012074841841e+00 1.434388472270558212e+00 1.434619665281564149e+00 1.434101057926431499e+00 1.434318591551681843e+00 1.434233547897029837e+00 1.434480113036016968e+00 1.434474719354036143e+00 1.434637089094732643e+00 1.434122292473378302e+00 1.433702849862989348e+00 1.433627149720288152e+00 1.434249199472273473e+00 1.434940175070981594e+00 1.434678988717993597e+00 1.434646516405639893e+00 1.434613888846850260e+00 1.434186880052653823e+00 1.434283986126222876e+00 1.434548514576522660e+00 1.434086833181313914e+00 1.434016354793914427e+00 1.433904653959778841e+00 1.434169416028386657e+00 1.433358496557625372e+00 1.434839538142529847e+00 1.434482064836907655e+00 1.434744259755556861e+00 1.434664533341425408e+00 1.434896027709978927e+00 1.433764104651113369e+00 1.434629880979805039e+00 1.434649514660496950e+00 1.434453481681262410e+00 1.434471143023294148e+00 1.434393660830974859e+00 1.434336360611105032e+00 1.433806226922532012e+00 1.433954818588087043e+00 1.434116202120923500e+00 1.434480333101320282e+00 1.434255960963492171e+00 1.434456913087743812e+00 1.434229790846267338e+00 1.434887924498623679e+00 1.434168367573651848e+00 1.434297962271336324e+00 1.434652311803781277e+00 1.434878762636876637e+00 1.434702934992303947e+00 1.434054534835854211e+00 1.434828641348194322e+00 1.434716958964648681e+00 1.434408621644572834e+00 1.434448302573084089e+00 1.434769146998384981e+00 1.434875378662348933e+00 1.434660116392665996e+00 1.434550076106985816e+00 1.434339409609058924e+00 1.433655737348750847e+00 1.434565820788404000e+00 1.434479840415515239e+00 1.434658198642881910e+00 1.434811666878318182e+00 1.434150344251717391e+00 1.433849421831183024e+00 1.434163367141949141e+00 1.434769849187763180e+00 1.434387475942092705e+00 1.434597014408828475e+00 1.434330542193196223e+00 1.434510024499618730e+00 1.434285749853566161e+00 1.434226321739377141e+00 1.433957502362391612e+00 1.434553190495342578e+00 1.434527778226015959e+00 1.434101565259225275e+00 1.434159405527412501e+00 1.434296528160980300e+00 1.434191254790571746e+00 1.434609699003155825e+00 1.434401172398200197e+00 1.434055688710551779e+00 1.434170982371463010e+00 1.433633960785990924e+00 1.434397707171647163e+00 1.434597931797570558e+00 1.434301136983582303e+00 1.434404936692746269e+00 1.434286127768747532e+00 1.435053069634033784e+00 1.434861568923067709e+00 1.434478393668697782e+00 1.433791776936652385e+00 1.434294219434597784e+00
1.000000000000000000e+00 2.399999983744327894e-02 1.747931402138165418e-04 2.400000000000000050e-02 2.399549849622481870e-02 2.399538966035006521e-02 2.401034931447955031e-02 2.399687734387185439e-02 2.401617481626833542e-02 2.399463034973008113e-02 2.402452013250343590e-02 2.398659877115071754e-02 2.400499694905901607e-02 2.400540992696711950e-02 2.400445748935939663e-02 2.400669156915610086e-02 2.400537172755882673e-02 2.402819807092683099e-02 2.399745398500448268e-02 2.399391964153716958e-02 2.400394204167435874e-02 2.398840463773583773e-02 2.399700851187222539e-02 2.399298935259171900e-02 2.398913364582429958e-02 2.400256460567667255e-02 2.399096553496769813e-02 2.400257555975668020e-02 2.401731365101638857e-02 2.400639595584031991e-02 2.400578317206083362e-02 2.399959613854485765e-02 2.401750671646285529e-02 2.398743284141346618e-02 2.397511990836770357e-02 2.397337674005280139e-02 2.400241407511839731e-02 2.399704675777936461e-02 2.397952726957889441e-02 2.399123846767731855e-02 2.398753126678815004e-02 2.398552062395433934e-02 2.399912825160543939e-02 2.398816048367436587e-02 2.398670048720334680e-02 2.401270619837132456e-02 2.401718336258230196e-02 2.401314741822564713e-02 2.398706180347508557e-02 2.399643806925476353e-02 2.398588190339633747e-02 2.401040569967074698e-02 2.400667119379486583e-02 2.399474952783032730e-02 2.399305623352507300e-02 2.399814145884244035e-02 2.398946779489468870e-02 2.399166911590056017e-02 2.397966653408530741e-02 2.398216870559235006e-02 2.400668243066517854e-02 2.400563751049074671e-02 2.399288287832448963e-02 2.399448432401966522e-02 2.400013791339151992e-02 2.399221985781777033e-02 2.400154752722655563e-02 2.400394468786266541e-02 2.398898900100298812e-02 2.395929929518062287e-02 2.399805634178288002e-02 2.399860359453840838e-02 2.399841374502877100e-02 2.400336765940620787e-02 2.399481807347401616e-02 2.399342312281433839e-02 2.398587088745153875e-02 2.401275921212685238e-02 2.400782479899889535e-02 2.400886362036930288e-02 2.398615194777915099e-02 2.399230851159128361e-02 2.398879483231489140e-02 2.398140389789843799e-02 2.397183729139729796e-02 2.400361320686980257e-02 2.401421347910841567e-02 2.400316065949864922e-02 2.401306077981065282e-02 2.402281231112941493e-02 2.400797345245132830e-02 2.400989872970284850e-02 2.399341041879067896e-02 2.397916501352112886e-02 2.399869064232984517e-02 2.399281104955297214e-02 2.400643862524126301e-02 2.402222241306437717e-02 2.399079820100518193e-02 2.401391788612929068e-02 2.401404372342085328e-02 2.401268975374089287e-02 2.402145857265036016e-02 2.401283281671936359e-02 2.400673500237862287e-02 2.398811856447963936e-02 2.400638236719864968e-02 2.400276439415843094e-02 2.399027723630685338e-02 2.400106793790061574e-02 2.399768364537609514e-02 2.401110257476720550e-02 2.400822088027890211e-02 2.401117211001859916e-02 2.400237852409449479e-02 2.400408292382771522e-02 2.399296892318448018e-02 2.398009261599277908e-02 2.401249424609188873e-02 2.401679007495240853e-02 2.400011852994729175e-02 2.400480809218152184e-02 2.398598735565725740e-02 2.399335473115718140e-02 2.398991209448971332e-02 2.399832017807938117e-02 2.401286038352706473e-02 2.401961395958473328e-02 2.402873491407287940e-02 2.401785689216471772e-02 2.400738441008988533e-02 2.400060804961981140e-02 2.397589163108291774e-02 2.400637118613431834e-02 2.399701760591171906e-02 2.397724291247866138e-02 2.399625415084218755e-02 2.401973132702802521e-02 2.399619083204644968e-02 2.399614431018869468e-02 2.400506384987177028e-02 2.399750603236316254e-02 2.398891546649802725e-02 2.400892921230251761e-02 2.400810159196953980e-02 2.401710453470753265e-02 2.401590088487891642e-02 2.399349118659360736e-02 2.400571339169262075e-02 2.398955572019840013e-02 2.399272477529248992e-02 2.398087537013229506e-02 2.401012660144403316e-02 2.400317318759818269e-02 2.398293823899180083e-02 2.400568044477476015e-02 2.399781981824988114e-02 2.400164853075686597e-02 2.400998015329020019e-02 2.402074306885804839e-02 2.399714129163510110e-02 2.399867850294172197e-02 2.397864881033050580e-02 2.399400221523138171e-02 2.399841708638248555e-02 2.398973125330539774e-02 2.399713457153260232e-02 2.399144632509743816e-02 2.398787721052308627e-02 2.401002649796676533e-02 2.398920077885391064e-02 2.399182863919150158e-02 2.401380066623868756e-02 2.399628840598119414e-02 2.400801296217805123e-02 2.400185682856946154e-02 2.400350220125074818e-02 2.399313087000641553e-02 2.398931885356089810e-02 2.399570506766327341e-02 2.401137492861221689e-02 2.401155308032718039e-02 2.400782936218254920e-02 2.401837354261321736e-02 2.400758377585542752e-02 2.400499391537356392e-02 2.400754272055182631e-02 2.401590760864573057e-02 2.400503220613649583e-02 2.400432536666323100e-02 2.400379983505286294e-02 2.399606566534882163e-02 2.399389347710481277e-02 2.400426404322300589e-02 2.401320215382476975e-02 2.400236901007823248e-02 2.400014057616692287e-02 2.400804533649337352e-02 2.399667887850441550e-02 2.398287801246280770e-02 2.400372828175203685e-02 2.401346035423105110e-02 2.400845516742068295e-02 2.400111517649898552e-02 2.399519572510427912e-02 2.399898440871329336e-02 2.399556542115476726e-02 2.398142478265847741e-02 2.401420402812413923e-02 2.401655503499646252e-02 2.400755431750977234e-02 2.399456268056240210e-02 2.399212525142025917e-02 2.399126755767388292e-02 2.400472155352864623e-02 2.402352765457541062e-02 2.401966711576684899e-02 2.399514632779770062e-02 2.396538473266531660e-02 2.399307960369613871e-02 2.398833050990080429e-02 2.400072341899908701e-02 2.399438610747288425e-02 2.398781464088039703e-02 2.399955233977788330e-02 2.399910003617067994e-02 2.401432704751254796e-02 2.399414451950167282e-02 2.399766464617687431e-02
2.000000000000000000e+00 1.119999992414019846e-01 8.157013209978104199e-04 1.120000000000000023e-01 1.119789929823824803e-01 1.119784850816336608e-01 1.120482968009045566e-01 1.119854276047353020e-01 1.120754824759188917e-01 1.119749416320737212e-01 1.121144272850160273e-01 1.119374609320366865e-01 1.120233190956087393e-01 1.120252463258465669e-01 1.120208016170105153e-01 1.120312273227284661e-01 1.120250680619411937e-01 1.121315909976585562e-01 1.119881185966875581e-01 1.119716249938401270e-01 1.120183961944803408e-01 1.119458883094339163e-01 1.119860397220703851e-01 1.119672836454280174e-01 1.119492903471800832e-01 1.120119681598244626e-01 1.119578391631825820e-01 1.120120192788645053e-01 1.120807970380764962e-01 1.120298477939214998e-01 1.120269881362838948e-01 1.119981153132093288e-01 1.120816980101599913e-01 1.119413532599295158e-01 1.118838929057159454e-01 1.118757581202464019e-01 1.120112656838858495e-01 1.119862182029703612e-01 1.119044605913681739e-01 1.119591128491608245e-01 1.119418125783446932e-01 1.119324295784535905e-01 1.119959318408253746e-01 1.119447489238137028e-01 1.119379356069489517e-01 1.120592955923995215e-01 1.120801890253840805e-01 1.120613546183863579e-01 1.119396217495503970e-01 1.119833776565222344e-01 1.119341155491829082e-01 1.120485599317968262e-01 1.120311322377093716e-01 1.119754977965415343e-01 1.119675957564503360e-01 1.119913268079313906e-01 1.119508497095085542e-01 1.119611225408692623e-01 1.119051104923980966e-01 1.119167872927642887e-01 1.120311846764374952e-01 1.120263083822901490e-01 1.119667867655143034e-01 1.119742601787584446e-01 1.120006435958270929e-01 1.119636926698162616e-01 1.120072217937239378e-01 1.120184085433591076e-01 1.119486153380139515e-01 1.118100633775095804e-01 1.119909295949867711e-01 1.119934834411792507e-01 1.119925974768009314e-01 1.120157157438956275e-01 1.119758176762120916e-01 1.119693079064668917e-01 1.119340641414405119e-01 1.120595429899252926e-01 1.120365157286615093e-01 1.120413635617234088e-01 1.119353757563027046e-01 1.119641063874260017e-01 1.119477092174694932e-01 1.119132181901927037e-01 1.118685740265207285e-01 1.120168616320590671e-01 1.120663295691726041e-01 1.120147497443270274e-01 1.120609503057830442e-01 1.121064574519372720e-01 1.120372094447728839e-01 1.120461940719466309e-01 1.119692486210231708e-01 1.119027700630985944e-01 1.119938896642059534e-01 1.119664515645805436e-01 1.120300469177925584e-01 1.121037045943004268e-01 1.119570582713575180e-01 1.120649501352700417e-01 1.120655373759639889e-01 1.120592188507908427e-01 1.121001400057016761e-01 1.120598864780237014e-01 1.120314300111002470e-01 1.119445533009049837e-01 1.120297843802603582e-01 1.120129005060726823e-01 1.119546271027653112e-01 1.120049837102028711e-01 1.119891903450884463e-01 1.120518120155802877e-01 1.120383641079682052e-01 1.120521365134201364e-01 1.120110997791076562e-01 1.120190536445293400e-01 1.119671883081942293e-01 1.119070988746329737e-01 1.120583064817621544e-01 1.120783536831112398e-01 1.120005531397540166e-01 1.120224377635137547e-01 1.119346076597338702e-01 1.119689887454001775e-01 1.119529231076186737e-01 1.119921608310371075e-01 1.120600151231262998e-01 1.120915318113954035e-01 1.121340962656734441e-01 1.120833321634353563e-01 1.120344605804194649e-01 1.120028375648924462e-01 1.118874942783869564e-01 1.120297322019601499e-01 1.119860821609213464e-01 1.118938002582337554e-01 1.119825193705968752e-01 1.120920795261307751e-01 1.119822238828834249e-01 1.119820067808805775e-01 1.120236312994015992e-01 1.119883614843614206e-01 1.119482721769907985e-01 1.120416696574117466e-01 1.120378074291911857e-01 1.120798211619684903e-01 1.120742041294349456e-01 1.119696255374368343e-01 1.120266624945655681e-01 1.119512600275925224e-01 1.119660489513649576e-01 1.119107517272840413e-01 1.120472574734054788e-01 1.120148082087915192e-01 1.119203784486284131e-01 1.120265087422822187e-01 1.119898258184994499e-01 1.120076931435320389e-01 1.120465740486876194e-01 1.120968009880042304e-01 1.119866593609638028e-01 1.119938330137280336e-01 1.119003611148756960e-01 1.119720103377464526e-01 1.119926130697849326e-01 1.119520791820918515e-01 1.119866280004854636e-01 1.119600828504547091e-01 1.119434269824410716e-01 1.120467903238449026e-01 1.119496036346515899e-01 1.119618669828936763e-01 1.120644031091138776e-01 1.119826792279122185e-01 1.120373938234975608e-01 1.120086651999908089e-01 1.120163436058368295e-01 1.119679440600299392e-01 1.119501546499508532e-01 1.119799569824286023e-01 1.120530830001903455e-01 1.120539143748601751e-01 1.120365370235185676e-01 1.120857431988616787e-01 1.120353909539919951e-01 1.120233049384099511e-01 1.120351993625751941e-01 1.120742355070134116e-01 1.120234836286369828e-01 1.120201850444283997e-01 1.120177325635800247e-01 1.119816397716278250e-01 1.119715028931557999e-01 1.120198988683740321e-01 1.120616100511822588e-01 1.120110553803650849e-01 1.120006560221122882e-01 1.120375449036357524e-01 1.119845014330206057e-01 1.119200973914931119e-01 1.120173986481761835e-01 1.120628149864115741e-01 1.120394574479631894e-01 1.120052041569952611e-01 1.119775800504866359e-01 1.119952605739953644e-01 1.119793052987222703e-01 1.119133156524062256e-01 1.120662854645793349e-01 1.120772568299834848e-01 1.120352534817122686e-01 1.119746258426245339e-01 1.119632511732945312e-01 1.119592486024781064e-01 1.120220339164670065e-01 1.121097957213519070e-01 1.120917798735786286e-01 1.119773495297226029e-01 1.118384620857714867e-01 1.119677048172486311e-01 1.119455423795371052e-01 1.120033759553290820e-01 1.119738018348734598e-01 1.119431349907751838e-01 1.119979109189634531e-01 1.119958001687964971e-01 1.120668595550585595e-01 1.119726744243411537e-01 1.119891016821587398e-01
3.000000000000000000e+00 4.838051566810242510e-01 7.666409242021617922e-03 4.839999999999999858e-01 4.839092196738671858e-01 4.839070248170596611e-01 4.842087111753375916e-01 4.839370264347489514e-01 4.823248442267223934e-01 4.838917120528899996e-01 4.824924459944440192e-01 4.837297418848728325e-01 4.841007718060234555e-01 4.841091001938369054e-01 4.840898927020811371e-01 4.841349466446480121e-01 4.841083298391030132e-01 4.825663112577805447e-01 4.839486553642570188e-01 4.838773794376662885e-01 4.840794978404329152e-01 4.837661601943394341e-01 4.839396716560899203e-01 4.838586186105996445e-01 4.837808618574568342e-01 4.820515058306731326e-01 4.838178049551818960e-01 4.840519404550930327e-01 4.843491586288304895e-01 4.841289851094464636e-01 4.841166273032267986e-01 4.839918554606546519e-01 4.823515932222956493e-01 4.837465623018382677e-01 4.834982514854153646e-01 4.834630975910648165e-01 4.840486838482209730e-01 4.839404429485504866e-01 4.835871332698410408e-01 4.838233090981592377e-01 4.837485472135610309e-01 4.837079992497458902e-01 4.839824197407097128e-01 4.837612364207663496e-01 4.837317931586008202e-01 4.842562416671550296e-01 4.823450991985279157e-01 4.842651396008839093e-01 4.837390797034141765e-01 4.839281677299710482e-01 4.837152850518261493e-01 4.842098482766933887e-01 4.841345357415297590e-01 4.838941154779116127e-01 4.838599673760889397e-01 4.839625194199891900e-01 4.837876005303762272e-01 4.838319938373278895e-01 4.835899417707203440e-01 4.836404022294457095e-01 4.841347623517477383e-01 4.841136897948967177e-01 4.838564713795439065e-01 4.838887672010632746e-01 4.840027812533956864e-01 4.838431004659917156e-01 4.840312084657355518e-01 4.840795512052304406e-01 4.837779448535602933e-01 4.831792024528092644e-01 4.839608028926214445e-01 4.839718391565245859e-01 4.839680105247468611e-01 4.840679144646918286e-01 4.838954978150593056e-01 4.838673663100891420e-01 4.837150628969393851e-01 4.842573107778915253e-01 4.841578001131444098e-01 4.841787496774476174e-01 4.837207309468795624e-01 4.838448883170909376e-01 4.837740291183503238e-01 4.836249786076184942e-01 4.834320520431788504e-01 4.840728663385409636e-01 4.842866384953530279e-01 4.840637399665560503e-01 4.842633923928481576e-01 4.824581472485157674e-01 4.841607979577684517e-01 4.841996243823408208e-01 4.838671101122786755e-01 4.835798277726760519e-01 4.839735946203185812e-01 4.838550228326516378e-01 4.841298456090321056e-01 4.824463001290428821e-01 4.838144303869378327e-01 4.842806773702740819e-01 4.822820447787021791e-01 4.842559100337747169e-01 4.824309596673947431e-01 4.842587951371738475e-01 4.841358225479688859e-01 4.837603910503394111e-01 4.841287110718394127e-01 4.840557486155283584e-01 4.838039242655214900e-01 4.840215367476624064e-01 4.839532868484179295e-01 4.842239019244720111e-01 4.841657877522911879e-01 4.842253042187084078e-01 4.840479669025723464e-01 4.840823389638589380e-01 4.838582066175536878e-01 4.835985344225210425e-01 4.842519672961864141e-01 4.823372006719608418e-01 4.840023903539370509e-01 4.840969631923272565e-01 4.837174116724213824e-01 4.838659870783365013e-01 4.837965605722092111e-01 4.839661235912675052e-01 4.842593510677958291e-01 4.843955481849587241e-01 4.825770928576303409e-01 4.823586259176414481e-01 4.841489189368126667e-01 4.840122623339995211e-01 4.835138145601722282e-01 4.841284855870420789e-01 4.839398550525529918e-01 4.835410654016530363e-01 4.839244587086508065e-01 4.823962708178128334e-01 4.839231817796034174e-01 4.839222435888053675e-01 4.841021209724140628e-01 4.839497049859904365e-01 4.837764619077101758e-01 4.841800724481007401e-01 4.841633821047190422e-01 4.823435160720429549e-01 4.823193427713182158e-01 4.838687389296377206e-01 4.841152200658012106e-01 4.837893736906677122e-01 4.838532829683985237e-01 4.836143199643346269e-01 4.842042197957879823e-01 4.840639926165633544e-01 4.836559211530013225e-01 4.841145556362910218e-01 4.839560330013726319e-01 4.840332453702634874e-01 4.842012664246856946e-01 4.824165899662324342e-01 4.839423493813078681e-01 4.839733498093247155e-01 4.835694176749985584e-01 4.838790446738328588e-01 4.839680779087134344e-01 4.837929136083255477e-01 4.839422138592407996e-01 4.838275008894650231e-01 4.837555237455489210e-01 4.842022010423297496e-01 4.837822157068872309e-01 4.838352108903619664e-01 4.842783134358135677e-01 4.839251495206207676e-01 4.841615947372573392e-01 4.840374460428174541e-01 4.840706277252234679e-01 4.838614725451294007e-01 4.837845968801447460e-01 4.839133855312093280e-01 4.822284464829619810e-01 4.842329871199314573e-01 4.841578921373480560e-01 4.823690019808154483e-01 4.841529394797511321e-01 4.841007106267001814e-01 4.841521115311285262e-01 4.823194778069684330e-01 4.841014828237527046e-01 4.840872282277084437e-01 4.840766300068994332e-01 4.839206575845345637e-01 4.838768517882803821e-01 4.840859915383306511e-01 4.842662434354661483e-01 4.840477750365776433e-01 4.840028349526995788e-01 4.841622476192830593e-01 4.839330240498390112e-01 4.836547065846666382e-01 4.840751870153327530e-01 4.822703287808069450e-01 4.841705125429837664e-01 4.840224893927295713e-01 4.839031137896029344e-01 4.839795189090513872e-01 4.839105693266211872e-01 4.836253997836126306e-01 4.842864479005034584e-01 4.843338598724286070e-01 4.841523454031137486e-01 4.838903473913417908e-01 4.838411925703085537e-01 4.838238957464233159e-01 4.840952179961610091e-01 4.824725137293894850e-01 4.843966201679648087e-01 4.839021176105869904e-01 4.833019254420838906e-01 4.838604386745388175e-01 4.837646652829996619e-01 4.840145889498149723e-01 4.838867865007031588e-01 4.837542619244213915e-01 4.839909721855206182e-01 4.839818507294420535e-01 4.842889287915030927e-01 4.838819144766171032e-01 4.839529036979002830e-01
4.000000000000000000e+00 1.813637383289061322e+00 9.117112425064527112e-03 1.814000000000000057e+00 1.813659761339659227e+00 1.813651535161458828e+00 1.812781373243205874e+00 1.813763979240980539e+00 1.813221198628259367e+00 1.813594143933765279e+00 1.813851270004009475e+00 1.814985973683737708e+00 1.814377686066377171e+00 1.814408900313264850e+00 1.814336911904081084e+00 1.814505771102048470e+00 1.814406013074654656e+00 1.814128954354975898e+00 1.813807563699922021e+00 1.813540426239517833e+00 1.814297952649887025e+00 1.813123583868867073e+00 1.813773893355675737e+00 1.813470111900057358e+00 1.813178684730220258e+00 1.814193841445728372e+00 1.813317145017975029e+00 1.814194669391608894e+00 1.813307180651737127e+00 1.812482894665944144e+00 1.814437111421598026e+00 1.813969474805015469e+00 1.813321757092945408e+00 1.813050132263501313e+00 1.814117406399822663e+00 1.813985506663995384e+00 1.814182463844365323e+00 1.813776784108823481e+00 1.814450896731469642e+00 1.813337774181943862e+00 1.813057571581404348e+00 1.814904393879211764e+00 1.813934110350511109e+00 1.813105129891054101e+00 1.812994778491119563e+00 1.812959317977034912e+00 1.813297343874963996e+00 1.812992630076036393e+00 1.813022087979324848e+00 1.813730777401172611e+00 1.812932907198373300e+00 1.812785630325141284e+00 1.812503675131512226e+00 1.813603151811842285e+00 1.813475166983936626e+00 1.813859525264174266e+00 1.813203940830790284e+00 1.813370324010150414e+00 1.814461434412454777e+00 1.814650765389820952e+00 1.814505080384442914e+00 1.812425632042051316e+00 1.813462064220026093e+00 1.813583106823819957e+00 1.814010423953842377e+00 1.813411950920059912e+00 1.814116967266206970e+00 1.814298152657619845e+00 1.813167751992475818e+00 1.812920313335333988e+00 1.813853091833089515e+00 1.813894455020528040e+00 1.813880105561758160e+00 1.814254538923452564e+00 1.813608332720077598e+00 1.813502897699383665e+00 1.812932074576545372e+00 1.812963320515577514e+00 1.814591424390999741e+00 1.812669203337882173e+00 1.814952164048622585e+00 1.813418651667774828e+00 1.813153076075800563e+00 1.814592894940981971e+00 1.813869021715728946e+00 1.814273098219242542e+00 1.813073117672685308e+00 1.814238893180439405e+00 1.812986088875704116e+00 1.813722329490270901e+00 1.814602660114446042e+00 1.812747354092565155e+00 1.813501937486928783e+00 1.814423486023098553e+00 1.813901034382764177e+00 1.813456635162045583e+00 1.814486652757818730e+00 1.813677792186360493e+00 1.813304497359308209e+00 1.813050800402761453e+00 1.813060301118274431e+00 1.812958076407437558e+00 1.813620122235101828e+00 1.812968877662311851e+00 1.814509053929784343e+00 1.813101961498586157e+00 1.814482400587431155e+00 1.814208942125141499e+00 1.813265121110859468e+00 1.814080718306321449e+00 1.813824922196343170e+00 1.812838244394924025e+00 1.814621361534413779e+00 1.812843494306404235e+00 1.814179776779475617e+00 1.814308600992645015e+00 1.813468567777360319e+00 1.814493674610120344e+00 1.812943315579937487e+00 1.813267650658906716e+00 1.814008958888515988e+00 1.814363411634053014e+00 1.812940877631761039e+00 1.813497728429963818e+00 1.813237522475180663e+00 1.813873033459833195e+00 1.812970958956293455e+00 1.813480853948647109e+00 1.814169486012502608e+00 1.813348195358436499e+00 1.812557522961786294e+00 1.814045958417097371e+00 1.814175800085274126e+00 1.812481024553141085e+00 1.813774580713494178e+00 1.814278047044218800e+00 1.813716876234488851e+00 1.813489715190615748e+00 1.813712090388844178e+00 1.813708574111762228e+00 1.814382742652808078e+00 1.813811497612782375e+00 1.813162194009475758e+00 1.814674899629865168e+00 1.812611670193700064e+00 1.813291392370418809e+00 1.813200516808358032e+00 1.813508042186700031e+00 1.814431837188767327e+00 1.813210586518329004e+00 1.813450114265857227e+00 1.814552903006676932e+00 1.812764558409024396e+00 1.814239840095962730e+00 1.814708993417046390e+00 1.814429346950892308e+00 1.813835214596053458e+00 1.814124601449706553e+00 1.812753501573410198e+00 1.813566101698782518e+00 1.813783929292752894e+00 1.813900116847344979e+00 1.814384426648341764e+00 1.813546667434571935e+00 1.813880358112409441e+00 1.813223853895666204e+00 1.813783421365005477e+00 1.813353484738614796e+00 1.813083719162036589e+00 1.814757836137987912e+00 1.813183758868374795e+00 1.813382381312224290e+00 1.813041950301021110e+00 1.813719465352078508e+00 1.812604978644442699e+00 1.814140345292708290e+00 1.812424439542356103e+00 1.813480808257984966e+00 1.813192683348311185e+00 1.813675374697549136e+00 1.812858807110222292e+00 1.812872257564702050e+00 1.812591116844782357e+00 1.813387202467297898e+00 1.812572575077084469e+00 1.814377456770318364e+00 1.812569475401663022e+00 1.813201024452752552e+00 1.812379931563305568e+00 1.814326925630295850e+00 1.814287204199412251e+00 1.813702629872615102e+00 1.813538448644505419e+00 1.814322290600272281e+00 1.812996762613769963e+00 1.814179057678412921e+00 1.814010625215283223e+00 1.814608093349957763e+00 1.813748978566958714e+00 1.814704436276352473e+00 1.812281485272278836e+00 1.813016256744444332e+00 1.812638365140261332e+00 1.814084288757048302e+00 1.813636876889131777e+00 1.813923238225246370e+00 1.813664819748947998e+00 1.814594475221158021e+00 1.813072404123372561e+00 1.813249905142233054e+00 1.814570980498446895e+00 1.813589029272507869e+00 1.813404800253181293e+00 1.813339972900851027e+00 1.814356870754207041e+00 1.813776337920443460e+00 1.813484867240397147e+00 1.813633143276042858e+00 1.813380778105009083e+00 1.813476933379366551e+00 1.813117981040002658e+00 1.814054678419347866e+00 1.813575683289825546e+00 1.813078989939876706e+00 1.813966164348211674e+00 1.813931977733900469e+00 1.813081692087197494e+00 1.813557423265668156e+00 1.813823486173535393e+00
5.000000000000000000e+00 5.036105774488299325e+00 1.842442683137232237e-02 5.035999999999999588e+00 5.037055059332526064e+00 5.035032597063455739e+00 5.036170768712085355e+00 5.035344762655776130e+00 5.037392667712283334e+00 5.036872820914172877e+00 5.035139011103844986e+00 5.035186858710721580e+00 5.035048110065128313e+00 5.035134732181353101e+00 5.036935329850580345e+00 5.037404114261255117e+00 5.037127167499427571e+00 5.037912195537659343e+00 5.037465549018857125e+00 5.036723631419344649e+00 5.036827171744669762e+00 5.035565940204715041e+00 5.037372036783844820e+00 5.036528348264877941e+00 5.035718971152618906e+00 5.038538353474961262e+00 5.034104268087388867e+00 5.036540438288943378e+00 5.037631538300687772e+00 5.037342084733826830e+00 5.037213502270764920e+00 5.035915256404662976e+00 5.037672033778084035e+00 5.035361943960043440e+00 5.034775180757217861e+00 5.033160502039210726e+00 5.036506553429010324e+00 5.035380311340703408e+00 5.033702432672436444e+00 5.034161538467623487e+00 5.035382605086612173e+00 5.034960537645082113e+00 5.035817078128541624e+00 5.035514688197976874e+00 5.035208210605436108e+00 5.036665125108385155e+00 5.037604210301638297e+00 5.036757670972829892e+00 5.035284056912811224e+00 5.035252588198624757e+00 5.035036376221281529e+00 5.036182595505938941e+00 5.037399838831289500e+00 5.034898275923064048e+00 5.036542387687471312e+00 5.035610016113771792e+00 5.035789114611644024e+00 5.036251208579458627e+00 5.035729972157914069e+00 5.034256914115593950e+00 5.035401639832021381e+00 5.037182937617974865e+00 5.036505997541616431e+00 5.035342512413543581e+00 5.036028938826653700e+00 5.036366818486913921e+00 5.036324722796372555e+00 5.036827727003182709e+00 5.035688607793877836e+00 5.031452851987930686e+00 5.037591993745922814e+00 5.037706871220187566e+00 5.037667018643956496e+00 5.034706366560452118e+00 5.036912227256753916e+00 5.036619403864110112e+00 5.035034063790869041e+00 5.036676244743608422e+00 5.036891659131633503e+00 5.037859883007492101e+00 5.035093063037972883e+00 5.034386069348904869e+00 5.035647848550101280e+00 5.034096368233847762e+00 5.034085831193432448e+00 5.036758171241513260e+00 5.034980092786397243e+00 5.036663211718132693e+00 5.034738410166966105e+00 5.038784882259395026e+00 5.037673096106037640e+00 5.038077083449314486e+00 5.036616737077809880e+00 5.035624652839437054e+00 5.035725253115546529e+00 5.034491518564532697e+00 5.035350501644354715e+00 5.036659299272497670e+00 5.034069155844253629e+00 5.036919276615619445e+00 5.038946841297809343e+00 5.036661675847152075e+00 5.036499147399025489e+00 5.034690613905492995e+00 5.037413227999114618e+00 5.035505888660351204e+00 5.035338701519917137e+00 5.036580062040910910e+00 5.035959029854746305e+00 5.036224088969478707e+00 5.035513951588083792e+00 5.038329690271985406e+00 5.035724329638499697e+00 5.034342419067233010e+00 5.037249167968039565e+00 5.036856733516516194e+00 5.034524645714876456e+00 5.033821108307151349e+00 5.038621709304948126e+00 5.037521718221267264e+00 5.036024871533939518e+00 5.035008497335073052e+00 5.035058512408386200e+00 5.036605047315411809e+00 5.035882380501631950e+00 5.035647517366990122e+00 5.038698537143429412e+00 5.034110759029632121e+00 5.036022359074441290e+00 5.037745483131550017e+00 5.037549495383861320e+00 5.036127589078557065e+00 5.034937242527413481e+00 5.037336887223851534e+00 5.037373945774302086e+00 5.035221011620518716e+00 5.035213995985052371e+00 5.036137001566875604e+00 5.036050574683141434e+00 5.035190947754594859e+00 5.037062564498093309e+00 5.035476682457536768e+00 5.035673171675710158e+00 5.035872902280453367e+00 5.035699308915610573e+00 5.037587676154904770e+00 5.037335210603352209e+00 5.036633691585774564e+00 5.037198860023502256e+00 5.035807571598313714e+00 5.036472809080148494e+00 5.035983827727782192e+00 5.036124054652885818e+00 5.034665576098718454e+00 5.034418452001696132e+00 5.035191473291506625e+00 5.033542706877912387e+00 5.036345916703815817e+00 5.036093337152619753e+00 5.038350858692975720e+00 5.035400147694764961e+00 5.037722595742516241e+00 5.033518029435212426e+00 5.036740965013987825e+00 5.037667720049789466e+00 5.035844418923025145e+00 5.035398737593257401e+00 5.036204441076703731e+00 5.035455224442304534e+00 5.036103057948528416e+00 5.033733963429512848e+00 5.034285376123682987e+00 5.036894689743564690e+00 5.035221183855053795e+00 5.037681386563694019e+00 5.036389624528158748e+00 5.036734878562448614e+00 5.034558627556346089e+00 5.035757849343324821e+00 5.037098422120315000e+00 5.038386839187129596e+00 5.036423258598626163e+00 5.035642208717789892e+00 5.037853850563122293e+00 5.037591328966996684e+00 5.037047889909219478e+00 5.035582085635745386e+00 5.039337946547495228e+00 5.037055924587641620e+00 5.036907606104834123e+00 5.036797332055259702e+00 5.035174445445694147e+00 5.034718647945826575e+00 5.036894738402961202e+00 5.036769151764745267e+00 5.036497097281415591e+00 5.036029497565692736e+00 5.035687509329485501e+00 5.035303118006176248e+00 5.034405809449484792e+00 5.036782317787635854e+00 5.036823309299962581e+00 5.035773471366487897e+00 5.036234001202037014e+00 5.036991502628139550e+00 5.035786895095005988e+00 5.035069477538975491e+00 5.034100752293058534e+00 5.036979294899038173e+00 5.037472418590507317e+00 5.035584518097675044e+00 5.034859069138010845e+00 5.036346959027302894e+00 5.036166914815042972e+00 5.036990739315427845e+00 5.036932964909310861e+00 5.036123538605782990e+00 5.034981537782884153e+00 5.032730793859716556e+00 5.036547293475881482e+00 5.035550379536678278e+00 5.036151797419975651e+00 5.036821550393682401e+00 5.035442090031477136e+00 5.037906028658373891e+00 5.037811082592828171e+00 5.037005098215757037e+00 5.034771325008768450e+00 5.035509964922780135e+00
6.000000000000000000e+00 2.986856362838686586e-03 2.612325258913319350e-05 3.000131280006858910e-03 2.986381708676268901e-03 2.986148619684499128e-03 2.988131215706447269e-03 2.986295974794238740e-03 2.988766182270233100e-03 2.986250428669410054e-03 2.989910193758573559e-03 2.985071587791495330e-03 2.987552512002743677e-03 2.987485532407407451e-03 2.987303347908093140e-03 2.987919560185185036e-03 2.987485532407407451e-03 2.990408521947873766e-03 2.986427254801097587e-03 2.985990547839505963e-03 2.987410515260630842e-03 2.985130529835390741e-03 2.986325445816186662e-03 2.986041452331961426e-03 2.985460069444444229e-03 2.986673739711934086e-03 2.985808363340192086e-03 2.987005958504801179e-03 2.988993912894375663e-03 2.987448023834019147e-03 2.987381044238682920e-03 2.986805019718792933e-03 2.989039459019204349e-03 2.985146604938271504e-03 2.983662337105624004e-03 2.983608753429355370e-03 2.987166709533607516e-03 2.986384387860082507e-03 2.984211569787380107e-03 2.985845871913580390e-03 2.985034079218107025e-03 2.984983174725651563e-03 2.986888074417009490e-03 2.985283243312757129e-03 2.985135888203017951e-03 2.988168724279835573e-03 2.989052854938271508e-03 2.988490226337448680e-03 2.984959062071330417e-03 2.986569251543209989e-03 2.984634880829904139e-03 2.988032085905349949e-03 2.987922239368998641e-03 2.986070923353909348e-03 2.986020018861453885e-03 2.986756794410151076e-03 2.985510973936899692e-03 2.985674404149520067e-03 2.984364283264746062e-03 2.984565222050754307e-03 2.987769525891632253e-03 2.987702546296296460e-03 2.985612782921810617e-03 2.986194165809327814e-03 2.986735360939643535e-03 2.985805684156378481e-03 2.987086334019204564e-03 2.987297989540466363e-03 2.985425240054869530e-03 2.981411822702331824e-03 2.986547818072702448e-03 2.986440650720164746e-03 2.986818415637860092e-03 2.987177426268861503e-03 2.986003943758573555e-03 2.985955718449931264e-03 2.984862611454046702e-03 2.988677769204389767e-03 2.987761488340191871e-03 2.988385738168724149e-03 2.984956382887517246e-03 2.985599387002743459e-03 2.985382373113854449e-03 2.984567901234567912e-03 2.983249742798353959e-03 2.987284593621399205e-03 2.988712598593964466e-03 2.987134559327846422e-03 2.988600072873799553e-03 2.989604766803840782e-03 2.987916881001371865e-03 2.987882051611797166e-03 2.986089677640603717e-03 2.984077610596707654e-03 2.986705889917695613e-03 2.986049489883401808e-03 2.987573945473251218e-03 2.989586012517146847e-03 2.985500257201646138e-03 2.988921574931413094e-03 2.988634902263374686e-03 2.988348229595336279e-03 2.989674425582990614e-03 2.988289287551440434e-03 2.987469457304526687e-03 2.985347543724279750e-03 2.987659679355281379e-03 2.986909507887517030e-03 2.985634216392318158e-03 2.986904149519890254e-03 2.986336162551440215e-03 2.988259816529492512e-03 2.988091027949245360e-03 2.987761488340191871e-03 2.987038108710562273e-03 2.987233689128943742e-03 2.985993227023319568e-03 2.984334812242798139e-03 2.988433963477366440e-03 2.988701881858710479e-03 2.986922903806584189e-03 2.987220293209876584e-03 2.985224301268861284e-03 2.985861947016460721e-03 2.985414523319615977e-03 2.986708569101508785e-03 2.988570601851852065e-03 2.989200210048011119e-03 2.990507651748971086e-03 2.988894783093278343e-03 2.987691829561042473e-03 2.986839849108367632e-03 2.983962405692729570e-03 2.987571266289437612e-03 2.986464763374485458e-03 2.983857917524005473e-03 2.986379029492455296e-03 2.989293981481481663e-03 2.986282578875171581e-03 2.986561213991769607e-03 2.987437307098765593e-03 2.986320087448559885e-03 2.985058191872428171e-03 2.987865976508916402e-03 2.987865976508916402e-03 2.988688485939643320e-03 2.988951045953360582e-03 2.985979831104252410e-03 2.987453382201645923e-03 2.985117133916323582e-03 2.986041452331961426e-03 2.984511638374485673e-03 2.988200874485596667e-03 2.987097050754458118e-03 2.984522355109739226e-03 2.987249764231824506e-03 2.987030071159121891e-03 2.987027391975308720e-03 2.987673075274348538e-03 2.989709254972565313e-03 2.986330804183813439e-03 2.986612118484225070e-03 2.983914180384087712e-03 2.986167373971193497e-03 2.986705889917695613e-03 2.985430598422496740e-03 2.986416538065843600e-03 2.985808363340192086e-03 2.985184113511659808e-03 2.988407171639231689e-03 2.985363618827160514e-03 2.985283243312757129e-03 2.989119834533607734e-03 2.986577289094650371e-03 2.987590020576131548e-03 2.987134559327846422e-03 2.987056862997256642e-03 2.986057527434842190e-03 2.985489540466392151e-03 2.986105752743484047e-03 2.988297325102880816e-03 2.988300004286693987e-03 2.987598058127571930e-03 2.989583333333333242e-03 2.987999935699588421e-03 2.987383723422496525e-03 2.987681112825788920e-03 2.988618827160493922e-03 2.987150634430727186e-03 2.987332818930041062e-03 2.987255122599451283e-03 2.986234353566529290e-03 2.986499592764060157e-03 2.987212255658436202e-03 2.988562564300411683e-03 2.986871999314129160e-03 2.986880036865569108e-03 2.987788280178326622e-03 2.985990547839505963e-03 2.984441979595336275e-03 2.987137238511659593e-03 2.988613468792867146e-03 2.987908843449931483e-03 2.987126521776406040e-03 2.986148619684499128e-03 2.986740719307270312e-03 2.986199524176954591e-03 2.984474129801097369e-03 2.988471472050754311e-03 2.988886745541837961e-03 2.988136574074074046e-03 2.986178090706447050e-03 2.985773533950617387e-03 2.985741383744855860e-03 2.987421231995884829e-03 2.989902156207133177e-03 2.989216285150891449e-03 2.986427254801097587e-03 2.982132523148148251e-03 2.985926247427983342e-03 2.985368977194787291e-03 2.986949695644718940e-03 2.985971793552812028e-03 2.985259130658436417e-03 2.986724644204389548e-03 2.986547818072702448e-03 2.988270533264746065e-03 2.986167373971193497e-03 2.986596043381344306e-03
