# vvf statistics with RF=500
# gcat file: /disk2/salam/Abacus/AbacusCosmos_720box_products/GCAT_derivative/AbacusCosmos_720box_10_rockstar_halos_z0.100_Mr21_hod-default_real-6.gcat.rsd_zz.1pz0.100by100
# stats order in row: stdvvf,p2.5,p16,p50,p84,p97.5,rho
# columns: numbers, mean, sigma,All, jnrealizations
0.000000000000000000e+00 1.397150502455823062e+00 4.686611521144455964e-03 1.397150728797726282e+00 1.397405764727511324e+00 1.396879416837778720e+00 1.397044831566995438e+00 1.397256467251506207e+00 1.397565899697792879e+00 1.397092311358368866e+00 1.397117163346870417e+00 1.396295543959890750e+00 1.395998879182604568e+00 1.397156723610477824e+00 1.397734315218264411e+00 1.397547186529357610e+00 1.397339252349933947e+00 1.396781942516353014e+00 1.397325403827718748e+00 1.397276670294622880e+00 1.397338042632741750e+00 1.397028222837345623e+00 1.397423157670341531e+00 1.397433576593689386e+00 1.397032282448304796e+00 1.397734827570089822e+00 1.397105443428154681e+00 1.397212974322279422e+00 1.397093968384240270e+00 1.397344438996976246e+00 1.397589197617782109e+00 1.396841647193174829e+00 1.397685931605858078e+00 1.396973912004543017e+00 1.397090651175924680e+00 1.396694585085948237e+00 1.397164342083317523e+00 1.397310921248493765e+00 1.396808962254654896e+00 1.396674022025303552e+00 1.397354177943576525e+00 1.397119056433884232e+00 1.397065632763386578e+00 1.397334234997023916e+00 1.397054368376678957e+00 1.397317842045053160e+00 1.397548341145498529e+00 1.396944278228879677e+00 1.396765983791742549e+00 1.397358914864428314e+00 1.397021362609685013e+00 1.397516527348547477e+00 1.397259106368077930e+00 1.396895099260497153e+00 1.396577720637756981e+00 1.396942605061029630e+00 1.396870762429079260e+00 1.397384650114168902e+00 1.396452661590793287e+00 1.396810278517768511e+00 1.397167142751395419e+00 1.397239043699306515e+00 1.397318519395513547e+00 1.396800801386757218e+00 1.397415785513790309e+00 1.397356126018394429e+00 1.397458039574705602e+00 1.397294722032810244e+00 1.397165513039588580e+00 1.396540285172221729e+00 1.397866838107974186e+00 1.397478239197044836e+00 1.397456413844625045e+00 1.396819759787627957e+00 1.397178627038470511e+00 1.397533289836648818e+00 1.396830980048975990e+00 1.397172088277951030e+00 1.397035554604935337e+00 1.397193790426261906e+00 1.397189279946340346e+00 1.396827554391358861e+00 1.397114376895632448e+00 1.396885887408223059e+00 1.396845781773390138e+00 1.397150951988796574e+00 1.396334362594618961e+00 1.397324522041861306e+00 1.396675874517731009e+00 1.397408844748598833e+00 1.397273762124032759e+00 1.397377298921072430e+00 1.396871920616028273e+00 1.396607749233433671e+00 1.397410358920579521e+00 1.397273621078631178e+00 1.397399203483553620e+00 1.397326652183376261e+00 1.396820986818108068e+00 1.396998807919313856e+00 1.397762923660590850e+00 1.397215471866296577e+00 1.397258643249200682e+00 1.397150695269789633e+00 1.397262756162027442e+00 1.396670355070959380e+00 1.396733226644909953e+00 1.396789319160789411e+00 1.397186713612242226e+00 1.397189003935878082e+00 1.397136768390307093e+00 1.397200480543557166e+00 1.396975093175045757e+00 1.397184851485566259e+00 1.397455485681520893e+00 1.397144834932606328e+00 1.397344924448246539e+00 1.396658580991231968e+00 1.397478011359904571e+00 1.397364726459604967e+00 1.397295178628857659e+00 1.397224956132544271e+00 1.396636940157504947e+00 1.397231997844711637e+00 1.396902789617726848e+00 1.396967378821584838e+00 1.397110827099148578e+00 1.397088391042328182e+00 1.396944670662350951e+00 1.397383079129842276e+00 1.397581263977507593e+00 1.397444071138090660e+00 1.397081729240722936e+00 1.397189919011475379e+00 1.397323665995544140e+00 1.397077461347769223e+00 1.396911237725058763e+00 1.397285588247138888e+00 1.397286721436176160e+00 1.397305106576055334e+00 1.397479340568242856e+00 1.396735553628086546e+00 1.396337021835474035e+00 1.396362183755248898e+00 1.397093074211376962e+00 1.397529260688117336e+00 1.397378496105390777e+00 1.397406673282493017e+00 1.397273234990222823e+00 1.397164111724889191e+00 1.397003841265101576e+00 1.397276738423318454e+00 1.396806749579950768e+00 1.396875388626168890e+00 1.396842121790260238e+00 1.396822454139436065e+00 1.396436515812174539e+00 1.397432803944995250e+00 1.397489208890905665e+00 1.397498249266422743e+00 1.397376821573392158e+00 1.397523274726705900e+00 1.396504561773732167e+00 1.397191915270594276e+00 1.397666976877413259e+00 1.397414619517750145e+00 1.397060430028678191e+00 1.397285848318276624e+00 1.397077797609010519e+00 1.396900010196981734e+00 1.396618384312834138e+00 1.397037203808782158e+00 1.397296624043706359e+00 1.397065420228904786e+00 1.397335833405501271e+00 1.396995025851580641e+00 1.397641426062459002e+00 1.396953328146258055e+00 1.397082397356663730e+00 1.397547704324386908e+00 1.397630009534654549e+00 1.397471281833590151e+00 1.397193549313562766e+00 1.397535073139785755e+00 1.397414862739002173e+00 1.397464645088950297e+00 1.397489653845059854e+00 1.397494937833032136e+00 1.397516155461078213e+00 1.397353738748899232e+00 1.397557350596253301e+00 1.397132375193347320e+00 1.396396699523285490e+00 1.397208730777885988e+00 1.397125712832555822e+00 1.397600622225495082e+00 1.397273616890748915e+00 1.396920324370404032e+00 1.396756003119320910e+00 1.397130254588184961e+00 1.397373546453073434e+00 1.397338162446047249e+00 1.397361211449098528e+00 1.396919707613202055e+00 1.397261451103473551e+00 1.397216605305215520e+00 1.397160595156834217e+00 1.396844808760362433e+00 1.397051691705145426e+00 1.397210585753301260e+00 1.397006387232908375e+00 1.397224457626892846e+00 1.397197774514728374e+00 1.396921781601707657e+00 1.397357936540341239e+00 1.397017032576595597e+00 1.396809427175473184e+00 1.396791311704148608e+00 1.396779911492772142e+00 1.397316016791793070e+00 1.397348789436877903e+00 1.397007174750892977e+00 1.397314755863009461e+00 1.397117468594462286e+00 1.397872432881816840e+00 1.397560952867273887e+00 1.397300534292117868e+00 1.396625584773803386e+00 1.397202824863082338e+00
1.000000000000000000e+00 2.599999987803664619e-02 1.856538156901648329e-04 2.599999999999999881e-02 2.599249477917173895e-02 2.599387883243137881e-02 2.600985217444810177e-02 2.599528054990637646e-02 2.601645617857021794e-02 2.599249662863925558e-02 2.602540926525967122e-02 2.598702617551577193e-02 2.600770880082080294e-02 2.600978198206504999e-02 2.600618436133876610e-02 2.600972708643837367e-02 2.600547327216101712e-02 2.603146916023810209e-02 2.599759808920832499e-02 2.599238740430082767e-02 2.600743149214946801e-02 2.598446140854654418e-02 2.599682326093401968e-02 2.599139863568847297e-02 2.598740010481711757e-02 2.599809492016490198e-02 2.598947133451888492e-02 2.600438557516729365e-02 2.601309287410173698e-02 2.600754597257570050e-02 2.600664920257370408e-02 2.599842763177498406e-02 2.601599396462859343e-02 2.598713154881958365e-02 2.597474986552381071e-02 2.597313604239713525e-02 2.600274548662189628e-02 2.599861931510914770e-02 2.597949962856221581e-02 2.599270407980538294e-02 2.598827680862304465e-02 2.598433023065012393e-02 2.600106457697055201e-02 2.598433435228049426e-02 2.598044952266250970e-02 2.601391817573228335e-02 2.601946940069222933e-02 2.601343265437760024e-02 2.598511953798169835e-02 2.599635496592013484e-02 2.598646726222136882e-02 2.601113701863798019e-02 2.601137826137313314e-02 2.599649096750706462e-02 2.599290400467533374e-02 2.599749165942167456e-02 2.598808321289679604e-02 2.598960841763247112e-02 2.598125080916677612e-02 2.598228954188212814e-02 2.600622058107807805e-02 2.600935927533640224e-02 2.599324628839822654e-02 2.599315251634565921e-02 2.599932218518332186e-02 2.599244272324030547e-02 2.600182259699978377e-02 2.600250556621945194e-02 2.598762766356512571e-02 2.595443237646774190e-02 2.599939508113645326e-02 2.599646407748178872e-02 2.599861348728342569e-02 2.600639548005359222e-02 2.599567339655103546e-02 2.599550992418950268e-02 2.598264616013131953e-02 2.601356080270051871e-02 2.600945909726227676e-02 2.601139919285215887e-02 2.598413021105741225e-02 2.599158210017860071e-02 2.599026284113060623e-02 2.598401245748186220e-02 2.597156872728353938e-02 2.600589429849990697e-02 2.601737116407102507e-02 2.599912648200595686e-02 2.601596391497520630e-02 2.602616598933048947e-02 2.600903090607986634e-02 2.601105901193823122e-02 2.599237538196918704e-02 2.597442972182976637e-02 2.599882615325734003e-02 2.599346971931698613e-02 2.600663195418266918e-02 2.602431228899247662e-02 2.599510493102545269e-02 2.601460764895208860e-02 2.601455995741344326e-02 2.601542040626060245e-02 2.602380380103117355e-02 2.600765297599826401e-02 2.600706942229891530e-02 2.599004724670093969e-02 2.600579043362272538e-02 2.600125670473116962e-02 2.599428709664175149e-02 2.600334136465034390e-02 2.599412024051947490e-02 2.601258438603901504e-02 2.600658993797431290e-02 2.601025085273261581e-02 2.600403754371784573e-02 2.600608522225791169e-02 2.599378620435124215e-02 2.597901816343244422e-02 2.601003924076991658e-02 2.601534274718936279e-02 2.599965632336133023e-02 2.600470174980283947e-02 2.598750095558477816e-02 2.598951445379052774e-02 2.598895663020241859e-02 2.599796387715513565e-02 2.601548444775055730e-02 2.602037653187489960e-02 2.602989738953525103e-02 2.601523342557526472e-02 2.601075686104204615e-02 2.600335303707495063e-02 2.597540505159995003e-02 2.600526614866559630e-02 2.599522695747966128e-02 2.597827121830706409e-02 2.599918867582091259e-02 2.602180998523493174e-02 2.599453783376153362e-02 2.599688422343664207e-02 2.600555848116841567e-02 2.599477573682630951e-02 2.598781166220644895e-02 2.601027011862952487e-02 2.600738101483549003e-02 2.601605500692285786e-02 2.601276256533788939e-02 2.599161192969633161e-02 2.600189721158994646e-02 2.598735343921719163e-02 2.599159779733566794e-02 2.597672366930969812e-02 2.601002917354099456e-02 2.600268395927400958e-02 2.597869281171587968e-02 2.600713537167978137e-02 2.599866617694397003e-02 2.600280422466906549e-02 2.600796001891280199e-02 2.602046995821229863e-02 2.599439649579326356e-02 2.599839035023796333e-02 2.597628407961538252e-02 2.598842953446779333e-02 2.599960350972112602e-02 2.598718418186082846e-02 2.599815623336427031e-02 2.598880073985860434e-02 2.598718339145794989e-02 2.601168278954734195e-02 2.599307113489902551e-02 2.599125626346018153e-02 2.600968085533077179e-02 2.599885323254011449e-02 2.600702491879125500e-02 2.600075083153075006e-02 2.600531256844430469e-02 2.599539868308118479e-02 2.599120018458763587e-02 2.599591496585691372e-02 2.601254510570904024e-02 2.601253886321910555e-02 2.600614021430336723e-02 2.602254020751979674e-02 2.600837833508383434e-02 2.600572530155761258e-02 2.601027226071251502e-02 2.601829360351572834e-02 2.600307040889088261e-02 2.600581551795147495e-02 2.600456565390043065e-02 2.599448459266858608e-02 2.598740873117035000e-02 2.600462297482194693e-02 2.601393342687612770e-02 2.600185743335730118e-02 2.600359270797097250e-02 2.600924146624378902e-02 2.599708164101052071e-02 2.597861564726817660e-02 2.600393120137984432e-02 2.601341390163938727e-02 2.601224097797251097e-02 2.600233574746474083e-02 2.599330593893337676e-02 2.599869479863767957e-02 2.599520694221969797e-02 2.598585184626851785e-02 2.601434229579049212e-02 2.601681957094907974e-02 2.600642912510219701e-02 2.599290074958182997e-02 2.599147515394269886e-02 2.599330026374364194e-02 2.600637642692360182e-02 2.602305150937665734e-02 2.602163743106557237e-02 2.599527293132299424e-02 2.596685383578217418e-02 2.599344148459192816e-02 2.598640296683333087e-02 2.600504997767021445e-02 2.599228292355548059e-02 2.598896786821660448e-02 2.600328512151386245e-02 2.599871653427786658e-02 2.601109875975339894e-02 2.599292984196489506e-02 2.599573437586049154e-02
2.000000000000000000e+00 1.159822885131117226e-01 2.817897519326149989e-03 1.160000000000000059e-01 1.159665151686123663e-01 1.159726901754630501e-01 1.160439558552299882e-01 1.159789439918899739e-01 1.140721540137309697e-01 1.159665234200828315e-01 1.161133644142354482e-01 1.159421167830703703e-01 1.160343931113543420e-01 1.160436426892132861e-01 1.160275917659729650e-01 1.160433977702635122e-01 1.160244192142568520e-01 1.161404008687546147e-01 1.159892837826217438e-01 1.159660361114960153e-01 1.160331558880514646e-01 1.159306739765922634e-01 1.159858268564748635e-01 1.159616246823024083e-01 1.159437850830302152e-01 1.159915004130434163e-01 1.159530259540073327e-01 1.160195664122848636e-01 1.160584143613769825e-01 1.160336666468762268e-01 1.160296656730211429e-01 1.159929848186884022e-01 1.160713576883429521e-01 1.159425869101181616e-01 1.158873455538754621e-01 1.158801454199256814e-01 1.160122490941592338e-01 1.159938400212561921e-01 1.159085368043545061e-01 1.159674489714394019e-01 1.159476965307797425e-01 1.159300887213620956e-01 1.160047496510993731e-01 1.159301071101745129e-01 1.159127747934173558e-01 1.160620964763440371e-01 1.160868634800114874e-01 1.160599303041462138e-01 1.159336102463798812e-01 1.159837375402590631e-01 1.159396231699107160e-01 1.160496882370002092e-01 1.160507645507416613e-01 1.159843443165699817e-01 1.159683409439360990e-01 1.159888089420351709e-01 1.159468327960010842e-01 1.159536375555910298e-01 1.159163497639748575e-01 1.159209841099356486e-01 1.160277533617329604e-01 1.160417567668854816e-01 1.159698680559305556e-01 1.159694496883113962e-01 1.159969759031255765e-01 1.159662829190721556e-01 1.160081315866144241e-01 1.160111786800560180e-01 1.159448003451367115e-01 1.157966982950099366e-01 1.159973011312241814e-01 1.159842243456879890e-01 1.159938140201875884e-01 1.160285336802391043e-01 1.159806966923046245e-01 1.159799673540762438e-01 1.159225751759705020e-01 1.160605020428176898e-01 1.160422021262470793e-01 1.160508579373404070e-01 1.159291963262561453e-01 1.159624432161814461e-01 1.159565572911981091e-01 1.159286709641498547e-01 1.158731527832650154e-01 1.160262976394611234e-01 1.160775021166245563e-01 1.159961027658727301e-01 1.160712236206586229e-01 1.161167405677821923e-01 1.160402917348178631e-01 1.160493402071090391e-01 1.159659824734009803e-01 1.158859172204712851e-01 1.159947628376096773e-01 1.159708649015681048e-01 1.160295887186611336e-01 1.161084702124279555e-01 1.159781604614981698e-01 1.160651725876323953e-01 1.160649598099984525e-01 1.160687987356242290e-01 1.161062015738313913e-01 1.160341440467614893e-01 1.160315404994874677e-01 1.159555954083580365e-01 1.160258342423167721e-01 1.160056068364929138e-01 1.159745116619401162e-01 1.160149076269015589e-01 1.159737672269330333e-01 1.160561457223279053e-01 1.160294012617315573e-01 1.160457345737301305e-01 1.160180136565873016e-01 1.160271494531506797e-01 1.159722769117209340e-01 1.159063887291601341e-01 1.160447904588196300e-01 1.160684522566910043e-01 1.159984666734582559e-01 1.160209770375819072e-01 1.159442350326090054e-01 1.159532183322962012e-01 1.159507295809031058e-01 1.159909157596152179e-01 1.160690844591947962e-01 1.160909106806726349e-01 1.161333883533111205e-01 1.160679645141050320e-01 1.160479921492645061e-01 1.160149597038728497e-01 1.158902686917536312e-01 1.160234951248157315e-01 1.159787048872169685e-01 1.159030562047545787e-01 1.159963802459702265e-01 1.160973060879712387e-01 1.159756303352437595e-01 1.159860988430250206e-01 1.160247993775206377e-01 1.159766917489173793e-01 1.159456212621518545e-01 1.160458205292702050e-01 1.160329306815737344e-01 1.160716300308866078e-01 1.160569406761228911e-01 1.159625763017220895e-01 1.160084644824782296e-01 1.159435768826613256e-01 1.159625132496514555e-01 1.158961517553817461e-01 1.160447455434905906e-01 1.160119745875301950e-01 1.159049371599631673e-01 1.160318347351867174e-01 1.159940490971346216e-01 1.160125111562158307e-01 1.160355139305340455e-01 1.160913275058702426e-01 1.159749997504622571e-01 1.159928184856770794e-01 1.158941905090532520e-01 1.159483779230101597e-01 1.159982310433711750e-01 1.159428217344559975e-01 1.159917739642405965e-01 1.159500340701383886e-01 1.159428182080431691e-01 1.160521232149035326e-01 1.159690866018572020e-01 1.159609894831300364e-01 1.160431915083988130e-01 1.159948836528712779e-01 1.160313419453763706e-01 1.160033498637525751e-01 1.160237022284438119e-01 1.159794710475929719e-01 1.159607392850833113e-01 1.159817744630539244e-01 1.160559704716249696e-01 1.160559426205160088e-01 1.160273948022765567e-01 1.161005640027806263e-01 1.160373802642201968e-01 1.160255436531031914e-01 1.160458300862558245e-01 1.140802104154151064e-01 1.160136987473593256e-01 1.160259461570142814e-01 1.160203698404788375e-01 1.159753927980598509e-01 1.159438235698369707e-01 1.160206255799748482e-01 1.160621645199088753e-01 1.160082870103633507e-01 1.160160290047935749e-01 1.160412311570876848e-01 1.159869796291238819e-01 1.159045928878118525e-01 1.160175392061562200e-01 1.160598466380834137e-01 1.160546135940312140e-01 1.160104210271503816e-01 1.159701341890873733e-01 1.159941767939219465e-01 1.159786155883648084e-01 1.159368774679672143e-01 1.160639887042960311e-01 1.160750411626959022e-01 1.160286837889174943e-01 1.159683264212112430e-01 1.159619660714366479e-01 1.159701088690100884e-01 1.160284486739668330e-01 1.161028451956804680e-01 1.160965362309079457e-01 1.159789100012871832e-01 1.158521171134897082e-01 1.159707389312562842e-01 1.159393363135640953e-01 1.160225306696055780e-01 1.159655699666321260e-01 1.159507797197356083e-01 1.160146566959849301e-01 1.159942737683166414e-01 1.160495175435151405e-01 1.159684562179972150e-01 1.159809687538391199e-01
3.000000000000000000e+00 4.983714392082853606e-01 9.724469893535508946e-03 4.979999999999999982e-01 4.978562461549048135e-01 4.978827560981086697e-01 4.981887070336598056e-01 4.979096043789759674e-01 4.983151991126141822e-01 4.978562815793211027e-01 4.984866851576659763e-01 4.997505033753033010e-01 4.981476531849522993e-01 4.981873625795535943e-01 4.981184543056424996e-01 4.981863111171657699e-01 4.981048342129302808e-01 4.986027554537913464e-01 4.979539941702209038e-01 4.978541895131466943e-01 4.981423416573244056e-01 4.997011809335873411e-01 4.979391532286593369e-01 4.978352507912637837e-01 4.997576943234061098e-01 4.979635103939277219e-01 4.997975256638246822e-01 4.980840006320504942e-01 4.982507788962563522e-01 4.981445343977962126e-01 4.981273578031424898e-01 4.979698831009208848e-01 4.983063459378861415e-01 4.977535196658520733e-01 4.995144204908425478e-01 4.994833854307141885e-01 4.980525866283732617e-01 4.979735545740136549e-01 4.996057620877349392e-01 4.998596938424112457e-01 4.977754557959336856e-01 4.996986582817331546e-01 4.980203907435128419e-01 4.976999425936802224e-01 4.996240292819713602e-01 4.982665865967183527e-01 4.983729139055665947e-01 4.982572869953863504e-01 4.997138372688788022e-01 4.979301835780087226e-01 4.997397550427186141e-01 4.982133167416043507e-01 4.982179374678392114e-01 4.979327885314814850e-01 4.998635385514487717e-01 4.979519556304613515e-01 4.977717476931770579e-01 4.978009612300373088e-01 4.996394386378226193e-01 4.996594142669640304e-01 4.981191480529570392e-01 4.981792661199049288e-01 4.978706404470122360e-01 4.978688443515437712e-01 4.979870172392805716e-01 4.978552490836028466e-01 4.980349097425343374e-01 4.980479912298956813e-01 4.977630221713627567e-01 4.991236995474566118e-01 4.979884134771520587e-01 4.979322734840742615e-01 4.979734429487363556e-01 4.981224980410264846e-01 4.979171289031698033e-01 4.979139977787065963e-01 4.996662723102177073e-01 4.982597415286483811e-01 4.981811780937159262e-01 4.982183383861683024e-01 4.996948117511040843e-01 4.998381173111269282e-01 4.978134959570400531e-01 4.996925472592665951e-01 4.994532447554526633e-01 4.981128984866520781e-01 4.983327246041295844e-01 4.979832687707295147e-01 4.983057703714482423e-01 4.985011793340994313e-01 4.981729765856836023e-01 4.982118226132784544e-01 4.998533727301766594e-01 4.995082638813416742e-01 4.979775163200828580e-01 4.978749200084561233e-01 4.981270274301141665e-01 4.984656738430096601e-01 4.999058640581817703e-01 4.982797926606977179e-01 4.982788791843036913e-01 4.982953600891453783e-01 4.984559343428278666e-01 4.981465839248898075e-01 4.981354066271100334e-01 4.998086008980949790e-01 4.981109090747737334e-01 4.980240707290816693e-01 4.978905759279843024e-01 4.980639999844566068e-01 4.978873799914884102e-01 4.982410393941318905e-01 4.981262226581233965e-01 4.981963432561862248e-01 4.980773344912109990e-01 4.981165554109399651e-01 4.978809819141122306e-01 4.995965031429316361e-01 4.981922900732084214e-01 4.982938726192424617e-01 4.979934172705362538e-01 4.980900565923774836e-01 4.997596337612457140e-01 4.977991614610647320e-01 4.997876275038926619e-01 4.979610004162791648e-01 4.982965867299914420e-01 4.983902889566808048e-01 4.985726499995598027e-01 4.982917786898646839e-01 4.982060352614976484e-01 4.980642235562817155e-01 4.995270202230759904e-01 4.981008670013640782e-01 4.979085778778797322e-01 4.995821388135974206e-01 4.979844600214929362e-01 4.984177451018075300e-01 4.978953785082017025e-01 4.979403208950556881e-01 4.981064662931489195e-01 4.978999352669039036e-01 4.997656088885855663e-01 4.981967122722116836e-01 4.981413748226182214e-01 4.983075151325993546e-01 4.982444522130103359e-01 4.978393361918758697e-01 4.980363388989151874e-01 4.997567969080229378e-01 4.978390655028139267e-01 4.995523782559557757e-01 4.981920972470544329e-01 4.980514081430175710e-01 4.995902463791515591e-01 4.981366698114050862e-01 4.999743495566147389e-01 4.980537116878920867e-01 4.981524649776375435e-01 4.983920784303739748e-01 4.978926713425017581e-01 4.979691690160963913e-01 4.995439246079881324e-01 4.977783810832677180e-01 4.979924056861969595e-01 4.977545277910265797e-01 4.979646847775156537e-01 4.977854910942147715e-01 4.997535267588067431e-01 4.982237703536375739e-01 4.998667525942120382e-01 4.978325238155065779e-01 4.981854256136432069e-01 4.979780349924990968e-01 4.981345542137709526e-01 4.980143813116274520e-01 4.981017561186639742e-01 4.979118670836319427e-01 4.978314496894093444e-01 4.979217558844901137e-01 4.982402870247347182e-01 4.982401674570428596e-01 4.981176087201182878e-01 4.984317316671099674e-01 4.981604773412211529e-01 4.981096615452188514e-01 4.981967533013396676e-01 4.983503928673396755e-01 4.980588101395253542e-01 4.981113895361474753e-01 4.980874498324005528e-01 4.978943587364982881e-01 4.997578602148144977e-01 4.980885477485126889e-01 4.982668787147812028e-01 4.980355769927667930e-01 4.980688141757517173e-01 4.981770096226695310e-01 4.979441022008938011e-01 4.995887624474649180e-01 4.980752976264293252e-01 4.982569278083236464e-01 4.982344618088581090e-01 4.980447385475939015e-01 4.978717829841854403e-01 4.979750003739062958e-01 4.979081945086695771e-01 4.997279201205483967e-01 4.982747101270640355e-01 4.983221594743323934e-01 4.981231424731112911e-01 4.978640220496827751e-01 4.978367164101332176e-01 4.978716742824743635e-01 4.981221331003058972e-01 4.984415250642144080e-01 4.984144400257944363e-01 4.979094584538019674e-01 4.993625737650418395e-01 4.978743792048761496e-01 4.977395645185768713e-01 4.980967264953756191e-01 4.978521883050241459e-01 4.977886922450718843e-01 4.980629227120732527e-01 4.979754166950145500e-01 4.982125839368150566e-01 4.978645792807122050e-01 4.979182968914817597e-01
4.000000000000000000e+00 1.817220783087447167e+00 8.981255516078565787e-03 1.818000000000000060e+00 1.817475211866700580e+00 1.817571989129239896e+00 1.816688136492221162e+00 1.817670001528068902e+00 1.817149400780135426e+00 1.817475341187160254e+00 1.817774739450444654e+00 1.817092830272602821e+00 1.818539023072777594e+00 1.816683233824235577e+00 1.816431953853507864e+00 1.816679399575849452e+00 1.816382287009400409e+00 1.818197999807399823e+00 1.817832051006950778e+00 1.817467703885342623e+00 1.816519061143978320e+00 1.816913493874523722e+00 1.817777872629924962e+00 1.817398566141601668e+00 1.817118976559904509e+00 1.817866790956145895e+00 1.817263803313666548e+00 1.816306315557838724e+00 1.816914486898798309e+00 1.816527057161441583e+00 1.816464421225917336e+00 1.817890055175650943e+00 1.817117116914058750e+00 1.817100198298231106e+00 1.818232490586666694e+00 1.818119522967799551e+00 1.818191972872254425e+00 1.817903458264170435e+00 1.818564973999355239e+00 1.817489846811007226e+00 1.817180278387565240e+00 1.816904321512381681e+00 1.818074438497402356e+00 1.816904609709459217e+00 1.816632970469247876e+00 1.816972131043454786e+00 1.817359862756041888e+00 1.816938219244220054e+00 1.816959512309643365e+00 1.817745128001646338e+00 1.817053749335324930e+00 1.816777877917175710e+00 1.816794727794369457e+00 1.817754637651070926e+00 1.817503826173067605e+00 1.817824609108792622e+00 1.817166741578706723e+00 1.817273388586762906e+00 1.816688998887123097e+00 1.816761630274681183e+00 1.816434483662991983e+00 1.816653709385034787e+00 1.817527759704153034e+00 1.817521202873707997e+00 1.817952605102433949e+00 1.817471571955803000e+00 1.818127441590215776e+00 1.816175004163635531e+00 1.817134888167746043e+00 1.816810266352742120e+00 1.817957702211772109e+00 1.817752757417765208e+00 1.817903050764664075e+00 1.816446699683743171e+00 1.817697470574222596e+00 1.817686040083712040e+00 1.816786566119951596e+00 1.816947169911697468e+00 1.816660681562626944e+00 1.816796189777673654e+00 1.816890335527014511e+00 1.817411394543257508e+00 1.817319147891363063e+00 1.816882101834693453e+00 1.818009810909847701e+00 1.816411694079839600e+00 1.817213308998191224e+00 1.817938920934108804e+00 1.817115018061345344e+00 1.817827593716314416e+00 1.816630774055424613e+00 1.816772429449224235e+00 1.817466863246922415e+00 1.818210080528083639e+00 1.817917921023917138e+00 1.817543382681472419e+00 1.816463216492143262e+00 1.817698119877320551e+00 1.817657721715548735e+00 1.817020288096038438e+00 1.817016957025492818e+00 1.817077056068048257e+00 1.817662603948946520e+00 1.816534530938955783e+00 1.816493771957493619e+00 1.817304072865473463e+00 1.816404439517648850e+00 1.818087872661587223e+00 1.817600536219027063e+00 1.816233381469424035e+00 1.817588869125553952e+00 1.816878970963340389e+00 1.816460281821590472e+00 1.816715982637016502e+00 1.816282006899677226e+00 1.816425029370013933e+00 1.817565512288867646e+00 1.816532885427699417e+00 1.816701202355314182e+00 1.817071631880611049e+00 1.817975969071957909e+00 1.816328399140075378e+00 1.817126028355889211e+00 1.817266818345814716e+00 1.817227813604153752e+00 1.817857628025693728e+00 1.817081529119808136e+00 1.817423222380185388e+00 1.818088217669077356e+00 1.817063996186333963e+00 1.816751325371244397e+00 1.818234454669317657e+00 1.818278353611996634e+00 1.816367820229873864e+00 1.817666254180693386e+00 1.816480656726239928e+00 1.817943269717016364e+00 1.817523343584101170e+00 1.817618068529941011e+00 1.817782135315685332e+00 1.818388666106314888e+00 1.817634703444239719e+00 1.817147753918896935e+00 1.818718118294941455e+00 1.816515535497740474e+00 1.817121380483535109e+00 1.816891416102061951e+00 1.817413480314920449e+00 1.818132658871943308e+00 1.817115713557571288e+00 1.817412492136778468e+00 1.816372447338655327e+00 1.816700499198094176e+00 1.816187464232369209e+00 1.816510135834595197e+00 1.816498378268095681e+00 1.817906734987851269e+00 1.818196080017244753e+00 1.816555976705601871e+00 1.817429747850520361e+00 1.817608185744313598e+00 1.817887448335870015e+00 1.816341709874644827e+00 1.817190957448555633e+00 1.817972276179731228e+00 1.817103878562422503e+00 1.817871078163701970e+00 1.817216913271651579e+00 1.817103823295021403e+00 1.816815997916075842e+00 1.817515512432554825e+00 1.817388611037331181e+00 1.816676170510795219e+00 1.817919814490689401e+00 1.816490663558650631e+00 1.818052500450880959e+00 1.816371062472879050e+00 1.817678261763138181e+00 1.817384689830012334e+00 1.817714361843379534e+00 1.816876227383369624e+00 1.816875791369457538e+00 1.816428870352881031e+00 1.817574346802151908e+00 1.816585194481240118e+00 1.816399890293408648e+00 1.816717477902074052e+00 1.817277737845560015e+00 1.816214456251763254e+00 1.816406191561533934e+00 1.816318893364737841e+00 1.817614345748903126e+00 1.817119579741065527e+00 1.818323252624088449e+00 1.816973196277194225e+00 1.816129734576032995e+00 1.818251213195816174e+00 1.816645480873027907e+00 1.817795939359889479e+00 1.816504740258982453e+00 1.816274579296376812e+00 1.816936909437581793e+00 1.816854985230695441e+00 1.818163322649650082e+00 1.817531930653110805e+00 1.817908736304742368e+00 1.817664854652131234e+00 1.817010717558313893e+00 1.817001754198289909e+00 1.817174782340135852e+00 1.816449049660984194e+00 1.817503598566914125e+00 1.817403916533378183e+00 1.817531533826382439e+00 1.816445368895894585e+00 1.817610059270307943e+00 1.817511291339041657e+00 1.817669468813277067e+00 1.817679768504752325e+00 1.817541408422620242e+00 1.817049253603961301e+00 1.816352721517273672e+00 1.817460398270148270e+00 1.817228599400684264e+00 1.816229453102660596e+00 1.815910354855715614e+00 1.816775205681237626e+00 1.817505632795852977e+00 1.817701734435168248e+00
5.000000000000000000e+00 4.935976965535206595e+00 1.745164346284539675e-02 4.935999999999999943e+00 4.936574585367308643e+00 4.934837919880049384e+00 4.935869639566420553e+00 4.935104030551456411e+00 4.937122876348671419e+00 4.934925412799453071e+00 4.936819942163872987e+00 4.933536969320994281e+00 4.933462300217238194e+00 4.935856319211882948e+00 4.937174077214159240e+00 4.937846649948454569e+00 4.937039079668722685e+00 4.935967036922071394e+00 4.935544006474318124e+00 4.936554192401442442e+00 4.937410840201914120e+00 4.935048862900108801e+00 4.937396663942007713e+00 4.936366402424217981e+00 4.935606989137959033e+00 4.937638181375934465e+00 4.936000363455932849e+00 4.934832247225978463e+00 4.936484624646844566e+00 4.935431993411096840e+00 4.937262325534762297e+00 4.935701491940051255e+00 4.937035162364519003e+00 4.935555984156581921e+00 4.935202474449524424e+00 4.934895848055456113e+00 4.936521220075603011e+00 4.935737882283797617e+00 4.934106506378469703e+00 4.932615458836914435e+00 4.935773495422330903e+00 4.937022743823523463e+00 4.936202105843332077e+00 4.937023526933294271e+00 4.936285409305877003e+00 4.936641241502425892e+00 4.935693195546695833e+00 4.934548071207320419e+00 4.935173856867447029e+00 4.937307723912062407e+00 4.935429820801888745e+00 4.936113463459991912e+00 4.936159243908270433e+00 4.935333823677495069e+00 4.934652852579901605e+00 4.935523801188669069e+00 4.933737643802253103e+00 4.936026398702659357e+00 4.934439095987136703e+00 4.934636375300536670e+00 4.935180474886124102e+00 4.935776102481145955e+00 4.936717314311940719e+00 4.936699504835186936e+00 4.935871319464033569e+00 4.936564698744640545e+00 4.936346013030420643e+00 4.936475672109970070e+00 4.935650207795561073e+00 4.933338646327061205e+00 4.937885111948146388e+00 4.939328174721540066e+00 4.937736669238675269e+00 4.935213665330169697e+00 4.935178610975996527e+00 4.937147230986452584e+00 4.932705440246468953e+00 4.936573423097090796e+00 4.935795045611233611e+00 4.936163216058944592e+00 4.934985960853904174e+00 4.934401894095445051e+00 4.936150688827035893e+00 4.934963596732517388e+00 4.934598058183872205e+00 4.937119009899828548e+00 4.935295176199933742e+00 4.937834098774823488e+00 4.935028231871450899e+00 4.936963486899153430e+00 4.935713788099925559e+00 4.936098660188585896e+00 4.934552495592304133e+00 4.935141647147654353e+00 4.935777149710700584e+00 4.936759748999510755e+00 4.935258540843741493e+00 4.936611854204264738e+00 4.935070689982370418e+00 4.934770958639680849e+00 4.936763031918381728e+00 4.936926318634223598e+00 4.936515397949452044e+00 4.935452299368286333e+00 4.937342102633363261e+00 4.934110508065994161e+00 4.935098846134404305e+00 4.936238580559733080e+00 4.936914987816036771e+00 4.936634345227465914e+00 4.934883750277081482e+00 4.938389097288022000e+00 4.935250567460202298e+00 4.935945296437797225e+00 4.936766512145818631e+00 4.937155256040963280e+00 4.936819856811016649e+00 4.934015065039592862e+00 4.937905911247704616e+00 4.936911581332012133e+00 4.935934754311982253e+00 4.936892609116416253e+00 4.933627104491018045e+00 4.934009359381155591e+00 4.933903458718428503e+00 4.935613449909144634e+00 4.936938471738510081e+00 4.935865271354115791e+00 4.935669005015722810e+00 4.936890835453398019e+00 4.938042148696290212e+00 4.936636561192382366e+00 4.935326959803990832e+00 4.934999352981386700e+00 4.937093489078253405e+00 4.935871531478342789e+00 4.935845973225078787e+00 4.936137186429949253e+00 4.936962608581325185e+00 4.937408242128082492e+00 4.937055256271050574e+00 4.935008193729794712e+00 4.933686090948117275e+00 4.935948952512234200e+00 4.935400689507627447e+00 4.939047981314278246e+00 4.936421942206813185e+00 4.936406911878480130e+00 4.936360178323384140e+00 4.935598126263634811e+00 4.934404874140340347e+00 4.935577497168843308e+00 4.935903228548125909e+00 4.934509332886844568e+00 4.933953273240501147e+00 4.935354073994925095e+00 4.933746881424674768e+00 4.936532371267942310e+00 4.935510566665991306e+00 4.935882993611655500e+00 4.936935765239504725e+00 4.935694414183638301e+00 4.933495799428491146e+00 4.935802501584690916e+00 4.937924697346266711e+00 4.937564994553556019e+00 4.935649967995616727e+00 4.935873002054684378e+00 4.935565830269974974e+00 4.936217033985638380e+00 4.933734834779945899e+00 4.934340035247670286e+00 4.935837128469308333e+00 4.935782290608384137e+00 4.937333653813601231e+00 4.936142542478299866e+00 4.937008570686195696e+00 4.937126103732880189e+00 4.936328711980529249e+00 4.937224157746209485e+00 4.936380675060322964e+00 4.936379490427809991e+00 4.935165223745108243e+00 4.936275703980293805e+00 4.937590594691300794e+00 4.937086926480321658e+00 4.937950149187575910e+00 4.937471563067176383e+00 4.936582905318669390e+00 4.937104053715710705e+00 4.936866771832788992e+00 4.934952921131236181e+00 4.933609596040648526e+00 4.934877298375826449e+00 4.936644135700261948e+00 4.936352626578909053e+00 4.936682061790181208e+00 4.935753745940264281e+00 4.934646050565686615e+00 4.935936972980953463e+00 4.936746323461957964e+00 4.936545545795720358e+00 4.936322960973706486e+00 4.936443432672537490e+00 4.936728643325116295e+00 4.935752212541368422e+00 4.937089687718494879e+00 4.935312939110535702e+00 4.936721726439626146e+00 4.937191837040875164e+00 4.935220050125162849e+00 4.936651688516733749e+00 4.934781459612318955e+00 4.934728080839946962e+00 4.937210540126726777e+00 4.936372694009448558e+00 4.936104454231362126e+00 4.935102584192703645e+00 4.933702228798613199e+00 4.936754386573651843e+00 4.935417609623961255e+00 4.936958718837699323e+00 4.936534349096805663e+00 4.935904743586676524e+00 4.938623920385978749e+00 4.937756240240926964e+00 4.936106203100894874e+00 4.934657757689950408e+00 4.937189859538427150e+00
6.000000000000000000e+00 2.995199768006391594e-03 2.568104853527075645e-05 3.008511766975308522e-03 2.994346922153635297e-03 2.994346922153635297e-03 2.996367026748971308e-03 2.994571973593964254e-03 2.996851959019204356e-03 2.994454089506172999e-03 2.998006687242798368e-03 2.993444037208504993e-03 2.996283972050754318e-03 2.996160729595336285e-03 2.995887452846365036e-03 2.996428647976680324e-03 2.995847265089163127e-03 2.998687199931412885e-03 2.994872042181069820e-03 2.994344242969821691e-03 2.995825831618655587e-03 2.993441358024691388e-03 2.994703253600823102e-03 2.994282621742112675e-03 2.993591392318244171e-03 2.994799704218106817e-03 2.994057570301783284e-03 2.995423954046639095e-03 2.996763545953360589e-03 2.995782964677640506e-03 2.995866019375857496e-03 2.994976530349794351e-03 2.997272590877914783e-03 2.993328832304526909e-03 2.992182141632373279e-03 2.992050861625514431e-03 2.995442708333333464e-03 2.994893475651577361e-03 2.992667073902606327e-03 2.994443372770919012e-03 2.993553883744855867e-03 2.993379736796982372e-03 2.995397162208504778e-03 2.993127893518518663e-03 2.993044838820301673e-03 2.996562607167352343e-03 2.997326174554183851e-03 2.996656378600822887e-03 2.993454753943758546e-03 2.995051547496570526e-03 2.993358303326474831e-03 2.996549211248285185e-03 2.996557248799725567e-03 2.994518389917695620e-03 2.994354959705075245e-03 2.994909550754458125e-03 2.993990590706447057e-03 2.993754822530864113e-03 2.993296682098765382e-03 2.993036801268861291e-03 2.996010695301783069e-03 2.996369705932784479e-03 2.994017382544581808e-03 2.994357638888888850e-03 2.994834533607681950e-03 2.994135266632373064e-03 2.995397162208504778e-03 2.995523083847736415e-03 2.993786972736625640e-03 2.989711934156378485e-03 2.995314107510288221e-03 2.994513031550068410e-03 2.995064943415637684e-03 2.995828510802469192e-03 2.994314771947873769e-03 2.994542502572016332e-03 2.993492262517146851e-03 2.997020747599451508e-03 2.996187521433470603e-03 2.996975201474622822e-03 2.993109139231824294e-03 2.994079003772290824e-03 2.993963798868312740e-03 2.993449395576131770e-03 2.991761509773662418e-03 2.995831189986282363e-03 2.997111839849108447e-03 2.994965813614540364e-03 2.997269911694101611e-03 2.998140646433470387e-03 2.996267896947873988e-03 2.996037487139917820e-03 2.994261188271605135e-03 2.992120520404663829e-03 2.994989926268861510e-03 2.994531785836762779e-03 2.995965149176954816e-03 2.998046874999999844e-03 2.994365676440329232e-03 2.997235082304526912e-03 2.996707283093278350e-03 2.996817129629629657e-03 2.997971857853223669e-03 2.996136616941015140e-03 2.995815114883402033e-03 2.993926290294924436e-03 2.996107145919067218e-03 2.995233731995884836e-03 2.994293338477366229e-03 2.995448066700960241e-03 2.994606802983538953e-03 2.996452760631001470e-03 2.996093750000000059e-03 2.996123221021947981e-03 2.995544517318243956e-03 2.995884773662551431e-03 2.994553219307270319e-03 2.992648319615912392e-03 2.996460798182441852e-03 2.996803733710562499e-03 2.995268561385459535e-03 2.995702589163237121e-03 2.993414566186557071e-03 2.994089720507544378e-03 2.993835198045267498e-03 2.994912229938271730e-03 2.996862675754458343e-03 2.997535150891632479e-03 2.998534486454046497e-03 2.996948409636488505e-03 2.996249142661179619e-03 2.995410558127571937e-03 2.992310742455418521e-03 2.995823152434842415e-03 2.994561256858710701e-03 2.992626886145404851e-03 2.995153356481481451e-03 2.997650355795610563e-03 2.994454089506172999e-03 2.994780949931412882e-03 2.995833869170095969e-03 2.994601444615912177e-03 2.993497620884773627e-03 2.996123221021947981e-03 2.995916923868312959e-03 2.996945730452674900e-03 2.996916259430726977e-03 2.994003986625514216e-03 2.995322145061728603e-03 2.993572638031550236e-03 2.994221000514403225e-03 2.992519718792867149e-03 2.996326838991769399e-03 2.995630251200274551e-03 2.992758166152263265e-03 2.995651684670782092e-03 2.995257844650205548e-03 2.995410558127571937e-03 2.995922282235939735e-03 2.997773598251028595e-03 2.994325488683127756e-03 2.994928305041152060e-03 2.992083011831275525e-03 2.993886102537722960e-03 2.995091735253772435e-03 2.993741426611796954e-03 2.994663065843621193e-03 2.994036136831275743e-03 2.993545846193415485e-03 2.996793016975308512e-03 2.994095078875171588e-03 2.993741426611796954e-03 2.996969843106996045e-03 2.995134602194787516e-03 2.995705268347050726e-03 2.995622213648834169e-03 2.995592742626886247e-03 2.994727366255144248e-03 2.994044174382716125e-03 2.994644311556927258e-03 2.996519740226337263e-03 2.996776941872428181e-03 2.995930319787380117e-03 2.997878086419753126e-03 2.996289330418381528e-03 2.995890132030178208e-03 2.996367026748971308e-03 2.996905542695473424e-03 2.995373049554183632e-03 2.995718664266117885e-03 2.995683834876543186e-03 2.994483560528120921e-03 2.994183491941014921e-03 2.995348936899862920e-03 2.996835883916323592e-03 2.995180148319615768e-03 2.995383766289437619e-03 2.996158050411522680e-03 2.994622878086419717e-03 2.992541152263374690e-03 2.995431991598079477e-03 2.996894825960219437e-03 2.996817129629629657e-03 2.995622213648834169e-03 2.994258509087791530e-03 2.994981888717421128e-03 2.994724687071330643e-03 2.993438678840877783e-03 2.996830525548696816e-03 2.997184177812071450e-03 2.996324159807956227e-03 2.994354959705075245e-03 2.994129908264746287e-03 2.994320130315500546e-03 2.995817794067215205e-03 2.998022762345679132e-03 2.997615526406035864e-03 2.994665745027434798e-03 2.991011338305898503e-03 2.994379072359396390e-03 2.993615504972565317e-03 2.995729381001371872e-03 2.994038816015089349e-03 2.993945044581618805e-03 2.995319465877914998e-03 2.994906871570644519e-03 2.996187521433470603e-03 2.994446051954732617e-03 2.994740762174211406e-03
