# vvf statistics with RF=500
# gcat file: /disk2/salam/Abacus/AbacusCosmos_720box_products/GCAT_derivative/AbacusCosmos_720box_37_rockstar_halos_z0.100_Mr21_hod-default_real-6.gcat.rsd_zz.1pz0.100by100
# stats order in row: stdvvf,p2.5,p16,p50,p84,p97.5,rho
# columns: numbers, mean, sigma,All, jnrealizations
0.000000000000000000e+00 1.403177846402557050e+00 5.001531268640099781e-03 1.403178094651499563e+00 1.403515457045685366e+00 1.402770373574750540e+00 1.403175211828817659e+00 1.403189149677292136e+00 1.403548995769267282e+00 1.403292213071563266e+00 1.403486944975914197e+00 1.402166281295203376e+00 1.401995211089975157e+00 1.403031043226429464e+00 1.403768577556554709e+00 1.403516576945211591e+00 1.403215904924353552e+00 1.402896959176127112e+00 1.403588366601059789e+00 1.403159652133415980e+00 1.403416902688637613e+00 1.403241383889246130e+00 1.403549637211566337e+00 1.403415259277015714e+00 1.403211028328565924e+00 1.403935872230163140e+00 1.403082391894130643e+00 1.403255651385152181e+00 1.403162502041228166e+00 1.403582805435639180e+00 1.403562153942643054e+00 1.403087892665812131e+00 1.403475640920661460e+00 1.402911183519712779e+00 1.403126688524535925e+00 1.402661676905705423e+00 1.403349944576310460e+00 1.403223458802678847e+00 1.402651613159221045e+00 1.402641309186046792e+00 1.403316879084285151e+00 1.402987564928031228e+00 1.403129179063493437e+00 1.403367325762111761e+00 1.402999521911574066e+00 1.403203314431136439e+00 1.403367741184198714e+00 1.403013500416573134e+00 1.402615702538012821e+00 1.403416826507820403e+00 1.402782502068199877e+00 1.403805318328535945e+00 1.403372236412803842e+00 1.403030230428166325e+00 1.402600097796521839e+00 1.403112353504711640e+00 1.402860933618144790e+00 1.403183969198830816e+00 1.402443807863817726e+00 1.402948200747957008e+00 1.402961909730624734e+00 1.403213902055156614e+00 1.403162965036179433e+00 1.402703049734116858e+00 1.403393959809239311e+00 1.403371965106195107e+00 1.403660963626018887e+00 1.403243784290454599e+00 1.403313534803832807e+00 1.402374860175299887e+00 1.403830802220450868e+00 1.403628980968457451e+00 1.403668224500598471e+00 1.402924523021517045e+00 1.403024483629152552e+00 1.403642470528103869e+00 1.402761466428248172e+00 1.403157074918058855e+00 1.402934937751254774e+00 1.403288714670621662e+00 1.403225860196775754e+00 1.402769499039826728e+00 1.403106806353827007e+00 1.402903260071790115e+00 1.402861353575208803e+00 1.403321379104558453e+00 1.402433424642203441e+00 1.403382311946880234e+00 1.402796468500782545e+00 1.403840003042654772e+00 1.403110349180143324e+00 1.403524761497391360e+00 1.402730924301770932e+00 1.402756184831138953e+00 1.403313125936272332e+00 1.403168970470839216e+00 1.403182104847553235e+00 1.403563844056040288e+00 1.402980192821112526e+00 1.402958866085804335e+00 1.403626795787165982e+00 1.403249156537946130e+00 1.403423494741323774e+00 1.403104126966956411e+00 1.403338532287631280e+00 1.402956200702784262e+00 1.402888306814787933e+00 1.403073411749108157e+00 1.403166111776630087e+00 1.403300405914499338e+00 1.403209172081487877e+00 1.403074792156516315e+00 1.402785917359353540e+00 1.403199083915743328e+00 1.403545178435388507e+00 1.403338984850800220e+00 1.403323148902857032e+00 1.402816110157213414e+00 1.403503584962925155e+00 1.403343778174984902e+00 1.403169201100930463e+00 1.403090187939069811e+00 1.402568614163338445e+00 1.403248233961904567e+00 1.403022945648706887e+00 1.402985378105480407e+00 1.403166023931660122e+00 1.403221627040188046e+00 1.403058372213469962e+00 1.403351197018359198e+00 1.403688400214695653e+00 1.403534505625408269e+00 1.403113599392952882e+00 1.403096598039461185e+00 1.403384308724010987e+00 1.402937573159917406e+00 1.403286630950351555e+00 1.403304050891532206e+00 1.403313694893570940e+00 1.403265220097806409e+00 1.403353537869820755e+00 1.403104362021108997e+00 1.402297385980456612e+00 1.402524705341224864e+00 1.403126480087806494e+00 1.403465377189157648e+00 1.403469327525137311e+00 1.403289162504871124e+00 1.403292135133888729e+00 1.403115911759565071e+00 1.402906185889644552e+00 1.403320315709669197e+00 1.402879913946455392e+00 1.402923773186163015e+00 1.402602875652591008e+00 1.403045641400643362e+00 1.402307713731779648e+00 1.403472900706551840e+00 1.403552547840128062e+00 1.403758222462643257e+00 1.403256273367174956e+00 1.403546937029645836e+00 1.402572368161980387e+00 1.403337717266553319e+00 1.403586651676153263e+00 1.403424466963307582e+00 1.403367725937179289e+00 1.403050270061372951e+00 1.403068827705054034e+00 1.402816328387662015e+00 1.402530577243059406e+00 1.402927649070196958e+00 1.403244350558695563e+00 1.403169314198658313e+00 1.403371441837541145e+00 1.403157667163646094e+00 1.403526904765798777e+00 1.402930689926496832e+00 1.403191063376683978e+00 1.403374937510244447e+00 1.403689519890965132e+00 1.403240229974495934e+00 1.402994715156442362e+00 1.403432100665541027e+00 1.403445581648345319e+00 1.403356032388925367e+00 1.403304345475439030e+00 1.403627746489971795e+00 1.403476653100150795e+00 1.403622283369972745e+00 1.403554918100673454e+00 1.403259652351163345e+00 1.402297466466600806e+00 1.403303433205599582e+00 1.402968568864807031e+00 1.403470531241511221e+00 1.403661828234951336e+00 1.403201439766628367e+00 1.403031735341915054e+00 1.403146569201465743e+00 1.403514754657289032e+00 1.403468936795685407e+00 1.403503740335689587e+00 1.403046510087956111e+00 1.403296260832638254e+00 1.403204449212022364e+00 1.403238322700776308e+00 1.402872577420078315e+00 1.403177507818818226e+00 1.403440451660242561e+00 1.402904547249105516e+00 1.403351912580140581e+00 1.403058998031034177e+00 1.403137312444602491e+00 1.403233505522473168e+00 1.403063353134422764e+00 1.402810895323436391e+00 1.403006398692300927e+00 1.402581109409183568e+00 1.403084143359234259e+00 1.403383193011297436e+00 1.403027156570885170e+00 1.403483534511515973e+00 1.403220379985369970e+00 1.404019208140564468e+00 1.403495561411205905e+00 1.403663847895797234e+00 1.402607403414973808e+00 1.403089188869387938e+00
1.000000000000000000e+00 2.253076550072379350e-02 1.313654790324480202e-02 2.199999999999999872e-02 2.399120656965642723e-02 2.399260751475358264e-02 2.200767843976200039e-02 2.399696127592441247e-02 2.201459643303109448e-02 2.199543737685592457e-02 2.202253563912586615e-02 2.398434798138050078e-02 2.400773657655782406e-02 2.200848888465982076e-02 2.200704072541515011e-02 2.200649565592774012e-02 2.200419728955436277e-02 2.202776491398344971e-02 2.199953134193296037e-02 2.199291568357517393e-02 2.200495832733589952e-02 2.198675507233478765e-02 2.399608239798082035e-02 2.199227504282095721e-02 2.198972029433565387e-02 2.199999133703152421e-02 2.199209468063800799e-02 2.200522368575414528e-02 2.201322235682886749e-02 2.200716497323564752e-02 2.200778847968754004e-02 2.199845550237746264e-02 2.201297432173727683e-02 2.399117350233818946e-02 2.197665883173338316e-02 2.397054964729773002e-02 2.200276972095851699e-02 2.399691336960686067e-02 2.397339260265286473e-02 2.399330762305353429e-02 2.198955662008898748e-02 2.398869157716591871e-02 2.199874875797427562e-02 2.198802133962850583e-02 2.398063943634616210e-02 2.201131390742634003e-02 2.201918333047302861e-02 2.201164731962495721e-02 2.398403399694959415e-02 2.199830656925542971e-02 2.198334039335759701e-02 2.201106817919419242e-02 2.200846106573260338e-02 2.399704672775464231e-02 2.199030048398789919e-02 2.199982949559685375e-02 2.198736993252684013e-02 2.198882941698429919e-02 2.398083293650350376e-02 2.397969483133132601e-02 2.200537641401328556e-02 2.200772090586096408e-02 2.399428812214749948e-02 2.199317561749112790e-02 2.399990581208443982e-02 2.199405299439907702e-02 2.200466715714344615e-02 2.200337678936750002e-02 2.398780670767023185e-02 2.395607031348634744e-02 2.199847272668731604e-02 2.200051820826402077e-02 2.199902201578600447e-02 2.200295728627069472e-02 2.199554490076769883e-02 2.199474286171003087e-02 2.398320046598786948e-02 2.201011942792797244e-02 2.200751803365916595e-02 2.200878412722529973e-02 2.198474518898880375e-02 2.399113632314716846e-02 2.199141908349705118e-02 2.198541905025178100e-02 2.397478575301149537e-02 2.200332188456556592e-02 2.401376107082394892e-02 2.199820875536461634e-02 2.201375984409363606e-02 2.202353365004323243e-02 2.201019270991843094e-02 2.200894569018677430e-02 2.199383430767388320e-02 2.397791754215185603e-02 2.399669059767629148e-02 2.199198211377948256e-02 2.200523995816264927e-02 2.202293309147531838e-02 2.399520552153566744e-02 2.201427797458246211e-02 2.201087875663298304e-02 2.201176439867690710e-02 2.201945070459513515e-02 2.201151465480202796e-02 2.200652559388724741e-02 2.198932352127090997e-02 2.200653264394192288e-02 2.200048731743584063e-02 2.398798558127228017e-02 2.400210818746614447e-02 2.199695114699216913e-02 2.201233275219095092e-02 2.200955698029548671e-02 2.201002914701585822e-02 2.200592158439513418e-02 2.400448031290411399e-02 2.199577011323035694e-02 2.397937015154336451e-02 2.201105001862926208e-02 2.201391114430461746e-02 2.199958420699952774e-02 2.200535237454063001e-02 2.398520474079213552e-02 2.398778182016753427e-02 2.398773582373352892e-02 2.199865662136699790e-02 2.201447405262427909e-02 2.201626488121983735e-02 2.202802499583450535e-02 2.201665535893103723e-02 2.200569628390728130e-02 2.200263905996918332e-02 2.397510396729948812e-02 2.400525479645762225e-02 2.399596811311940220e-02 2.197758964648789670e-02 2.199753707096800334e-02 2.201947588220686328e-02 2.199853222678451597e-02 2.199693692972069098e-02 2.200334805314716619e-02 2.199815917449057107e-02 2.198801223334184013e-02 2.200858710394432496e-02 2.401097617476800894e-02 2.201347119761752624e-02 2.201303745949878196e-02 2.399130191833255890e-02 2.200558669836407896e-02 2.198611623071564103e-02 2.399400809477753374e-02 2.398281653447370543e-02 2.201080875091280739e-02 2.200455551642124460e-02 2.397986783838658431e-02 2.200608952988443792e-02 2.399396395959714490e-02 2.200378137838354675e-02 2.200551543627541490e-02 2.201964544178741309e-02 2.199732577522761981e-02 2.199784705801708512e-02 2.398019428192329008e-02 2.198870509866674219e-02 2.199632101805932757e-02 2.198957286148623541e-02 2.200163000383463865e-02 2.199089302684447897e-02 2.398696283423486578e-02 2.201286240150035489e-02 2.398728378917480697e-02 2.199150981933232010e-02 2.201311804792580734e-02 2.199827479148930634e-02 2.200669750120036808e-02 2.199899971378603547e-02 2.200179398551192073e-02 2.199380422990841397e-02 2.199195117818528861e-02 2.199573943033539258e-02 2.201170843598254309e-02 2.201020123533010617e-02 2.400641151084284899e-02 2.201800185067266658e-02 2.200959190565606599e-02 2.200894478952185665e-02 2.400725432665719999e-02 2.201639217546374344e-02 2.200549701285509779e-02 2.200553888544805672e-02 2.200401896721436781e-02 2.399305736695737587e-02 2.398828032280983166e-02 2.200578913061989814e-02 2.201289546406263661e-02 2.200110857325124000e-02 2.200233660415718689e-02 2.200626804986358445e-02 2.199975160397415336e-02 2.398304521736946415e-02 2.200456154806164008e-02 2.201400793533777461e-02 2.201219060216675835e-02 2.400002975456205431e-02 2.199244479873346467e-02 2.199936619413403460e-02 2.399404045256460852e-02 2.198546107374823450e-02 2.201462130129909489e-02 2.201381721139723455e-02 2.400806949585414588e-02 2.199650563886746540e-02 2.399398589986012631e-02 2.199174247318966269e-02 2.200670367746719244e-02 2.202140306197034395e-02 2.201808317128057038e-02 2.199517988326479823e-02 2.396889773079430991e-02 2.198979758153155745e-02 2.198997508065573744e-02 2.400433533676384762e-02 2.199506772237126012e-02 2.198854641283020175e-02 2.200054299640168479e-02 2.400054863975545003e-02 2.201253041061718152e-02 2.199623630845730718e-02 2.399410681593196204e-02
2.000000000000000000e+00 1.079999993110163370e-01 8.307436109060480772e-04 1.079999999999999988e-01 1.079604295634539191e-01 1.079667338163911305e-01 1.080376941588316320e-01 1.079863257416598388e-01 1.080716552166980926e-01 1.079776016682018197e-01 1.081106295011633328e-01 1.079295659162122639e-01 1.080348145945102117e-01 1.080416727065118404e-01 1.080345635611289212e-01 1.080318877654634635e-01 1.080206048759941445e-01 1.081363004868278466e-01 1.079976993149436154e-01 1.079652224466417648e-01 1.080243408796489613e-01 1.079349794460071343e-01 1.079823707909137037e-01 1.079620774829392338e-01 1.079495359903750173e-01 1.079999574727002198e-01 1.079611920685865922e-01 1.080256435482476185e-01 1.080649097517053514e-01 1.080351735049749906e-01 1.080382343548297458e-01 1.079924179207620849e-01 1.080636921248920856e-01 1.079602807605218595e-01 1.078854160830547970e-01 1.078674734128397816e-01 1.080135968119781825e-01 1.079861101632308695e-01 1.078802667119379000e-01 1.079698843037409095e-01 1.079487324986186658e-01 1.079491120972466411e-01 1.079938575391464484e-01 1.079411956672672035e-01 1.079128774635577243e-01 1.080555410000929445e-01 1.080941727132312402e-01 1.080571777508861492e-01 1.079281529862731737e-01 1.079916867945266562e-01 1.079182164764827395e-01 1.080543346978623948e-01 1.080415361408691433e-01 1.079867102748958974e-01 1.079523841941223972e-01 1.079991629783845636e-01 1.079379978505863036e-01 1.079451625924683772e-01 1.079137482142657756e-01 1.079086267409909705e-01 1.080263933051561209e-01 1.080379026287720257e-01 1.079742965496637425e-01 1.079664984858655502e-01 1.079995761543799809e-01 1.079708056088681811e-01 1.080229114987041883e-01 1.080165769659859054e-01 1.079451301845160416e-01 1.078023164106885617e-01 1.079925024764649966e-01 1.080025439314779290e-01 1.079951989865858414e-01 1.080145175871470437e-01 1.079781295128596219e-01 1.079741922302128732e-01 1.079244020969454126e-01 1.080496771916464038e-01 1.080369067106904390e-01 1.080431220791060187e-01 1.079251127459450316e-01 1.079601134541622598e-01 1.079578755008037128e-01 1.079284207921451105e-01 1.078865358885517378e-01 1.080163074333218565e-01 1.080619248187077719e-01 1.079912066172444701e-01 1.080675483255505720e-01 1.081155288274849580e-01 1.080500369395995530e-01 1.080439152063714381e-01 1.079697320558536122e-01 1.079006289396833435e-01 1.079851076895433082e-01 1.079606394676447534e-01 1.080257234309802833e-01 1.081125806308788351e-01 1.079784248469105035e-01 1.080700918752229844e-01 1.080534048052891882e-01 1.080577525025957220e-01 1.080954852771033869e-01 1.080565264872099529e-01 1.080320347336283099e-01 1.079475881953299160e-01 1.080320693429876466e-01 1.080023922855941204e-01 1.079459351157252556e-01 1.080094868435976518e-01 1.079850329034161005e-01 1.080605426016646720e-01 1.080469160850869303e-01 1.080492339944414820e-01 1.080290695961215464e-01 1.080201614080685268e-01 1.079792351013126595e-01 1.079071656819451386e-01 1.080542455459981982e-01 1.080682910720408563e-01 1.079979588343613212e-01 1.080262752931994558e-01 1.079334213335646081e-01 1.079450181907539164e-01 1.079448112068008836e-01 1.079934052321652599e-01 1.080710544401555506e-01 1.080798457805337565e-01 1.081375772522784606e-01 1.080817626711159940e-01 1.080279635755448386e-01 1.080129553853032554e-01 1.078879678528476965e-01 1.080236465840592880e-01 1.079818565090373134e-01 1.078899855373042227e-01 1.079879092574792809e-01 1.080956088762882322e-01 1.079927945678512552e-01 1.079849631095379375e-01 1.080164358972679206e-01 1.079909632202264297e-01 1.079411509636781230e-01 1.080421548739085164e-01 1.080493927864560333e-01 1.080661313337587665e-01 1.080640020739031260e-01 1.079608586324965203e-01 1.080274256101509261e-01 1.079318433144222378e-01 1.079730364264989001e-01 1.079226744051316744e-01 1.080530611408446889e-01 1.080223634442497305e-01 1.079094052727396225e-01 1.080298940557963272e-01 1.079728378181871590e-01 1.080185631302464921e-01 1.080270757780793095e-01 1.080964412596836649e-01 1.079868719874810395e-01 1.079894310120838724e-01 1.079108742686548106e-01 1.079445523025458209e-01 1.079819395432003309e-01 1.079488122291142466e-01 1.080080018370064010e-01 1.079552930408729100e-01 1.079413327540568873e-01 1.080631426982744669e-01 1.079427770512866452e-01 1.079583209312677539e-01 1.080643976898176123e-01 1.079915307945838732e-01 1.080328786422563442e-01 1.079950895040405201e-01 1.080088068379676108e-01 1.079695844013685846e-01 1.079604876020005128e-01 1.079790844761919361e-01 1.080574777766415695e-01 1.080500787916205407e-01 1.080288517987928187e-01 1.080883727214840273e-01 1.080470875368570449e-01 1.080439107849254787e-01 1.080326444699574034e-01 1.080804706795492898e-01 1.080269853358341164e-01 1.080271908921995594e-01 1.080197294754159792e-01 1.079687581513081862e-01 1.079472614526442442e-01 1.080284193684976773e-01 1.080633050053983746e-01 1.080054420868697268e-01 1.080114706022261978e-01 1.080307704266030566e-01 1.079987806013276708e-01 1.079237034781625887e-01 1.080223930541207855e-01 1.080687662280218064e-01 1.080598447742731755e-01 1.080001338955292600e-01 1.079629108301460999e-01 1.079968885893852759e-01 1.079731820365407297e-01 1.079286270893095173e-01 1.080717772972864671e-01 1.080678299468591508e-01 1.080363127313436616e-01 1.079828458635311850e-01 1.079729365493705684e-01 1.079594630502037911e-01 1.080329089621116651e-01 1.081050695769453229e-01 1.080887719317409901e-01 1.079763376087544691e-01 1.078600397885743772e-01 1.079499154002458300e-01 1.079507867595827092e-01 1.080195090154373178e-01 1.079757870007316545e-01 1.079437732993482751e-01 1.080026656186991868e-01 1.080024688788995268e-01 1.080615129248479744e-01 1.079815236960631475e-01 1.079734806716938222e-01
3.000000000000000000e+00 4.934333180445530376e-01 1.133575239706787266e-02 4.939999999999999947e-01 4.938190018920948221e-01 4.938478380120112643e-01 4.941724158746557682e-01 4.939374529294441318e-01 4.923264293205135700e-01 4.938975483712194081e-01 4.925039788386330053e-01 4.936778292834153592e-01 4.941592445341485562e-01 4.941906140464523145e-01 4.921574562229206751e-01 4.921452664871113214e-01 4.940942482290843207e-01 4.926209244399935017e-01 4.939894764961310081e-01 4.938409248948243957e-01 4.941113369865424709e-01 4.937025911696993341e-01 4.939193626917718905e-01 4.938265395978887473e-01 4.937691738819005582e-01 4.919998062645232206e-01 4.938224896470534420e-01 4.941172954892066871e-01 4.922956999799910638e-01 4.921602348559972473e-01 4.921741787275577540e-01 4.939653190079302814e-01 4.922901530133972914e-01 4.938183212564610791e-01 4.934758846761950757e-01 4.933938135735448927e-01 4.940621928251594519e-01 4.939364668577412298e-01 4.934523310712714550e-01 4.938622485745186030e-01 4.937654986510890409e-01 4.937672349633318580e-01 4.939719039290587088e-01 4.937310246262037183e-01 4.936014950647918398e-01 4.922530201115344894e-01 4.924290090269423104e-01 4.942615352679421981e-01 4.936713664372124888e-01 4.939619747823719154e-01 4.936259161053933031e-01 4.922475247347064542e-01 4.921892201972927761e-01 4.939392118129497522e-01 4.937822017768191407e-01 4.939961714011293914e-01 4.937163975758299683e-01 4.937491696359201376e-01 4.936054779430304462e-01 4.935820519449031218e-01 4.941207249328437578e-01 4.941733694316053915e-01 4.938824305142026638e-01 4.938467615927553678e-01 4.939980612987380781e-01 4.938664626924155754e-01 4.921043746052080059e-01 4.940758242703429115e-01 4.937490213995456290e-01 4.930957806192606263e-01 4.939657057719787914e-01 4.920115890211771981e-01 4.939780398090130586e-01 4.940664045189874232e-01 4.938999627717838292e-01 4.938819533493070679e-01 4.936542095915836259e-01 4.942272271543826645e-01 4.941688140285285247e-01 4.921964450270385205e-01 4.936574601527485839e-01 4.938175559847792218e-01 4.938073194203428939e-01 4.936725914011081962e-01 4.934810067494866392e-01 4.940745914079722190e-01 4.942832487077929438e-01 4.939597784159145410e-01 4.923077201497303990e-01 4.925262979918759165e-01 4.922279460581758248e-01 4.922000581623587334e-01 4.938615521814044840e-01 4.935454694092923367e-01 4.939318814688369863e-01 4.938199620094120279e-01 4.941176608787431479e-01 4.925128673184480110e-01 4.939013136516091085e-01 4.923193074315714290e-01 4.922432885574284933e-01 4.922630947340471685e-01 4.924349884845821146e-01 4.942585563396454940e-01 4.921459360087511725e-01 4.937602645230831366e-01 4.941466875503323086e-01 4.940109424915138381e-01 4.937527032145210826e-01 4.940433935253448205e-01 4.939315393915513774e-01 4.922758051853612926e-01 4.942145976484531578e-01 4.942251999375378846e-01 4.921324281601093253e-01 4.940922197739429644e-01 4.939050198152634685e-01 4.935753689526009569e-01 4.922471185984362285e-01 4.923111037726305428e-01 4.939906635571712501e-01 4.941201851374122933e-01 4.936954642479714495e-01 4.937485091317817543e-01 4.937475623718484696e-01 4.939698350434226226e-01 4.923236924495975053e-01 4.923637418890982054e-01 4.926267408159352157e-01 4.923724743906395807e-01 4.921273896219264810e-01 4.940592588920352801e-01 4.934875566602477948e-01 4.941081612270860068e-01 4.939170103283743729e-01 4.934967856984100454e-01 4.939446960480997073e-01 4.924355515475352663e-01 4.939670418196159263e-01 4.939312201491827814e-01 4.920748746431093945e-01 4.939586650999246431e-01 4.937308201486758641e-01 4.921920388700276594e-01 4.942259262639748241e-01 4.923012649649010086e-01 4.922915650033364288e-01 4.938209644856785263e-01 4.921249388906875355e-01 4.936882462715239117e-01 4.938766666175042341e-01 4.936463070012504506e-01 4.942427055886784992e-01 4.941022920505497851e-01 4.935856130067905467e-01 4.941367376255869082e-01 4.938757581683745901e-01 4.940849091327941811e-01 4.941238466145479458e-01 4.924393435163367250e-01 4.939399514982928951e-01 4.939516566663836317e-01 4.935923323029210996e-01 4.937463781246077543e-01 4.939173901327866822e-01 4.937658633442817968e-01 4.940366009951959181e-01 4.937955070573260552e-01 4.937316516713343151e-01 4.942888193791443174e-01 4.937382579938481286e-01 4.938093568522802790e-01 4.922933672536135563e-01 4.939612612270780634e-01 4.921497804813900201e-01 4.939775390277409972e-01 4.940402831292222130e-01 4.938608767988525439e-01 4.938192673647060493e-01 4.939043308448038405e-01 4.922618432047005110e-01 4.922281367173823585e-01 4.941319702648486745e-01 4.924025868423160257e-01 4.922145098901265503e-01 4.942008511828998585e-01 4.941493182236940118e-01 4.923665886512801348e-01 4.941234329250189794e-01 4.921238696200201934e-01 4.920898787213394687e-01 4.938570974698726079e-01 4.937587699778357431e-01 4.921294660120449915e-01 4.922883894690371354e-01 4.940248925084596565e-01 4.920522549656971001e-01 4.941407462105732451e-01 4.939944223801469025e-01 4.936510140575214312e-01 4.941024274882931944e-01 4.923132683720993774e-01 4.922726261939111003e-01 4.940006124480689764e-01 4.938303513897423502e-01 4.939857681773733300e-01 4.938773326486214921e-01 4.936735350196194694e-01 4.923269854654161448e-01 4.923090030912472548e-01 4.941660971229978605e-01 4.939215357091149006e-01 4.938762097721209332e-01 4.938145809888951354e-01 4.921499186051753738e-01 4.924786502949731193e-01 4.924044054668200721e-01 4.938917664696731991e-01 4.933598116255161203e-01 4.937709093307540709e-01 4.937748949929061104e-01 4.940892356817225273e-01 4.938892479477910435e-01 4.937428149062781935e-01 4.920121433740740624e-01 4.940112928349663646e-01 4.922802255465296706e-01 4.939154880171777173e-01 4.938786986279328772e-01
4.000000000000000000e+00 1.834530495339797618e+00 8.816710050795218898e-03 1.834000000000000075e+00 1.835327302578716679e+00 1.835434474878649080e+00 1.834640102660159311e+00 1.833767790835223899e+00 1.835216811735410403e+00 1.833619643143353128e+00 1.833876604130844745e+00 1.834802620575608501e+00 1.834591203391960468e+00 1.834707664293913965e+00 1.834586940473244887e+00 1.834541501498703209e+00 1.834349901320122767e+00 1.834312060109894560e+00 1.833960930959320113e+00 1.835408781592910099e+00 1.834413344197001861e+00 1.834894650582121312e+00 1.833700629912367930e+00 1.835355317209967030e+00 1.835142111836375323e+00 1.833999277823446183e+00 1.835340265165971818e+00 1.834435465439686386e+00 1.835102263746551943e+00 1.834597298223371808e+00 1.834649275988498029e+00 1.833871245061830191e+00 1.835081586639371043e+00 1.833325508470343479e+00 1.834052073411931438e+00 1.833747048018276260e+00 1.834230894010814517e+00 1.833764129994124303e+00 1.833964534102944244e+00 1.835488033163595434e+00 1.835128452476517236e+00 1.835134905653192927e+00 1.833895691914764647e+00 1.835000326343542598e+00 1.834518916880481409e+00 1.834943168464541197e+00 1.833597448246663042e+00 1.834970962917825910e+00 1.834778600766644008e+00 1.833858829455202955e+00 1.834609680100206530e+00 1.834922683665552112e+00 1.834705345206981253e+00 1.833774320779250733e+00 1.835190531300081140e+00 1.833985786132937834e+00 1.834945963459967189e+00 1.835067764071962371e+00 1.834533719642517990e+00 1.834446654596846527e+00 1.834448197422743565e+00 1.834643642788591489e+00 1.833563517334104720e+00 1.835430474259714284e+00 1.833992802473452643e+00 1.835503695350759079e+00 1.834389071190958287e+00 1.834281501440908624e+00 1.835067213136772679e+00 1.834635718174496111e+00 1.833872680942933542e+00 1.834043199725282625e+00 1.833918471679615525e+00 1.834246530137293218e+00 1.833628606727634391e+00 1.835561267913618844e+00 1.834714835648072029e+00 1.834843592309995497e+00 1.834626730624132174e+00 1.834732276787781835e+00 1.834726916681065578e+00 1.835321928720758500e+00 1.835283883513663117e+00 1.834783153466466921e+00 1.834071110105379709e+00 1.834276924376965656e+00 1.835051575162130133e+00 1.833850675333577485e+00 1.835147070639442157e+00 1.833959711221782030e+00 1.834849701363200136e+00 1.834745745263751893e+00 1.835485444949511269e+00 1.834310691974616603e+00 1.833747106505763114e+00 1.835330870949960502e+00 1.834436821966831888e+00 1.833909701071944287e+00 1.833633621937350355e+00 1.835190263881101291e+00 1.834906892712040438e+00 1.834980723053338592e+00 1.833619713219013070e+00 1.834959903495768874e+00 1.834543997235873247e+00 1.835108999320608669e+00 1.834544584954067581e+00 1.834040624553515020e+00 1.835080896967329345e+00 1.834161100658871391e+00 1.833745836526528894e+00 1.835028103069009431e+00 1.834796704630087261e+00 1.834836066164867496e+00 1.834493644808212309e+00 1.834342370577755954e+00 1.835646996722315460e+00 1.834421816593067467e+00 1.834921169734820889e+00 1.835159683575212197e+00 1.833965337983506139e+00 1.834446193404887016e+00 1.834868162670598046e+00 1.835065309242816411e+00 1.835061790515614799e+00 1.833888011072140056e+00 1.835206609659678412e+00 1.835355899643508426e+00 1.834333717834945698e+00 1.835388451285432820e+00 1.834474862940270734e+00 1.834220001635612718e+00 1.834095453498410855e+00 1.834401554029303272e+00 1.833691896644207731e+00 1.834129754134171897e+00 1.833794681279787175e+00 1.835623580362153895e+00 1.833877641087400034e+00 1.833744651323079511e+00 1.834279105885086691e+00 1.833846542091623011e+00 1.834999566382528036e+00 1.834715852210631493e+00 1.834838762688521863e+00 1.835123008019570179e+00 1.835086850032762396e+00 1.833335321592579836e+00 1.834465727490896203e+00 1.834841336345177876e+00 1.835541619250481205e+00 1.834685464887238382e+00 1.834901056780640305e+00 1.834379764414388880e+00 1.834459889636573804e+00 1.834507645354912064e+00 1.833538745912548507e+00 1.834315229452519347e+00 1.834459786824050642e+00 1.833635929516115537e+00 1.833777066898520713e+00 1.833820522927424257e+00 1.834484862567131724e+00 1.835057389143278872e+00 1.833693306687309343e+00 1.835129807894942067e+00 1.834135883046942084e+00 1.835239981694839706e+00 1.835002656818967237e+00 1.835072256561438575e+00 1.835027209871872955e+00 1.835291455831551843e+00 1.835093568177087908e+00 1.833856180345063036e+00 1.834558328054612275e+00 1.833916612503799559e+00 1.834149553155857371e+00 1.835482934823265744e+00 1.835328289234008814e+00 1.833644823419777747e+00 1.834976057799635685e+00 1.834850412072518866e+00 1.834489946286907536e+00 1.833499063201469381e+00 1.834799616135146527e+00 1.834745670181049171e+00 1.834554351462054367e+00 1.835366511354568519e+00 1.834458250980738558e+00 1.834461741632351650e+00 1.834335035721415874e+00 1.833469467124992480e+00 1.835103444694952124e+00 1.834482602979858656e+00 1.835075012776857806e+00 1.834092414697398921e+00 1.834194787819285466e+00 1.834522527429537142e+00 1.833979292804027050e+00 1.834702959128764022e+00 1.834380267233865824e+00 1.835167752427703691e+00 1.835016252926083169e+00 1.834002273744450129e+00 1.833370170948962485e+00 1.833947163638264710e+00 1.833544591250145572e+00 1.834786660518261669e+00 1.835218884844661114e+00 1.835151852986478538e+00 1.834616643974854355e+00 1.833708697349224037e+00 1.833540422514311263e+00 1.835310871853464754e+00 1.834558842930674061e+00 1.833782291342257675e+00 1.835507478914934820e+00 1.833598177541256424e+00 1.833620676405764316e+00 1.835148561804178957e+00 1.835163374912906153e+00 1.834331291984370838e+00 1.833588827401313459e+00 1.835044146088920636e+00 1.834045266154576748e+00 1.834041925221312486e+00 1.835044580594177743e+00 1.835685902833073424e+00 1.833549662517467427e+00
5.000000000000000000e+00 4.946158096785576497e+00 1.865172878344921112e-02 4.945999999999999730e+00 4.948186354991638503e+00 4.944476531998801327e+00 4.945725554826514880e+00 4.945373769613422787e+00 4.947280216586624313e+00 4.945224187512437197e+00 4.947062324025456093e+00 4.942774379829498521e+00 4.943593090056198847e+00 4.945907683898097318e+00 4.947582883086515615e+00 4.945459751041216379e+00 4.944943245434398449e+00 4.946234485230829314e+00 4.947894594540194646e+00 4.946406672833180806e+00 4.947114722136515930e+00 4.947019891275327375e+00 4.947192321050379427e+00 4.946262586903549696e+00 4.945688000744218549e+00 4.947998051619635795e+00 4.944222740474344846e+00 4.945173904653112906e+00 4.944970222156738870e+00 4.947610816255614274e+00 4.947750991842481127e+00 4.945652768852678349e+00 4.946915683939503872e+00 4.946180270398723877e+00 4.948743993291235377e+00 4.943925864755156496e+00 4.946622683630037542e+00 4.947363639700614435e+00 4.944512224297153757e+00 4.942621370349028709e+00 4.945651188918195551e+00 4.945668580159040317e+00 4.945718698042762540e+00 4.947304801416414044e+00 4.946006883746395744e+00 4.946542543559810490e+00 4.946309273599895917e+00 4.946617470373899650e+00 4.944708342371107790e+00 4.947619132030721012e+00 4.944253103015153528e+00 4.946487321724367447e+00 4.945901432226453842e+00 4.945391379811436394e+00 4.945818490671459955e+00 4.947961652009692735e+00 4.945159383006490827e+00 4.945487634329014170e+00 4.946046793153847432e+00 4.945812058962085977e+00 4.945208226858258449e+00 4.945735098117118866e+00 4.946822401182742190e+00 4.946465134333913660e+00 4.945980589440401864e+00 4.946662464376664126e+00 4.947049261783249108e+00 4.944758856665132818e+00 4.947485133456985373e+00 4.944932180542140010e+00 4.948356453752567496e+00 4.948116549749562942e+00 4.949779953551851186e+00 4.944664582878287362e+00 4.945998210186264288e+00 4.948817143884756575e+00 4.944536496071165743e+00 4.946274111439813659e+00 4.945689507200495605e+00 4.947974831511651850e+00 4.946567667522480782e+00 4.944173343928579101e+00 4.946070073870155070e+00 4.944720611847536418e+00 4.946797460371372246e+00 4.946746820048240068e+00 4.944833633833831676e+00 4.947597132797460162e+00 4.945090961341397140e+00 4.947286513568802668e+00 4.946290579901669204e+00 4.948011153802900353e+00 4.944613840261592230e+00 4.945445493068819864e+00 4.945967897708048788e+00 4.946196704499131513e+00 4.945177561507097863e+00 4.947151606275955515e+00 4.945011937896475196e+00 4.945207352290296399e+00 4.946444753308793629e+00 4.946643781229937531e+00 4.946369335550416579e+00 4.946587656970055313e+00 4.947467072153014733e+00 4.945598762874929832e+00 4.945468063256766911e+00 4.946109557819894142e+00 4.947522026137407991e+00 4.946434462300314472e+00 4.945314562410148440e+00 4.946771505765093835e+00 4.945797562074351283e+00 4.946253822856654381e+00 4.947331279837197116e+00 4.946923317817655708e+00 4.945049044547151773e+00 4.945745093755818722e+00 4.946483240550139548e+00 4.947126213520092186e+00 4.945906522173621589e+00 4.945202824533130759e+00 4.942950943664912167e+00 4.947480000409553824e+00 4.945471535659728524e+00 4.943698106183565422e+00 4.945251398548599298e+00 4.945653683772201603e+00 4.948295433155186274e+00 4.945741399265326521e+00 4.947280628191155216e+00 4.946593308663980615e+00 4.946863118586128039e+00 4.945082488070269733e+00 4.947168759321450615e+00 4.946955633154912491e+00 4.947446064870439919e+00 4.946374991357559203e+00 4.945670017894372883e+00 4.947311087648089689e+00 4.946752703221176439e+00 4.945586148955925410e+00 4.945303842298883090e+00 4.945929756450033743e+00 4.946261092002210091e+00 4.947027345500957018e+00 4.944928687492863517e+00 4.946206745496229296e+00 4.945255483486908687e+00 4.946876151911019370e+00 4.944765168198736127e+00 4.946455910235202147e+00 4.944428038500504385e+00 4.945023748781210315e+00 4.943849419347367657e+00 4.945368483443121299e+00 4.942756575677011988e+00 4.946850122612955758e+00 4.947239970355372662e+00 4.948414866554407432e+00 4.947398542537557731e+00 4.947515783775842557e+00 4.943916721123184921e+00 4.947458647200017268e+00 4.947172563516252453e+00 4.947653893834402794e+00 4.946366454498459575e+00 4.945951758946658394e+00 4.945312170991421397e+00 4.946890532409898178e+00 4.943379400885775432e+00 4.946090481184378440e+00 4.946947983133872739e+00 4.945612141759369251e+00 4.947505720042591371e+00 4.945775117472078541e+00 4.948403483650589685e+00 4.946606514981219505e+00 4.946189746802764020e+00 4.947041759149978901e+00 4.946631204886259070e+00 4.944291568409154181e+00 4.945320771233626900e+00 4.946043870273832965e+00 4.946155562798344896e+00 4.946010138154366409e+00 4.945494391291383351e+00 4.947683768886034450e+00 4.945235328707072497e+00 4.947245242155731582e+00 4.946903536901920972e+00 4.946568660487711711e+00 4.943584769859059591e+00 4.945300975535671384e+00 4.944896790154433397e+00 4.946249227422756078e+00 4.948425512895786582e+00 4.947409171573877273e+00 4.943944178638554732e+00 4.946503076082451322e+00 4.947025518941494227e+00 4.947147965104998768e+00 4.946739560777838385e+00 4.946006131919330251e+00 4.948300079715029831e+00 4.947857451298872888e+00 4.946771339970402970e+00 4.944730063313921065e+00 4.945284475955460834e+00 4.945103848123869383e+00 4.945662316145954307e+00 4.945214404083567494e+00 4.944760594196174530e+00 4.946142807151929333e+00 4.947507108579669577e+00 4.946807906011701839e+00 4.946062137839480677e+00 4.946915911927010079e+00 4.943585156976325834e+00 4.945705383337188010e+00 4.947744393147541331e+00 4.946893440651416896e+00 4.946890685922409325e+00 4.945423984121992689e+00 4.948122124827070145e+00 4.948113111229582195e+00 4.946815925004152348e+00 4.945003879371841826e+00 4.944785512983311371e+00
6.000000000000000000e+00 2.463433053029061726e-03 2.238570888214843962e-05 2.474381644375857250e-03 2.462531614368998825e-03 2.462467313957476204e-03 2.464385609567901290e-03 2.462920096021947725e-03 2.465028613683127503e-03 2.462909379286694171e-03 2.465987761488340046e-03 2.461853780864197479e-03 2.464090899348422500e-03 2.464399005486968448e-03 2.464010523834019115e-03 2.464428476508916371e-03 2.463788151577503329e-03 2.466518239883401780e-03 2.463233560528120883e-03 2.462697723765431938e-03 2.463927469135802559e-03 2.461893968621399389e-03 2.462957604595336029e-03 2.462536972736625602e-03 2.462341392318244133e-03 2.463013867455418268e-03 2.462636102537722922e-03 2.463932827503429335e-03 2.464854466735253574e-03 2.464136445473251186e-03 2.464267725480109601e-03 2.463222843792866896e-03 2.464991105109739199e-03 2.462274412722907906e-03 2.460581168552812212e-03 2.460615997942386911e-03 2.463739926268861472e-03 2.463056734396433349e-03 2.460575810185185001e-03 2.462633423353909317e-03 2.462025248628257803e-03 2.462121699245541952e-03 2.463547025034293608e-03 2.461816272290809175e-03 2.461596579218106994e-03 2.464495456104252597e-03 2.465454603909465140e-03 2.464849108367626798e-03 2.461751971879286554e-03 2.463399669924553996e-03 2.461368848593964431e-03 2.464484739368998610e-03 2.464428476508916371e-03 2.463048696844992967e-03 2.462486068244170139e-03 2.463383594821673666e-03 2.462172603737997414e-03 2.461912722908093324e-03 2.461508166152263227e-03 2.461280435528120664e-03 2.464224858539094520e-03 2.464291838134430746e-03 2.462649498456790081e-03 2.462657536008230463e-03 2.463107638888888812e-03 2.462687007030178385e-03 2.464133766289437581e-03 2.463635438100137375e-03 2.462228866598079654e-03 2.458681627229081061e-03 2.463528270747599239e-03 2.463027263374485427e-03 2.463321973593964216e-03 2.463897998113854636e-03 2.462654856824416857e-03 2.462534293552811997e-03 2.461845743312757098e-03 2.464583869170095930e-03 2.464385609567901290e-03 2.464905371227709037e-03 2.461392961248285143e-03 2.462341392318244133e-03 2.462319958847736592e-03 2.461644804526748852e-03 2.460669581618655545e-03 2.463745284636488248e-03 2.464851787551440403e-03 2.463246956447188041e-03 2.464977709190672040e-03 2.466105645576131735e-03 2.464356138545953367e-03 2.464332025891632222e-03 2.462590556412894236e-03 2.460910708161865700e-03 2.463102280521262035e-03 2.462705761316872320e-03 2.463798868312757316e-03 2.466111003943758512e-03 2.462930812757201712e-03 2.465197402263374655e-03 2.464605302640603471e-03 2.464784807956104176e-03 2.465781464334705023e-03 2.464613340192043853e-03 2.464039994855967038e-03 2.462202074759945337e-03 2.464251650377229270e-03 2.463605967078189452e-03 2.462060078017832502e-03 2.463605967078189452e-03 2.462971000514403187e-03 2.464790166323730953e-03 2.464441872427983529e-03 2.464310592421124681e-03 2.463900677297668242e-03 2.463940865054869717e-03 2.462895983367627013e-03 2.461419753086419894e-03 2.464573152434842377e-03 2.464937521433470564e-03 2.463426461762688747e-03 2.463812264231824475e-03 2.461915402091906929e-03 2.462092228223594029e-03 2.462086869855967253e-03 2.463134430727023129e-03 2.465025934499314331e-03 2.465272419410150830e-03 2.466341413751714680e-03 2.465288494513031593e-03 2.463994448731138352e-03 2.463565779320987543e-03 2.460878557956104173e-03 2.463946223422496494e-03 2.462941529492455265e-03 2.460787465706447234e-03 2.463204089506172961e-03 2.465698409636488467e-03 2.463094242969821653e-03 2.463158543381344275e-03 2.463930148319615730e-03 2.462914737654320948e-03 2.462097586591220806e-03 2.464457947530864293e-03 2.464350780178326591e-03 2.464926804698216577e-03 2.465039330418381490e-03 2.462341392318244133e-03 2.463981052812071193e-03 2.461749292695473382e-03 2.462992433984910728e-03 2.461508166152263227e-03 2.464803562242798545e-03 2.463943544238683322e-03 2.461355452674897273e-03 2.463836376886145620e-03 2.463126393175583181e-03 2.463801547496570488e-03 2.463975694444444416e-03 2.465636788408779017e-03 2.462847758058984721e-03 2.463126393175583181e-03 2.461143797153635040e-03 2.462132415980795505e-03 2.463021905006858650e-03 2.462019890260631026e-03 2.463447895233196287e-03 2.462502143347050903e-03 2.461853780864197479e-03 2.464977709190672040e-03 2.462033286179698185e-03 2.461885931069959007e-03 2.465379586762688532e-03 2.463252314814814818e-03 2.464056069958847801e-03 2.463549704218106779e-03 2.463498799725651750e-03 2.462729873971193466e-03 2.462665573559670845e-03 2.462887945816186631e-03 2.464843750000000021e-03 2.464621377743484235e-03 2.463916752400548572e-03 2.465644825960219399e-03 2.464546360596707626e-03 2.464342742626886209e-03 2.464117691186556817e-03 2.465264381858710448e-03 2.463630079732510164e-03 2.463956940157750481e-03 2.463892639746227860e-03 2.462652177640603686e-03 2.462338713134430528e-03 2.463777434842249776e-03 2.464991105109739199e-03 2.463244277263374436e-03 2.463785472393690158e-03 2.464211462620027361e-03 2.463048696844992967e-03 2.461647483710562457e-03 2.463710455246913549e-03 2.465052726337448648e-03 2.464749978566529477e-03 2.463573816872427925e-03 2.462577160493827078e-03 2.463233560528120883e-03 2.462885266632373026e-03 2.461618012688614535e-03 2.465001821844993186e-03 2.464985746742112422e-03 2.464492776920438992e-03 2.462976358882029964e-03 2.462622706618655764e-03 2.462534293552811997e-03 2.464090899348422500e-03 2.465920781893004253e-03 2.465467999828532299e-03 2.463129072359396352e-03 2.459954239540466329e-03 2.462212791495198890e-03 2.462269054355281130e-03 2.463812264231824475e-03 2.462756665809327783e-03 2.462196716392318126e-03 2.463268389917695582e-03 2.463359482167352520e-03 2.464666923868312921e-03 2.463037980109739414e-03 2.462788816015089310e-03
