# vvf statistics with RF=500
# gcat file: /disk2/salam/Abacus/AbacusCosmos_720box_products/GCAT_derivative/AbacusCosmos_720box_planck_rockstar_halos_z0.100_Mr21_hod-default_real-6.gcat.rsd_zz.1pz0.100by100
# stats order in row: stdvvf,p2.5,p16,p50,p84,p97.5,rho
# columns: numbers, mean, sigma,All, jnrealizations
0.000000000000000000e+00 1.442396096695018226e+00 4.932543946043337589e-03 1.442396326850694965e+00 1.442763370754529317e+00 1.442227104893555101e+00 1.442104985875600098e+00 1.442284248464068552e+00 1.442789718377249564e+00 1.442282565025502228e+00 1.442682723028317904e+00 1.441419862773598348e+00 1.441313629349908698e+00 1.442302572362435864e+00 1.442925200276683251e+00 1.442674634006902989e+00 1.442303213177265953e+00 1.442278270350044522e+00 1.442529660280533088e+00 1.442559794873947254e+00 1.442476271448994263e+00 1.442204888365841819e+00 1.442669101402377141e+00 1.442568776872065417e+00 1.442453048380208269e+00 1.442998262114248975e+00 1.442216868423749965e+00 1.442293031646167289e+00 1.442372491105654353e+00 1.442574053155987857e+00 1.442858501091889734e+00 1.442170943686400975e+00 1.442863080771643824e+00 1.442285841560398962e+00 1.442395285221268697e+00 1.442003135768861188e+00 1.442525535829279670e+00 1.442535193384739012e+00 1.441818106297707569e+00 1.441987376946790800e+00 1.442550602833685414e+00 1.442216780043502400e+00 1.442358681013816035e+00 1.442588906864108012e+00 1.442243093935500431e+00 1.442176886557880788e+00 1.442624407777922668e+00 1.441978180053166803e+00 1.441816702032344466e+00 1.442496694589667561e+00 1.442050488479422965e+00 1.442873286770313790e+00 1.442292770236337507e+00 1.442270457306188858e+00 1.441759831035239525e+00 1.442452986625745393e+00 1.442170838752656392e+00 1.442520499637408360e+00 1.441849577110991154e+00 1.442015062973233563e+00 1.442189961762585071e+00 1.442679095022589397e+00 1.442469384071299210e+00 1.442045516633711610e+00 1.442529501448342799e+00 1.442630637278515371e+00 1.442619906535077545e+00 1.442537253380878237e+00 1.442404772327197993e+00 1.441739617277226548e+00 1.443029843206828478e+00 1.442857205937614795e+00 1.442790362831536166e+00 1.442261661088644953e+00 1.442658840468448389e+00 1.442801755789885787e+00 1.441843002893838488e+00 1.442267143735809221e+00 1.442390303187298439e+00 1.442570616475081335e+00 1.442470724386729630e+00 1.442298136307643697e+00 1.442405721340309421e+00 1.441966473862489995e+00 1.442042203795382393e+00 1.442667955989996198e+00 1.441205952969265347e+00 1.442407137437797582e+00 1.441982682034050223e+00 1.442921083869252330e+00 1.442472591142117677e+00 1.442761333710381733e+00 1.442088670065608369e+00 1.442153201743156421e+00 1.442634563712821949e+00 1.442381351037324899e+00 1.442509875340129089e+00 1.442707250771249727e+00 1.442157128688647871e+00 1.442169623331113870e+00 1.442729591495642394e+00 1.442434837270250680e+00 1.442437225774090281e+00 1.442379579409278190e+00 1.442346069378192874e+00 1.442053386692973005e+00 1.442257731378396635e+00 1.442220685958738757e+00 1.442645539187452641e+00 1.442499798017579771e+00 1.442364542252577264e+00 1.442415365673731298e+00 1.442172459700459708e+00 1.442284697716791131e+00 1.442726173492613562e+00 1.442511669577075439e+00 1.442666411236124935e+00 1.441897626228979101e+00 1.442878909229680762e+00 1.442719314446628376e+00 1.442671632410884142e+00 1.442569182565992758e+00 1.441744761701356792e+00 1.442310845992220925e+00 1.442418494292268649e+00 1.442163380507398562e+00 1.442498880669064620e+00 1.442100641311374165e+00 1.442365462111249608e+00 1.442576528680967307e+00 1.442933324038448539e+00 1.442700946362294179e+00 1.442191847023613915e+00 1.442407280778256418e+00 1.442540140471267662e+00 1.442154908078052689e+00 1.442311996588871548e+00 1.442162207687232689e+00 1.442580048271087545e+00 1.442593084995062114e+00 1.442882568614906713e+00 1.442091624441748987e+00 1.441573646462384284e+00 1.441824402547344786e+00 1.442389192893785754e+00 1.442771273830750989e+00 1.442806223447299363e+00 1.442561211988178771e+00 1.442558051317578638e+00 1.442382541219828784e+00 1.442375553355428108e+00 1.442601416182993423e+00 1.442201493326537909e+00 1.442092456294116865e+00 1.441755589024575457e+00 1.442255290619838037e+00 1.441595453327461307e+00 1.442640488222636685e+00 1.442512235099240980e+00 1.443012503554392811e+00 1.442711489500281941e+00 1.442705613007702281e+00 1.442012216202013253e+00 1.442336381147106161e+00 1.442687004737821743e+00 1.442524815774305802e+00 1.442585090564028949e+00 1.442348811561083188e+00 1.442214918438716076e+00 1.442148204593407534e+00 1.442046631608364438e+00 1.442118531153627092e+00 1.442600209816015555e+00 1.442219948645582894e+00 1.442612409394443462e+00 1.442259901546600886e+00 1.442864544950049455e+00 1.442040320083705751e+00 1.442399486437365042e+00 1.442637961434749316e+00 1.442804253493468636e+00 1.442646243987469434e+00 1.442217954547450720e+00 1.442847565724750147e+00 1.442969653952679288e+00 1.442606569916324410e+00 1.442576515443432905e+00 1.443033758551385271e+00 1.442775631480384124e+00 1.442894082988529281e+00 1.442771157407389593e+00 1.442409659637086117e+00 1.441790498506486218e+00 1.442476848323662741e+00 1.442444554626547637e+00 1.442671370781724693e+00 1.442820691069383932e+00 1.442256722313946860e+00 1.441998057592140503e+00 1.442360832031855722e+00 1.442738045009434478e+00 1.442446613534613897e+00 1.442500198303032111e+00 1.442319303837221733e+00 1.442678233617299854e+00 1.442306159263115006e+00 1.442253600127920254e+00 1.442117079492596154e+00 1.442594149453324093e+00 1.442711206931321488e+00 1.442278918837798685e+00 1.442395781720943626e+00 1.442340288910752610e+00 1.442248203851874022e+00 1.442732839910052967e+00 1.442353994381432303e+00 1.442134393964199734e+00 1.441920883467090242e+00 1.441957885495588121e+00 1.442548976817387807e+00 1.442309072450273177e+00 1.442107143094410349e+00 1.442600383677034914e+00 1.442264131707395425e+00 1.443108576223865569e+00 1.442763982190887306e+00 1.442709895761575156e+00 1.441541922497040717e+00 1.442433999434267422e+00
1.000000000000000000e+00 2.199999983648491877e-02 1.603054233689078746e-04 2.199999999999999872e-02 2.199647581574780408e-02 2.199106881022505969e-02 2.200784090539011431e-02 2.199600180464466453e-02 2.201491077992069612e-02 2.199409311896799793e-02 2.201999459819816568e-02 2.198782374970239401e-02 2.200753414496250254e-02 2.200605667188244852e-02 2.200402197523987705e-02 2.200871668959986441e-02 2.200574560144358607e-02 2.202467192201607721e-02 2.199770572632727197e-02 2.199439652438293577e-02 2.200488131094760491e-02 2.198703732408591530e-02 2.199644857126762526e-02 2.199027654514718044e-02 2.199279425463137455e-02 2.199940656051949800e-02 2.199207404901313070e-02 2.200346317127674714e-02 2.201491603204233649e-02 2.200603158685322455e-02 2.200817211219331312e-02 2.200071319810069023e-02 2.201180078096196674e-02 2.198906651043801633e-02 2.197685548909610737e-02 2.197601659813115671e-02 2.200087343517524024e-02 2.199724348122509068e-02 2.197835765114453804e-02 2.199474546174183184e-02 2.199171399623247106e-02 2.198747898974525231e-02 2.199924360788667668e-02 2.198856330735400599e-02 2.198462497479885744e-02 2.201171291923783441e-02 2.201556857332227085e-02 2.201108029298435437e-02 2.198490601988744089e-02 2.199738987029306939e-02 2.198570123436384416e-02 2.201024073512774376e-02 2.200767206740154511e-02 2.199562286640638700e-02 2.199265669369291146e-02 2.199873662085076800e-02 2.198882383026617288e-02 2.199139664576651304e-02 2.198286002735852854e-02 2.198316202671251468e-02 2.200433467294712897e-02 2.200737990310304079e-02 2.199410685163759316e-02 2.199495438795534205e-02 2.199909415459791462e-02 2.199400204532845141e-02 2.200126615275760714e-02 2.200144746026915996e-02 2.198878762186023614e-02 2.196088834231239850e-02 2.199835764625196824e-02 2.200133891693065169e-02 2.199833790283159396e-02 2.200498557909202901e-02 2.199616994010115609e-02 2.199287559159176716e-02 2.198562887304492466e-02 2.201111359493571062e-02 2.200983022755809496e-02 2.200924701473158315e-02 2.198630194317453129e-02 2.199642889081233899e-02 2.199008310864173504e-02 2.198265535625370387e-02 2.197502573507812210e-02 2.200566824222176601e-02 2.201258538848097773e-02 2.200221466994892877e-02 2.201335356068465435e-02 2.202297336268446704e-02 2.200693597184061670e-02 2.200882326362402219e-02 2.199456199472220666e-02 2.198151332429687174e-02 2.200021180057538939e-02 2.199386947924338379e-02 2.200637778401641834e-02 2.202054767494733556e-02 2.199619583473275825e-02 2.201192493924370580e-02 2.201204099611589471e-02 2.201240372338116730e-02 2.202057611811766846e-02 2.201018708839367136e-02 2.200348868346624007e-02 2.198966377293112492e-02 2.200435282937133336e-02 2.200183604985269867e-02 2.199501860672765929e-02 2.200266250991567488e-02 2.199465809582219072e-02 2.200940235982169410e-02 2.200721271351264649e-02 2.201023384244634243e-02 2.200664162940875121e-02 2.200491415410496532e-02 2.199510063059812934e-02 2.198153511143300862e-02 2.200998849025436258e-02 2.201548118808598423e-02 2.199742767673574725e-02 2.200365033037597617e-02 2.198927360506277781e-02 2.199137004087838021e-02 2.198966717181321043e-02 2.199960224484266008e-02 2.201185740314086370e-02 2.201913576077370316e-02 2.202531206849411144e-02 2.201495121313046255e-02 2.200569858329056577e-02 2.200012268971305446e-02 2.197686119389902909e-02 2.200586372560474693e-02 2.199457798557131680e-02 2.197949219038895091e-02 2.199877822105139255e-02 2.201764226341622332e-02 2.199585560044747812e-02 2.199689525235254406e-02 2.200492770949348184e-02 2.199589664726666477e-02 2.198755997939185608e-02 2.201040173497817096e-02 2.200667448268785881e-02 2.201269605765124315e-02 2.201153723337024443e-02 2.199379369630399469e-02 2.200469716825098621e-02 2.198875191390612174e-02 2.199441452962390062e-02 2.198273361713642265e-02 2.200915348548833014e-02 2.200188805159379937e-02 2.198303000989099490e-02 2.200717592914754397e-02 2.199805328325700471e-02 2.200170834995154173e-02 2.200781821472169719e-02 2.201618408927727769e-02 2.199892579151956767e-02 2.199695469183903310e-02 2.198176790804246689e-02 2.199211057161914312e-02 2.199838570748326519e-02 2.199019332187363701e-02 2.199899946711529608e-02 2.199173912963669347e-02 2.198905729589626171e-02 2.201138505202250920e-02 2.199276923636445114e-02 2.199217460824919729e-02 2.201133071653581935e-02 2.199711354563587545e-02 2.200468909959061789e-02 2.200067082130380269e-02 2.200237970254434808e-02 2.199550854417553492e-02 2.199309413730207025e-02 2.199577140189004631e-02 2.200965722519643286e-02 2.201107870711300346e-02 2.200533239892280349e-02 2.202020218565443888e-02 2.200745008261335844e-02 2.200733807133124428e-02 2.200503444231658931e-02 2.201557089331334163e-02 2.200254358292745571e-02 2.200442558144129201e-02 2.200588031887079632e-02 2.199597256200390080e-02 2.199435215997736989e-02 2.200299807289836027e-02 2.201415565718581324e-02 2.200135191453295863e-02 2.200352396213786296e-02 2.200577986847231798e-02 2.199786413195150073e-02 2.198528251121761173e-02 2.200225871993378296e-02 2.201582552804247361e-02 2.200965546543364598e-02 2.199953290880722265e-02 2.199544948850207585e-02 2.199843134487249746e-02 2.199342388387006894e-02 2.198380655095710789e-02 2.201232862522968167e-02 2.201492389204445788e-02 2.200734293232477559e-02 2.199414736936314632e-02 2.199086242084973344e-02 2.199239799837307205e-02 2.200603772897092095e-02 2.202111670002672786e-02 2.201791864131315626e-02 2.199731252023087030e-02 2.197237523910482854e-02 2.199532420474186595e-02 2.198773147657577531e-02 2.200371782902748111e-02 2.199441778863743882e-02 2.198987060119864459e-02 2.200041602896131779e-02 2.200057067305832836e-02 2.201127986295094152e-02 2.199576485639676351e-02 2.199458921954653909e-02
2.000000000000000000e+00 1.039999992270196350e-01 7.578074559257418118e-04 1.039999999999999952e-01 1.039833402198987039e-01 1.039577798301548339e-01 1.040370660982078144e-01 1.039810994401384192e-01 1.040704873232614763e-01 1.039720765623941695e-01 1.040945199187549713e-01 1.039424395440476795e-01 1.040356159580045625e-01 1.040286315398079448e-01 1.040190129738612357e-01 1.040412061690175471e-01 1.040271610250060458e-01 1.041166309040759963e-01 1.039891543426380155e-01 1.039735108425375310e-01 1.040230752881159543e-01 1.039387218956788622e-01 1.039832114278105984e-01 1.039540345770594010e-01 1.039659364764392302e-01 1.039971946497285221e-01 1.039625318680620775e-01 1.040163713551264385e-01 1.040705121514728659e-01 1.040285129560334226e-01 1.040386318030956658e-01 1.040033714819305344e-01 1.040557855100020246e-01 1.039483144129797199e-01 1.038905895848179634e-01 1.038866239184381840e-01 1.040041289662829438e-01 1.039869691839731547e-01 1.038976907145014450e-01 1.039751603645977518e-01 1.039608298003716902e-01 1.039408097697048228e-01 1.039964243281915612e-01 1.039459356347644109e-01 1.039273180626855142e-01 1.040553701636697664e-01 1.040735968920689092e-01 1.040523795668351209e-01 1.039286466394678948e-01 1.039876612050217863e-01 1.039324058351745461e-01 1.040484107478766018e-01 1.040362679549891312e-01 1.039793080957392840e-01 1.039652861883664930e-01 1.039940276622036280e-01 1.039471671976218980e-01 1.039593295981689619e-01 1.039189746747857801e-01 1.039204023080955164e-01 1.040204911812046135e-01 1.040348868146689226e-01 1.039721414804686273e-01 1.039761480157888884e-01 1.039957178217355838e-01 1.039716460324617703e-01 1.040059854493995961e-01 1.040068425394542195e-01 1.039469960306120266e-01 1.038151085272949747e-01 1.039922361459184041e-01 1.040063294254903459e-01 1.039921428133857156e-01 1.040235681920714111e-01 1.039818942622963843e-01 1.039663209784338072e-01 1.039320637634850997e-01 1.040525369942415512e-01 1.040464701666382608e-01 1.040437131605493060e-01 1.039352455495523297e-01 1.039831183929310482e-01 1.039531201499427487e-01 1.039180071386538867e-01 1.038819398385511239e-01 1.040267953268665391e-01 1.040594945637282609e-01 1.040104693488494714e-01 1.040631259232365491e-01 1.041086013508720348e-01 1.040327882305192853e-01 1.040417099734953776e-01 1.039742930659595249e-01 1.039126084421306551e-01 1.040010012390836652e-01 1.039710193564232638e-01 1.040301495244412566e-01 1.040971344633874057e-01 1.039820166732821211e-01 1.040563724400611623e-01 1.040569210725478672e-01 1.040586357832564146e-01 1.040972689220107938e-01 1.040481571451337128e-01 1.040164919582040465e-01 1.039511378356744176e-01 1.040205770115735645e-01 1.040086795083945692e-01 1.039764515954398477e-01 1.040125864105104631e-01 1.039747473620685481e-01 1.040444475191571044e-01 1.040340964638779564e-01 1.040483781642917993e-01 1.040313967935686396e-01 1.040232305466780166e-01 1.039768393446457023e-01 1.039127114358651405e-01 1.040472183175660814e-01 1.040731837982246527e-01 1.039878399263871739e-01 1.040172561072318924e-01 1.039492934057513057e-01 1.039592038296068971e-01 1.039511539031170023e-01 1.039981197028925775e-01 1.040560531784840842e-01 1.040904599600211422e-01 1.041196570510630748e-01 1.040706784620712699e-01 1.040269387573735799e-01 1.040005799877344456e-01 1.038906165529772246e-01 1.040277194301315322e-01 1.039743686590644117e-01 1.039030539909296114e-01 1.039942243176974895e-01 1.040833997906948777e-01 1.039804082930244622e-01 1.039853230111211224e-01 1.040232946266964609e-01 1.039806023325333256e-01 1.039411926298524080e-01 1.040491718380786301e-01 1.040315520999789689e-01 1.040600177270786103e-01 1.040545396486593360e-01 1.039706611098006883e-01 1.040222047953683060e-01 1.039468272293743861e-01 1.039735959582220870e-01 1.039183770991903705e-01 1.040432710223084534e-01 1.040089253348070591e-01 1.039197782285756211e-01 1.040339225741520324e-01 1.039907973390331170e-01 1.040080758361345559e-01 1.040369588332298312e-01 1.040765066038562142e-01 1.039949219235470484e-01 1.039856039977845176e-01 1.039138119289280265e-01 1.039627045203813938e-01 1.039923687990117890e-01 1.039536411579480985e-01 1.039952702081813896e-01 1.039609486128280080e-01 1.039482708533277927e-01 1.040538202459245914e-01 1.039658182082683069e-01 1.039630072389962079e-01 1.040535633872602395e-01 1.039863549430059542e-01 1.040221666526101874e-01 1.040031711552543287e-01 1.040112495029369283e-01 1.039787676633752433e-01 1.039673541036097854e-01 1.039800102634802215e-01 1.040456523372922382e-01 1.040523720699887272e-01 1.040252077039987150e-01 1.040955012412755204e-01 1.040352185723540379e-01 1.040346890644749944e-01 1.040237991818602492e-01 1.040736078592994357e-01 1.040120242102025166e-01 1.040209209304497617e-01 1.040277978710255763e-01 1.039809612022002672e-01 1.039733011198930301e-01 1.040141727082468104e-01 1.040669176521511197e-01 1.040063908687012817e-01 1.040166587301062651e-01 1.040273230145964123e-01 1.039899031692252673e-01 1.039304264166650560e-01 1.040106775851415144e-01 1.040748115871098639e-01 1.040456440184135967e-01 1.039977919325432432e-01 1.039784884911007234e-01 1.039925845393972481e-01 1.039689129055675898e-01 1.039234491499790441e-01 1.040582807738130444e-01 1.040705493078465244e-01 1.040347120437171285e-01 1.039723330188075945e-01 1.039568041712896490e-01 1.039640632650363494e-01 1.040285419914989129e-01 1.040998244001263423e-01 1.040847063043894571e-01 1.039872955501822960e-01 1.038694102212228271e-01 1.039778962405979168e-01 1.039420033438127611e-01 1.040175751917662705e-01 1.039736113644678939e-01 1.039521155693026722e-01 1.040019666823625843e-01 1.040026977271848313e-01 1.040533229884953587e-01 1.039799793211483442e-01 1.039744217651290825e-01
3.000000000000000000e+00 4.779999964472633200e-01 3.482999653197199532e-03 4.779999999999999805e-01 4.779234290876113733e-01 4.778059496039808174e-01 4.781703614898397681e-01 4.779131301190976955e-01 4.783239705819133381e-01 4.778716595848501170e-01 4.784344280881238087e-01 4.777354432889883706e-01 4.781636964223671682e-01 4.781315949618095695e-01 4.780873865529391420e-01 4.781893898922152664e-01 4.781248362495469917e-01 4.785360535783493297e-01 4.779501516902016633e-01 4.778782517570474564e-01 4.781060575742252516e-01 4.777183564051393772e-01 4.779228371393602348e-01 4.777887358445614407e-01 4.778434388051726045e-01 4.779871061785599395e-01 4.778277907012853376e-01 4.780752452668311503e-01 4.783240846961925863e-01 4.781310499325381880e-01 4.781775577103820063e-01 4.780154958496422579e-01 4.782563987863555077e-01 4.777624450904259801e-01 4.774971328994517816e-01 4.774789060866678203e-01 4.780189773642620210e-01 4.779401083647996651e-01 4.775297707839585848e-01 4.778858332142089105e-01 4.778199677363236808e-01 4.777279525953740946e-01 4.779835656622650752e-01 4.777515118597825960e-01 4.776659426342660941e-01 4.782544897907129444e-01 4.783382626385475067e-01 4.782407445475691521e-01 4.776720489775543865e-01 4.779432890000039902e-01 4.776893268193599384e-01 4.782225032450482249e-01 4.781666931008154431e-01 4.779048968246478180e-01 4.778404499811459982e-01 4.779725502166666806e-01 4.777571723121468161e-01 4.778130725761996489e-01 4.776275951398807340e-01 4.776341567622082174e-01 4.780941806213058198e-01 4.781603451674206195e-01 4.778719579583077248e-01 4.778903726110297345e-01 4.779803184499001323e-01 4.778696808030454823e-01 4.780275100462789140e-01 4.780314493640299700e-01 4.777563856022360445e-01 4.771502103466057632e-01 4.779643161322018607e-01 4.780290910133114246e-01 4.779638871615228268e-01 4.781083230366359182e-01 4.779167832440160413e-01 4.778452060354938524e-01 4.776877546052488155e-01 4.782414681081486596e-01 4.782135840351258715e-01 4.782009124109862230e-01 4.777023785835193825e-01 4.779224095367408109e-01 4.777845329968521959e-01 4.776231481949668733e-01 4.774573773348791961e-01 4.781231554446365717e-01 4.782734461679048477e-01 4.780481187379812535e-01 4.782901364548756695e-01 4.784991485165079883e-01 4.781506997518097934e-01 4.781917054551037549e-01 4.778818469762370902e-01 4.775983349551774504e-01 4.780046018488652848e-01 4.778668005035607846e-01 4.781385718527203510e-01 4.784464449374921102e-01 4.779173458637389627e-01 4.782590964072041539e-01 4.782616180065180633e-01 4.782694990807362379e-01 4.784470629300111577e-01 4.782213376478260947e-01 4.780757995771300894e-01 4.777754219755035447e-01 4.780945751108862107e-01 4.780398923558903945e-01 4.778917679098100280e-01 4.780578490790769464e-01 4.778839349910458112e-01 4.782042876361259354e-01 4.781567125935929363e-01 4.782223534858796032e-01 4.781443044935174136e-01 4.781067711664624409e-01 4.778935500648138768e-01 4.775988083302262766e-01 4.782170226518902556e-01 4.783363639956863533e-01 4.779441104308949084e-01 4.780793117236236123e-01 4.777669446918185181e-01 4.778124945245393884e-01 4.777754958239415761e-01 4.779913578652177919e-01 4.782576290318787948e-01 4.784157678931740820e-01 4.785499622154629207e-01 4.783248490852891610e-01 4.781238146733132188e-01 4.780026657128563783e-01 4.774972568492606984e-01 4.781274027654122682e-01 4.778821944137768285e-01 4.775544212275417699e-01 4.779734540755711247e-01 4.783833182687706742e-01 4.779099535006315902e-01 4.779325423011143714e-01 4.781070656880856418e-01 4.779108453360665920e-01 4.777297122795139406e-01 4.782260013327075399e-01 4.781450183056725756e-01 4.782758507071497300e-01 4.782506726159534982e-01 4.778651539469686016e-01 4.781020566556350437e-01 4.777556097657784662e-01 4.778786429618284148e-01 4.776248485905095764e-01 4.781988802756100831e-01 4.780410222119016450e-01 4.776312883967225309e-01 4.781559133696602903e-01 4.779577031544022248e-01 4.780371177853107723e-01 4.781698684834986834e-01 4.783516361215698898e-01 4.779766603793796920e-01 4.779338337590480768e-01 4.776038663656499428e-01 4.778285842379068060e-01 4.779649258262272937e-01 4.777869276297999623e-01 4.779782611491413813e-01 4.778205138166518040e-01 4.777622448835642799e-01 4.782473661303072165e-01 4.778428952264639484e-01 4.778299755792325687e-01 4.782461855683691754e-01 4.779372852188158438e-01 4.781018813456506811e-01 4.780145751174189606e-01 4.780517044461908838e-01 4.779024129143593647e-01 4.778499544377449726e-01 4.779081240956110088e-01 4.782098251656315968e-01 4.782407100909097375e-01 4.781158584856863847e-01 4.784389383974009813e-01 4.781618699767811176e-01 4.781594362771061646e-01 4.781093847012423126e-01 4.783383130456262400e-01 4.780552651199692082e-01 4.780961558149517954e-01 4.781277632918290998e-01 4.779124947562666259e-01 4.778772878395083357e-01 4.780651399475189245e-01 4.783075638243099448e-01 4.780293734157616270e-01 4.780765660864499389e-01 4.781255807786258250e-01 4.779535934124007901e-01 4.776802291073644069e-01 4.780490758240157900e-01 4.783438455638319153e-01 4.782097869307855853e-01 4.779898513822660178e-01 4.779011297956360371e-01 4.779659174022297674e-01 4.778571189313587375e-01 4.776481605162498645e-01 4.782678674027176502e-01 4.783242554726023221e-01 4.781595418932383379e-01 4.778728382979810507e-01 4.778014653257351418e-01 4.778348292373785777e-01 4.781311833840045655e-01 4.784588083005806847e-01 4.783893232067131240e-01 4.779416083941070981e-01 4.773997892860049053e-01 4.778984077212096726e-01 4.777334384456009553e-01 4.780807782852334320e-01 4.778787137713043642e-01 4.777799157896795990e-01 4.780090391747049972e-01 4.780123991691764274e-01 4.782450806586613923e-01 4.779079818798933621e-01 4.778824384974202366e-01
4.000000000000000000e+00 1.830114259547422906e+00 9.074437254419934207e-03 1.830000000000000071e+00 1.829706851946294677e+00 1.829257087395993464e+00 1.830652220766541438e+00 1.829667422840897117e+00 1.829238950258865293e+00 1.829508654895974473e+00 1.829661369341192945e+00 1.830986050429763035e+00 1.830626703876426564e+00 1.830503804979312754e+00 1.830334555213135594e+00 1.830725070089443296e+00 1.830477929574625628e+00 1.830050012429335959e+00 1.829809158144495962e+00 1.829533892710035303e+00 1.830406036319732754e+00 1.830920562623881587e+00 1.829704585700898001e+00 1.829191185346333626e+00 1.829400612998882458e+00 1.829950636625030658e+00 1.829340704986092359e+00 1.830288072883474726e+00 1.829239386662427025e+00 1.830501718360972641e+00 1.830679771150625745e+00 1.830059325114739233e+00 1.830981610416381855e+00 1.831009578263635085e+00 1.830072693455639499e+00 1.830002836717103509e+00 1.830072653925940429e+00 1.829770707756450676e+00 1.830197782586217903e+00 1.829562917953979850e+00 1.831310001868085902e+00 1.830957341327877241e+00 1.829937081928755260e+00 1.831047635412388352e+00 1.830719679719614135e+00 1.830974301918419922e+00 1.829293606910595837e+00 1.830921678916425765e+00 1.830743083110626834e+00 1.829782884665287046e+00 1.830809302788843684e+00 1.830851842967444076e+00 1.830638176515674065e+00 1.829635902069258524e+00 1.829389170429910116e+00 1.829894909825313887e+00 1.831069329865801176e+00 1.829284357352396473e+00 1.830572707732764481e+00 1.830597856042605720e+00 1.830360565976965725e+00 1.828613202857834796e+00 1.829509797204399879e+00 1.829580296816285312e+00 1.829924650132462860e+00 1.829501079225048565e+00 1.830105320888473663e+00 1.830120402376934852e+00 1.831066314693088781e+00 1.830739509990951808e+00 1.829863386029141115e+00 1.830111373544685893e+00 1.829861743735537116e+00 1.830414709533564332e+00 1.829681408653869301e+00 1.829407378755133262e+00 1.830803277064468215e+00 1.830924449033288770e+00 1.830817696201423317e+00 1.830769183498127006e+00 1.830859325449806452e+00 1.829702948644844618e+00 1.829175094946107860e+00 1.830555664211672262e+00 1.829920324848323565e+00 1.830471494693901580e+00 1.831046875496372239e+00 1.830184220273024298e+00 1.831110773456950724e+00 1.829908877590327609e+00 1.830576946748560641e+00 1.830733935110543609e+00 1.829547656833711011e+00 1.830460564095993892e+00 1.830017617956952947e+00 1.829490052137063394e+00 1.830530515670456548e+00 1.829707324991078687e+00 1.829683562616406522e+00 1.830991938127999319e+00 1.829000497313629792e+00 1.831031764263069794e+00 1.829709688359959063e+00 1.830847380534564417e+00 1.830290195033782652e+00 1.829140213839270945e+00 1.830362076261342619e+00 1.830152725965019656e+00 1.829585638650528256e+00 1.830221472415713091e+00 1.829555650697936908e+00 1.830782105385168279e+00 1.830599966624006480e+00 1.830851269621672994e+00 1.830552462809909908e+00 1.830408768273276587e+00 1.829592461545207938e+00 1.830462378370239618e+00 1.830830860780249481e+00 1.829286345991871787e+00 1.829786029473928100e+00 1.830303641117638325e+00 1.829107758966585617e+00 1.831281359767690686e+00 1.829140496564462204e+00 1.829966914002821188e+00 1.830986320352171903e+00 1.829590007758833181e+00 1.830103202782147109e+00 1.829242309891022211e+00 1.830474018519169910e+00 1.830010205553404212e+00 1.830073168510137460e+00 1.830487755357121937e+00 1.829548986981614167e+00 1.830292258763298152e+00 1.829898370205638392e+00 1.829465911705675296e+00 1.829655261309949044e+00 1.829741741445688685e+00 1.830409895835139356e+00 1.829658675658999867e+00 1.830964085556630927e+00 1.830865235227729704e+00 1.830555195605399144e+00 1.831056081159171622e+00 1.830959688048524825e+00 1.829483748374377550e+00 1.830390718995423160e+00 1.829064363747645583e+00 1.829535390418715490e+00 1.830562181208814865e+00 1.830761403565620338e+00 1.830157051564393456e+00 1.830586862641832013e+00 1.830596906833636517e+00 1.829838068561832731e+00 1.830142103655060026e+00 1.830650333315486433e+00 1.829344750690857335e+00 1.829910645385491197e+00 1.829746685730246902e+00 1.830481763978808907e+00 1.829343743002864953e+00 1.829865720213380564e+00 1.829184262683125173e+00 1.829916773855499557e+00 1.829312845783415797e+00 1.829089765976825488e+00 1.830947029327326891e+00 1.829398531933952299e+00 1.829349069686183160e+00 1.830942509602752288e+00 1.829759899477893192e+00 1.830390047829583144e+00 1.830055800135725219e+00 1.830197947984370854e+00 1.829626392538237667e+00 1.829425557784671863e+00 1.829648257520854138e+00 1.830803305550430693e+00 1.828920539845571236e+00 1.830443558637669721e+00 1.829678617971650656e+00 1.830619711417383888e+00 1.830610394115280926e+00 1.830418774065425414e+00 1.829293799680763222e+00 1.830211579852602188e+00 1.830368127910798837e+00 1.830489135615161578e+00 1.829664990384870293e+00 1.829530202398117700e+00 1.830249385154727237e+00 1.831177493302274639e+00 1.830112454708878289e+00 1.830293129577831523e+00 1.830480779968379101e+00 1.829822334612329460e+00 1.830774434570484610e+00 1.830187884430855227e+00 1.829314957511892770e+00 1.830803159170162342e+00 1.829961146505328040e+00 1.829621480179945525e+00 1.829869516414394104e+00 1.829452986703737460e+00 1.830651527334246298e+00 1.829024396678175401e+00 1.829240039757148661e+00 1.830610798461560940e+00 1.829513167542479835e+00 1.829239919552500648e+00 1.829367651682851204e+00 1.830502229273490267e+00 1.829754605802220713e+00 1.829488876196383895e+00 1.829776450546477085e+00 1.829699610820002098e+00 1.829611058848982674e+00 1.830978366594855355e+00 1.830309255778194810e+00 1.829535661509386957e+00 1.831156497336178024e+00 1.830034606045418677e+00 1.830047469622579248e+00 1.830938279509101152e+00 1.831647328041766887e+00 1.829549921444098448e+00
5.000000000000000000e+00 5.054274742194712289e+00 1.722173021592504974e-02 5.054000000000000270e+00 5.055190078382768348e+00 5.053947450204449687e+00 5.053800557001403071e+00 5.053081505485187641e+00 5.055424057279971350e+00 5.054642491341009070e+00 5.054589669131852148e+00 5.051202783227086712e+00 5.051729428730029170e+00 5.053390832106823716e+00 5.056924323036946056e+00 5.054001668902659894e+00 5.053319399022409009e+00 5.055663327553690856e+00 5.053472942766274123e+00 5.054712219421824138e+00 5.055121370251327129e+00 5.053020941389926080e+00 5.055183817105869615e+00 5.053765373284734075e+00 5.054343988700737533e+00 5.055863616817571682e+00 5.052179192896017135e+00 5.054795584892394444e+00 5.053423907355172773e+00 5.053635140212690224e+00 5.055877357046591136e+00 5.054163841054585937e+00 5.056710961226444923e+00 5.055486291354339912e+00 5.054676762492104736e+00 5.054483817570165627e+00 5.054200651880711881e+00 5.053366752459618638e+00 5.053024227249503397e+00 5.050793366941806362e+00 5.055545179556353297e+00 5.053122444188726803e+00 5.055826167339774635e+00 5.055370600390753921e+00 5.054465141933301098e+00 5.054689712181342998e+00 5.053573695239884422e+00 5.052543430889589793e+00 5.052531128934131921e+00 5.055400144736443835e+00 5.052713883679254891e+00 5.054351645175698238e+00 5.055762483120337158e+00 5.052994453037175759e+00 5.052313042269271470e+00 5.053709767353626425e+00 5.053431512992080599e+00 5.056022010649409815e+00 5.054059364471792826e+00 5.054128796868722517e+00 5.052995398533131954e+00 5.055695365012852882e+00 5.054645647358166904e+00 5.054840426613736781e+00 5.053791902606265651e+00 5.054621560962757165e+00 5.054290869819861420e+00 5.054332521100015185e+00 5.055422172334957942e+00 5.053000763126607175e+00 5.057622407942838905e+00 5.056307707454608114e+00 5.055618019850752098e+00 5.053144870253315268e+00 5.055119782597793154e+00 5.056362033739597805e+00 5.050698560198592979e+00 5.054452035011530953e+00 5.054257377710158927e+00 5.054123450837452403e+00 5.054850692208035845e+00 5.053179618825707209e+00 5.055720016523176596e+00 5.054012308724147751e+00 5.054255919067967895e+00 5.054852033885259388e+00 5.053239118941680097e+00 5.056508971420989873e+00 5.053065249157159045e+00 5.055273430979843496e+00 5.053592751351764001e+00 5.054026142174025793e+00 5.054750247514339989e+00 5.053749745195162291e+00 5.054048656368546055e+00 5.054591094866116130e+00 5.053464571129588911e+00 5.054716625385638373e+00 5.053126079488152733e+00 5.052737315599123313e+00 5.054765050562613382e+00 5.054848345932802189e+00 5.054723154386101314e+00 5.054339325934764204e+00 5.052801128585065804e+00 5.053624547088171326e+00 5.052999567908361911e+00 5.054421790725251107e+00 5.056854732401295571e+00 5.054611651141537543e+00 5.054772333294408782e+00 5.054159123719054847e+00 5.053656301302995146e+00 5.053649736742959142e+00 5.055525763410537721e+00 5.055128915220294950e+00 5.054874035832006562e+00 5.053754754255825432e+00 5.054293720580228744e+00 5.055555043736835508e+00 5.053409067191930504e+00 5.052838248593611858e+00 5.051535854544876081e+00 5.054016678485504066e+00 5.053625328213072088e+00 5.051908660952050489e+00 5.054722890939438606e+00 5.054392526904872618e+00 5.053807969170830638e+00 5.055433342215231995e+00 5.055309119997750678e+00 5.054028185173171650e+00 5.054678074596776760e+00 5.053346524625236036e+00 5.054753922502207786e+00 5.053285068135787483e+00 5.053719324054260831e+00 5.054049701375087800e+00 5.055047541630111496e+00 5.055286472540657883e+00 5.055132029262729532e+00 5.053057347967532920e+00 5.053141057082056520e+00 5.054388616595896444e+00 5.053532703933593773e+00 5.054915476511549599e+00 5.054649368317567060e+00 5.054573678568772266e+00 5.053078640636544883e+00 5.055413962751688750e+00 5.052716865123599632e+00 5.056028731941377252e+00 5.054101973122138602e+00 5.052433565302358431e+00 5.054098445001302231e+00 5.053647854275154394e+00 5.051552963046107791e+00 5.054392454575231675e+00 5.053795346398818111e+00 5.055716455410400378e+00 5.053753225015449324e+00 5.055300132815371050e+00 5.053808276312672376e+00 5.054186865913925963e+00 5.055629006228881117e+00 5.055745355547129449e+00 5.055770059351587520e+00 5.054101501792869655e+00 5.053485167638704922e+00 5.054614421946260094e+00 5.052338896390269340e+00 5.054201582695815098e+00 5.053201223497175931e+00 5.055336640306135720e+00 5.055077214060498925e+00 5.054154105948609477e+00 5.054546682575415950e+00 5.052968190102871127e+00 5.054412907190875437e+00 5.055028191270730886e+00 5.056218528006490409e+00 5.054544074015221433e+00 5.053224512698091253e+00 5.054637319888859892e+00 5.055711487160359674e+00 5.054635404887594774e+00 5.053156091026519192e+00 5.055575643319045298e+00 5.054584330368879996e+00 5.055016676754741312e+00 5.055350869616955123e+00 5.053074787653078381e+00 5.052702537114801551e+00 5.054688739110377860e+00 5.053249366763107098e+00 5.054310571638618299e+00 5.054809550211126101e+00 5.053327267978279913e+00 5.053509332858313385e+00 5.054616315533575488e+00 5.054518889570242202e+00 5.055634116712298898e+00 5.054217245971399208e+00 5.053892696414168384e+00 5.054954209721204350e+00 5.053639637135709961e+00 5.054488688947594177e+00 5.054276978851865998e+00 5.054831100666380195e+00 5.055427068300391014e+00 5.053686204277489935e+00 5.054654959068185072e+00 5.055899187484452106e+00 5.054252921807920629e+00 5.055387031009956900e+00 5.054847242506134819e+00 5.054113142665065617e+00 5.055382368285785688e+00 5.053646304994110494e+00 5.054925417235222262e+00 5.053180470253050949e+00 5.052853748738492357e+00 5.054717106334131849e+00 5.055671159130124437e+00 5.056095611019473246e+00 5.054131099165308783e+00 5.056591292152457839e+00 5.051027457023475442e+00 5.054756504273967721e+00
6.000000000000000000e+00 2.983370163812411064e-03 2.614939790377171267e-05 2.996629586762688570e-03 2.982796960733882004e-03 2.982231652949245571e-03 2.984554505315500754e-03 2.982681755829903920e-03 2.985377014746227672e-03 2.982582626028806600e-03 2.986108431927297652e-03 2.981647590877914769e-03 2.984383037551440430e-03 2.984246399176954806e-03 2.983922217935528094e-03 2.984782235939643317e-03 2.983970443244169952e-03 2.986818415637860092e-03 2.982869298696845008e-03 2.982550475823045073e-03 2.983898105281206949e-03 2.981312692901234504e-03 2.982711226851851843e-03 2.982113768861453882e-03 2.982237011316872348e-03 2.982979145233196315e-03 2.982336141117969668e-03 2.983541773834019143e-03 2.985133209019204346e-03 2.984064214677640495e-03 2.984348208161865731e-03 2.983405135459533519e-03 2.985109096364883200e-03 2.981650270061728374e-03 2.980168681412894479e-03 2.980222265089163113e-03 2.983407814643347124e-03 2.982866619513031402e-03 2.980401770404663819e-03 2.982746056241426542e-03 2.982070901920438801e-03 2.981564536179698213e-03 2.983343514231824502e-03 2.981583290466392148e-03 2.981454689643346905e-03 2.984691143689986378e-03 2.985374335562414067e-03 2.984763481652949382e-03 2.981243034122085106e-03 2.983094350137174399e-03 2.981058170438957624e-03 2.984712577160493919e-03 2.984640239197530916e-03 2.982561192558299060e-03 2.982312028463648956e-03 2.983276534636488276e-03 2.981942301097393559e-03 2.982111089677640711e-03 2.980993870027435003e-03 2.980991190843621397e-03 2.984109760802469181e-03 2.984417866941015129e-03 2.982175390089163332e-03 2.982764810528120911e-03 2.983139896262002651e-03 2.982435270919067422e-03 2.983694487311385531e-03 2.983498906893004062e-03 2.981891396604938096e-03 2.977752057613168753e-03 2.983281893004115053e-03 2.983300647290809422e-03 2.983088991769547189e-03 2.984227644890260437e-03 2.982547796639231901e-03 2.982137881515775028e-03 2.981441293724279747e-03 2.984940307784636482e-03 2.984618805727023375e-03 2.985079625342935711e-03 2.981291259430726964e-03 2.982443308470507370e-03 2.981784229252400394e-03 2.981063528806584401e-03 2.979935592421124706e-03 2.983994555898491097e-03 2.985023362482853038e-03 2.983611432613168541e-03 2.985186792695473414e-03 2.986531742969821684e-03 2.984222286522633660e-03 2.984391075102880812e-03 2.982563871742112665e-03 2.980841156550068614e-03 2.983300647290809422e-03 2.982671039094650367e-03 2.984109760802469181e-03 2.986320087448559885e-03 2.982373649691357972e-03 2.985449352709190676e-03 2.984910836762688559e-03 2.985031400034293420e-03 2.986336162551440215e-03 2.984492884087791304e-03 2.983863275891632250e-03 2.981835133744855856e-03 2.983935613854595253e-03 2.983547132201645920e-03 2.982448666838134581e-03 2.983691808127571926e-03 2.982467421124828516e-03 2.984736689814814631e-03 2.984235682441700819e-03 2.984543788580246767e-03 2.983772183641975311e-03 2.984091006515775246e-03 2.982571909293552613e-03 2.980980474108367410e-03 2.984685785322359602e-03 2.985259130658436417e-03 2.983182763203017732e-03 2.983887388545953395e-03 2.981883359053498148e-03 2.982076260288066012e-03 2.981869963134430555e-03 2.983241705246913577e-03 2.985106417181070029e-03 2.985741383744855860e-03 2.986960412379972493e-03 2.985561878429355154e-03 2.983919538751714489e-03 2.983397097908093137e-03 2.980120456104252188e-03 2.984061535493827324e-03 2.982515646433470374e-03 2.980441958161865728e-03 2.983072916666666859e-03 2.985760138031550229e-03 2.982636209705075234e-03 2.982877336248285390e-03 2.984139231824417104e-03 2.982663001543209985e-03 2.981401105967078271e-03 2.984525034293552832e-03 2.984018668552812243e-03 2.984910836762688559e-03 2.984961741255144022e-03 2.982585305212620205e-03 2.984024026920439020e-03 2.981701174554183837e-03 2.982756772976680529e-03 2.980921532064471999e-03 2.984736689814814631e-03 2.983678412208504768e-03 2.981050132887517242e-03 2.984048139574759732e-03 2.983418531378600677e-03 2.983509623628258049e-03 2.984163344478737816e-03 2.986006622942386727e-03 2.982818394204389545e-03 2.982855902777777849e-03 2.980661651234567909e-03 2.982226294581618795e-03 2.983080954218106807e-03 2.981907471707818860e-03 2.983099708504801176e-03 2.982231652949245571e-03 2.981754758230452471e-03 2.985162680041152268e-03 2.982231652949245571e-03 2.981746720679012523e-03 2.985438635973936689e-03 2.983003257887517027e-03 2.983801654663923233e-03 2.983651620370370450e-03 2.983608753429355370e-03 2.982676397462277144e-03 2.982242369684499125e-03 2.982743377057613370e-03 2.984707218792867142e-03 2.984945666152263258e-03 2.984125835905349945e-03 2.986191486625514209e-03 2.984583976337448676e-03 2.984133873456790327e-03 2.984077610596707654e-03 2.985285922496570734e-03 2.983477473422496522e-03 2.983940972222222029e-03 2.983965084876543175e-03 2.982764810528120911e-03 2.982925561556927247e-03 2.983611432613168541e-03 2.985452031893004281e-03 2.983222950960219642e-03 2.983740033436213784e-03 2.984155306927297868e-03 2.982759452160493700e-03 2.981052812071330414e-03 2.983681091392318373e-03 2.985441315157750294e-03 2.984640239197530916e-03 2.983563207304526683e-03 2.982654963991769603e-03 2.983308684842249803e-03 2.982387045610425131e-03 2.981084962277091941e-03 2.985074266975308501e-03 2.985403806584361990e-03 2.984632201646090534e-03 2.982689793381344302e-03 2.981979809670781863e-03 2.982341499485596879e-03 2.984115119170095958e-03 2.986472800925925840e-03 2.985768175582990611e-03 2.983145254629629428e-03 2.979214891975308713e-03 2.982523683984910755e-03 2.981604723936899688e-03 2.983793617112482852e-03 2.982408479080932671e-03 2.981969092935528309e-03 2.983222950960219642e-03 2.983158650548697020e-03 2.984817065329218016e-03 2.982585305212620205e-03 2.982697830932784684e-03
