# vvf statistics with RF=500
# gcat file: /disk2/salam/Abacus/AbacusCosmos_720box_products/GCAT_derivative/AbacusCosmos_720box_planck_rockstar_halos_z0.100_Mr21_hod-fconc-neg_real-6.gcat.rsd_zz.1pz0.100by100
# stats order in row: stdvvf,p2.5,p16,p50,p84,p97.5,rho
# columns: numbers, mean, sigma,All, jnrealizations
0.000000000000000000e+00 1.440169499599033509e+00 4.938729961794460256e-03 1.440169735347617053e+00 1.440609269555258809e+00 1.439526969090851205e+00 1.439877139449952992e+00 1.440013550887718985e+00 1.440579690675599656e+00 1.440176580074684853e+00 1.440235654983965663e+00 1.439212507712904099e+00 1.439054913381814460e+00 1.439984140864209339e+00 1.440939994672034041e+00 1.440428878130332935e+00 1.440011415633845493e+00 1.440141278835846306e+00 1.440225235654661429e+00 1.440230138226102907e+00 1.440382772231200370e+00 1.440108182218402089e+00 1.440410889515508996e+00 1.440538420791201091e+00 1.440226775848922225e+00 1.440873174152952796e+00 1.440130341718017792e+00 1.440165746113913237e+00 1.440138629280605320e+00 1.440471681519893243e+00 1.440448484812244301e+00 1.440131457894504141e+00 1.440637109826581108e+00 1.439873028222795837e+00 1.440156932669449885e+00 1.439530993681364723e+00 1.440282949174975347e+00 1.440358614474040122e+00 1.439741546153256113e+00 1.439597126430934848e+00 1.440413946310449278e+00 1.440184667646937644e+00 1.440082212959029384e+00 1.440298150288189527e+00 1.440013890097051830e+00 1.440334011947554727e+00 1.440430510886470783e+00 1.440010265230683428e+00 1.439550294009577014e+00 1.440459342194465364e+00 1.439814793844907292e+00 1.440541603046444186e+00 1.440250347822225052e+00 1.439987396698567013e+00 1.439590792575124123e+00 1.439997396437010746e+00 1.439843526745121727e+00 1.440289633571542272e+00 1.439493147288399832e+00 1.439905043410306007e+00 1.439936519637730505e+00 1.440429010515230646e+00 1.440340120710900562e+00 1.439763859691249426e+00 1.440440644148120786e+00 1.440465099789807191e+00 1.440543843468860219e+00 1.440066914423749234e+00 1.440179219389741139e+00 1.439565470962303140e+00 1.440749559579451722e+00 1.440474947345681045e+00 1.440478642977490509e+00 1.439886827943053005e+00 1.440347221262231026e+00 1.440560244431247305e+00 1.439692323617695946e+00 1.440345774382149946e+00 1.440042136851709342e+00 1.440510132654836184e+00 1.440236694783699978e+00 1.440002129956634791e+00 1.440132083239085592e+00 1.439732382579845593e+00 1.439785888343835696e+00 1.440184381878167885e+00 1.439211848779644587e+00 1.440247934789929074e+00 1.439816082213293047e+00 1.440634488129910240e+00 1.440287710904992524e+00 1.440522542560799035e+00 1.440028302974884156e+00 1.439718553928384548e+00 1.440460228233746642e+00 1.440211967782707658e+00 1.440366191160413090e+00 1.440638491146458700e+00 1.439927912385234210e+00 1.439852967654246640e+00 1.440700263923846647e+00 1.440073807635309677e+00 1.440197953134611186e+00 1.439940260212256185e+00 1.440054985267704035e+00 1.439851727747319510e+00 1.439985793842470052e+00 1.440151890563928339e+00 1.440317205073480489e+00 1.440412932810785751e+00 1.440262176962688212e+00 1.440165123300281014e+00 1.439867403426224435e+00 1.440233462313539770e+00 1.440580745762091164e+00 1.440348117357072910e+00 1.440395982206224001e+00 1.439452631316134879e+00 1.440634446140753200e+00 1.440462728278255611e+00 1.440306934214105938e+00 1.440131021562624847e+00 1.439774043982709362e+00 1.440236488288672234e+00 1.440099030568938732e+00 1.440129483398393528e+00 1.440247785869545272e+00 1.440012621909733559e+00 1.440012645660156965e+00 1.440194123848009156e+00 1.440546534835968284e+00 1.440529332494536741e+00 1.440008966400458945e+00 1.440090582318403589e+00 1.440246040921794979e+00 1.439984618185935039e+00 1.440168490836961634e+00 1.440029484032433471e+00 1.440316490573614328e+00 1.440286731624805583e+00 1.440481218867712521e+00 1.439784250550582012e+00 1.439271672798132062e+00 1.439472867144530932e+00 1.439989577499156681e+00 1.440631421205493146e+00 1.440227805723105270e+00 1.440361079782509268e+00 1.440316159509559713e+00 1.440016397253029767e+00 1.440223295781719592e+00 1.440355184172086300e+00 1.439738266750304252e+00 1.439784251568233309e+00 1.439754497925281429e+00 1.440184020101561435e+00 1.439362985682921092e+00 1.440385331459254514e+00 1.440437703612595044e+00 1.440706862191621251e+00 1.440277160196512307e+00 1.440541865426497203e+00 1.439708514868898837e+00 1.440237826992307069e+00 1.440587552991482667e+00 1.440211784601527434e+00 1.440201921453273748e+00 1.440232738608751450e+00 1.440004699191820725e+00 1.439972805766853714e+00 1.439499770466818207e+00 1.440091060953014201e+00 1.440122711794249444e+00 1.439890692670027450e+00 1.440369936035245990e+00 1.440087550021670770e+00 1.440571923999096615e+00 1.439915176485992543e+00 1.439959368142624818e+00 1.440197979116851768e+00 1.440758821306375337e+00 1.440183009364745859e+00 1.440220395327626468e+00 1.440630035322801428e+00 1.440190207739084904e+00 1.440390425146725883e+00 1.440346389462048071e+00 1.440768393599829666e+00 1.440701336533196208e+00 1.440521161022358942e+00 1.440722508342376695e+00 1.440195804370745902e+00 1.439484889343884522e+00 1.440429737279543820e+00 1.440175021791296084e+00 1.440522647358740249e+00 1.440616475339373093e+00 1.439926884825465159e+00 1.439781550726874082e+00 1.439993897305395842e+00 1.440255372325033756e+00 1.440421567225580457e+00 1.440563365881242452e+00 1.439975559411499795e+00 1.440320072340301349e+00 1.440326792211383378e+00 1.440104054197490546e+00 1.439928805256970312e+00 1.440081937583006733e+00 1.440425014249649971e+00 1.440163373180505468e+00 1.440314188070743073e+00 1.439895434220127557e+00 1.440111627398195981e+00 1.440273009878557664e+00 1.440173999072492217e+00 1.440017498879969216e+00 1.439875888395848902e+00 1.439655860724452285e+00 1.440248323325425295e+00 1.440421579493425863e+00 1.440105819210478977e+00 1.440397996260800006e+00 1.440359852514681904e+00 1.440724540257045883e+00 1.440622846653649258e+00 1.440365228073104520e+00 1.439775876957926304e+00 1.440302636330397235e+00
1.000000000000000000e+00 2.199999987058180381e-02 1.621439502014198621e-04 2.199999999999999872e-02 2.199663851469742595e-02 2.199442408616222519e-02 2.201052170866911808e-02 2.199808105689293053e-02 2.201365592719140701e-02 2.199516627928902596e-02 2.202057315639894403e-02 2.198792841833241765e-02 2.200629651440138418e-02 2.200480982642503969e-02 2.200614965086688385e-02 2.200776699202644168e-02 2.200687251962743160e-02 2.202451350513415229e-02 2.199737042184055080e-02 2.199098519952185152e-02 2.200525707867897682e-02 2.198807164178817261e-02 2.199721027226338513e-02 2.199276823811451703e-02 2.199148638840445549e-02 2.199865642171323563e-02 2.199118893333911959e-02 2.200125441367900558e-02 2.201410628235917280e-02 2.200629390282524481e-02 2.200640144372703610e-02 2.199996072239183281e-02 2.201376859813813230e-02 2.198935950399985920e-02 2.197699655167507579e-02 2.197476904216705967e-02 2.200087665729460323e-02 2.199868459560531953e-02 2.197983809757036305e-02 2.199434316015373009e-02 2.198794922885893149e-02 2.199099817154515080e-02 2.200048999505971326e-02 2.198766485398611151e-02 2.198536970830295215e-02 2.201180388594440110e-02 2.201790512565264535e-02 2.200999520525877620e-02 2.198766363846593047e-02 2.199564159210604455e-02 2.198369765342690282e-02 2.201205414493245111e-02 2.200604127579858585e-02 2.199655916700890904e-02 2.199130691780493835e-02 2.199949419688800728e-02 2.198830471184666513e-02 2.199104213854960813e-02 2.198489325449819523e-02 2.198377596595443503e-02 2.200622111944060613e-02 2.200969200241762250e-02 2.199379791241037885e-02 2.199571582038632386e-02 2.200061435680806393e-02 2.199375316779654879e-02 2.200353772486218426e-02 2.200481344252079932e-02 2.198697039471463749e-02 2.195985778023956322e-02 2.199816753491660309e-02 2.199978692078946238e-02 2.199720849832231123e-02 2.200492534830052194e-02 2.199420063452974666e-02 2.199290966862149643e-02 2.198610028854510248e-02 2.201039315695545867e-02 2.200903258615614574e-02 2.201173621386573812e-02 2.198647435677479611e-02 2.199234971630041266e-02 2.198907852415553713e-02 2.198569769739959490e-02 2.197464061698273588e-02 2.200314312568055555e-02 2.201410721241911506e-02 2.200304845496139916e-02 2.201085256998964665e-02 2.201981264776108407e-02 2.200560141432988948e-02 2.200735244472038638e-02 2.199448087057106691e-02 2.198221079440441234e-02 2.199853965642506806e-02 2.199543748154022399e-02 2.200715307883669217e-02 2.201979647759525621e-02 2.199443875653689720e-02 2.201305664731031606e-02 2.201296854710781473e-02 2.201440426302882572e-02 2.201772766839325823e-02 2.200993021120347531e-02 2.200593404783750262e-02 2.198806212202237056e-02 2.200481142125054745e-02 2.200205436225699182e-02 2.199284483203224963e-02 2.200071343614457692e-02 2.199652929505569593e-02 2.201196010722130184e-02 2.200544169642274991e-02 2.200993385537501276e-02 2.200402481716367750e-02 2.200555183459645958e-02 2.199476740126544982e-02 2.197826605336756015e-02 2.201039701934373247e-02 2.201433654934902354e-02 2.199777010257737350e-02 2.200503951882351941e-02 2.198808392931090455e-02 2.199188793565097153e-02 2.199020510323598798e-02 2.199853354427082006e-02 2.201194182526494680e-02 2.201851154576109360e-02 2.202588788587974203e-02 2.201411375189315373e-02 2.200642127929378425e-02 2.200281368953168823e-02 2.197600768003506871e-02 2.200241439726523945e-02 2.199573891160791494e-02 2.197839613321716373e-02 2.199790521707028698e-02 2.202051530422894504e-02 2.199609424686226403e-02 2.199611386375013161e-02 2.200478745229729124e-02 2.199551506506763204e-02 2.198885274123875758e-02 2.201029447229377323e-02 2.200911474274126756e-02 2.201384997396244048e-02 2.201062327939810187e-02 2.199480775512604319e-02 2.200515624503697476e-02 2.198695203114377564e-02 2.199617057289068867e-02 2.198109415444740242e-02 2.200963322782281337e-02 2.200128710103585114e-02 2.198401260343325544e-02 2.200663740619836217e-02 2.199722883730131570e-02 2.200473046899088098e-02 2.200733650924196691e-02 2.201762549309913344e-02 2.199856824414384709e-02 2.199983864159517008e-02 2.197945197272262868e-02 2.199133972308198182e-02 2.199840882322068314e-02 2.198821291958459948e-02 2.199765423418489213e-02 2.199094803639515747e-02 2.198947032933634346e-02 2.201166893118609511e-02 2.199183653659419341e-02 2.199020225026503475e-02 2.201275721128535812e-02 2.199764424740574195e-02 2.200514092408089109e-02 2.200141828241240077e-02 2.200192526592622058e-02 2.199513717338003396e-02 2.199106524329177623e-02 2.199692286482276063e-02 2.201129115876579098e-02 2.201095128315920871e-02 2.200359868177831357e-02 2.201932319556007545e-02 2.200759473103596972e-02 2.200570722607838106e-02 2.200810187498011133e-02 2.201554262182903871e-02 2.200458147223403188e-02 2.200583971005782083e-02 2.200493520674856596e-02 2.199636552915474469e-02 2.199368440406080510e-02 2.200402217948378356e-02 2.201276752873154371e-02 2.200264576545731682e-02 2.200064595847121829e-02 2.200748130436590289e-02 2.199821111669248569e-02 2.198282556774660765e-02 2.200185096428169257e-02 2.201351874715687384e-02 2.200900848102849833e-02 2.200022616424039679e-02 2.199369578275545481e-02 2.199977209120271629e-02 2.199601742004087326e-02 2.198547261833150995e-02 2.201343494767296280e-02 2.201243288039581025e-02 2.200595080281992841e-02 2.199468595843305160e-02 2.199323305181486929e-02 2.199217352884239376e-02 2.200628821592762879e-02 2.201982562950316469e-02 2.201878139933352227e-02 2.199926799582023820e-02 2.197064364992221824e-02 2.199360531234221400e-02 2.199034730343420868e-02 2.200458338182699827e-02 2.199301597817663115e-02 2.198943087416205949e-02 2.200021695454061274e-02 2.200126972199384009e-02 2.201145428120005951e-02 2.199523713274417758e-02 2.199563189894932283e-02
2.000000000000000000e+00 1.039999993882048807e-01 7.664986736794393877e-04 1.039999999999999952e-01 1.039841093422060186e-01 1.039736411345850570e-01 1.040497389864358246e-01 1.039909286325847726e-01 1.040645552921775630e-01 1.039771496839117654e-01 1.040972549211586495e-01 1.039429343412077988e-01 1.040297653408065320e-01 1.040227373612820083e-01 1.040290710768252691e-01 1.040367166895795337e-01 1.040324882746024027e-01 1.041158820242705368e-01 1.039875692668826013e-01 1.039573845795578322e-01 1.040248516446642540e-01 1.039436113975441001e-01 1.039868121961541880e-01 1.039658134892686298e-01 1.039597538360937934e-01 1.039936485390080267e-01 1.039583476848758431e-01 1.040059299555734784e-01 1.040666842438797285e-01 1.040297529951738909e-01 1.040302613703459889e-01 1.039998143240341288e-01 1.040650879184711747e-01 1.039496994734538798e-01 1.038912564261003646e-01 1.038807263811533654e-01 1.040041441981199577e-01 1.039937817246796847e-01 1.039046891885144486e-01 1.039732585752721761e-01 1.039430327182422203e-01 1.039574459018497987e-01 1.040023163402822720e-01 1.039416884006616193e-01 1.039308386210684998e-01 1.040558001881008027e-01 1.040846424121761454e-01 1.040472500612233120e-01 1.039416826545662143e-01 1.039793966172285755e-01 1.039229343616544510e-01 1.040569832305897613e-01 1.040285587583205940e-01 1.039837342440421142e-01 1.039589054296233411e-01 1.039976089307433071e-01 1.039447131832751392e-01 1.039576537458708622e-01 1.039285862939914595e-01 1.039233045663300603e-01 1.040294089282646911e-01 1.040458167387014882e-01 1.039706810404854298e-01 1.039797475145535360e-01 1.040029042321835712e-01 1.039704695204927698e-01 1.040167237902576008e-01 1.040227544555528683e-01 1.039384055022873760e-01 1.038102367793142938e-01 1.039913374377875732e-01 1.039989927164592792e-01 1.039868038102509384e-01 1.040232834646933752e-01 1.039725848177769918e-01 1.039664820698470715e-01 1.039342922731223001e-01 1.040491312874258084e-01 1.040426994981926978e-01 1.040554802837289489e-01 1.039360605956626549e-01 1.039638350225110530e-01 1.039483712050988939e-01 1.039323891149799006e-01 1.038801192802820267e-01 1.040148584123080922e-01 1.040666886405267333e-01 1.040144108779993415e-01 1.040513030581328713e-01 1.040936597894160376e-01 1.040264794131958159e-01 1.040347570114054654e-01 1.039739095699723226e-01 1.039159055735481285e-01 1.039930965576457839e-01 1.039784317309174200e-01 1.040338145545007253e-01 1.040935833486321266e-01 1.039737104854471517e-01 1.040617223327396784e-01 1.040613058590551254e-01 1.040680928797726168e-01 1.040838035233135894e-01 1.040469428165982507e-01 1.040280518625045503e-01 1.039435663950148414e-01 1.040227449004571397e-01 1.040097115306694159e-01 1.039661755696069945e-01 1.040033726072289166e-01 1.039835930311723555e-01 1.040565386886825178e-01 1.040257243830893796e-01 1.040469600435909719e-01 1.040190264084101118e-01 1.040262450362741814e-01 1.039752640787094118e-01 1.038972577068284636e-01 1.040491495459885535e-01 1.040677727787408247e-01 1.039894586667294146e-01 1.040238231798930046e-01 1.039436694840151915e-01 1.039616520594409538e-01 1.039536968516610316e-01 1.039930676638256973e-01 1.040564522648888407e-01 1.040875091254160750e-01 1.041223790968860557e-01 1.040667195544039969e-01 1.040303551384797187e-01 1.040133010777861550e-01 1.038865817601657832e-01 1.040114135143447582e-01 1.039798566730556068e-01 1.038978726297538763e-01 1.039900973897868036e-01 1.040969814381731973e-01 1.039815364397125019e-01 1.039816291740915388e-01 1.040226315926781053e-01 1.039787984894106204e-01 1.039473038676741318e-01 1.040486647781160151e-01 1.040430878747768961e-01 1.040654726041860823e-01 1.040502191389728465e-01 1.039754548424140224e-01 1.040243749765384224e-01 1.039383186926796654e-01 1.039818972536650787e-01 1.039106269119331738e-01 1.040455388951623816e-01 1.040060844776240223e-01 1.039244232162299386e-01 1.040313768293013447e-01 1.039868999581516767e-01 1.040223622170477896e-01 1.040346816800529484e-01 1.040833205128322697e-01 1.039932316995891004e-01 1.039992372148135502e-01 1.039028638710524227e-01 1.039590605091148257e-01 1.039924780734068632e-01 1.039442792562181167e-01 1.039889109252376820e-01 1.039572088993225563e-01 1.039502233750445315e-01 1.040551622201524307e-01 1.039614090820816378e-01 1.039536833648892489e-01 1.040603068169853318e-01 1.039888637150089556e-01 1.040243025502005786e-01 1.040067046077677027e-01 1.040091012571057738e-01 1.039770120923419888e-01 1.039577629682884030e-01 1.039854535427985061e-01 1.040533763868928263e-01 1.040517697022071697e-01 1.040170119502247525e-01 1.040913460153748971e-01 1.040359023648973064e-01 1.040269796141887193e-01 1.040382997726332359e-01 1.040734742122827183e-01 1.040216578687426924e-01 1.040276059020915217e-01 1.040233300682659456e-01 1.039828188650951529e-01 1.039701444555601734e-01 1.040190139393778884e-01 1.040603555903673039e-01 1.040125072548891416e-01 1.040030536218639473e-01 1.040353661660933654e-01 1.039915434607281142e-01 1.039188117748021528e-01 1.040087500129679987e-01 1.040639068047415905e-01 1.040425855466801663e-01 1.040010691400455184e-01 1.039701982457530705e-01 1.039989226129582889e-01 1.039811732583750398e-01 1.039313251048398640e-01 1.040635106617267408e-01 1.040587736164165500e-01 1.040281310678760202e-01 1.039748790762289599e-01 1.039680107903975664e-01 1.039630021363458778e-01 1.040297261116578803e-01 1.040937211576513227e-01 1.040887847968493818e-01 1.039965396166047662e-01 1.038612245269050216e-01 1.039697705674359207e-01 1.039543690707798868e-01 1.040216668959094565e-01 1.039669846241077222e-01 1.039500368596751878e-01 1.040010256032828928e-01 1.040060023221526936e-01 1.040541475111275427e-01 1.039774846275179354e-01 1.039793507950331625e-01
3.000000000000000000e+00 4.780441879270910244e-01 4.421043318585925370e-03 4.779999999999999805e-01 4.779269640920623119e-01 4.778788505993428748e-01 4.782286080338108425e-01 4.779583065997646263e-01 4.782967060544314752e-01 4.778949764318252136e-01 4.784469985799407188e-01 4.777377174528589232e-01 4.781368060856299729e-01 4.781045044105077246e-01 4.781336151415622737e-01 4.781687555540290457e-01 4.781493211082687433e-01 4.785326116115511397e-01 4.779428664381719649e-01 4.778041329714292629e-01 4.781142219822068773e-01 4.777408293079430379e-01 4.779393868246317734e-01 4.778428735372154401e-01 4.778150224389695611e-01 4.779708077081330497e-01 4.778085595516409212e-01 4.780272549881166011e-01 4.783064910439857043e-01 4.781367493432030491e-01 4.781390859137056304e-01 4.779991466046952797e-01 4.782991540868194447e-01 4.777688110414514688e-01 4.775001978045766426e-01 4.794495063745540242e-01 4.780190473721281919e-01 4.779714198499701583e-01 4.775619368472106552e-01 4.778770922978855529e-01 4.777381696088440766e-01 4.778044148181173623e-01 4.780106462562973557e-01 4.777319909184254976e-01 4.776821236622186828e-01 4.782564662491556318e-01 4.783890295482711719e-01 4.782171685506225178e-01 4.777319645084870392e-01 4.779053036830313017e-01 4.776457944699118441e-01 4.782619036944414370e-01 4.781312604468965777e-01 4.779252400831935366e-01 4.778111230323072722e-01 4.779890102778394101e-01 4.777458932846684325e-01 4.778053701012141552e-01 4.776717716204607611e-01 4.776474959875554593e-01 4.781351679587549919e-01 4.782105807798011088e-01 4.778652455514618702e-01 4.779069164611210452e-01 4.780133482979206372e-01 4.778642733730341097e-01 4.780768651129147506e-01 4.781045829784064671e-01 4.777169022124361786e-01 4.791241697506813391e-01 4.779601855313698189e-01 4.779953703698801570e-01 4.779393482817302363e-01 4.781070143858022203e-01 4.778739956047827198e-01 4.778459464364124831e-01 4.776979971783890111e-01 4.782258149556686266e-01 4.781962534628471650e-01 4.782549959194465350e-01 4.777061246608341749e-01 4.778337801996180856e-01 4.777627061157430077e-01 4.776892499707730000e-01 4.794467043705324394e-01 4.780682915488775331e-01 4.783065112516516892e-01 4.780662346123430995e-01 4.782357967479568539e-01 4.784304748013544772e-01 4.781217034568039370e-01 4.781597485716520546e-01 4.778800843696804912e-01 4.776134890784231035e-01 4.779682707168719236e-01 4.779008689171012625e-01 4.781554168947244610e-01 4.784301234677514891e-01 4.778791693465743728e-01 4.782836853370150965e-01 4.782817711598880139e-01 4.783129653512626089e-01 4.783851738859989933e-01 4.782157564070573241e-01 4.781289306757420809e-01 4.777406224693951375e-01 4.781045390617164603e-01 4.780446356890382664e-01 4.778445377141552486e-01 4.780155010216867173e-01 4.779245910471192071e-01 4.782598605114446455e-01 4.781182332222760900e-01 4.782158355849662201e-01 4.780874483001926190e-01 4.781206262244139804e-01 4.778863099002220727e-01 4.795258048007468021e-01 4.782258988748320228e-01 4.783114941176742629e-01 4.779515504105447676e-01 4.781094949998928034e-01 4.777410962823005480e-01 4.778237469655074454e-01 4.777871836066728273e-01 4.779681379164296140e-01 4.782594632943929502e-01 4.784022054033546523e-01 4.785624731568416945e-01 4.783066533365876172e-01 4.781395168864740475e-01 4.780611337998248445e-01 4.774787123207619444e-01 4.780524582678538081e-01 4.779074181703901747e-01 4.775306068944457083e-01 4.779544860799816997e-01 4.784457416100652560e-01 4.779151386363710285e-01 4.779155648578438109e-01 4.781040182817320461e-01 4.779025545955603582e-01 4.777578004687330071e-01 4.782236708071102016e-01 4.781980385013784307e-01 4.783009221615475703e-01 4.782308148887405852e-01 4.778871866795567636e-01 4.781120311421669933e-01 4.777165032221238339e-01 4.779167969928068138e-01 4.775892275375389628e-01 4.782093037681501846e-01 4.780279651952334952e-01 4.776526374745952985e-01 4.781442127346735016e-01 4.779397901922740610e-01 4.781027801898927732e-01 4.781594023371664171e-01 4.783829538955175487e-01 4.779688918500344941e-01 4.779964941219314034e-01 4.775535474073370756e-01 4.778118358015085443e-01 4.779654280681584488e-01 4.777438988891563043e-01 4.779490329063808551e-01 4.778033255180402228e-01 4.777712189737624016e-01 4.782535340503160648e-01 4.778226302041829188e-01 4.777871216193948500e-01 4.782771794088364059e-01 4.779488159209065445e-01 4.781116982595757237e-01 4.780308154087785089e-01 4.780418307778515064e-01 4.778943440398025766e-01 4.778058721042486301e-01 4.779331422447854472e-01 4.782453260859112487e-01 4.782379415159137004e-01 4.780781895404560555e-01 4.784198403398961519e-01 4.781650127925087812e-01 4.781240024575211800e-01 4.781760316472951078e-01 4.783376987833763416e-01 4.780995428967212413e-01 4.781268809730744862e-01 4.781072285829915947e-01 4.779210328607257918e-01 4.778627793245938671e-01 4.780873909906022123e-01 4.782774035788035505e-01 4.780574852676635622e-01 4.780140349158746305e-01 4.781625483403137422e-01 4.779611324445003362e-01 4.776268464264945002e-01 4.780402164057567793e-01 4.782937255064084736e-01 4.781957297241646310e-01 4.780049139321322915e-01 4.778630265525958265e-01 4.779950481634044901e-01 4.779134693990699234e-01 4.776843596164755401e-01 4.782919047721670980e-01 4.782701325831453243e-01 4.781292947158147788e-01 4.778845403695908267e-01 4.778529726712503756e-01 4.778299521266665684e-01 4.781366257824275490e-01 4.784307568592051085e-01 4.784080685855192638e-01 4.779840955455488261e-01 4.793594978164847364e-01 4.778610608772535517e-01 4.777902732291613996e-01 4.780995843869684236e-01 4.778482562531104483e-01 4.777703617204301922e-01 4.780047138304732712e-01 4.780275875960479648e-01 4.782488702915285161e-01 4.778965158841689820e-01 4.779050930771716610e-01
4.000000000000000000e+00 1.827402358646842195e+00 9.198469578860848928e-03 1.828000000000000069e+00 1.827720691130313657e+00 1.827536692250206540e+00 1.826873301819536666e+00 1.827840553272739754e+00 1.827133441956886761e+00 1.827598361751833655e+00 1.827707571981112444e+00 1.826996961305075828e+00 1.828523183105714711e+00 1.828399652850225987e+00 1.826510421021951380e+00 1.826644660338194504e+00 1.826570419129076805e+00 1.828034620926134668e+00 1.827781505960205832e+00 1.827250952032997589e+00 1.826436337530355392e+00 1.827008861872217338e+00 1.827768198986248649e+00 1.827399106330606315e+00 1.827292596272879432e+00 1.827888360858717753e+00 1.827267880461086902e+00 1.826104116335357519e+00 1.827170821435811554e+00 1.827562691464484468e+00 1.828531901778773783e+00 1.827996736387830445e+00 1.827142793645464947e+00 1.827115871514170209e+00 1.828086531343881216e+00 1.827901243052987068e+00 1.828072842251569963e+00 1.827890701853024158e+00 1.828322896297898570e+00 1.827529968034591779e+00 1.826998690470642117e+00 1.827252029890206186e+00 1.828040714134961497e+00 1.826975061503936626e+00 1.826784355762627099e+00 1.826979722533385253e+00 1.827486125429169661e+00 1.826829602036478484e+00 1.826974960505260093e+00 1.827637855925902111e+00 1.826645423202926333e+00 1.827000494029393352e+00 1.826501425891282615e+00 1.827714098058740300e+00 1.827277683897610139e+00 1.827957972359603556e+00 1.827028227875258981e+00 1.827255683148576448e+00 1.826744766782850027e+00 1.826651930262032097e+00 1.828516918469883068e+00 1.826804436200662796e+00 1.827484662903916979e+00 1.827644023621190827e+00 1.828051047465688139e+00 1.827480945033276738e+00 1.828293952774912245e+00 1.828399953314910009e+00 1.826917358251743284e+00 1.826660897174472442e+00 1.827847738810343126e+00 1.827982295054688233e+00 1.827768051587872034e+00 1.828409251667879598e+00 1.827518125450926290e+00 1.827410857920004350e+00 1.826845060339111093e+00 1.826862632027303146e+00 1.826749704650960204e+00 1.826974105750856392e+00 1.826876142008378556e+00 1.827364330972597983e+00 1.827092524643469051e+00 1.826811608674838938e+00 1.827890560412654963e+00 1.826260879431486295e+00 1.827170898630786633e+00 1.828253298894065182e+00 1.826900763309140752e+00 1.827644449764169954e+00 1.828465426608865352e+00 1.826610252911792465e+00 1.827541410518359610e+00 1.828520261534548830e+00 1.827878658724773953e+00 1.827620896193433264e+00 1.828594355823339512e+00 1.827643107640406273e+00 1.827537911224974554e+00 1.827083701726756271e+00 1.827076389409948654e+00 1.827195553831392427e+00 1.827471396476640475e+00 1.826824207529888611e+00 1.828493065429407149e+00 1.827008070866222411e+00 1.828399785365727226e+00 1.828170698827535468e+00 1.827405470588861380e+00 1.828059280057831248e+00 1.827711615970991410e+00 1.826992688899367945e+00 1.828452155502763077e+00 1.826824509996126000e+00 1.826334059824585188e+00 1.826460802271506090e+00 1.827565218614238374e+00 1.828192130802847259e+00 1.826862952605529777e+00 1.827189933595968929e+00 1.827814715795974543e+00 1.828418738200426885e+00 1.827009882853651845e+00 1.827325961198635218e+00 1.827186133123426703e+00 1.827878150860320794e+00 1.826991171496990640e+00 1.827536458298170796e+00 1.828148694528018758e+00 1.827171441407131613e+00 1.826532966181384499e+00 1.828233792021087378e+00 1.828004275202917084e+00 1.826200394973014784e+00 1.827645942291785008e+00 1.828202951081246308e+00 1.827825942582022023e+00 1.827702770251002473e+00 1.827675467421100652e+00 1.827677097406147366e+00 1.828397793763611334e+00 1.827627342679256195e+00 1.827073764135656919e+00 1.828855377061500587e+00 1.826756523647525166e+00 1.827149547838882615e+00 1.826881732190042573e+00 1.827568571653200191e+00 1.826427968338068863e+00 1.826915832405946238e+00 1.827681809420190095e+00 1.826429096105902206e+00 1.826799557909293492e+00 1.828106946395160692e+00 1.826671592685272349e+00 1.826550904714464352e+00 1.827769741572127460e+00 1.828393058968878604e+00 1.826608930267083375e+00 1.827462915927227982e+00 1.827881034104316127e+00 1.827986592583453307e+00 1.828290777731018668e+00 1.827280409717902954e+00 1.827867787674882116e+00 1.827020600772756742e+00 1.827805088185908478e+00 1.827247864115015830e+00 1.827125080092129039e+00 1.826968521288445890e+00 1.827321690404281052e+00 1.827185896067476500e+00 1.827058848536684543e+00 1.827804258375349544e+00 1.826426696698713936e+00 1.828117846374993860e+00 1.828159972096051300e+00 1.827595943315395655e+00 1.827257602942607750e+00 1.827744318040727567e+00 1.826937166177560634e+00 1.826908956502214298e+00 1.826298690587599971e+00 1.827603825231486123e+00 1.828631053106079651e+00 1.826473699764505909e+00 1.826672455623349123e+00 1.827290037611810192e+00 1.826380262195424597e+00 1.826484695934799118e+00 1.826409622160130919e+00 1.827698008513403360e+00 1.827475231391961552e+00 1.826333840897154115e+00 1.827059704884718139e+00 1.826219598532957455e+00 1.828053673276608393e+00 1.826620948262370092e+00 1.827851360059721042e+00 1.828571399498922556e+00 1.828153798304860800e+00 1.827122056014020668e+00 1.826747703925365229e+00 1.828018792192338537e+00 1.827476176858044310e+00 1.827981062850843941e+00 1.827669083810669060e+00 1.826792906650454462e+00 1.827115100656856006e+00 1.827031929072852279e+00 1.826493916634053916e+00 1.827558451455255195e+00 1.827437728123526561e+00 1.827349691396540798e+00 1.826521921921993030e+00 1.827645527248762614e+00 1.827558856144682276e+00 1.827939177107245294e+00 1.827558085425348144e+00 1.827468659589162270e+00 1.827197948667169669e+00 1.828380837362716171e+00 1.827419691277585745e+00 1.827121801725829275e+00 1.828018026950010810e+00 1.826105386925488627e+00 1.826950705339604797e+00 1.827604249029834538e+00 1.827637050512698424e+00
5.000000000000000000e+00 5.050102051098910749e+00 1.885040848655330711e-02 5.049999999999999822e+00 5.051228080738700221e+00 5.048720074323601814e+00 5.050414253880077808e+00 5.049559515332241233e+00 5.053134656014391268e+00 5.048890441382254402e+00 5.050718733963139861e+00 5.047229023299032669e+00 5.047444191439516281e+00 5.047103199279125540e+00 5.051411624403534972e+00 5.049782171624976002e+00 5.051577555641751260e+00 5.049620278177121335e+00 5.049396392286126911e+00 5.049929873999290386e+00 5.051206738514946615e+00 5.049260815196084273e+00 5.051359377067028866e+00 5.052338667065034983e+00 5.050044965191786694e+00 5.051691465567966333e+00 5.049976658692238551e+00 5.050287944958135711e+00 5.049235468217472267e+00 5.051444736784885592e+00 5.051469422310069568e+00 5.049990984003579264e+00 5.053160519118071292e+00 5.047557522509058536e+00 5.048715480552992574e+00 5.048203760868741341e+00 5.050201232697170362e+00 5.049698054900312094e+00 5.049368261141846226e+00 5.048701498126196618e+00 5.051231609211502160e+00 5.049932852847550002e+00 5.050112476138706619e+00 5.050466673029268883e+00 5.048640353015750648e+00 5.050708455283969833e+00 5.052108412467934961e+00 5.050293445279377735e+00 5.049167122796813345e+00 5.050999151059987646e+00 5.048256388414214868e+00 5.050765878346318516e+00 5.051386747399220667e+00 5.049210172427044618e+00 5.050003752215933339e+00 5.049883895194747119e+00 5.051313273348775112e+00 5.049942949270572967e+00 5.048530941896585134e+00 5.050272896906077946e+00 5.049427464133462884e+00 5.050273896036372001e+00 5.050575775158964831e+00 5.051016196572350125e+00 5.050141022812759672e+00 5.050565500168552546e+00 5.050812068661547194e+00 5.051104903851365791e+00 5.051006744313080610e+00 5.048770938747805026e+00 5.051579199381757590e+00 5.051951069264926097e+00 5.051358969705651347e+00 5.049630255495236142e+00 5.050668254802013202e+00 5.050371802085263262e+00 5.048808120805902355e+00 5.052385701937502915e+00 5.050072567950737223e+00 5.050692927617920880e+00 5.050892790869991877e+00 5.048243912150776502e+00 5.049492032001534625e+00 5.048715671239215830e+00 5.048174258101397527e+00 5.050721490213036624e+00 5.049235681539402165e+00 5.050699758979775744e+00 5.048489184916716610e+00 5.052546102086270530e+00 5.051285779198451564e+00 5.051687720265361392e+00 5.050732607187501166e+00 5.049913334314540592e+00 5.049664784770300230e+00 5.048952694626279047e+00 5.049641306453072964e+00 5.050540592088439418e+00 5.048723441841423742e+00 5.046993533137874799e+00 5.050975692081830282e+00 5.050254436149416826e+00 5.050066082486926788e+00 5.048277629351487938e+00 5.051362133708154012e+00 5.049258629111682772e+00 5.049104002476035191e+00 5.050471569518082404e+00 5.050356913246678126e+00 5.050163766024096113e+00 5.051202999937334681e+00 5.050744300966051092e+00 5.049248621979183227e+00 5.048278465191923914e+00 5.050923878485298779e+00 5.051274398396005338e+00 5.050798405054229612e+00 5.049007119714529424e+00 5.052386588531175171e+00 5.051289586414267063e+00 5.049488137182533976e+00 5.049156340500959850e+00 5.047264720137276228e+00 5.050137175041304438e+00 5.049750735524918710e+00 5.049663381753074276e+00 5.048739020467587046e+00 5.048244192582679979e+00 5.047933032754802873e+00 5.051238464525301453e+00 5.051473975474255695e+00 5.050645869642500507e+00 5.048488309768056403e+00 5.050554213917702207e+00 5.051021499156508554e+00 5.049037002603616209e+00 5.049519152100224950e+00 5.048703599751400262e+00 5.049203434367326437e+00 5.051107601802985236e+00 5.051098937913696574e+00 5.048970503572342672e+00 5.047441197420715397e+00 5.050362113460862723e+00 5.048090590539656475e+00 5.053179198568651387e+00 5.050437559745527771e+00 5.048908120189276261e+00 5.051183592610760442e+00 5.049003711879016087e+00 5.049120972413544628e+00 5.051655092949366654e+00 5.048209512163359669e+00 5.050295448192319903e+00 5.048328712388400419e+00 5.049522983022242784e+00 5.047364144122592933e+00 5.051085857654724620e+00 5.051684062348724247e+00 5.052044249507473772e+00 5.049671346951201123e+00 5.049962960911618559e+00 5.049279557733643564e+00 5.050011285500462854e+00 5.051634607950495237e+00 5.051292186162752884e+00 5.049461540119714265e+00 5.047922162899797449e+00 5.049582004718509154e+00 5.050677489301246048e+00 5.048126114081848748e+00 5.049750080379043382e+00 5.050927200116749560e+00 5.048609338717575667e+00 5.051180075754931664e+00 5.050325560281027748e+00 5.050441936042155078e+00 5.048883760253144892e+00 5.049948254959548244e+00 5.051293377867480672e+00 5.052591834171238361e+00 5.050512821699440380e+00 5.050826061044567439e+00 5.050432038399824464e+00 5.051743335987802119e+00 5.051310067804355874e+00 5.051859748574980102e+00 5.053167455599543167e+00 5.051051656126447575e+00 5.051340478899636111e+00 5.051132854276375816e+00 5.049165723737793599e+00 5.048550283659412052e+00 5.050923273017868809e+00 5.050929567501674100e+00 5.050607323434520346e+00 5.052148335554390357e+00 5.051717299411264683e+00 5.049139406558656340e+00 5.050054564517789224e+00 5.050424880437388353e+00 5.051101937983995427e+00 5.052067855872450330e+00 5.050051914973363587e+00 5.050552322476389300e+00 5.049947684571532314e+00 5.051085454820295695e+00 5.048663984900490398e+00 5.051082709811505644e+00 5.048851650658057189e+00 5.051365979738211109e+00 5.050779702818353201e+00 5.048446677802958860e+00 5.050202757623262428e+00 5.051443431383387583e+00 5.048545476146089506e+00 5.050307770047134603e+00 5.049831971767827277e+00 5.049253377000305854e+00 5.050531547179676117e+00 5.049783389861346450e+00 5.049051677793758408e+00 5.050396214624925051e+00 5.049572944375760208e+00 5.050049800928640309e+00 5.050291458912223419e+00 5.048627195587975791e+00 5.048906705470822764e+00 5.048997322258822251e+00
6.000000000000000000e+00 2.986040160159237570e-03 2.626421802403416443e-05 2.999311449759945163e-03 2.985462748628257834e-03 2.985312714334705051e-03 2.987523040980795755e-03 2.985508294753086520e-03 2.987938314471879405e-03 2.985393089849108436e-03 2.988750107167352336e-03 2.984305341220850651e-03 2.986882716049382713e-03 2.986732681755829930e-03 2.986845207475994409e-03 2.987196180555555438e-03 2.986697852366255231e-03 2.989489561899862698e-03 2.985502936385459744e-03 2.984977816358024786e-03 2.986542459705075238e-03 2.984273191015089123e-03 2.985591349451303077e-03 2.985127850651577569e-03 2.984699181241426760e-03 2.985572595164609142e-03 2.984870649005487084e-03 2.986052169067215413e-03 2.987833826303154874e-03 2.986697852366255231e-03 2.986622835219478623e-03 2.986293295610425134e-03 2.987970464677640499e-03 2.984318737139917809e-03 2.982649605624142827e-03 2.982732660322359383e-03 2.986159336419753115e-03 2.985628858024691381e-03 2.983214913408779260e-03 2.985366298010974119e-03 2.984211569787380107e-03 2.984712577160493919e-03 2.986172732338820274e-03 2.984222286522633660e-03 2.984072252229080877e-03 2.987541795267489690e-03 2.988270533264746065e-03 2.987531078532236137e-03 2.984195494684499343e-03 2.985561878429355154e-03 2.983643582818930069e-03 2.987772205075445858e-03 2.987067579732510195e-03 2.985184113511659808e-03 2.984881365740740637e-03 2.985936964163237329e-03 2.984581297153635071e-03 2.984648276748971298e-03 2.983962405692729570e-03 2.983745391803840994e-03 2.986981845850480034e-03 2.987289951989025982e-03 2.984822423696844793e-03 2.985497578017832533e-03 2.985961076817558475e-03 2.984830461248285174e-03 2.986531742969821684e-03 2.986596043381344306e-03 2.984399112654321194e-03 2.980369620198902725e-03 2.985797646604938099e-03 2.985811042524005691e-03 2.985762817215363400e-03 2.986622835219478623e-03 2.985157321673525491e-03 2.984940307784636482e-03 2.984077610596707654e-03 2.987758809156378700e-03 2.987080975651577354e-03 2.988136574074074046e-03 2.983954368141289622e-03 2.984739368998628236e-03 2.984608088991769388e-03 2.984010631001371861e-03 2.982491533779149662e-03 2.986341520919067426e-03 2.987946352023319787e-03 2.986210240912208578e-03 2.987785600994513017e-03 2.988667052469135780e-03 2.986788944615912170e-03 2.986914866255144241e-03 2.985264489026063194e-03 2.983439964849108218e-03 2.985845871913580390e-03 2.985524369855967284e-03 2.986818415637860092e-03 2.988841199417009709e-03 2.984988533093278339e-03 2.988120498971193282e-03 2.987715942215363619e-03 2.987991898148148039e-03 2.988610789609053540e-03 2.987075617283950577e-03 2.986780907064471788e-03 2.984241040809328029e-03 2.986649627057613374e-03 2.986397783779149665e-03 2.984910836762688559e-03 2.986210240912208578e-03 2.985296639231824287e-03 2.987622170781893075e-03 2.986912187071330636e-03 2.987048825445816260e-03 2.986590685013717529e-03 2.986609439300411464e-03 2.985232338820301666e-03 2.983000578703703855e-03 2.987477494855967069e-03 2.987729338134430777e-03 2.985896776406035853e-03 2.986617476851851846e-03 2.984356245713306113e-03 2.984865290637859873e-03 2.984653635116598074e-03 2.985778892318244164e-03 2.987600737311385535e-03 2.988366983882030214e-03 2.989444015775034446e-03 2.987849901406035638e-03 2.986783586248285393e-03 2.986437971536351141e-03 2.982853223593964244e-03 2.986542459705075238e-03 2.985387731481481659e-03 2.982968428497942328e-03 2.985840513545953180e-03 2.988514338991769392e-03 2.985572595164609142e-03 2.985572595164609142e-03 2.986649627057613374e-03 2.985226980452674889e-03 2.984109760802469181e-03 2.987252443415637677e-03 2.987209576474622597e-03 2.987782921810699412e-03 2.987638245884773839e-03 2.985036758401920631e-03 2.986459405006858681e-03 2.984358924897119285e-03 2.985564557613168760e-03 2.983493548525377285e-03 2.987303347908093140e-03 2.986153978052126338e-03 2.983740033436213784e-03 2.986700531550068403e-03 2.986242391117969672e-03 2.986676418895747691e-03 2.986810378086419710e-03 2.988632223079561081e-03 2.985449352709190676e-03 2.985829796810699627e-03 2.983051483196159318e-03 2.984967099622770799e-03 2.985824438443072850e-03 2.984176740397805408e-03 2.985572595164609142e-03 2.984889403292181019e-03 2.984490204903978133e-03 2.987900805898491101e-03 2.984642918381344521e-03 2.984289266117969887e-03 2.988436642661179612e-03 2.985623499657064604e-03 2.986596043381344306e-03 2.986354916838134584e-03 2.986204882544581801e-03 2.985310035150891446e-03 2.984693822873799550e-03 2.985401127400548818e-03 2.987619491598079470e-03 2.987608774862825917e-03 2.986636231138545781e-03 2.988586676954732395e-03 2.987150634430727186e-03 2.986695173182441626e-03 2.986936299725651781e-03 2.987957068758573340e-03 2.986376350308642125e-03 2.986839849108367632e-03 2.986654985425240150e-03 2.985473465363511821e-03 2.985537765775034443e-03 2.986496913580246985e-03 2.987833826303154874e-03 2.985995906207133174e-03 2.986068244170096177e-03 2.986933620541838176e-03 2.985602066186557064e-03 2.983498906893004062e-03 2.986132544581618798e-03 2.988101744684499347e-03 2.987255122599451283e-03 2.986170053155006669e-03 2.985039437585733802e-03 2.986009302126200332e-03 2.985470786179698216e-03 2.983938293038408858e-03 2.987702546296296460e-03 2.987844543038408861e-03 2.987231009945130137e-03 2.985489540466392151e-03 2.984862611454046702e-03 2.984918874314128941e-03 2.986735360939643535e-03 2.988991233710562492e-03 2.988648298182441845e-03 2.985958397633744869e-03 2.981749399862825695e-03 2.984980495541837957e-03 2.984720614711934301e-03 2.986598722565157911e-03 2.984798311042524081e-03 2.984725973079561077e-03 2.985784250685870941e-03 2.985985189471879186e-03 2.987394440157750512e-03 2.985371656378600896e-03 2.985519011488340074e-03
