# vvf statistics with RF=500
# gcat file: /disk2/salam/Abacus/AbacusCosmos_720box_products/GCAT_derivative/AbacusCosmos_720box_planck_rockstar_halos_z0.100_Mr21_hod-fradsat-neg_real-0.gcat.rsd_zz.1pz0.100by100
# stats order in row: stdvvf,p2.5,p16,p50,p84,p97.5,rho
# columns: numbers, mean, sigma,All, jnrealizations
0.000000000000000000e+00 1.449658347000333025e+00 5.099112690652276084e-03 1.449658583893983055e+00 1.450021806730521057e+00 1.449037319729258533e+00 1.449673745096166977e+00 1.449784231038522053e+00 1.450094596738500385e+00 1.449739900229365830e+00 1.449804975083421876e+00 1.448898854924224100e+00 1.448423044036504459e+00 1.449494924945109675e+00 1.450251345037730788e+00 1.449874927378486333e+00 1.449958131091918956e+00 1.449538646151351973e+00 1.449931465456581803e+00 1.449855103408940415e+00 1.450128996845471141e+00 1.449653353731096272e+00 1.449831742912782717e+00 1.449895677167080121e+00 1.449753587173622460e+00 1.450304743450511413e+00 1.449633412785872544e+00 1.449665417805230394e+00 1.449627139282475774e+00 1.450030155929387554e+00 1.450180842859789543e+00 1.449508610067561154e+00 1.450111045235338070e+00 1.449439771971929636e+00 1.449655209302969316e+00 1.449137285200919889e+00 1.449742964398150535e+00 1.449649433765686224e+00 1.449009397547740052e+00 1.449087992837753358e+00 1.449747683858756853e+00 1.449474228499348705e+00 1.449502786377324881e+00 1.449950234421908180e+00 1.449474380012704566e+00 1.449909638916978771e+00 1.449875408636493113e+00 1.449512502784331192e+00 1.448934121267585917e+00 1.449805750013394956e+00 1.449385488013185563e+00 1.450147044396716822e+00 1.449803219117622888e+00 1.449498532195267364e+00 1.449065687337712571e+00 1.449782023606816184e+00 1.449512297220536094e+00 1.449799655601863968e+00 1.448881314108368956e+00 1.449298544644709974e+00 1.449596045530971544e+00 1.449815465713212514e+00 1.449679514798607238e+00 1.449289445434761792e+00 1.449610758777992503e+00 1.449842397466513555e+00 1.449968704108469897e+00 1.449751217363847600e+00 1.449601305519824912e+00 1.448836934080014904e+00 1.450238335707721982e+00 1.450154515908536057e+00 1.449898302213456835e+00 1.449435840525671537e+00 1.449653083390810115e+00 1.450025632120438779e+00 1.449268151493335655e+00 1.449672431055860189e+00 1.449539765257516377e+00 1.449784876838031700e+00 1.449607326426953779e+00 1.449641944113550629e+00 1.449856867938201788e+00 1.449278036498099276e+00 1.449253141263112221e+00 1.449893980440613461e+00 1.448550452504106190e+00 1.449967706625578723e+00 1.449350273296914127e+00 1.450195489693018702e+00 1.449695968804401103e+00 1.450178090906189654e+00 1.449416418883937352e+00 1.449273009467198836e+00 1.449760153941690444e+00 1.449719724628461437e+00 1.449760734884004032e+00 1.449991981412609432e+00 1.449342333643943270e+00 1.449283753201238145e+00 1.450180560158951026e+00 1.449717837131349274e+00 1.449761999773483190e+00 1.449642037967609376e+00 1.449553339577720923e+00 1.449391897356274717e+00 1.449366169550845296e+00 1.449587604333416158e+00 1.449621373672276503e+00 1.449857291928413394e+00 1.449502933854766473e+00 1.449652928191542900e+00 1.449253828520650877e+00 1.449676973352298948e+00 1.449925758359030370e+00 1.449671841322534238e+00 1.449750459491927490e+00 1.449150315613266793e+00 1.450043249693983238e+00 1.450135476143962210e+00 1.449888987857914646e+00 1.449813795132762539e+00 1.448972649662976675e+00 1.449728394473218440e+00 1.449710091291455338e+00 1.449518677304814096e+00 1.449734359402160333e+00 1.449403337012150406e+00 1.449327740453728364e+00 1.449687599256781922e+00 1.450037351262154051e+00 1.450008725234849916e+00 1.449442137324946422e+00 1.449618487919760446e+00 1.449974161685227747e+00 1.449369860726511527e+00 1.449681413837645261e+00 1.449743455681410387e+00 1.449742412914591938e+00 1.449870771284383464e+00 1.450055429819782526e+00 1.449257553582865343e+00 1.449255716124184579e+00 1.449015997187893978e+00 1.449724338102389876e+00 1.450098191751384435e+00 1.449758557495819611e+00 1.449952854749432474e+00 1.449916243491390366e+00 1.449463377487533622e+00 1.449617047980059636e+00 1.449843304172146130e+00 1.449353829011480910e+00 1.449433370644759522e+00 1.449321056696648791e+00 1.449468244024488151e+00 1.448742647264251726e+00 1.449817391636713859e+00 1.449988533462306384e+00 1.450242874256540304e+00 1.449743941184795437e+00 1.450033561130140702e+00 1.449193162852400629e+00 1.449713997820070155e+00 1.449986104410370569e+00 1.449769114155564198e+00 1.449764747553107247e+00 1.449667205111740520e+00 1.449527869016288717e+00 1.449367781921448550e+00 1.449165432053663771e+00 1.449304273896728779e+00 1.449889770018499835e+00 1.449552085225644937e+00 1.449935379251841017e+00 1.449425096406349533e+00 1.450203877097084648e+00 1.449423879529391002e+00 1.449642418799246713e+00 1.449757361092361974e+00 1.450236457988706373e+00 1.449488357748780709e+00 1.449608758132284514e+00 1.449989721330336545e+00 1.449949748037561825e+00 1.449829831548110626e+00 1.449889562008862542e+00 1.450379257689640156e+00 1.450070868264327517e+00 1.450107032006232144e+00 1.449944007249892808e+00 1.449677191706241652e+00 1.448747625041845399e+00 1.449766547634964375e+00 1.449734296670092348e+00 1.449689195302358513e+00 1.449933458726762048e+00 1.449519052584151702e+00 1.449416177705007192e+00 1.449746836117859594e+00 1.449979408581046680e+00 1.449679648701596157e+00 1.449829288309095077e+00 1.449352190450310385e+00 1.449850065951809430e+00 1.449834452356645986e+00 1.449765936946941780e+00 1.449341192468249551e+00 1.449614628078178535e+00 1.449851897988537530e+00 1.449550108358667044e+00 1.449603307078189740e+00 1.449622721472128895e+00 1.449377492376234144e+00 1.449938023291652112e+00 1.449823264009501678e+00 1.449276164120429700e+00 1.449232341255763723e+00 1.449022207723672961e+00 1.449694686712022174e+00 1.449795579283513547e+00 1.449398927390601832e+00 1.449898365560197577e+00 1.449484150274378713e+00 1.450415113760676888e+00 1.450160715077392304e+00 1.449962740032204156e+00 1.448829124729053452e+00 1.449637758907007523e+00
1.000000000000000000e+00 1.999999989043169113e-02 1.492532061938324777e-04 2.000000000000000042e-02 1.999513092038832443e-02 1.999646602178101543e-02 2.000735030015511617e-02 1.999683973718534985e-02 2.001196182038350244e-02 1.999558440562399994e-02 2.001907514881306679e-02 1.998823302094407395e-02 2.000695510994236412e-02 2.000483279343258022e-02 2.000691829578848599e-02 2.000752091754179687e-02 2.000583268460683767e-02 2.002356108468901844e-02 1.999928361462237347e-02 1.999314285914045169e-02 2.000510223163638399e-02 1.998853017529224688e-02 1.999687042099182466e-02 1.999325351867959830e-02 1.999266320491526611e-02 2.000021466910387180e-02 1.999426952814876632e-02 2.000115447998891335e-02 2.001258967735469740e-02 2.000711697383620799e-02 2.000666478225645445e-02 1.999802948379433148e-02 2.001199522399363384e-02 1.998958179801594084e-02 1.997840133944066635e-02 1.997714330556871198e-02 2.000195209681306791e-02 1.999818655418389435e-02 1.997944135683074260e-02 1.999563447547294745e-02 1.998889996719704909e-02 1.998922375811383254e-02 1.999973681196987041e-02 1.998733247665963886e-02 1.998643107915783895e-02 2.001195845776345544e-02 2.001497940130468611e-02 2.001023358533539701e-02 1.998766772136428144e-02 1.999665981795925238e-02 1.998636548899058313e-02 2.000936431538503923e-02 2.000699258338517819e-02 1.999401284145072358e-02 1.999251436797706144e-02 2.000039773819641334e-02 1.999004383745105889e-02 1.999241795276106640e-02 1.998430815108861655e-02 1.998550132612596231e-02 2.000420502172663498e-02 2.000766846491159462e-02 1.999361150449321251e-02 1.999373051897845865e-02 1.999873534428219662e-02 1.999408044916004337e-02 2.000219625118283481e-02 2.000366047620438098e-02 1.999017159817017761e-02 1.996431905567556953e-02 1.999951313551969964e-02 1.999978832377581617e-02 1.999813451016134100e-02 2.000299164708762775e-02 1.999488887162399406e-02 1.999551988186231560e-02 1.998660069802654995e-02 2.001035174202485042e-02 2.000756587900284419e-02 2.000898558926094209e-02 1.998960156771715374e-02 1.999415176388519982e-02 1.999295979356592590e-02 1.998458997512033569e-02 1.997732809186371014e-02 2.000338091541849911e-02 2.001157046875122469e-02 2.000161234031884103e-02 2.001171687483184816e-02 2.001931837716460633e-02 2.000580678123708642e-02 2.000831024009148626e-02 1.999411102355045516e-02 1.998103409537840131e-02 1.999825833130442973e-02 1.999306711850205517e-02 2.000572956524004908e-02 2.001945770335358116e-02 1.999726245736348565e-02 2.001106462832904012e-02 2.001263220663112782e-02 2.001083308228479574e-02 2.001797429413443644e-02 2.000987054150363612e-02 2.000423402096537101e-02 1.999003600360549013e-02 2.000634830619556215e-02 2.000330542905356598e-02 1.999449234465112274e-02 2.000091879661854491e-02 1.999482033801475850e-02 2.000815133852799910e-02 2.000568610104054568e-02 2.000708514801484081e-02 2.000484339278522580e-02 2.000373287830961230e-02 1.999412247089833033e-02 1.998481071377506899e-02 2.000956497092024750e-02 2.001608894889753826e-02 1.999904443475660973e-02 2.000339766792687962e-02 1.998967671776618465e-02 1.999382678061645963e-02 1.999240859216557670e-02 1.999849034133800371e-02 2.001127023898471163e-02 2.001779043022111279e-02 2.002454770017317309e-02 2.001420892748724187e-02 2.000480638053220295e-02 2.000085399434490402e-02 1.997837519256689953e-02 2.000341217595117890e-02 1.999582793156548868e-02 1.997971643198211134e-02 1.999826188860774276e-02 2.001787780718440254e-02 1.999703711765860037e-02 1.999703353258806826e-02 2.000407112812052288e-02 1.999574948742150263e-02 1.998809775805923325e-02 2.000923176271899792e-02 2.000608319012006642e-02 2.001164247695446860e-02 2.001037969384154153e-02 1.999369995485215934e-02 2.000466632045850082e-02 1.998991561450791377e-02 1.999680468741462519e-02 1.998438915327311466e-02 2.000860085264700994e-02 2.000367647033039070e-02 1.998535603247209372e-02 2.000765229735155387e-02 1.999687703367377528e-02 2.000193529062150796e-02 2.000645242375237096e-02 2.001625098676376724e-02 1.999856623968604072e-02 1.999888113846666135e-02 1.998271122540595107e-02 1.999108128757685551e-02 1.999904779198561841e-02 1.999051518070555852e-02 1.999756374657076646e-02 1.999213216714810018e-02 1.998906200984109857e-02 2.000943277582158467e-02 1.999289065173540103e-02 1.999156609908240428e-02 2.001104655783682296e-02 1.999753394095334091e-02 2.000648941747250331e-02 2.000055005612719553e-02 2.000192165942520778e-02 1.999462056289160253e-02 1.999220999397867057e-02 1.999619862007599724e-02 2.001078186737864292e-02 2.001136159846074805e-02 2.000571463397578242e-02 2.001754890278538423e-02 2.000766606870851144e-02 2.000574331172934664e-02 2.000734676306409332e-02 2.001466561396089000e-02 2.000425261004373095e-02 2.000343743249331091e-02 2.000535482738235310e-02 1.999625779571047660e-02 1.999355589842040024e-02 2.000311289574113055e-02 2.001203678236087094e-02 2.000113786891970918e-02 2.000225597181895520e-02 2.000567245212555093e-02 1.999853120052811489e-02 1.998489021016074119e-02 2.000257027719325523e-02 2.001402009980166388e-02 2.000935409096555456e-02 2.000153987885134113e-02 1.999363524837357783e-02 1.999933976693060375e-02 1.999610085438707774e-02 1.998524227593383162e-02 2.001021466615187858e-02 2.001472295139540905e-02 2.000639288251647788e-02 1.999407001255168112e-02 1.999370481703059005e-02 1.999254734694846589e-02 2.000604438143246608e-02 2.001893557413177149e-02 2.001555834540472839e-02 1.999787918038405457e-02 1.997194521017180147e-02 1.999370731625688472e-02 1.998885558871609652e-02 2.000237653814477753e-02 1.999532396852019694e-02 1.998922775185136072e-02 1.999948240598551502e-02 2.000016657378526561e-02 2.000961914879465300e-02 1.999589503455723172e-02 1.999763220812554240e-02
2.000000000000000000e+00 9.999999945215844177e-02 7.462660309691800066e-04 1.000000000000000056e-01 9.997565460194163256e-02 9.998233010890507366e-02 1.000367515007755947e-01 9.998419868592674231e-02 1.000598091019175157e-01 9.997792202811998930e-02 1.000953757440653374e-01 9.994116510472036974e-02 1.000347755497118241e-01 1.000241639671628907e-01 1.000345914789424334e-01 1.000376045877089948e-01 1.000291634230341953e-01 1.001178054234450887e-01 9.999641807311185349e-02 9.996571429570225154e-02 1.000255111581819234e-01 9.994265087646123091e-02 9.998435210495910941e-02 9.996626759339799495e-02 9.996331602457630972e-02 1.000010733455193590e-01 9.997134764074383506e-02 1.000057723999445702e-01 1.000629483867734870e-01 1.000355848691810434e-01 1.000333239112822653e-01 9.999014741897165048e-02 1.000599761199681831e-01 9.994790899007971463e-02 9.989200669720332826e-02 9.988571652784357380e-02 1.000097604840653465e-01 9.999093277091947174e-02 9.989720678415370259e-02 9.997817237736474072e-02 9.994449983598524545e-02 9.994611879056915227e-02 9.999868405984936592e-02 9.993666238329818041e-02 9.993215539578918782e-02 1.000597922888172842e-01 1.000748970065234306e-01 1.000511679266769954e-01 9.993833860682141412e-02 9.998329908979626535e-02 9.993182744495292258e-02 1.000468215769252101e-01 1.000349629169258875e-01 9.997006420725361442e-02 9.996257183988531414e-02 1.000019886909820771e-01 9.995021918725528753e-02 9.996208976380532851e-02 9.992154075544308622e-02 9.992750663062981153e-02 1.000210251086331714e-01 1.000383423245579662e-01 9.996805752246604171e-02 9.996865259489229327e-02 9.999367672141099006e-02 9.997040224580021339e-02 1.000109812559141775e-01 1.000183023810219118e-01 9.995085799085089151e-02 9.982159527837786150e-02 9.999756567759848780e-02 9.999894161887908084e-02 9.999067255080670846e-02 1.000149582354381284e-01 9.997444435811995989e-02 9.997759940931157108e-02 9.993300349013274630e-02 1.000517587101242556e-01 1.000378293950142244e-01 1.000449279463047070e-01 9.994800783858576176e-02 9.997075881942599218e-02 9.996479896782962948e-02 9.992294987560167152e-02 9.988664045931854030e-02 1.000169045770925025e-01 1.000578523437561235e-01 1.000080617015942086e-01 1.000585843741592373e-01 1.000965918858230247e-01 1.000290339061854356e-01 1.000415512004574348e-01 9.997055511775228276e-02 9.990517047689201346e-02 9.999129165652215212e-02 9.996533559251026546e-02 1.000286478262002454e-01 1.000972885167679127e-01 9.998631228681742478e-02 1.000553231416452110e-01 1.000631610331556426e-01 1.000541654114239787e-01 1.000898714706721787e-01 1.000493527075181771e-01 1.000211701048268620e-01 9.995018001802745411e-02 1.000317415309778246e-01 1.000165271452678334e-01 9.997246172325560676e-02 1.000045939830927211e-01 9.997410169007381331e-02 1.000407566926400232e-01 1.000284305052027145e-01 1.000354257400742075e-01 1.000242169639261325e-01 1.000186643915480650e-01 9.997061235449164474e-02 9.992405356887534840e-02 1.000478248546012305e-01 1.000804447444876982e-01 9.999522217378305211e-02 1.000169883396344050e-01 9.994838358883093021e-02 9.996913390308229119e-02 9.996204296082789043e-02 9.999245170669002203e-02 1.000563511949235651e-01 1.000889521511055535e-01 1.001227385008658655e-01 1.000710446374362128e-01 1.000240319026610147e-01 1.000042699717245270e-01 9.989187596283449766e-02 1.000170608797558980e-01 9.997913965782745382e-02 9.989858215991054280e-02 9.999130944303870339e-02 1.000893890359220162e-01 9.998518558829298797e-02 9.998516766294034130e-02 1.000203556406026040e-01 9.997874743710752354e-02 9.994048879029615584e-02 1.000461588135949792e-01 1.000304159506003321e-01 1.000582123847723465e-01 1.000518984692077146e-01 9.996849977426078282e-02 1.000233316022925006e-01 9.994957807253956883e-02 9.998402343707313289e-02 9.992194576636553860e-02 1.000430042632350636e-01 1.000183823516519466e-01 9.992678016236046512e-02 1.000382614867577624e-01 9.998438516836888335e-02 1.000096764531075294e-01 1.000322621187618582e-01 1.000812549338188362e-01 9.999283119843020706e-02 9.999440569233329634e-02 9.991355612702976230e-02 9.995540643788426716e-02 9.999523895992809552e-02 9.995257590352779609e-02 9.998781873285382538e-02 9.996066083574051131e-02 9.994531004920549633e-02 1.000471638791079199e-01 9.996445325867701903e-02 9.995783049541201448e-02 1.000552327891841148e-01 9.998766970476670457e-02 1.000324470873625166e-01 1.000027502806359880e-01 1.000096082971260320e-01 9.997310281445800917e-02 9.996104996989335634e-02 9.998099310037997234e-02 1.000539093368932181e-01 1.000568079923037507e-01 1.000285731698789121e-01 1.000877445139269351e-01 1.000383303435425641e-01 1.000287165586467436e-01 1.000367338153204666e-01 1.000733280698044569e-01 1.000212630502186478e-01 1.000171871624665476e-01 1.000267741369117724e-01 9.998128897855237951e-02 9.996777949210200465e-02 1.000155644787056597e-01 1.000601839118043790e-01 1.000056893445985390e-01 1.000112798590947760e-01 1.000283622606277512e-01 9.999265600264056753e-02 9.992445105080371981e-02 1.000128513859662727e-01 1.000701004990083159e-01 1.000467704548277936e-01 1.000076993942567161e-01 9.996817624186789264e-02 9.999669883465302223e-02 9.998050427193538869e-02 9.992621137966915812e-02 1.000510733307593964e-01 1.000736147569770418e-01 1.000319644125823859e-01 9.997035006275839519e-02 9.996852408515295718e-02 9.996273673474233290e-02 1.000302219071623200e-01 1.000946778706588575e-01 1.000777917270236350e-01 9.998939590192026938e-02 9.985972605085900733e-02 9.996853658128442011e-02 9.994427794358048955e-02 1.000118826907238911e-01 9.997661984260099166e-02 9.994613875925681401e-02 9.999741202992756817e-02 1.000008328689263315e-01 1.000480957439732616e-01 9.997947517278615859e-02 9.998816104062771548e-02
3.000000000000000000e+00 4.730482927094607493e-01 1.245013731874858136e-02 4.739999999999999769e-01 4.738846028132033261e-01 4.739162447162100777e-01 4.721734670836607584e-01 4.739251017712927672e-01 4.722822989610506172e-01 4.738953504132887851e-01 4.724501735119883694e-01 4.737211225963745553e-01 4.741648361056340355e-01 4.741145372043521489e-01 4.721632717806082957e-01 4.721774936539864242e-01 4.721376513567214217e-01 4.725560415986608254e-01 4.719830933050880306e-01 4.738374857616286517e-01 4.721204126666186940e-01 4.737281651544262284e-01 4.739258289775062361e-01 4.738401083927064605e-01 4.738261179564917103e-01 4.720050661908513634e-01 4.738641878171257482e-01 4.740273611757372385e-01 4.722971163855708698e-01 4.721679605825345183e-01 4.721572888612523000e-01 4.739532987659256236e-01 4.722830872862497920e-01 4.737530886129777685e-01 4.734881117447437560e-01 4.734582963419785018e-01 4.720460694847884442e-01 4.729571120064490763e-01 4.735127601568885902e-01 4.738965370687088785e-01 4.737369292225701023e-01 4.737446030672978203e-01 4.739937624436859620e-01 4.736997796968334673e-01 4.736784165760407617e-01 4.722822196032175901e-01 4.723535138707906089e-01 4.722415126139153929e-01 4.737077249963334569e-01 4.739208376856343108e-01 4.736768620890768333e-01 4.722209978430869648e-01 4.721650249678901456e-01 4.738581043423821804e-01 4.738225905210563527e-01 4.720093866214353784e-01 4.737640389475900604e-01 4.738203054804372427e-01 4.736281031808002306e-01 4.736563814291852581e-01 4.740996590149212375e-01 4.721809757719136469e-01 4.738485926564890427e-01 4.738514132997894701e-01 4.739700276594880912e-01 4.738597066450929707e-01 4.720518315279149113e-01 4.720863872384234439e-01 4.737670668766332249e-01 4.731543616195110213e-01 4.719885099982649157e-01 4.719950044411093115e-01 4.739557878908238209e-01 4.720706028712680080e-01 4.738788662574886512e-01 4.718942692119506011e-01 4.736824365432292239e-01 4.722443011117865019e-01 4.721785547444671272e-01 4.722120599065582347e-01 4.737535571548965319e-01 4.738613968040792379e-01 4.738331471075124535e-01 4.736347824103519510e-01 4.734626757771698835e-01 4.740801276954184629e-01 4.722730630625289194e-01 4.720380512315246468e-01 4.722765182460316180e-01 4.724559137010846954e-01 4.721370400371952547e-01 4.721961216661590410e-01 4.738604312581458089e-01 4.735505080604681116e-01 4.739587224519150044e-01 4.738356907084986802e-01 4.721352177396651584e-01 4.724592017991445236e-01 4.739351202395146179e-01 4.722611252285653927e-01 4.722981200764946319e-01 4.722556607419212127e-01 4.724241933415726513e-01 4.722329447794857971e-01 4.720999228947828086e-01 4.737638532854501761e-01 4.741504548568348243e-01 4.720780081256641947e-01 4.738694685682315888e-01 4.740217754798595196e-01 4.738772420109497729e-01 4.721923715892608620e-01 4.741347605946609201e-01 4.721672094931502195e-01 4.721143040697313165e-01 4.720880959281069100e-01 4.738607025602903922e-01 4.736400139164691492e-01 4.722257333137178659e-01 4.723796991939819279e-01 4.739773531037316245e-01 4.720801849630743563e-01 4.737553382110585853e-01 4.738536947006100619e-01 4.738200836343242073e-01 4.739642210897106467e-01 4.722659776400392473e-01 4.724198541532182438e-01 4.725793257240868961e-01 4.723353306886989289e-01 4.721134305805599896e-01 4.720201542665397598e-01 4.734874920638355023e-01 4.740808685700429459e-01 4.739011219781021356e-01 4.735192794379760040e-01 4.739588067600034593e-01 4.724219162495519320e-01 4.739297796885087455e-01 4.719299913690784276e-01 4.720960786236443329e-01 4.738992628518896022e-01 4.737179168660037853e-01 4.722178696001683162e-01 4.721435632868335452e-01 4.722747624561254853e-01 4.722449607746603828e-01 4.738506889299961555e-01 4.721101251628205819e-01 4.737610000638375896e-01 4.739242710917266344e-01 4.736300229325727251e-01 4.722029801224694734e-01 4.720867646997972122e-01 4.736529379695886277e-01 4.721805942174966408e-01 4.739259856980685415e-01 4.720456728586675532e-01 4.721522772005559698e-01 4.723835232876248957e-01 4.739660198805591418e-01 4.739734829816598660e-01 4.735902560421210716e-01 4.737886265155714649e-01 4.719775278908606153e-01 4.737752097827217512e-01 4.719425044190700413e-01 4.738135323614099947e-01 4.737407696332340268e-01 4.722226135093893773e-01 4.738315084461290350e-01 4.738001165482529364e-01 4.722606987649490273e-01 4.739415544005941561e-01 4.721531502523511059e-01 4.740130363302145766e-01 4.720453511624349008e-01 4.738725073405309907e-01 4.738153768572944680e-01 4.739099072958011249e-01 4.722544520701359438e-01 4.722681337236737109e-01 4.721348653618284152e-01 4.724141541057351179e-01 4.721809192215208895e-01 4.721355421568126376e-01 4.721733836083125690e-01 4.723461084894770012e-01 4.721003615970320588e-01 4.720811234068421069e-01 4.721263739262235304e-01 4.739113097583382284e-01 4.738472747925634998e-01 4.720734643394907115e-01 4.722840680637165889e-01 4.740269674933970667e-01 4.720532409349273428e-01 4.721338698701629810e-01 4.739651894525163112e-01 4.736418979808095786e-01 4.720606585417608803e-01 4.723308743553192857e-01 4.722207565467870793e-01 4.740364951287768247e-01 4.738491553864538353e-01 4.719844184995622971e-01 4.739075902489737757e-01 4.736502419396318442e-01 4.722410661211843275e-01 4.723474616529316217e-01 4.721508720273888682e-01 4.738594592974748054e-01 4.738508041636250168e-01 4.738233721226786099e-01 4.721426474018061703e-01 4.724468795495098128e-01 4.723671769515515595e-01 4.739497365751020319e-01 4.733351014810716628e-01 4.738508633952882021e-01 4.737358774525715077e-01 4.740563239540312446e-01 4.738891780539286613e-01 4.737446977188772834e-01 4.719877847812581351e-01 4.720039311413322669e-01 4.722270119115538067e-01 4.739027123190063806e-01 4.739438833325753664e-01
4.000000000000000000e+00 1.832751688735177575e+00 9.306229302757245553e-03 1.832000000000000073e+00 1.833553505399609485e+00 1.833675934197319224e+00 1.832673287494208880e+00 1.831710519926177838e+00 1.833095702747128852e+00 1.831595531555158418e+00 1.831745376116395763e+00 1.832920968020571362e+00 1.832637088070720566e+00 1.832442683878424239e+00 1.832633715894225634e+00 1.832688916046828709e+00 1.832534273909986355e+00 1.832155839249045126e+00 1.831934379099409593e+00 1.833371200183179450e+00 1.832467364417892819e+00 1.832948217074299002e+00 1.831713330562851016e+00 1.833381347662919492e+00 1.833327215890729667e+00 1.832019663689914646e+00 1.833474515731241539e+00 1.832105750366984420e+00 1.833153214445690349e+00 1.832651914803396842e+00 1.832610494054691230e+00 1.833819303663940081e+00 1.833098762517817004e+00 1.833044650878061788e+00 1.832019402826708943e+00 1.833901755451207816e+00 1.832178812068077089e+00 1.831833888363244567e+00 1.834112716557062095e+00 1.833599681400869263e+00 1.832982126991969496e+00 1.833011818619038280e+00 1.831975891976440174e+00 1.832838388109689021e+00 1.832755729958773783e+00 1.833095394731132588e+00 1.833372113159509320e+00 1.832937396416722375e+00 1.832869130049104900e+00 1.831694039325067580e+00 1.832749715340436625e+00 1.832857771289269966e+00 1.832640520638082249e+00 1.833450977561031481e+00 1.833313567543496614e+00 1.832036432818791694e+00 1.833087019894262149e+00 1.833304726268189633e+00 1.832561057454826114e+00 1.832670471605750695e+00 1.832385179990159596e+00 1.832702431385901942e+00 1.833414174962027188e+00 1.833425088590324714e+00 1.831884157536249225e+00 1.833457177187975962e+00 1.832201176608347692e+00 1.832335299620321489e+00 1.833098735552205483e+00 1.832724489311017280e+00 1.831955403213604505e+00 1.833980589290242325e+00 1.831829121130778892e+00 1.832274034873226709e+00 1.833531309527920206e+00 1.833589173166774167e+00 1.832771284009034662e+00 1.832948219569476400e+00 1.832693034516660546e+00 1.832823079976302338e+00 1.833046463759662847e+00 1.831464301571884334e+00 1.833354413069995470e+00 1.832586900718534473e+00 1.831920986023902076e+00 1.832309691852334943e+00 1.833059854937612254e+00 1.832147690373205684e+00 1.833073265734597168e+00 1.831767631510561323e+00 1.832531901161317034e+00 1.832761217992380010e+00 1.833459980859576621e+00 1.832260826546199706e+00 1.831840463147485831e+00 1.833364254766638446e+00 1.832524828175988496e+00 1.831780379856852825e+00 1.831749241094495328e+00 1.833013519954940218e+00 1.833157110127411560e+00 1.832992310337287378e+00 1.831644647913300838e+00 1.832904141601732873e+00 1.832387836320428232e+00 1.833086301530623574e+00 1.832581504847513587e+00 1.832302777301306751e+00 1.833494948004507963e+00 1.832084161770258790e+00 1.833525024995953379e+00 1.832746662609165078e+00 1.832520846855314023e+00 1.832648999558159186e+00 1.832443654779126518e+00 1.832341931653160394e+00 1.833461030581376772e+00 1.832607142453173799e+00 1.832876151336294779e+00 1.831472138824124851e+00 1.831912470223705292e+00 1.832311226382102198e+00 1.833053355019159447e+00 1.833433915782529233e+00 1.833303867901583395e+00 1.833861564300694802e+00 1.833032353890999611e+00 1.833629603408253761e+00 1.832246114565845296e+00 1.833301537757831667e+00 1.832440264456749679e+00 1.832078225881993205e+00 1.832017005158384615e+00 1.832312555317128000e+00 1.831617838531398812e+00 1.832139996812759408e+00 1.831840788996469183e+00 1.833637607138091319e+00 1.833728303689293515e+00 1.833727974938325733e+00 1.832372915335839902e+00 1.833610227996551600e+00 1.832908564414031494e+00 1.832845629465059911e+00 1.832557220214997784e+00 1.833066450889029309e+00 1.832950779955885068e+00 1.833422285859942935e+00 1.832427434953998624e+00 1.833075261850375615e+00 1.833706989835921286e+00 1.832568485355144272e+00 1.832787838102466260e+00 1.832336764682263919e+00 1.832657148177690987e+00 1.832700950437402110e+00 1.833713623987885288e+00 1.832177272620929998e+00 1.832591042015717209e+00 1.831486965288884772e+00 1.831868667555241359e+00 1.831897512283546137e+00 1.832414619369725717e+00 1.833182154070797543e+00 1.831912777745882792e+00 1.833130242070699856e+00 1.833776595560539180e+00 1.833278519727481015e+00 1.832996986302428688e+00 1.832864042265257121e+00 1.833348072764136472e+00 1.833226611285856400e+00 1.833011864697853044e+00 1.831774108991325978e+00 1.832594430640481331e+00 1.832050385141251292e+00 1.832176024003348891e+00 1.833506705617160115e+00 1.833285656447844136e+00 1.831651793598961575e+00 1.832987619051883676e+00 1.833040722419004620e+00 1.832523460472181398e+00 1.831605724604862706e+00 1.832702211893699751e+00 1.832526087354408251e+00 1.832672963496670970e+00 1.833343370238817549e+00 1.832389539080005569e+00 1.832314868816387277e+00 1.832490502188223624e+00 1.833656839866650623e+00 1.833409075885150674e+00 1.832285141249887506e+00 1.833102569264255743e+00 1.832104228793045353e+00 1.832206647018616241e+00 1.832519596614700541e+00 1.833865311088427985e+00 1.832614432271740146e+00 1.832235437390902444e+00 1.833284241141832416e+00 1.832856834732444540e+00 1.832141052902783063e+00 1.833416352275857086e+00 1.831939522650843477e+00 1.833642448347295062e+00 1.832646716703132395e+00 1.832935663419511974e+00 1.833348622347819479e+00 1.832585588038509350e+00 1.833456220150988969e+00 1.833422731721705334e+00 1.833316591715174138e+00 1.832553665339213822e+00 1.831732605033057126e+00 1.833425144439073007e+00 1.833805520841217618e+00 1.833424570293771261e+00 1.833422960900756404e+00 1.832978057485266099e+00 1.832217690894061501e+00 1.833571207913302192e+00 1.833012184844769799e+00 1.831952588388273018e+00 1.832015258158730342e+00 1.832881114029590197e+00 1.833623574668898026e+00 1.833782873485112486e+00
5.000000000000000000e+00 5.084115503756253318e+00 1.644198140009738365e-02 5.083999999999999631e+00 5.084761793054751067e+00 5.083101662736734028e+00 5.083867711269415501e+00 5.083196661192515897e+00 5.085039498559448035e+00 5.082877555909620426e+00 5.084845087798519181e+00 5.083007657226078280e+00 5.083767293436355139e+00 5.083228012811217944e+00 5.085758630789433354e+00 5.085911817239124666e+00 5.084732449701386159e+00 5.083982159402541612e+00 5.083817894837007856e+00 5.084256229079416656e+00 5.085296987281968661e+00 5.083083223576817744e+00 5.085204148058220852e+00 5.084284369800221803e+00 5.084134253009951365e+00 5.086054590353114691e+00 5.084542741008231559e+00 5.084293468813181782e+00 5.085199037015828871e+00 5.083808423051780601e+00 5.085694187649591136e+00 5.083499094780518313e+00 5.085047986416782351e+00 5.083350651235453377e+00 5.084503140887649764e+00 5.082185256936680773e+00 5.084496223009882243e+00 5.084888899666045958e+00 5.082769881177740423e+00 5.082640338234280186e+00 5.085026234905267728e+00 5.083259601688347118e+00 5.083933097602741036e+00 5.084777382062211970e+00 5.084548066537753819e+00 5.085038644117694240e+00 5.085806265871521070e+00 5.084600354033725012e+00 5.082863901542936880e+00 5.085150591707037648e+00 5.084531380399204714e+00 5.084379472539338529e+00 5.083776815438173280e+00 5.083827660163665385e+00 5.082097152339769330e+00 5.084101105049528613e+00 5.083468147863803743e+00 5.084071885387138501e+00 5.084007993636944001e+00 5.084311537366444256e+00 5.083068496020737292e+00 5.083948556934036134e+00 5.082376044442173502e+00 5.084405670976221536e+00 5.083678524516535013e+00 5.084494658221398566e+00 5.084558287050676917e+00 5.084930493051153633e+00 5.083500637414676504e+00 5.080919199669432729e+00 5.085876190362659699e+00 5.085946170736190375e+00 5.085525605934028803e+00 5.084760476689674569e+00 5.084700240053980913e+00 5.084860705957586546e+00 5.082592557508151643e+00 5.084630377648514887e+00 5.083922489854622917e+00 5.084283238231205537e+00 5.083355678670471889e+00 5.082513378379617919e+00 5.084209675503815085e+00 5.084079689670613078e+00 5.084229999379314080e+00 5.084859428699382455e+00 5.084940056109686246e+00 5.084409856909049452e+00 5.084977257894772507e+00 5.084906867799809937e+00 5.085476083790466895e+00 5.084111632007246584e+00 5.082503022186525499e+00 5.083175073864265592e+00 5.083557267817586656e+00 5.084236968235072318e+00 5.083455882527496250e+00 5.082940310881474133e+00 5.083304116661797600e+00 5.084811522058409139e+00 5.085209843704969757e+00 5.084752686208566352e+00 5.084565470710146862e+00 5.084508104596073608e+00 5.085076288129397604e+00 5.083466155716876322e+00 5.083613104604292054e+00 5.084840240065417127e+00 5.086598852479244925e+00 5.084233558100434536e+00 5.082683329923352034e+00 5.084071255119965826e+00 5.083444838274402855e+00 5.083800336110570584e+00 5.085231190446004135e+00 5.084948897666303758e+00 5.084505344349445011e+00 5.082137364513000577e+00 5.084430459110834910e+00 5.086088201914864548e+00 5.083757095315130314e+00 5.084863687187013426e+00 5.081375821656164860e+00 5.084430150310764951e+00 5.082070264128489612e+00 5.083616244768120573e+00 5.084863767726015560e+00 5.082516990233139964e+00 5.084232661073968096e+00 5.085610488474508806e+00 5.085221781931285712e+00 5.084217085362475075e+00 5.084496486508276014e+00 5.082867033909194809e+00 5.084939042997103975e+00 5.083189505333900904e+00 5.083558172084088334e+00 5.082539175244120244e+00 5.085246539020582546e+00 5.083245923983886527e+00 5.085034880768236398e+00 5.082919519702545408e+00 5.082973259874462357e+00 5.084345790906897200e+00 5.083545738609508646e+00 5.086959517641825634e+00 5.082636442235751950e+00 5.084397898518903780e+00 5.085186178660550560e+00 5.083435540769363215e+00 5.083187751540798160e+00 5.084028600592679581e+00 5.084185476657605562e+00 5.082934191110952682e+00 5.082276039057653350e+00 5.081943683527294198e+00 5.083206141959873747e+00 5.084491950875986710e+00 5.083639560875477414e+00 5.086129375736673452e+00 5.083635538128191911e+00 5.085715473512071760e+00 5.081603464620733313e+00 5.085731079559551837e+00 5.085757853501942982e+00 5.085587061971494016e+00 5.083380704378288151e+00 5.083999210105762501e+00 5.083218469102591008e+00 5.084396868336264141e+00 5.080193514605965355e+00 5.081856102386746343e+00 5.082805825690552837e+00 5.083373127790339119e+00 5.085649609921510717e+00 5.084139824267533747e+00 5.084488485825887416e+00 5.082632547087045261e+00 5.084019001468775834e+00 5.085033309085325470e+00 5.084739672500913521e+00 5.084886982168876912e+00 5.083452088493245924e+00 5.084457421307488012e+00 5.083947948058833433e+00 5.085459949841600213e+00 5.083866812494585830e+00 5.085726532507462316e+00 5.085081013473116585e+00 5.084873795339799329e+00 5.085361197120594312e+00 5.083498647469727239e+00 5.082361909378465548e+00 5.084791298097395718e+00 5.085058546397897672e+00 5.084289246279389829e+00 5.084573468036378330e+00 5.085441937330315021e+00 5.083626631174246846e+00 5.084156069464892624e+00 5.084653364462526248e+00 5.085562507359602691e+00 5.084376874514347833e+00 5.084391437204010877e+00 5.084381443661401434e+00 5.083832168753759539e+00 5.083008837185195361e+00 5.082247110769973375e+00 5.084595546669191890e+00 5.083739629654433934e+00 5.085625070735688702e+00 5.084492004191892178e+00 5.084399134970879253e+00 5.082105535594299894e+00 5.085536481760131622e+00 5.082807742272057006e+00 5.081950263898260545e+00 5.083460887653626692e+00 5.082860055988723147e+00 5.084399770524125728e+00 5.085164861769374767e+00 5.084604115996402385e+00 5.084810885194686492e+00 5.083260617295801254e+00 5.085868375842116151e+00 5.086042359713593086e+00 5.084444225708721454e+00 5.082956517784447570e+00 5.083398107305512781e+00
6.000000000000000000e+00 2.979721257716049735e-03 2.641799040656183132e-05 2.992964463305898288e-03 2.979046103395061561e-03 2.978920181755829923e-03 2.981071566358024783e-03 2.979008594821673690e-03 2.981468085562414064e-03 2.979115762174211392e-03 2.982587984396433377e-03 2.977827074759944927e-03 2.980873306755829708e-03 2.980334790809328026e-03 2.980707197359396595e-03 2.980878665123456919e-03 2.980366941015089120e-03 2.983303326474622593e-03 2.979517639746227884e-03 2.978754072359396377e-03 2.980326753257887644e-03 2.977757415980795529e-03 2.979118441358024564e-03 2.978641546639231898e-03 2.978628150720164739e-03 2.979383680555555431e-03 2.978882673182441619e-03 2.979466735253772421e-03 2.981655628429355151e-03 2.980570558984910971e-03 2.980760781035665229e-03 2.979429226680384117e-03 2.981457368827160510e-03 2.978060163751714701e-03 2.976318694272976715e-03 2.976404428155006877e-03 2.980021326303154867e-03 2.979289909122084887e-03 2.976594650205761135e-03 2.979054140946501943e-03 2.977869941700960008e-03 2.978049447016460714e-03 2.979772162208504764e-03 2.977786887002743452e-03 2.977752057613168753e-03 2.980942965534979540e-03 2.982025355795610549e-03 2.981398426783264666e-03 2.977620777606309905e-03 2.979426547496570512e-03 2.977532364540466572e-03 2.980991190843621397e-03 2.980894740226337249e-03 2.978754072359396377e-03 2.978558491941014907e-03 2.979817708333333450e-03 2.978346836419753108e-03 2.978336119684499121e-03 2.977417159636488488e-03 2.977623456790123510e-03 2.980653613683127527e-03 2.980795610425239928e-03 2.978381665809327807e-03 2.978906785836762765e-03 2.979281871570644506e-03 2.978687092764060150e-03 2.980029363854595249e-03 2.980171360596707650e-03 2.978228952331961419e-03 2.974242326817558464e-03 2.979656957304526680e-03 2.979423868312757340e-03 2.979456018518518434e-03 2.980171360596707650e-03 2.978713884602194901e-03 2.978697809499314137e-03 2.977835112311385309e-03 2.981401105967078271e-03 2.980699159807956213e-03 2.981588648834019358e-03 2.977781528635116675e-03 2.978729959705075231e-03 2.978542416838134577e-03 2.977403763717421329e-03 2.976120434670782074e-03 2.980249056927297864e-03 2.981476123113854446e-03 2.979887367112482848e-03 2.981545781893004277e-03 2.982563871742112665e-03 2.980661651234567909e-03 2.980817043895747469e-03 2.978874635631001237e-03 2.976680384087791297e-03 2.979338134430727179e-03 2.978944294410151069e-03 2.980294603052126116e-03 2.982767489711934082e-03 2.978896069101508778e-03 2.981698495370370232e-03 2.981470764746227669e-03 2.981176054526748880e-03 2.982596021947873759e-03 2.981004586762688556e-03 2.980369620198902725e-03 2.978111068244170163e-03 2.980672367969821462e-03 2.980168681412894479e-03 2.978727280521262059e-03 2.979908800582990389e-03 2.978716563786008072e-03 2.981068887174211177e-03 2.980672367969821462e-03 2.980533050411522666e-03 2.980166002229080874e-03 2.980353545096021961e-03 2.978845164609053315e-03 2.977468064128943950e-03 2.981101037379972705e-03 2.981703853737997442e-03 2.979815029149519845e-03 2.980163323045267702e-03 2.978044088648833937e-03 2.978740676440329218e-03 2.978373628257887425e-03 2.979346171982167561e-03 2.981419860253772206e-03 2.982089656207133170e-03 2.983332797496570515e-03 2.981677061899862691e-03 2.980160643861454097e-03 2.979750728737997224e-03 2.976498199588477420e-03 2.980310678155006880e-03 2.979003236454046480e-03 2.976557141632373265e-03 2.979332776063099968e-03 2.982293274176954587e-03 2.979276513203017729e-03 2.979504243827160292e-03 2.980428562242798569e-03 2.978839806241426538e-03 2.977899412722907931e-03 2.981103716563785876e-03 2.980551804698216602e-03 2.981328768004115268e-03 2.981382351680383902e-03 2.978598679698216817e-03 2.980436599794238518e-03 2.977942279663923011e-03 2.979356888717421114e-03 2.977417159636488488e-03 2.981060849622770795e-03 2.980241019375857482e-03 2.977419838820301659e-03 2.980506258573388349e-03 2.979731974451303288e-03 2.980034722222222026e-03 2.980257094478737812e-03 2.982389724794238736e-03 2.979222929526749095e-03 2.979531035665295043e-03 2.976838455932784462e-03 2.978413816015089335e-03 2.979517639746227884e-03 2.978325402949245568e-03 2.979204175240054726e-03 2.978614754801097581e-03 2.977944958847736617e-03 2.981417181069959035e-03 2.978451324588477205e-03 2.977939600480109840e-03 2.981875321502057766e-03 2.979517639746227884e-03 2.980420524691358188e-03 2.979809670781893068e-03 2.979865933641975308e-03 2.978981802983538939e-03 2.978502229080932668e-03 2.978901427469135988e-03 2.981197487997256420e-03 2.981497556584361986e-03 2.980557163065843812e-03 2.982480817043895675e-03 2.980859910836762550e-03 2.980591992455418511e-03 2.980594671639231683e-03 2.981604723936899688e-03 2.979922196502057547e-03 2.980337469993141197e-03 2.980206189986282783e-03 2.979230967078189476e-03 2.979056820130315548e-03 2.980077589163237107e-03 2.981494877400548815e-03 2.979539073216735424e-03 2.979967742626886233e-03 2.980377657750343107e-03 2.979206854423868331e-03 2.977269804526748876e-03 2.979981138545953392e-03 2.981931584362140005e-03 2.981462727194787287e-03 2.980064193244169948e-03 2.978807656035665444e-03 2.979563185871056136e-03 2.979021990740740849e-03 2.977309992283950785e-03 2.981165337791495326e-03 2.981845850480109843e-03 2.980940286351165935e-03 2.978772826646090745e-03 2.978823731138545775e-03 2.978620113168724357e-03 2.980546446330589825e-03 2.982622813786008076e-03 2.982038751714677707e-03 2.979351530349794337e-03 2.975244341563786088e-03 2.978628150720164739e-03 2.977961033950617380e-03 2.980203510802469178e-03 2.978654942558299056e-03 2.978338798868312726e-03 2.979565865054869742e-03 2.979437264231824499e-03 2.981138545953360575e-03 2.979083611968449865e-03 2.979279192386831334e-03
