# vvf statistics with RF=500
# gcat file: /disk2/salam/Abacus/AbacusCosmos_720box_products/GCAT_derivative/AbacusCosmos_720box_37_rockstar_halos_z0.100_Mr21_hod-default_real-1.gcat.rsd_zz.1pz0.100by100
# stats order in row: stdvvf,p2.5,p16,p50,p84,p97.5,rho
# columns: numbers, mean, sigma,All, jnrealizations
0.000000000000000000e+00 1.405924770902629017e+00 5.327073954619870010e-03 1.405925030240346540e+00 1.406387054142775872e+00 1.405713134682777588e+00 1.405613239329905673e+00 1.405993781473945825e+00 1.406424398828655775e+00 1.405897315873242848e+00 1.406280914780868807e+00 1.404672393413193499e+00 1.404855068879943714e+00 1.405796856476639212e+00 1.406550209364962889e+00 1.406250059556211518e+00 1.405938257649439249e+00 1.405799199468176885e+00 1.406289888762906282e+00 1.405985874859910556e+00 1.406229460256171349e+00 1.406025550946713665e+00 1.406160431267475142e+00 1.406317413953647399e+00 1.405961352092335748e+00 1.406643497997788428e+00 1.405936915052259373e+00 1.405950644271500183e+00 1.405475080947473421e+00 1.406376847571971123e+00 1.406287419303544617e+00 1.405942451679909277e+00 1.406414984336230356e+00 1.405685216178578667e+00 1.405788993291681166e+00 1.405419962059871297e+00 1.405991595710279540e+00 1.406139586926052010e+00 1.405177513084509888e+00 1.405376498244776950e+00 1.406055222259079862e+00 1.405806629385548456e+00 1.405907838059116344e+00 1.406215004201925689e+00 1.405828687161803758e+00 1.405676745395465499e+00 1.406129075579166665e+00 1.405780812547444691e+00 1.405136947317430440e+00 1.406181045723747136e+00 1.405561565302555493e+00 1.406322918373694053e+00 1.406060901080169900e+00 1.405801865360612801e+00 1.405133945033075094e+00 1.405785734624129146e+00 1.405603701572853526e+00 1.406108768137678044e+00 1.404917299901246697e+00 1.405832669218338271e+00 1.405788586097484583e+00 1.405903254978363437e+00 1.406264598257221943e+00 1.405459586954636242e+00 1.406210501974508809e+00 1.406123954861761449e+00 1.406317867421294387e+00 1.405787557178567848e+00 1.405838883114572280e+00 1.405233893437191295e+00 1.406644783454344738e+00 1.406222084423823571e+00 1.406405872233987830e+00 1.405716079246319250e+00 1.405762440853078665e+00 1.406499096626496081e+00 1.405607313442001738e+00 1.405929682926130297e+00 1.405683818199978674e+00 1.406064273390112751e+00 1.405965934001431661e+00 1.405765313493972712e+00 1.405797950068206958e+00 1.405795316460528355e+00 1.405625225182220106e+00 1.406068789749199022e+00 1.404929454656492993e+00 1.405719333585626174e+00 1.405669923472994798e+00 1.406359510421936188e+00 1.406035105919684947e+00 1.406130255076766478e+00 1.405663270071341397e+00 1.405533209237430636e+00 1.406133702332941882e+00 1.405938248310370842e+00 1.406100450799960377e+00 1.406219007445281166e+00 1.405697221627623783e+00 1.405620566037855346e+00 1.406187867386675450e+00 1.406026557644456165e+00 1.406154328669980025e+00 1.405693755360108543e+00 1.406018421407269070e+00 1.405564872072363247e+00 1.405838488632572769e+00 1.405413539380697685e+00 1.406105428872743923e+00 1.405862758660972656e+00 1.405875137009318765e+00 1.405828524819175751e+00 1.405559400298764583e+00 1.405708233315857258e+00 1.406113674424154913e+00 1.405961994282167948e+00 1.406150571433714580e+00 1.405160906685479327e+00 1.406428955767743183e+00 1.406107372849205950e+00 1.406202942283799384e+00 1.405973244092658891e+00 1.405270751255809802e+00 1.406184264856474186e+00 1.405920857144713931e+00 1.405585539800150885e+00 1.406002917468121893e+00 1.405951605489789369e+00 1.405662339458654708e+00 1.405981472752546146e+00 1.406543452029907826e+00 1.406168595744190508e+00 1.405866036606434832e+00 1.406005743109054240e+00 1.406202458932037658e+00 1.405662467276842520e+00 1.405786253463776170e+00 1.405700654448855946e+00 1.406051661136370923e+00 1.406112432037845750e+00 1.406458345171653690e+00 1.405572177689047075e+00 1.405009779798487290e+00 1.405177759704205886e+00 1.405997212100389193e+00 1.406553620219725964e+00 1.406200552670196169e+00 1.406018957588794693e+00 1.406083439951083536e+00 1.405664010216136628e+00 1.405796499049488668e+00 1.405996128795732103e+00 1.405748219718348180e+00 1.405783794725740776e+00 1.405352592017844016e+00 1.405810867887478777e+00 1.405093919888447562e+00 1.406326002451434132e+00 1.406242069118825322e+00 1.406519586088110563e+00 1.406126852486534018e+00 1.406323413641455300e+00 1.405534378197679679e+00 1.405890376098670957e+00 1.406299664385248782e+00 1.406175698275467623e+00 1.406174526191271035e+00 1.405863962878329598e+00 1.405752384268410538e+00 1.405779167245086558e+00 1.405514190680919429e+00 1.405742629014020029e+00 1.406137540190096180e+00 1.405739534328209750e+00 1.406399991710102437e+00 1.405854535501642522e+00 1.406436473916480745e+00 1.405872813251204834e+00 1.406101458464436904e+00 1.406363183417480789e+00 1.406537778882229972e+00 1.405831799950193695e+00 1.406026883715426612e+00 1.406172704534642159e+00 1.406284649016523502e+00 1.406130927844564615e+00 1.406022192428897144e+00 1.406506316356759489e+00 1.406323850885007776e+00 1.406304944312272376e+00 1.406186823129693231e+00 1.405853905160539430e+00 1.405028323951632574e+00 1.406252581958093550e+00 1.405916763238943989e+00 1.406187740013918663e+00 1.406306732556168226e+00 1.405705328708460655e+00 1.405453402952655084e+00 1.405825153643922132e+00 1.406093085886745087e+00 1.405977010559328333e+00 1.406218564694259099e+00 1.405836182599380368e+00 1.406139941778742353e+00 1.405819820997951775e+00 1.406164007444433039e+00 1.405746304897016241e+00 1.405978783583328395e+00 1.406074777881241911e+00 1.405880624218600161e+00 1.405876281798385641e+00 1.405723065369802516e+00 1.405651595730874170e+00 1.406008152665865429e+00 1.406123562854225018e+00 1.405586222762487125e+00 1.405757121548390165e+00 1.405456623340865852e+00 1.405931538374790346e+00 1.406030449151576711e+00 1.405771719829724598e+00 1.406143866395415332e+00 1.405946815728710053e+00 1.406739384938246351e+00 1.406310282805286249e+00 1.406157020822608850e+00 1.405265050650066572e+00 1.405893387874417755e+00
1.000000000000000000e+00 2.201767892152987904e-02 2.769994425400594540e-03 2.199999999999999872e-02 2.199296898119737845e-02 2.199324393627805768e-02 2.200916716307811313e-02 2.199675278358375827e-02 2.201314122706662241e-02 2.199352203923031837e-02 2.202125020674555733e-02 2.198508929017207320e-02 2.200582568681139217e-02 2.200802205755742619e-02 2.200737984718870860e-02 2.200751368886693510e-02 2.200675873384312295e-02 2.202706292334168786e-02 2.199950692440131444e-02 2.199311824753052980e-02 2.200490726388503251e-02 2.198800624608917079e-02 2.199527432476367991e-02 2.199382011455642064e-02 2.198903653844111114e-02 2.200269063534387309e-02 2.198938395990080244e-02 2.200443870809134367e-02 2.201479785206382489e-02 2.200988444541293262e-02 2.200658423709910688e-02 2.200244298429285261e-02 2.201517865742757402e-02 2.198797859670290067e-02 2.197590350139617260e-02 2.197544689877095614e-02 2.200084927896590187e-02 2.199580451867006251e-02 2.197631045789663617e-02 2.199411410516401502e-02 2.198859338052642012e-02 2.198583090551135821e-02 2.199829224246846113e-02 2.198694946290754779e-02 2.198526077142654023e-02 2.201077832115034064e-02 2.201956076618911962e-02 2.201093661688678649e-02 2.198679272267504287e-02 2.199614016300460023e-02 2.198470372627525649e-02 2.201039575022574815e-02 2.200870432597679463e-02 2.199802096596338227e-02 2.199048861090323673e-02 2.199775428336578006e-02 2.198833168145204048e-02 2.198938638231251810e-02 2.198340348593514487e-02 2.198304245450669395e-02 2.200588740157726625e-02 2.200793973530504669e-02 2.199239540290434322e-02 2.199329197054505219e-02 2.200168667723896229e-02 2.199296458971718507e-02 2.200352421567334724e-02 2.200127208746018026e-02 2.198686361095328681e-02 2.395442844970729901e-02 2.199845435235017396e-02 2.200021354967926848e-02 2.199765842242894578e-02 2.200415245669932671e-02 2.199601164601105649e-02 2.199611250852607711e-02 2.198483966770712478e-02 2.200989900303127259e-02 2.200713133321206827e-02 2.200922187083258555e-02 2.198376967796876469e-02 2.199466287649536056e-02 2.199025396563348417e-02 2.198387365233767793e-02 2.197221332838603450e-02 2.200279798362135206e-02 2.201384968483935389e-02 2.199960147401514715e-02 2.201344536053104206e-02 2.202507592308266746e-02 2.200818915153068128e-02 2.201079950677608393e-02 2.199610867651066726e-02 2.198164065495721714e-02 2.200100215975411486e-02 2.199253007198525428e-02 2.200806102364370395e-02 2.202018989551947359e-02 2.199695845908237329e-02 2.201282038246823308e-02 2.201047281550495144e-02 2.201288894274982741e-02 2.202123782349330039e-02 2.201005985264996301e-02 2.200789973275429218e-02 2.198846236122885961e-02 2.200785565198727992e-02 2.200310689214569904e-02 2.198939544898817836e-02 2.200187252117983758e-02 2.199570396893116286e-02 2.201090240009388396e-02 2.200973452155717547e-02 2.200976149547798077e-02 2.200566243530768101e-02 2.200661086905619443e-02 2.199455847629589247e-02 2.198182990311257218e-02 2.201034921596340885e-02 2.201421697899879487e-02 2.199727567833549557e-02 2.200504093162456917e-02 2.198635116305359613e-02 2.199104381909260456e-02 2.199117533175633590e-02 2.199981045377279176e-02 2.201328437334060945e-02 2.201726358055362473e-02 2.202635552576599071e-02 2.201684059512997935e-02 2.200778527175381236e-02 2.200063843516118778e-02 2.197580333700339603e-02 2.200308814096308546e-02 2.199509461006057473e-02 2.197588591253616178e-02 2.199666723328756734e-02 2.201912205434443381e-02 2.199456138207680697e-02 2.199587955487277216e-02 2.200577182678785382e-02 2.199694050197661954e-02 2.198822857173724984e-02 2.201099157558306790e-02 2.201132665635598118e-02 2.201509223975457730e-02 2.201151008768763989e-02 2.199263536046533810e-02 2.200262692066399031e-02 2.198942563464041655e-02 2.199239221674716138e-02 2.198052967403113858e-02 2.201061383971307864e-02 2.200299809445892957e-02 2.198242524385381202e-02 2.200699302574285129e-02 2.199732128521618077e-02 2.200360352529358646e-02 2.200680488329146214e-02 2.202016901457387599e-02 2.199859826618735803e-02 2.199730316287228787e-02 2.198191018979731362e-02 2.198945743506191403e-02 2.199756427327015720e-02 2.199063334429294386e-02 2.199885786002359414e-02 2.199120162359239836e-02 2.198931814024923659e-02 2.201116868579532093e-02 2.198950197457387803e-02 2.199497218099634444e-02 2.201056625884148521e-02 2.199692726332750509e-02 2.200600157368172438e-02 2.200136993627204232e-02 2.200231804421497184e-02 2.199629377351905446e-02 2.199035110823234843e-02 2.199631780461226704e-02 2.201212935233845883e-02 2.200920437052000800e-02 2.200869001392254110e-02 2.201759342271996517e-02 2.200760948895845448e-02 2.200747498746335323e-02 2.200629712292266962e-02 2.201680841506410691e-02 2.200598835333106296e-02 2.200414017082652496e-02 2.200311106358956298e-02 2.199741049784485411e-02 2.399122273230673216e-02 2.200498859253757766e-02 2.201240240196751172e-02 2.200330369280727866e-02 2.200145660689243818e-02 2.200922550298907432e-02 2.199613069115826172e-02 2.198408809614630505e-02 2.200433184659669403e-02 2.201456482846885984e-02 2.201041660469291172e-02 2.200244709933176640e-02 2.199694828815607420e-02 2.199993704626402105e-02 2.199427195323945192e-02 2.198423491352766851e-02 2.201229128628754209e-02 2.201193950263844248e-02 2.200835479575682929e-02 2.199300869400485844e-02 2.199513092983409676e-02 2.198819182228762062e-02 2.200354186798578540e-02 2.201879540482656536e-02 2.202085595447466834e-02 2.199657069341660887e-02 2.196820615173781729e-02 2.199171007190930949e-02 2.199021140094285093e-02 2.199939032740954453e-02 2.199667812333718636e-02 2.199051940868469029e-02 2.200145107234058317e-02 2.200252622031815056e-02 2.201239484104794766e-02 2.199424666169237652e-02 2.199407316609520990e-02
2.000000000000000000e+00 1.079999992469958120e-01 8.331863511184879915e-04 1.079999999999999988e-01 1.079654840895144102e-01 1.079668338690013829e-01 1.080450024369289108e-01 1.079840591194111826e-01 1.080645114783270744e-01 1.079681991016761267e-01 1.081043191967509254e-01 1.079268019699356207e-01 1.080285988261650149e-01 1.080393810098273788e-01 1.080362283407445556e-01 1.080368853817103986e-01 1.080331792388662393e-01 1.081328543509501028e-01 1.079975794470609957e-01 1.079662168515135023e-01 1.080240902045265239e-01 1.079411215717104855e-01 1.079768012306580593e-01 1.079696623805496969e-01 1.079461793705290829e-01 1.080132085735062836e-01 1.079478848940584879e-01 1.080217900215393184e-01 1.080726440010405798e-01 1.080485236411180272e-01 1.080323226184865398e-01 1.080119928319830946e-01 1.080745134091899012e-01 1.079409858383596765e-01 1.078817080977630405e-01 1.078794665939665220e-01 1.080041691876507948e-01 1.079794040007439476e-01 1.078837058842198465e-01 1.079711056071687991e-01 1.079440038680387903e-01 1.079304426270557699e-01 1.079916164630270042e-01 1.079359337270006935e-01 1.079276437870030220e-01 1.080529117583744064e-01 1.080960255794738561e-01 1.080536888465351425e-01 1.079351642749502155e-01 1.079810517092953115e-01 1.079249092017148942e-01 1.080510336829264006e-01 1.080427303275224432e-01 1.079902847420020490e-01 1.079533077262522511e-01 1.079889755728865586e-01 1.079427191634918376e-01 1.079478967858978067e-01 1.079185262036816279e-01 1.079167538675783189e-01 1.080289017895611214e-01 1.080389768824065871e-01 1.079626683415304128e-01 1.079670696735848118e-01 1.080082800519003572e-01 1.079654625313389016e-01 1.080173006951237052e-01 1.080062447929863306e-01 1.079355122719524995e-01 1.077949280236828455e-01 1.079924122751735743e-01 1.080010483347891570e-01 1.079885049828330085e-01 1.080203847874330603e-01 1.079804208076906441e-01 1.079809159509461935e-01 1.079255765505622439e-01 1.080485951057898880e-01 1.080350083630410574e-01 1.080452710022690582e-01 1.079203238736648474e-01 1.079737995755226804e-01 1.079521558312916407e-01 1.079208342932940490e-01 1.078635927029859831e-01 1.080137355559593615e-01 1.080679893619386489e-01 1.079980435997107274e-01 1.080660044971523959e-01 1.081230999860421926e-01 1.080402012893324215e-01 1.080530157605371355e-01 1.079808971392341860e-01 1.079098723061536064e-01 1.080049196933383637e-01 1.079633294442912395e-01 1.080395722978872708e-01 1.080991140325501393e-01 1.079850687991316532e-01 1.080629364230258627e-01 1.080514120033879422e-01 1.080632729916809753e-01 1.081042584062398421e-01 1.080493847311907174e-01 1.080387805062483358e-01 1.079433606823962111e-01 1.080385641097557498e-01 1.080152520159879670e-01 1.079479412950328787e-01 1.080091923767010215e-01 1.079789103929347932e-01 1.080535208731881608e-01 1.080477876512806884e-01 1.080479200687100849e-01 1.080277974096922611e-01 1.080324533571849488e-01 1.079732870654525612e-01 1.079108013425526397e-01 1.080508052420021958e-01 1.080697924423577316e-01 1.079866260572833470e-01 1.080247463916115119e-01 1.079329966186267364e-01 1.079560332937273409e-01 1.079566789013492872e-01 1.079990695003391621e-01 1.080652141963993479e-01 1.080847484863541597e-01 1.081293816719421375e-01 1.080826720124562768e-01 1.080382186067914280e-01 1.080031341362458347e-01 1.078812163816530445e-01 1.080151599647278804e-01 1.079759189948428094e-01 1.078816217524502519e-01 1.079836391452298761e-01 1.080938719031453998e-01 1.079733013301952399e-01 1.079797723602845261e-01 1.080283344224130943e-01 1.079849806460670414e-01 1.079422129885283105e-01 1.080539586437714167e-01 1.080556035857475478e-01 1.080740891769770284e-01 1.080565040668302335e-01 1.079638463150116579e-01 1.080128957923504884e-01 1.079480894791438605e-01 1.079626527003951647e-01 1.079044183997892314e-01 1.080521043040460205e-01 1.080147179182529282e-01 1.079137239243732477e-01 1.080343293991012782e-01 1.079868499456067138e-01 1.080176900332594225e-01 1.080334057907035433e-01 1.080990115260899442e-01 1.079931187612833687e-01 1.079867609813730533e-01 1.079111954771868054e-01 1.079482455903039428e-01 1.079880427960534794e-01 1.079540182356199252e-01 1.079943931310249211e-01 1.079568079703626948e-01 1.079475617794053433e-01 1.080548280939042927e-01 1.079484642388172100e-01 1.079753179794366025e-01 1.080518707252218352e-01 1.079849156563350288e-01 1.080294622708012076e-01 1.080067251416991086e-01 1.080113794897825941e-01 1.079818057972753570e-01 1.079526327131406227e-01 1.079819237680965938e-01 1.080595440932978907e-01 1.080451850916436668e-01 1.080426600683470212e-01 1.080863677115343618e-01 1.080373556730687690e-01 1.080366953930019247e-01 1.080309131488930985e-01 1.080825140375874238e-01 1.080293973708979505e-01 1.080203244749665670e-01 1.080152724939851261e-01 1.079872878985111001e-01 1.079605022953803034e-01 1.080244894542753825e-01 1.080608845187495948e-01 1.080162181283266520e-01 1.080071506156537881e-01 1.080452888328554545e-01 1.079810052111405544e-01 1.079218870174455114e-01 1.080212654287474039e-01 1.080715000670289527e-01 1.080511360594015730e-01 1.080120130330832207e-01 1.079850188691298257e-01 1.079996909543870093e-01 1.079718804977209401e-01 1.079226077573176429e-01 1.080603390417751997e-01 1.080586121038614456e-01 1.080410144518971494e-01 1.079656790432965835e-01 1.079760972919128481e-01 1.079420325821392329e-01 1.080173873519302136e-01 1.080922683509667748e-01 1.081023837765120038e-01 1.079831652222269928e-01 1.078439211085311100e-01 1.079593039893729789e-01 1.079519468773558061e-01 1.079970070618286732e-01 1.079836926054734553e-01 1.079534589153612056e-01 1.080071234460355800e-01 1.080124014451981918e-01 1.080608474015081061e-01 1.079717563392171426e-01 1.079709046335583095e-01
3.000000000000000000e+00 4.910792577299666894e-01 1.234052330206952298e-02 4.919999999999999929e-01 4.918427608522322747e-01 4.918489098476729326e-01 4.902041777231033737e-01 4.919273804328731514e-01 4.902926909664838684e-01 4.918551292409689690e-01 4.904733000593329839e-01 4.916665423074845220e-01 4.921302835414184118e-01 4.901786731001426811e-01 4.901643693237484611e-01 4.901673503429453405e-01 4.901505354355968347e-01 4.906027651107921494e-01 4.899890178616655989e-01 4.918460989902281866e-01 4.901092981501666279e-01 4.917317760489032796e-01 4.918943167174422704e-01 4.918617952891708445e-01 4.917548171324102602e-01 4.900599277872044746e-01 4.917625867395997719e-01 4.920992656536791743e-01 4.903295885232397122e-01 4.902201535569243873e-01 4.901466489172074392e-01 4.920546340123674312e-01 4.903380700972505002e-01 4.917311577080830665e-01 4.914611146675871844e-01 4.914509033725141252e-01 4.920189929659646855e-01 4.919061737811668555e-01 4.914702156947792777e-01 4.918683699882134275e-01 4.917449065099545047e-01 4.916831275232540488e-01 4.919618083315674406e-01 4.917081425341142675e-01 4.916703772519026572e-01 4.902400626074394085e-01 4.904356716105758296e-01 4.902435882852057003e-01 4.917046372525509801e-01 4.919136800090119777e-01 4.916579196967011955e-01 4.902315417095734484e-01 4.901938690785740405e-01 4.919557416024538110e-01 4.917872907529268756e-01 4.919497776098165076e-01 4.917390539670183358e-01 4.917626409135344989e-01 4.916288415945496149e-01 4.916207676189678910e-01 4.921316637080006551e-01 4.901768395590669347e-01 4.918299335558607432e-01 4.918499840685530144e-01 4.920377202364349944e-01 4.918426626427661041e-01 4.900784938945427216e-01 4.900283328570676500e-01 4.917062225722280688e-01 4.910657832189996297e-01 4.899655742114356616e-01 4.900047563337655565e-01 4.899478466813720345e-01 4.920928640316394875e-01 4.919108059017018308e-01 4.899134149626263035e-01 4.916609598414502513e-01 4.902204777947874459e-01 4.901588342397233400e-01 4.902053962139985011e-01 4.916370309800287552e-01 4.918806425107144498e-01 4.917820432314397028e-01 4.916393562250062077e-01 4.913785889802694817e-01 4.920625730882593474e-01 4.903084702532402028e-01 4.899911237394282693e-01 4.902994648481914242e-01 4.905585091959321908e-01 4.901823947386378943e-01 4.902405344691037059e-01 4.919129758565113364e-01 4.915894182835886528e-01 4.920224119363192927e-01 4.918329452462156803e-01 4.901795409811552373e-01 4.904496840365700772e-01 4.919319800849331070e-01 4.902855448822469597e-01 4.902332581635193698e-01 4.902870719067007332e-01 4.904730242505325744e-01 4.902240603544764097e-01 4.901759485931637683e-01 4.917419764420272177e-01 4.921756809444428615e-01 4.920694814061674083e-01 4.917628436773719969e-01 4.920418763827490993e-01 4.919039251233696119e-01 4.902428261839092416e-01 4.902168143437734549e-01 4.902174151265549784e-01 4.901261178773074767e-01 4.901472420835243371e-01 4.918783077426172046e-01 4.915936505605175699e-01 4.902305052646395711e-01 4.903166508958822778e-01 4.919390742609574541e-01 4.901122752952744577e-01 4.916947623737440431e-01 4.917997072269800762e-01 4.918026483283689521e-01 4.919957610571006335e-01 4.902958792244044850e-01 4.903845070214216673e-01 4.905870094375152091e-01 4.903750859824404507e-01 4.901733992345166935e-01 4.900142196922264715e-01 4.914588746275305176e-01 4.920690620615381095e-01 4.918902976431728247e-01 4.914607213167178079e-01 4.919254672171582965e-01 4.904259003013078377e-01 4.918783727264449679e-01 4.919078518635183750e-01 4.901285543239112807e-01 4.919315784987498552e-01 4.917367480588512030e-01 4.902448123652592415e-01 4.902522755279287159e-01 4.903361453399883718e-01 4.902563610439519826e-01 4.918352998794975339e-01 4.900585086875161034e-01 4.917635187383220252e-01 4.918298623018001470e-01 4.915645727101509155e-01 4.922373640517651583e-01 4.920670482942633428e-01 4.916069645443670311e-01 4.901557537551817223e-01 4.919400941966527996e-01 4.900802603360844278e-01 4.901515633096734659e-01 4.904492189609636066e-01 4.919686521347353403e-01 4.919396889151438912e-01 4.915954460627399158e-01 4.917642299113846316e-01 4.899457497228352776e-01 4.917905275178240387e-01 4.899745614277982164e-01 4.918032363094300141e-01 4.917611147728466192e-01 4.902487570927139271e-01 4.917652259768339751e-01 4.918875596841000841e-01 4.902353394014694610e-01 4.919312824344151402e-01 4.901336714138202488e-01 4.920306367566292804e-01 4.900516291666062174e-01 4.919171152986988593e-01 4.917842156931961362e-01 4.899179874663641687e-01 4.902701537566293011e-01 4.902050064343092539e-01 4.901935503100929847e-01 4.903918535060355355e-01 4.901694840722564672e-01 4.901664883571383302e-01 4.901402541014594494e-01 4.903743692446096425e-01 4.901333769605554780e-01 4.900922128956816670e-01 4.900692918708584589e-01 4.919420893154394236e-01 4.918200660122880596e-01 4.901111095610642399e-01 4.902762353165491249e-01 4.920738825845991649e-01 4.900324426080588380e-01 4.902054771120293863e-01 4.919134681840847123e-01 4.916441519683628636e-01 4.900964820378354014e-01 4.903243984522610011e-01 4.902320061954330566e-01 4.920547260396013756e-01 4.919317526260358897e-01 4.919985921255408123e-01 4.918719000451731715e-01 4.916474353388914920e-01 4.902737604673134131e-01 4.902659252860380179e-01 4.901860840873111802e-01 4.918436489750177554e-01 4.918911098853807062e-01 4.917359262075231552e-01 4.900788870596833879e-01 4.904186249256825558e-01 4.904645189860267207e-01 4.919233082345896291e-01 4.912889739388638932e-01 4.918146070626990829e-01 4.917810913301764453e-01 4.919863655038861361e-01 4.899260127470554949e-01 4.917879795033121559e-01 4.900323193384947262e-01 4.900562658161770058e-01 4.902760669142497973e-01 4.918713344342114380e-01 4.918674544417656613e-01
4.000000000000000000e+00 1.831760572426403888e+00 9.646046573207389674e-03 1.832000000000000073e+00 1.831414507888800003e+00 1.831437404148245296e+00 1.832763374670868251e+00 1.831729595432974866e+00 1.831093111160541742e+00 1.831460562539542813e+00 1.831767630833835536e+00 1.832756989007981119e+00 1.832485120829021374e+00 1.832668018611145477e+00 1.832614540002259762e+00 1.832625685363828305e+00 1.832562818200027310e+00 1.832251143168876828e+00 1.831958940250145718e+00 1.831426937703451330e+00 1.832408641247153636e+00 1.831001247401607523e+00 1.831606480134866377e+00 1.831485384084880152e+00 1.831087042655641595e+00 1.832224056543180657e+00 1.831115973388103280e+00 1.832369623328333752e+00 1.831230912239854458e+00 1.830822206141166753e+00 1.832548287380253216e+00 1.832203433964750383e+00 1.831262588322384532e+00 1.830998944961805153e+00 1.831991228252753734e+00 1.831953164197542394e+00 1.832070721775705735e+00 1.831650630827434068e+00 1.832025153626474001e+00 1.831509865484567179e+00 1.831050139687472766e+00 1.832818812759446914e+00 1.831857790372828365e+00 1.832912059771474755e+00 1.830772624238792057e+00 1.830896560350232960e+00 1.831627100096640426e+00 1.830909727677400900e+00 1.832898993335728699e+00 1.831678580846564763e+00 1.832724846999491897e+00 1.830864737405141662e+00 1.830724041660797052e+00 1.831835200438405309e+00 1.831207960689760217e+00 1.831812993051186611e+00 1.833027286535592770e+00 1.831116175108933319e+00 1.832616454236593473e+00 1.830587898938921043e+00 1.832490259985888326e+00 1.830660441618556344e+00 1.831366744460034335e+00 1.831441404092660763e+00 1.832140454213717407e+00 1.831414142198267481e+00 1.832293471050616906e+00 1.832105930192138521e+00 1.830906097057564796e+00 1.830517574031799377e+00 1.831871289704796180e+00 1.832017782864201028e+00 1.831805010449537807e+00 1.832345786394234732e+00 1.831667878886011680e+00 1.831676277982716705e+00 1.830737557783611358e+00 1.830823417070328585e+00 1.832593845565659407e+00 1.832767930334786133e+00 1.832646981336123471e+00 1.831555563169977363e+00 1.831188421138206346e+00 1.832655649017604471e+00 1.831683602011817680e+00 1.832232995727014480e+00 1.831152041966182420e+00 1.831966813654352322e+00 1.833119631840585129e+00 1.832085860874603789e+00 1.832681932982009432e+00 1.830898322609101569e+00 1.831675958880342847e+00 1.832469498235978822e+00 1.832083452575888227e+00 1.831377958721681187e+00 1.832671263423421237e+00 1.831679432218210835e+00 1.831746722592677790e+00 1.831066422723493847e+00 1.830871147835184454e+00 1.831072125692372099e+00 1.831766600772397169e+00 1.830836796834065083e+00 1.832657832291175515e+00 1.833038180476987744e+00 1.832654161565486328e+00 1.832258719382314327e+00 1.831116930115742836e+00 1.832155929945521233e+00 1.831642257776449512e+00 1.830906881462354807e+00 1.830809735202256094e+00 1.830811978942031626e+00 1.832471526431076025e+00 1.832550505095952076e+00 1.831546869480639828e+00 1.832485274650384577e+00 1.830860866600592995e+00 1.831182594162172439e+00 1.831773138305028636e+00 1.832419772124373125e+00 1.830863424123371885e+00 1.831254194389893453e+00 1.831265145808073092e+00 1.831984215968716301e+00 1.831105018327877865e+00 1.831436016018778812e+00 1.832192300552352826e+00 1.831400831322175904e+00 1.830647593059521627e+00 1.832053164237058773e+00 1.831982878184737595e+00 1.832257157920198720e+00 1.831591514801407694e+00 1.831989761981423603e+00 1.831722471426491916e+00 1.831590607247741698e+00 1.831547111452941579e+00 1.831656879296678087e+00 1.832480635757970377e+00 1.831745227255507480e+00 1.831019761064665463e+00 1.832915298475826127e+00 1.830942171869611279e+00 1.831255399943221951e+00 1.830957430021289856e+00 1.831386726380568097e+00 1.832218750848019440e+00 1.831119443757329268e+00 1.831366479140036363e+00 1.830378652855684019e+00 1.830882878485224241e+00 1.832249659502216188e+00 1.832534904419449440e+00 1.832582328325495613e+00 1.831776936114365650e+00 1.832300075378993309e+00 1.832566661190452528e+00 1.831677695303190800e+00 1.831883273802510592e+00 1.831775427017365176e+00 1.832491967640375918e+00 1.831122091865155621e+00 1.831797170392314822e+00 1.831220013033848737e+00 1.831904890889237469e+00 1.831267335200967183e+00 1.831110492406209156e+00 1.830929031591156164e+00 1.831125800791788327e+00 1.831581319799332030e+00 1.830878920621814565e+00 1.831744124837090482e+00 1.832499767408405589e+00 1.832114078329562856e+00 1.832193029863719236e+00 1.831691372413041252e+00 1.831196510467348215e+00 1.831693373547712556e+00 1.831008941580881011e+00 1.832766473036029797e+00 1.830722851158102404e+00 1.831463452889887877e+00 1.832633662898722093e+00 1.830621783048088203e+00 1.832524378599742265e+00 1.831398154525786914e+00 1.832498666513750374e+00 1.832344763316099634e+00 1.832259066749821752e+00 1.831784365093262368e+00 1.831330001899414084e+00 1.832415413705856366e+00 1.833032781836567482e+00 1.832275107510133560e+00 1.832121295628497570e+00 1.832768232794362850e+00 1.831677792100087743e+00 1.832673525833287576e+00 1.832360724680233588e+00 1.831211528913546216e+00 1.832867419081700699e+00 1.832203776635263459e+00 1.831745875631905829e+00 1.831994757670713181e+00 1.831523009924303391e+00 1.832685765064079320e+00 1.831022411541190831e+00 1.830993149537652132e+00 1.832695726628478017e+00 1.831417814882586592e+00 1.831594539248003084e+00 1.831016700837769351e+00 1.832294941006816336e+00 1.831563435946937046e+00 1.831734836213120055e+00 1.831714432288146677e+00 1.831349549194870807e+00 1.831309675078993449e+00 1.831184876660331806e+00 1.831949230900649317e+00 1.831723378270623925e+00 1.831210525305015935e+00 1.832120834751270078e+00 1.832210365255584339e+00 1.831031025414443070e+00 1.831520903828201874e+00 1.831506456376655878e+00
5.000000000000000000e+00 4.965287825010100242e+00 1.818430355712014057e-02 4.966000000000000192e+00 4.966412268117662343e+00 4.964474972161673882e+00 4.964067611963344895e+00 4.965267014694406456e+00 4.964963944032026788e+00 4.964537747582625116e+00 4.966792887539612344e+00 4.962634246136113703e+00 4.963313957179915192e+00 4.965810067896139657e+00 4.965665161883851653e+00 4.965695361433430044e+00 4.965525016127148028e+00 4.966101459080671354e+00 4.965888699389860328e+00 4.964446600783482211e+00 4.967107703293321741e+00 4.967290501957417170e+00 4.966932856610270619e+00 4.966604469505286445e+00 4.965524251044337589e+00 4.966607349778076497e+00 4.965602705126689997e+00 4.965001533952974277e+00 4.965337588270031688e+00 4.966230290319535889e+00 4.967486241883372067e+00 4.964551226092260627e+00 4.967424857066840005e+00 4.965285348564545842e+00 4.964556381906317206e+00 4.964453231222347718e+00 4.964191628217578867e+00 4.965052965441614674e+00 4.962650470674113024e+00 4.962671928092462714e+00 4.965424177929784300e+00 4.962801648944064503e+00 4.963614667800611002e+00 4.965052951442031848e+00 4.964671614202138983e+00 4.966431981190467582e+00 4.966411841901382296e+00 4.964466704226920157e+00 4.963018757309284545e+00 4.965128729521856243e+00 4.964545823278885273e+00 4.966345659278209368e+00 4.965964012461309807e+00 4.965553278044279928e+00 4.965852155407603163e+00 4.965493080508839085e+00 4.965365081520624280e+00 4.965603252151299607e+00 4.964252205369354520e+00 4.965419714411699381e+00 4.965328411883160875e+00 4.965791493002465806e+00 4.966282743710398684e+00 4.964485814805760455e+00 4.964380575718827515e+00 4.966411276441589528e+00 4.966795511592447809e+00 4.966287144833056999e+00 4.967032370292629118e+00 4.962559093831028889e+00 4.967650964657984503e+00 4.966048203986693110e+00 4.966571325001989834e+00 4.964936945229793785e+00 4.967099357153769823e+00 4.965122487151840680e+00 4.963277417163634908e+00 4.966233575047601434e+00 4.963608439790831106e+00 4.966080789400588280e+00 4.966333422704761524e+00 4.962795750860135691e+00 4.965799168239415806e+00 4.964358377491525864e+00 4.963722738276299395e+00 4.964631326849835880e+00 4.965123733462403877e+00 4.965910041816328224e+00 4.965032539952501267e+00 4.965653480840455991e+00 4.967848514840971674e+00 4.966436761438021819e+00 4.963121975918134865e+00 4.965852457051698643e+00 4.966226214788133753e+00 4.966313154437397515e+00 4.965818860062151785e+00 4.964551903717117298e+00 4.964413565690310115e+00 4.963890996246586695e+00 4.966363048007571557e+00 4.964907042451120134e+00 4.966790094553352297e+00 4.964268954038596249e+00 4.965782466972377129e+00 4.963395640266477393e+00 4.963771806598222369e+00 4.964701027845965342e+00 4.965605299571512532e+00 4.964422508869850148e+00 4.965030268623279675e+00 4.966459977912093038e+00 4.964195577089395961e+00 4.964201660934624449e+00 4.965277651312151264e+00 4.965491652454315563e+00 4.966771205010817702e+00 4.963896861757421064e+00 4.966335159456471082e+00 4.967207867443182323e+00 4.965385046300640148e+00 4.965137417481106930e+00 4.962919085260188545e+00 4.965977531511457599e+00 4.964008031704635115e+00 4.963957231478552501e+00 4.966997437693763118e+00 4.965893722123049692e+00 4.965941973081786642e+00 4.965798319683407236e+00 4.965756640408450551e+00 4.964144054188188271e+00 4.964533753859403653e+00 4.964696796897307252e+00 4.966892273762769427e+00 4.964552408422941987e+00 4.963248006638158571e+00 4.966312892438958571e+00 4.964772355608792154e+00 4.965069903159008646e+00 4.967302858719476077e+00 4.963309665991451958e+00 4.963342867602144715e+00 4.966480099145197613e+00 4.964554675856289734e+00 4.967405358097351176e+00 4.966597094330974294e+00 4.964337600003220885e+00 4.964592728826183965e+00 4.963613077346558988e+00 4.964282715834836601e+00 4.965601476360671285e+00 4.964393903302558364e+00 4.964676479131551190e+00 4.964031300521169143e+00 4.963577245169819463e+00 4.963395584536960392e+00 4.966813413936725041e+00 4.965535429120855326e+00 4.966549029559798711e+00 4.965683590449382123e+00 4.967391005143160676e+00 4.963914991950593603e+00 4.965619297153981648e+00 4.965450190048163570e+00 4.965884838838515947e+00 4.965742187858053214e+00 4.964013966489084773e+00 4.965587841852646456e+00 4.966520061649452700e+00 4.963630309351539260e+00 4.962865541202993391e+00 4.964383171653247828e+00 4.965306399531108639e+00 4.967354718859247953e+00 4.964309107438837465e+00 4.964523035067414547e+00 4.965163403604346826e+00 4.965821104804468256e+00 4.967168493332443369e+00 4.966736822954914032e+00 4.964076003932739845e+00 4.965960783141431634e+00 4.965968116524384079e+00 4.965716977417716116e+00 4.965686628989458562e+00 4.965420859917641927e+00 4.967792589653555524e+00 4.965351190269791104e+00 4.965334248365870451e+00 4.964701969075390409e+00 4.965415478740797361e+00 4.964183837026467927e+00 4.965125607879842917e+00 4.964797305389217819e+00 4.966745733567315746e+00 4.966328795901265636e+00 4.966081608947170878e+00 4.965126591467814876e+00 4.966405356265779503e+00 4.964977422113908467e+00 4.965285030857385706e+00 4.966350364804346107e+00 4.964552154594676914e+00 4.965311145408321636e+00 4.963985795347936048e+00 4.966706502895163133e+00 4.964439956836611323e+00 4.966773361142334586e+00 4.966693985958964497e+00 4.965885145733495598e+00 4.964421871564915101e+00 4.964900918070733304e+00 4.963334572249105570e+00 4.964799174212792821e+00 4.966239218124973043e+00 4.964702069736106615e+00 4.965225911977585227e+00 4.962817480642588208e+00 4.965878077714885208e+00 4.965789556358366497e+00 4.963862435693680908e+00 4.967249859851778915e+00 4.965859110106615404e+00 4.968327678517636237e+00 4.966570236822724915e+00 4.964795600058177882e+00 4.962701837665498772e+00 4.964662151946764190e+00
6.000000000000000000e+00 2.462339448131760020e-03 2.246619641005936054e-05 2.473283179012345477e-03 2.461526920438957596e-03 2.461647483710562457e-03 2.463418424211248365e-03 2.461786801268861253e-03 2.463753322187928630e-03 2.461626050240054916e-03 2.464656207133058934e-03 2.460441850994512982e-03 2.463096922153635258e-03 2.463338048696844980e-03 2.463104959705075640e-03 2.463236239711934054e-03 2.463059413580246954e-03 2.465355474108367820e-03 2.462220829046639272e-03 2.461626050240054916e-03 2.462649498456790081e-03 2.460956254286693953e-03 2.461636766975308470e-03 2.461719821673525460e-03 2.461277756344307059e-03 2.462226187414266049e-03 2.461242926954732360e-03 2.462574481310013906e-03 2.463887281378600649e-03 2.463238918895747660e-03 2.463000471536351110e-03 2.462440522119341453e-03 2.464117691186556817e-03 2.460859803669410237e-03 2.459471986454046452e-03 2.459589870541838141e-03 2.462494105795610521e-03 2.461859139231824256e-03 2.459471986454046452e-03 2.461572466563785849e-03 2.460843728566529474e-03 2.460701731824417073e-03 2.462472672325102981e-03 2.460634752229080846e-03 2.460824974279835538e-03 2.463311256858710663e-03 2.464417759773662384e-03 2.463726530349794313e-03 2.460629393861454069e-03 2.462105624142661188e-03 2.460361475480109597e-03 2.463498799725651750e-03 2.463378236454046456e-03 2.461899326989026165e-03 2.461435828189300224e-03 2.462188678840877745e-03 2.461108967764060341e-03 2.460972329389574716e-03 2.460519547325102762e-03 2.460498113854595222e-03 2.463121034807955970e-03 2.463204089506172961e-03 2.461250964506172742e-03 2.461553712277091913e-03 2.462319958847736592e-03 2.461363490226337655e-03 2.462796853566529692e-03 2.462378900891632437e-03 2.460956254286693953e-03 2.457347393689986344e-03 2.462228866598079654e-03 2.462041323731138567e-03 2.462006494341563868e-03 2.462954925411522424e-03 2.461658200445816010e-03 2.461596579218106994e-03 2.460634752229080846e-03 2.463549704218106779e-03 2.463238918895747660e-03 2.463849772805212779e-03 2.460423096707819047e-03 2.461459940843621370e-03 2.461173268175582962e-03 2.460447209362139759e-03 2.459112975823045475e-03 2.462579839677640683e-03 2.463868527091906714e-03 2.462196716392318126e-03 2.463975694444444416e-03 2.464972350823045263e-03 2.463351444615912138e-03 2.463461291152263446e-03 2.461746613511659777e-03 2.460096236282578730e-03 2.462344071502057738e-03 2.461639446159122075e-03 2.463123713991769576e-03 2.464707111625514396e-03 2.461684992283950761e-03 2.464155199759945122e-03 2.463544345850480002e-03 2.463547025034293608e-03 2.465047367969821872e-03 2.463474687071330604e-03 2.463013867455418268e-03 2.461028592249656956e-03 2.463394311556927219e-03 2.462453918038408612e-03 2.461210776748971266e-03 2.462558406207133142e-03 2.461703746570644696e-03 2.463547025034293608e-03 2.463407707475994378e-03 2.463115676440329194e-03 2.462810249485596851e-03 2.463016546639231873e-03 2.461676954732510379e-03 2.460407021604938283e-03 2.463356802983538915e-03 2.463769397290809394e-03 2.462030606995884580e-03 2.462646819272976476e-03 2.460792824074074011e-03 2.461259002057613124e-03 2.461366169410150826e-03 2.462191358024691350e-03 2.463849772805212779e-03 2.464358817729766973e-03 2.465320644718792687e-03 2.464238254458161678e-03 2.463177297668038210e-03 2.462317279663922987e-03 2.459611304012345682e-03 2.462743269890260624e-03 2.461818951474622780e-03 2.459512174211248361e-03 2.461995777606309881e-03 2.464586548353909536e-03 2.461757330246913764e-03 2.461762688614540541e-03 2.463051376028806572e-03 2.461912722908093324e-03 2.460699052640603467e-03 2.463463970336076617e-03 2.463482724622770986e-03 2.463804226680384093e-03 2.463592571159122294e-03 2.461417073902606289e-03 2.462606631515775000e-03 2.460908028978052095e-03 2.461505486968450056e-03 2.460200724451303261e-03 2.463485403806584158e-03 2.462611989883401777e-03 2.460265024862825882e-03 2.462904020919067394e-03 2.462459276406035822e-03 2.462719157235939479e-03 2.462944208676268870e-03 2.464816958161865704e-03 2.462086869855967253e-03 2.461950231481481628e-03 2.459954239540466329e-03 2.461170588991769357e-03 2.462116340877914741e-03 2.461280435528120664e-03 2.462129736796982334e-03 2.461465299211248146e-03 2.460883916323730949e-03 2.463892639746227860e-03 2.461044667352537720e-03 2.461071459190672037e-03 2.464058749142660973e-03 2.462006494341563868e-03 2.462879908264746249e-03 2.462582518861453854e-03 2.462606631515775000e-03 2.461768046982167318e-03 2.461245606138545965e-03 2.461832347393689939e-03 2.463643475651577323e-03 2.463279106652949135e-03 2.463131751543209957e-03 2.464449909979423911e-03 2.463276427469135964e-03 2.463064771947873731e-03 2.462968321330590016e-03 2.464053390775034196e-03 2.462802211934156469e-03 2.462687007030178385e-03 2.462601273148148223e-03 2.461912722908093324e-03 2.461634087791495298e-03 2.462644140089163304e-03 2.463785472393690158e-03 2.462392296810699596e-03 2.462638781721536527e-03 2.463276427469135964e-03 2.461682313100137156e-03 2.460479359567901286e-03 2.462531614368998825e-03 2.463975694444444416e-03 2.463528270747599239e-03 2.462732553155007071e-03 2.461899326989026165e-03 2.462397655178326372e-03 2.461733217592592619e-03 2.460492755486968445e-03 2.463782793209876552e-03 2.463745284636488248e-03 2.463552383401920384e-03 2.461607295953360981e-03 2.461572466563785849e-03 2.460999121227709033e-03 2.462641460905349699e-03 2.464752657750343082e-03 2.464549039780521231e-03 2.462001135973937091e-03 2.458582497427983741e-03 2.461221493484224820e-03 2.461119684499314328e-03 2.462325317215363369e-03 2.461765367798353712e-03 2.461232210219478807e-03 2.462362825788751673e-03 2.462333354766803751e-03 2.463517554012345685e-03 2.461765367798353712e-03 2.461725180041152237e-03
