# vvf statistics with RF=500
# gcat file: /disk2/salam/Abacus/AbacusCosmos_720box_products/GCAT_derivative/AbacusCosmos_720box_planck_rockstar_halos_z0.100_Mr21_hod-fconc-neg_real-0.gcat.rsd_zz.1pz0.100by100
# stats order in row: stdvvf,p2.5,p16,p50,p84,p97.5,rho
# columns: numbers, mean, sigma,All, jnrealizations
0.000000000000000000e+00 1.440089312492238260e+00 5.032359055437693636e-03 1.440089548212386994e+00 1.440536619632429183e+00 1.439946152644183908e+00 1.439842604781888635e+00 1.440140189291557959e+00 1.440546484881543687e+00 1.440052248385983225e+00 1.439859448288804078e+00 1.439390549117733009e+00 1.439116755434357353e+00 1.439777923105266089e+00 1.440506384515380045e+00 1.440358970453984089e+00 1.440194533245921615e+00 1.439830677064200426e+00 1.440437769739413953e+00 1.440274768248927639e+00 1.440303574449699253e+00 1.440037815826209933e+00 1.440416462654327212e+00 1.440200175788000747e+00 1.440168625985530193e+00 1.440683619296085460e+00 1.439999130602740429e+00 1.440274756694947200e+00 1.439811388923549984e+00 1.440545321427894931e+00 1.440480960521247855e+00 1.440061796585083931e+00 1.440571184954333450e+00 1.439746733433201697e+00 1.440011315926851720e+00 1.439626006557683802e+00 1.440249473476322262e+00 1.440120856825394702e+00 1.439642594553510735e+00 1.439523679121184951e+00 1.440180927436489622e+00 1.440036615427943811e+00 1.439983441138601439e+00 1.440221240232157474e+00 1.439882810600046303e+00 1.440304630077206882e+00 1.440296386982155230e+00 1.440126332692329481e+00 1.439281411033840552e+00 1.440185429111582094e+00 1.439856800762102651e+00 1.440493439419155086e+00 1.440345221759188332e+00 1.440140989007334893e+00 1.439242218380736960e+00 1.440037115245440535e+00 1.439875204236721551e+00 1.440071086040811021e+00 1.439580196775283705e+00 1.439689859057475596e+00 1.439693756804403479e+00 1.440236634267913374e+00 1.440174603639877038e+00 1.439604495465262257e+00 1.440232002312543669e+00 1.440215322119428265e+00 1.440489863629550227e+00 1.440028299863573169e+00 1.440015276847907311e+00 1.439382570467714784e+00 1.440650794512065236e+00 1.440417926080182376e+00 1.440491575217366149e+00 1.439831573455389924e+00 1.440159728660134641e+00 1.440413272192931249e+00 1.439718138009307147e+00 1.440115454046303034e+00 1.439706799855640318e+00 1.440163678742602427e+00 1.440052649189920597e+00 1.439624045179854983e+00 1.440147756798122014e+00 1.439837481518008833e+00 1.439547839201688717e+00 1.440306055688392872e+00 1.439282219959165277e+00 1.440265767794741913e+00 1.439552542352412923e+00 1.440538588286226052e+00 1.439900295690369925e+00 1.440417787809133987e+00 1.439976355679932540e+00 1.439657103808904548e+00 1.440298879699997370e+00 1.440236398650096561e+00 1.440434434321935742e+00 1.440306522419969815e+00 1.439836020381293213e+00 1.439941912001688529e+00 1.440516461756030431e+00 1.440118229768472258e+00 1.440318229260129979e+00 1.440143242811599666e+00 1.440243459428922179e+00 1.439542639187734396e+00 1.439996905266782701e+00 1.439869787518049504e+00 1.440322824312997074e+00 1.440245658499971659e+00 1.440037343189738639e+00 1.439925512675649610e+00 1.439556856413298114e+00 1.440079886612880777e+00 1.440555785233422315e+00 1.440253136469734629e+00 1.440187683257027951e+00 1.439480202265689623e+00 1.440549639239496527e+00 1.440411057437019915e+00 1.440400235101358950e+00 1.440122326850020062e+00 1.439655203767509217e+00 1.440190453032785589e+00 1.440000237474149181e+00 1.439788633357179881e+00 1.440199532869945953e+00 1.439936510125908731e+00 1.439630587512234827e+00 1.440399783818246737e+00 1.440690456994473845e+00 1.440508250229725951e+00 1.439994136902480237e+00 1.440106452050233354e+00 1.440206274706723022e+00 1.439759377485093417e+00 1.439822920208355672e+00 1.439956654952904369e+00 1.440137950284664514e+00 1.440268409087679391e+00 1.440522831140976123e+00 1.439538172725142617e+00 1.439262473281368804e+00 1.439602522642686955e+00 1.440098432601479184e+00 1.440448385979129942e+00 1.440315808841552414e+00 1.440279009795552900e+00 1.440238301953681965e+00 1.439954619968013994e+00 1.439940401551477622e+00 1.440178515138365922e+00 1.439774421952565664e+00 1.439772313294488848e+00 1.439722315186645840e+00 1.439975545120422584e+00 1.439187349718256126e+00 1.440334719107294825e+00 1.440129677370964201e+00 1.440758284393452326e+00 1.440314659606590331e+00 1.440441233115737463e+00 1.439719874483493145e+00 1.440227151575933284e+00 1.440560877930424200e+00 1.440358285649043779e+00 1.440316505648488121e+00 1.440148387487235171e+00 1.439993066013833589e+00 1.440154275787061344e+00 1.439555534154240757e+00 1.439696124786628451e+00 1.440215468968282897e+00 1.440239109185374566e+00 1.440295077929470535e+00 1.439856447425870600e+00 1.440571081304215628e+00 1.439926619911302552e+00 1.440172310151076385e+00 1.440359754367803724e+00 1.440922261134698568e+00 1.440043436012858669e+00 1.440047532271155672e+00 1.440533332597320193e+00 1.440385775153663728e+00 1.440269324564011688e+00 1.440224659539093510e+00 1.440586219186686057e+00 1.440448879901905288e+00 1.440464214452621405e+00 1.440609119255422454e+00 1.440105062294080307e+00 1.439217739552616004e+00 1.440493275964050524e+00 1.440165075442731091e+00 1.440476021163892062e+00 1.440365054852000171e+00 1.439871103060067048e+00 1.439526817151070448e+00 1.439807676619156096e+00 1.440311397947875216e+00 1.440256495309049534e+00 1.440342641425463643e+00 1.439982452285141434e+00 1.440143433844707666e+00 1.440255413625859626e+00 1.440028805251869937e+00 1.439884110382826821e+00 1.440110223827806069e+00 1.440252074409737570e+00 1.440068501598209538e+00 1.440200372466735379e+00 1.439686455498765394e+00 1.439974638036983556e+00 1.440210073718900308e+00 1.439920821430185294e+00 1.440023121749540280e+00 1.439781692411816971e+00 1.439498754519407342e+00 1.440064109825612171e+00 1.440278708844483280e+00 1.440116492576566154e+00 1.440287072132165003e+00 1.440106491731970584e+00 1.440736213608735605e+00 1.440577464454635193e+00 1.440469453214491047e+00 1.439602088215716336e+00 1.440056715383194019e+00
1.000000000000000000e+00 2.199999988712867185e-02 1.629296620037100135e-04 2.199999999999999872e-02 2.199554707398424999e-02 2.199621292240943812e-02 2.200891265155439924e-02 2.199673891220324182e-02 2.201235736867782761e-02 2.199537293759353321e-02 2.202036565609812382e-02 2.198704865635505226e-02 2.200843602632189533e-02 2.200518894014750343e-02 2.200640357330141753e-02 2.200745318554904115e-02 2.200641529397821122e-02 2.202481265169288840e-02 2.199767304253084921e-02 2.199220196358851742e-02 2.200549056529678069e-02 2.198505755042945778e-02 2.199808586481837719e-02 2.199195228529531379e-02 2.198961414644272708e-02 2.199917308527825008e-02 2.199090806857216182e-02 2.200246790335023614e-02 2.201345438714878353e-02 2.200519636662580727e-02 2.200637642165190547e-02 2.200059803940197095e-02 2.201177687894219012e-02 2.199197260331695394e-02 2.197540677815726026e-02 2.197638566539711000e-02 2.199966046141793585e-02 2.199696721515743969e-02 2.197828737787231590e-02 2.199408090188897241e-02 2.198839191733173437e-02 2.198796134823458384e-02 2.200016346697142994e-02 2.198703417530719142e-02 2.198257628224171284e-02 2.201113404727750300e-02 2.201560872432635485e-02 2.201173290879566286e-02 2.198425852398156605e-02 2.199548000961020280e-02 2.198629371650143854e-02 2.200960853745457385e-02 2.200885855634155189e-02 2.199595967884252976e-02 2.199098324701408494e-02 2.199935217188653605e-02 2.198794162349564790e-02 2.199184841239006094e-02 2.198520805647364088e-02 2.198252827671189069e-02 2.200445332192732528e-02 2.200806899105690537e-02 2.199178157069463929e-02 2.199333933164059757e-02 2.199862855376134851e-02 2.199227513958645214e-02 2.200180477201711671e-02 2.200302768008844875e-02 2.198877194877027486e-02 2.196080845863693232e-02 2.199873928507192419e-02 2.199847528244879349e-02 2.199885864884447775e-02 2.200351873614920725e-02 2.199575326271885345e-02 2.199518852783531944e-02 2.198657591454891702e-02 2.201108676652576215e-02 2.200816327216158219e-02 2.201070025772217109e-02 2.198703075739216403e-02 2.199253702113690423e-02 2.199104676646808712e-02 2.198628907590273115e-02 2.197176837621645992e-02 2.200402838450411097e-02 2.201156129639212505e-02 2.200254925276515228e-02 2.201220115544839581e-02 2.202145252229877406e-02 2.200787552880397943e-02 2.201029778008159465e-02 2.199458487579711991e-02 2.198008089772418572e-02 2.199918760290116640e-02 2.199436862974527007e-02 2.200718489401644676e-02 2.201953380854231729e-02 2.199640512847711796e-02 2.201169798465166944e-02 2.201368059429552326e-02 2.201197900484666917e-02 2.201894806603810553e-02 2.201328435564849778e-02 2.200509672990600546e-02 2.199078261756225519e-02 2.200501317088244743e-02 2.200079164730216197e-02 2.199282613269903236e-02 2.200103812819328639e-02 2.199532647055052123e-02 2.201084644324434805e-02 2.200559546952107412e-02 2.200828768613060857e-02 2.200354094581154565e-02 2.200458134181067921e-02 2.199596359282795024e-02 2.198094933075018728e-02 2.201090685965678001e-02 2.201449199893832157e-02 2.199917923864094446e-02 2.200525827315247610e-02 2.199130602070771545e-02 2.199329006091544844e-02 2.199021535030857427e-02 2.199862610731682239e-02 2.201354907698077276e-02 2.201811228877673804e-02 2.202475736110541885e-02 2.201480457904700025e-02 2.200625146172155433e-02 2.200255478825793518e-02 2.197686539169341896e-02 2.200462798214606122e-02 2.199541546695902086e-02 2.197750257540306840e-02 2.199694936939351406e-02 2.201947437450089973e-02 2.199753202850461206e-02 2.199884242380826388e-02 2.200546360785022443e-02 2.199442758911366452e-02 2.198717060244170449e-02 2.200975879745194902e-02 2.200692206454633176e-02 2.201485786813294279e-02 2.201228639364068845e-02 2.199385086098390105e-02 2.200345491357346209e-02 2.198799875150212954e-02 2.199568217655928706e-02 2.198286614109777604e-02 2.201170449944797949e-02 2.200359817518847058e-02 2.198296284109835935e-02 2.200570928235562676e-02 2.199933178658981456e-02 2.200091345528746786e-02 2.200682453496208973e-02 2.201949123554012774e-02 2.199985092314592910e-02 2.199865071310296016e-02 2.198078770319630490e-02 2.199109754069684952e-02 2.199777942601151282e-02 2.199022756122864450e-02 2.199854318022226307e-02 2.198997900273738648e-02 2.198884608243983560e-02 2.200906002913174259e-02 2.199242298532184600e-02 2.198962414851440492e-02 2.201238871210406053e-02 2.199888445608305654e-02 2.200634380023232251e-02 2.200044467631720457e-02 2.200229013369654762e-02 2.199550304176532342e-02 2.199072163856684997e-02 2.199608453896614857e-02 2.201244476616862067e-02 2.201039465931805411e-02 2.200649973558863742e-02 2.201970008238014059e-02 2.200709930751256274e-02 2.200598254496788017e-02 2.200649232380853110e-02 2.201690767945990376e-02 2.200355313880969499e-02 2.200496061022259864e-02 2.200308295847400869e-02 2.199610090096159112e-02 2.199367874627474947e-02 2.200598551941382319e-02 2.201449294541627313e-02 2.200011552181773203e-02 2.200183748347499940e-02 2.200506763614309622e-02 2.199729484779119545e-02 2.198302845129251545e-02 2.200399853046237919e-02 2.201288003010213809e-02 2.200984555203973000e-02 2.199976593117274754e-02 2.199505374965500526e-02 2.199899221428573692e-02 2.199474871407031129e-02 2.198602940637738382e-02 2.201341123081550569e-02 2.201623013515978389e-02 2.200563280539454339e-02 2.199449827663564616e-02 2.199233203936048348e-02 2.199284394962000219e-02 2.200773826911714415e-02 2.202237937443287177e-02 2.201985638427191375e-02 2.200016433572808683e-02 2.197020156136284333e-02 2.199353284991903065e-02 2.198883067850934681e-02 2.200224458844692380e-02 2.199627614566050313e-02 2.199026741216544845e-02 2.200006837523796333e-02 2.200188405406620917e-02 2.201192416926688739e-02 2.199621976549884922e-02 2.199487486103597622e-02
2.000000000000000000e+00 1.039999994664264765e-01 7.702129476538891080e-04 1.039999999999999952e-01 1.039789498042891780e-01 1.039820974513900737e-01 1.040421325346207876e-01 1.039845839485971507e-01 1.040584166519315512e-01 1.039781266140785282e-01 1.040962740106456813e-01 1.039387754664057029e-01 1.040398793971580443e-01 1.040245295352427435e-01 1.040302714374248816e-01 1.040352332407772917e-01 1.040303268442606399e-01 1.041172961716391038e-01 1.039889998374185637e-01 1.039631365551457187e-01 1.040259553995847713e-01 1.039293629656665441e-01 1.039909513609596076e-01 1.039619562577596690e-01 1.039509032377292641e-01 1.039960909485880963e-01 1.039570199605229506e-01 1.040116664522011125e-01 1.040636025574306206e-01 1.040245646422310877e-01 1.040301430841726327e-01 1.040028270953547718e-01 1.040556725186358167e-01 1.039620523065892255e-01 1.038837411331070409e-01 1.038883686000590667e-01 1.039983949085211551e-01 1.039856631989260899e-01 1.038973585135782307e-01 1.039720188089297004e-01 1.039451254273863756e-01 1.039430900098362170e-01 1.040007727529558557e-01 1.039387070105430855e-01 1.039176333342335529e-01 1.040526336780391164e-01 1.040737866968155095e-01 1.040554646597613153e-01 1.039255857497310420e-01 1.039786327727027782e-01 1.039352066598249746e-01 1.040454221770579918e-01 1.040418768117964271e-01 1.039809002999828591e-01 1.039573753495211250e-01 1.039969375398272639e-01 1.039429967656157888e-01 1.039614652222075747e-01 1.039300744487844930e-01 1.039174063990016689e-01 1.040210520672928129e-01 1.040381443213599100e-01 1.039611492432837431e-01 1.039685132041191923e-01 1.039935167995991033e-01 1.039634824780450439e-01 1.040085316495354684e-01 1.040143126695090292e-01 1.039469219396412791e-01 1.038147308953745879e-01 1.039940402567036543e-01 1.039927922443033836e-01 1.039946045218102660e-01 1.040166340254326111e-01 1.039799245146709461e-01 1.039772548588578649e-01 1.039365406869585257e-01 1.040524101690308706e-01 1.040385900138547509e-01 1.040505830365048151e-01 1.039386908531265974e-01 1.039647204635562872e-01 1.039576756233036858e-01 1.039351847224492670e-01 1.038665414148414595e-01 1.040190432722012392e-01 1.040546534011264068e-01 1.040120510130716353e-01 1.040576781893924052e-01 1.041014119235942059e-01 1.040372297725278977e-01 1.040486804149311773e-01 1.039744012310409305e-01 1.039058369710597896e-01 1.039961595773509634e-01 1.039733789769776429e-01 1.040339649535322875e-01 1.040923416403818774e-01 1.039830060618918278e-01 1.040552995638078931e-01 1.040646719003060910e-01 1.040566280229115320e-01 1.040895726758165052e-01 1.040627987721565173e-01 1.040240936322829324e-01 1.039564269193852114e-01 1.040236986259897300e-01 1.040037423327010990e-01 1.039660871727590696e-01 1.040049075150955432e-01 1.039779069516933718e-01 1.040512740953369319e-01 1.040264513104632582e-01 1.040391781526174286e-01 1.040167390165636641e-01 1.040216572521959343e-01 1.039809188024593961e-01 1.039099422908190684e-01 1.040515597001956810e-01 1.040685076313448004e-01 1.039961200372117311e-01 1.040248572912662456e-01 1.039589011888001208e-01 1.039682802879639406e-01 1.039537452923678107e-01 1.039935052345886124e-01 1.040640501820909170e-01 1.040856217287627616e-01 1.041170347979528815e-01 1.040699852827676325e-01 1.040295523645018844e-01 1.040120771808556999e-01 1.038906363970961699e-01 1.040218777337813677e-01 1.039783276619880986e-01 1.038936485382690456e-01 1.039855788371329692e-01 1.040920606794587949e-01 1.039883332256581749e-01 1.039945278216390656e-01 1.040258279643828804e-01 1.039736576939918750e-01 1.039393519388153442e-01 1.040461324970455848e-01 1.040327224869462969e-01 1.040702371948102889e-01 1.040580811335741762e-01 1.039709313428329729e-01 1.040163323187109218e-01 1.039432668252827929e-01 1.039795884710075363e-01 1.039190035760985675e-01 1.040553303610268071e-01 1.040170095554363988e-01 1.039194607033740586e-01 1.040269893347720576e-01 1.039968411729700337e-01 1.040043181522680299e-01 1.040322614380026073e-01 1.040921403861896910e-01 1.039992952730534881e-01 1.039936215528503571e-01 1.039091782332916269e-01 1.039579156469305626e-01 1.039895027411453232e-01 1.039538030167172222e-01 1.039931132155961502e-01 1.039526280129403762e-01 1.039472723897155865e-01 1.040428292286227768e-01 1.039641813851578250e-01 1.039509505202499129e-01 1.040585648208555564e-01 1.039947265196653758e-01 1.040299888738255296e-01 1.040021021062267903e-01 1.040108260865654916e-01 1.039787416519815239e-01 1.039561386550432731e-01 1.039814905478399637e-01 1.040588298037062182e-01 1.040491383895035260e-01 1.040307260227826547e-01 1.040931276621606533e-01 1.040335603627866590e-01 1.040282811216663439e-01 1.040306909852767026e-01 1.040799272119922736e-01 1.040167966561912766e-01 1.040234501574159171e-01 1.040145739855135171e-01 1.039815678954547906e-01 1.039701177096624546e-01 1.040282951826835278e-01 1.040685121056042078e-01 1.040005461031383721e-01 1.040086862855181815e-01 1.040239560981310041e-01 1.039872120077402068e-01 1.039197708606555415e-01 1.040189021440039718e-01 1.040608874150282803e-01 1.040465426096423562e-01 1.039988934928166298e-01 1.039766177256418456e-01 1.039952359220780304e-01 1.039751757392414766e-01 1.039339571937839962e-01 1.040633985456732996e-01 1.040767242753008054e-01 1.040266278073196660e-01 1.039739918531866897e-01 1.039637514587950090e-01 1.039661713982036467e-01 1.040365809085537774e-01 1.041057934064099355e-01 1.040938665438308486e-01 1.040007768598054938e-01 1.038591346537152682e-01 1.039694280177990426e-01 1.039471995711351016e-01 1.040106107817490855e-01 1.039823963249405514e-01 1.039539914029639356e-01 1.040003232283976536e-01 1.040089064374038891e-01 1.040563688001707315e-01 1.039821298005400296e-01 1.039757720703518989e-01
3.000000000000000000e+00 4.780353490068765532e-01 4.250493221764690098e-03 4.779999999999999805e-01 4.779032500620214452e-01 4.779177171323505391e-01 4.781936476110455470e-01 4.779291454560523067e-01 4.782684919194546413e-01 4.778994665531686170e-01 4.784424901643138384e-01 4.777186026244416017e-01 4.781832918446302649e-01 4.781127415177502948e-01 4.781391321835489761e-01 4.781619373951109808e-01 4.781393868418902238e-01 4.785391112504182032e-01 4.779494415604430002e-01 4.778305699361505288e-01 4.781192950096300187e-01 4.776753413229673506e-01 4.779584110628720128e-01 4.778251451077800138e-01 4.777743437272556348e-01 4.779820333983183511e-01 4.778024571262496911e-01 4.780536208091551442e-01 4.782923271389599718e-01 4.781129028748697940e-01 4.781385422522549944e-01 4.780129937651882988e-01 4.782558794606530661e-01 4.778255865629774668e-01 4.774656563617804550e-01 4.774869249118099401e-01 4.779926227526260507e-01 4.779341058566025646e-01 4.775282439374076149e-01 4.778713941410422383e-01 4.777477880220258322e-01 4.777384329298241528e-01 4.780035516914701854e-01 4.777182879907653223e-01 4.776214301323426503e-01 4.782419124817566813e-01 4.783391350103636253e-01 4.782549241092876047e-01 4.776579806574176579e-01 4.779017929360762085e-01 4.777021998403493952e-01 4.782087673137857542e-01 4.781924722696028196e-01 4.779122148403058268e-01 4.778040905487605516e-01 4.779859244618983594e-01 4.777380043650417685e-01 4.778228882328386384e-01 4.776786114088364399e-01 4.776203871031038384e-01 4.780967585400573427e-01 4.781753171693272630e-01 4.778214359450925763e-01 4.778552818420093717e-01 4.779702022135420281e-01 4.778321598510147372e-01 4.780392127738264385e-01 4.780657832310126198e-01 4.777560450687359794e-01 4.791449118248057859e-01 4.779726081029264106e-01 4.779668720459329112e-01 4.779752015521663844e-01 4.780764525399691101e-01 4.779077299808914270e-01 4.778954598320582781e-01 4.777083312342901289e-01 4.782408851999688237e-01 4.781773656406016482e-01 4.782324874177817375e-01 4.777182137287934172e-01 4.778378498228836313e-01 4.778054706532611773e-01 4.777020990127957001e-01 4.793840372992682619e-01 4.780875258087711743e-01 4.782511954397924980e-01 4.780553883100792656e-01 4.782650978320150958e-01 4.784661048026733754e-01 4.781711137621955654e-01 4.782237426763182864e-01 4.778823441195919619e-01 4.775672122323709190e-01 4.779823488266707887e-01 4.778776456826472341e-01 4.781561081518118650e-01 4.784244163856012921e-01 4.779218932460028157e-01 4.782541653028862805e-01 4.782972420033299032e-01 4.782602711053049460e-01 4.784116897984642680e-01 4.782886328181809588e-01 4.781107380406850460e-01 4.777997314179435739e-01 4.781089225309913537e-01 4.780172003368377553e-01 4.778441314286425712e-01 4.780225556943814014e-01 4.778984569510522085e-01 4.782356636304908593e-01 4.781215742923215495e-01 4.781800688168377778e-01 4.780769350953599228e-01 4.780995400629775016e-01 4.779122998805345190e-01 4.795843490345495508e-01 4.782369763143609065e-01 4.783148716132962774e-01 4.779821670941077905e-01 4.781142479348583496e-01 4.778111035408313390e-01 4.778542113235265676e-01 4.777874062476135664e-01 4.779701490589746138e-01 4.782943844907640574e-01 4.783935306379673014e-01 4.785379099367449984e-01 4.783216631265665986e-01 4.781358272137682941e-01 4.780555085812406291e-01 4.774973480558843408e-01 4.781005534302643634e-01 4.779003906002914359e-01 4.775111923201211805e-01 4.779337181168226700e-01 4.784231250459741180e-01 4.779463777102366251e-01 4.779748490263795446e-01 4.781187092978367303e-01 4.778789267089241788e-01 4.777212521803242962e-01 4.782120320537287528e-01 4.781503975842339438e-01 4.783228209530703268e-01 4.782669498254659146e-01 4.778663959795592664e-01 4.780750658494598015e-01 4.777392456008189847e-01 4.779061854725153990e-01 4.776277279747607185e-01 4.782543068516424412e-01 4.780781785336403744e-01 4.776298290020461468e-01 4.781240471348177645e-01 4.779854815449968708e-01 4.780198468921549870e-01 4.781482785323581397e-01 4.784234913903718245e-01 4.779967609665342620e-01 4.779706836756006383e-01 4.775825691876287582e-01 4.778065738387770045e-01 4.779517529833410272e-01 4.777876715576041544e-01 4.779683472793746501e-01 4.777822710594759603e-01 4.777576557911927813e-01 4.781968497238623939e-01 4.778353721356292105e-01 4.777745610449948277e-01 4.782691729266245750e-01 4.779757622730773647e-01 4.781378334777749983e-01 4.780096616036192958e-01 4.780497583594067734e-01 4.779022933619920255e-01 4.777984065106797296e-01 4.779149277102645033e-01 4.782703908285728112e-01 4.782258475979104251e-01 4.781412215277894839e-01 4.784280290626230503e-01 4.781542485905002082e-01 4.781299843861203103e-01 4.781410604900217520e-01 4.783673577628106410e-01 4.780772000159560498e-01 4.781077805312000661e-01 4.780669842795717828e-01 4.779152832118018224e-01 4.778626563963331852e-01 4.781300490127185499e-01 4.783148921776808615e-01 4.780025099740398131e-01 4.780399235045931783e-01 4.781101059125636432e-01 4.779412244201905469e-01 4.776312545326282799e-01 4.780868771618643764e-01 4.782798479267646452e-01 4.782139169943177559e-01 4.779949143227533170e-01 4.778925314697769489e-01 4.779781035649355303e-01 4.778859038784367130e-01 4.776964571021995454e-01 4.782913894695369206e-01 4.783526365730171315e-01 4.781223854990269140e-01 4.778804625559926467e-01 4.778333961279231934e-01 4.778445185417436458e-01 4.781681314835452001e-01 4.784862427717687106e-01 4.784314250764533649e-01 4.780035705671829560e-01 4.793498522479165969e-01 4.778594864664225672e-01 4.777573211057939973e-01 4.780487687853468004e-01 4.779190908011690664e-01 4.777885374097765592e-01 4.780014856074430440e-01 4.780409353565294173e-01 4.782590796777078102e-01 4.779178658140204594e-01 4.778886447079634947e-01
4.000000000000000000e+00 1.825360230442016896e+00 8.908881288025980241e-03 1.826000000000000068e+00 1.825630407140692801e+00 1.825685672559983486e+00 1.824738939837964757e+00 1.825729329712869164e+00 1.825024538203107172e+00 1.825615953820263426e+00 1.825688498032862928e+00 1.824925038477469563e+00 1.826700190184717298e+00 1.824430210310411082e+00 1.826531496584017589e+00 1.824617936838247800e+00 1.824531886191647967e+00 1.826057194394901106e+00 1.825806862530060526e+00 1.825352762977846988e+00 1.824455217777332994e+00 1.824759776685645374e+00 1.825841126779925272e+00 1.825332039679511187e+00 1.825137974154746434e+00 1.825931366078094698e+00 1.825245369691489428e+00 1.824204611623219563e+00 1.825115491007244684e+00 1.824430826032975794e+00 1.824528663322412481e+00 1.826049637270363624e+00 1.824976410326843546e+00 1.825333726075307084e+00 1.825956526839612293e+00 1.826037863470268974e+00 1.825971818297688731e+00 1.825748278858067675e+00 1.826195878488663382e+00 1.825508714856784787e+00 1.825036529138533981e+00 1.825000791903470532e+00 1.826013567758628664e+00 1.824923836550496725e+00 1.824553831426062089e+00 1.824923113737916713e+00 1.825294105144148915e+00 1.824972764801967795e+00 1.826692026447195971e+00 1.825624840797646753e+00 1.824862378469619184e+00 1.824796635105324860e+00 1.824734454853045307e+00 1.825664653343929800e+00 1.825251609502168915e+00 1.825946230266582315e+00 1.824999154750138741e+00 1.825323418228375294e+00 1.824772268687312238e+00 1.824549846967086886e+00 1.826369625719967971e+00 1.824668992713081472e+00 1.825317870367654915e+00 1.825447164526169619e+00 1.825886169962191996e+00 1.825358836585675659e+00 1.826149796077420673e+00 1.826251297447341049e+00 1.825068071747932841e+00 1.824743539199468634e+00 1.825895360660969802e+00 1.825873448443249947e+00 1.825905267854091685e+00 1.826292055100384282e+00 1.825647520805664614e+00 1.825600647810331711e+00 1.824885800907560141e+00 1.824919193733772316e+00 1.824676809473760208e+00 1.824887148640238266e+00 1.824923552863549681e+00 1.825380572754362829e+00 1.825256881616851290e+00 1.824861993299926599e+00 1.825654208714713178e+00 1.824333989697068281e+00 1.824958536573601631e+00 1.826211587979507778e+00 1.825011586706266842e+00 1.825778609121498475e+00 1.826653668890730220e+00 1.824853779584946656e+00 1.825550544691161292e+00 1.826344903683627674e+00 1.825932571040796759e+00 1.825532596268857333e+00 1.824595693031181742e+00 1.825619530308236094e+00 1.825701625663600725e+00 1.824969869272938361e+00 1.825134245636137686e+00 1.824993168401833010e+00 1.825570966929704664e+00 1.825101393850129927e+00 1.824422565243116079e+00 1.825234957257667157e+00 1.826416093183243161e+00 1.826065706726079263e+00 1.825404569014019707e+00 1.826086164640042808e+00 1.825612097055693273e+00 1.824899268748986003e+00 1.826464423970249218e+00 1.824687124522828663e+00 1.824293576598193578e+00 1.824379834884667151e+00 1.825664978204719624e+00 1.825937478224226806e+00 1.824904277818816700e+00 1.825201518457431948e+00 1.825931876807198151e+00 1.824435958646823508e+00 1.825278399718740729e+00 1.825443075055982245e+00 1.825187874075611560e+00 1.825885966907296210e+00 1.825123341655133125e+00 1.825501673396762170e+00 1.826052610302558277e+00 1.825227434190078490e+00 1.824518303008187070e+00 1.826212047425408658e+00 1.826077724364344235e+00 1.824383701792473556e+00 1.825619483757598971e+00 1.826130668538036961e+00 1.825746797659661524e+00 1.825614602685892818e+00 1.825795158365882909e+00 1.825903921176085909e+00 1.824452982759945829e+00 1.825537489896434051e+00 1.824935160002661316e+00 1.824809093025107076e+00 1.824573902078750587e+00 1.825231852339749494e+00 1.825018653727300766e+00 1.825489621461663603e+00 1.824286443743545316e+00 1.825003896374676859e+00 1.825641620654420816e+00 1.824577889711115342e+00 1.824970409408777972e+00 1.826298648540642944e+00 1.824585915811163694e+00 1.824473351409848343e+00 1.825944538286954799e+00 1.826075816788859774e+00 1.826566436401853455e+00 1.825616000619326940e+00 1.825987626621112137e+00 1.825888009187545569e+00 1.824405379365293234e+00 1.825261095877838580e+00 1.825815692358955467e+00 1.825188887581977504e+00 1.825879083958448001e+00 1.825168257227203217e+00 1.825074224842506254e+00 1.824751158778922688e+00 1.825371107781713409e+00 1.825138804326695618e+00 1.825027136858082155e+00 1.825907409854893970e+00 1.824525958710170759e+00 1.826036908134328174e+00 1.826190081096813689e+00 1.825626752466521729e+00 1.825229896001048235e+00 1.825675016734190192e+00 1.825031784249616651e+00 1.824861811754369567e+00 1.824538887168803525e+00 1.825633315920971889e+00 1.824588597131950651e+00 1.824496007364609707e+00 1.824538272664852911e+00 1.825401800333402935e+00 1.826294910521204518e+00 1.824411279683909815e+00 1.826255885553343061e+00 1.825676374779811928e+00 1.825475335940804245e+00 1.824496253973218796e+00 1.825201596929058478e+00 1.826009588310872012e+00 1.826152511128424916e+00 1.824420153105682285e+00 1.825775472366669039e+00 1.824591361457278849e+00 1.826331878028377265e+00 1.825067871586649959e+00 1.824816285769112145e+00 1.825980572287338122e+00 1.825589461221365450e+00 1.825916353785716151e+00 1.825564143267835782e+00 1.824840440729322832e+00 1.825111912954885618e+00 1.825345625751429335e+00 1.824467010774529552e+00 1.825543356960758645e+00 1.825363559266919955e+00 1.825406047818460387e+00 1.824641572857712335e+00 1.825855453589343425e+00 1.825646274768725874e+00 1.826013639865431193e+00 1.825524020644149203e+00 1.825463226543279527e+00 1.825072946316275813e+00 1.826186300841094567e+00 1.825690920089821923e+00 1.825192195209732304e+00 1.826005675144751095e+00 1.824156205209852999e+00 1.824988622033763663e+00 1.825686240536404714e+00 1.825574613465986040e+00
5.000000000000000000e+00 5.037059973062443241e+00 1.746156709440439131e-02 5.038000000000000256e+00 5.036980279942393501e+00 5.037132759231761625e+00 5.038040186964907186e+00 5.037253210894542477e+00 5.038828714030070266e+00 5.036940402708919073e+00 5.036658180976626653e+00 5.035034142305306659e+00 5.035930316204746404e+00 5.037187795571946403e+00 5.037465836142996700e+00 5.037706101928407953e+00 5.037468519112467291e+00 5.037675330150845454e+00 5.037467126739564094e+00 5.038213540749369557e+00 5.037256840310663009e+00 5.036576820643839270e+00 5.037561663043408799e+00 5.036157073332627299e+00 5.035621639535384553e+00 5.037810636528718966e+00 5.035917947703024922e+00 5.036564925512354129e+00 5.037078608404862656e+00 5.037189495560343566e+00 5.037459620883590894e+00 5.036136896655833084e+00 5.036694764027044968e+00 5.036161726159582130e+00 5.038361444955691937e+00 5.036588023860556262e+00 5.037922245664707255e+00 5.037305492271054064e+00 5.035025835658021975e+00 5.034645064632403688e+00 5.037340693788724622e+00 5.037242054322831564e+00 5.038037433936457532e+00 5.039028468722674958e+00 5.038006800684668995e+00 5.038548684640431929e+00 5.037571559920857922e+00 5.036684702858062579e+00 5.034395201991778812e+00 5.036964922200736439e+00 5.036860015053056472e+00 5.038199481573692573e+00 5.038027804078911487e+00 5.037074766454939123e+00 5.035935163566224837e+00 5.037851647362017182e+00 5.037237535564456969e+00 5.037832656541638698e+00 5.036611300210325659e+00 5.036496989943922031e+00 5.035019001026461716e+00 5.037847065407389913e+00 5.036117979689072044e+00 5.036474706945696767e+00 5.037685938811349295e+00 5.037780462713581819e+00 5.038413292791919851e+00 5.036693063496610279e+00 5.035428776268393136e+00 5.035014448425667588e+00 5.039711181671022722e+00 5.037650839680773984e+00 5.037738630585385735e+00 5.036805470693064279e+00 5.037027497162616996e+00 5.036948161938937574e+00 5.034925884431702414e+00 5.036536853758667220e+00 5.035867905093700081e+00 5.038449386267675578e+00 5.037028864420750374e+00 5.036290977840351069e+00 5.035949709521192474e+00 5.036858951934079620e+00 5.035529825131063397e+00 5.036922133834668358e+00 5.036645434819907230e+00 5.038583778883220177e+00 5.036791846205782797e+00 5.036906776918519846e+00 5.035802064181782889e+00 5.038357255476859642e+00 5.036759936557540840e+00 5.035436714751358345e+00 5.037813961064366630e+00 5.036710416211667152e+00 5.037644687557582657e+00 5.036467914753861130e+00 5.037176774421260106e+00 5.036676711578931709e+00 5.039131612403283889e+00 5.038742103109445480e+00 5.036333939468351950e+00 5.037039702106115513e+00 5.039167151148475021e+00 5.035889219421756380e+00 5.035147104646465088e+00 5.036181215264257105e+00 5.038356532218323025e+00 5.038237731356263183e+00 5.036929761756069546e+00 5.038482849462660340e+00 5.035780472331992996e+00 5.035896373271885551e+00 5.038810876590843257e+00 5.037048710789026273e+00 5.037075662757600547e+00 5.035635664862770255e+00 5.038496679328706485e+00 5.039317350302426668e+00 5.037812045648776049e+00 5.037203666527084955e+00 5.036009078742067935e+00 5.036463423949637530e+00 5.035759315220663446e+00 5.035685503474887525e+00 5.037100275160054430e+00 5.036142774414751777e+00 5.035660433016374782e+00 5.037387556860117854e+00 5.039431584734235692e+00 5.038585046511067311e+00 5.036697968405373871e+00 5.037059387185798265e+00 5.036950141933616010e+00 5.036843999326466204e+00 5.037301405591114722e+00 5.036454320567660403e+00 5.037434834527556582e+00 5.037734915052093143e+00 5.039251166197701082e+00 5.034724424489836814e+00 5.035062067959150234e+00 5.036232990289686740e+00 5.037584523502514955e+00 5.039401101087159773e+00 5.036811350253965536e+00 5.038591288152675318e+00 5.038791175208323203e+00 5.037250623071397371e+00 5.037011218432076554e+00 5.038073231064316815e+00 5.036678202282778294e+00 5.036823655011324341e+00 5.036096941778896330e+00 5.035306387608101453e+00 5.033847100622415027e+00 5.037109135587972020e+00 5.035561577681780143e+00 5.038459949077681799e+00 5.037965861400417467e+00 5.037691013300577225e+00 5.035598637459516524e+00 5.037960527505096486e+00 5.037491488556636199e+00 5.037761223117835030e+00 5.037666388270898743e+00 5.035705191626862032e+00 5.037444738886216911e+00 5.038073923032156287e+00 5.034265552458219162e+00 5.035623930009799132e+00 5.036834762578720870e+00 5.037744540443021002e+00 5.039452730253201729e+00 5.036101790451520621e+00 5.038524440616509281e+00 5.034970605378643604e+00 5.035875255231808900e+00 5.037103359423247717e+00 5.038848720110235213e+00 5.038379432014805204e+00 5.037487848564744297e+00 5.038507737031891587e+00 5.037625096028784277e+00 5.037369458929920718e+00 5.037486151940898438e+00 5.039870321534548836e+00 5.036813345774800332e+00 5.037135528776409465e+00 5.036705717221597212e+00 5.037107106320203975e+00 5.034553007556347382e+00 5.037370139807637592e+00 5.035314931878850153e+00 5.038026454496260520e+00 5.038420783715775286e+00 5.037160027982574562e+00 5.035380766067111935e+00 5.036111972477921306e+00 5.038915663475884266e+00 5.038948355981561988e+00 5.036252841316727569e+00 5.035946419517543404e+00 5.036867308670996302e+00 5.037769217071433658e+00 5.036797455522100897e+00 5.036799464006455729e+00 5.039069952653949969e+00 5.035712274551092271e+00 5.037289400362133129e+00 5.036740105349562846e+00 5.036244037013550390e+00 5.036361264462979825e+00 5.037771360148814992e+00 5.035116738790788027e+00 5.036541696620739472e+00 5.036637622424096961e+00 5.035170739654157401e+00 5.038518434708723071e+00 5.039440194592915034e+00 5.036513806700850360e+00 5.037147237356254692e+00 5.037770352605175361e+00 5.038015657929493685e+00 5.038431448381161637e+00 5.036728466731340781e+00 5.035134669956918607e+00 5.036826343177239096e+00
6.000000000000000000e+00 2.986234875177537582e-03 2.630394789749300648e-05 2.999507030178326632e-03 2.985674404149520067e-03 2.985655649862825698e-03 2.987472136488340292e-03 2.985620820473250999e-03 2.988061556927297871e-03 2.985618141289437394e-03 2.989103759430726970e-03 2.984377679183813654e-03 2.987364969135802590e-03 2.986847886659808014e-03 2.986992562585734021e-03 2.987423911179698001e-03 2.986904149519890254e-03 2.989711934156378485e-03 2.985848551097393562e-03 2.985213584533607731e-03 2.986748756858710694e-03 2.984013310185185033e-03 2.985803004972565310e-03 2.985093021262002870e-03 2.984779556755829712e-03 2.985642253943758540e-03 2.985111775548696805e-03 2.986387067043895678e-03 2.987903485082304706e-03 2.986732681755829930e-03 2.987003279320987574e-03 2.986215599279835355e-03 2.987879372427983560e-03 2.984959062071330417e-03 2.982721943587105830e-03 2.983032728909464949e-03 2.986127186213991588e-03 2.985730667009602306e-03 2.983145254629629428e-03 2.985484182098765375e-03 2.984380358367626825e-03 2.984565222050754307e-03 2.986301333161865516e-03 2.984241040809328029e-03 2.984107081618655576e-03 2.987373006687242972e-03 2.988492905521261851e-03 2.987761488340191871e-03 2.983967764060356780e-03 2.985824438443072850e-03 2.984013310185185033e-03 2.987439986282578765e-03 2.987469457304526687e-03 2.985620820473250999e-03 2.984827782064472003e-03 2.986191486625514209e-03 2.984849215534979543e-03 2.984843857167352333e-03 2.984243719993141201e-03 2.983836484053497932e-03 2.987094371570644512e-03 2.987354252400548603e-03 2.984905478395061783e-03 2.985299318415637893e-03 2.985754779663923018e-03 2.985173396776405821e-03 2.986518347050754526e-03 2.986526384602194908e-03 2.984736689814814631e-03 2.980664330418381514e-03 2.986121827846364811e-03 2.985789609053498151e-03 2.986218278463648960e-03 2.986863961762688778e-03 2.985403806584361990e-03 2.985360939643346909e-03 2.984383037551440430e-03 2.988042802640603502e-03 2.987217614026062978e-03 2.988233024691358194e-03 2.984308020404663822e-03 2.985050154320987789e-03 2.984849215534979543e-03 2.984214248971193278e-03 2.982338820301783273e-03 2.986668381344307309e-03 2.987740054869684331e-03 2.986277220507544371e-03 2.987957068758573340e-03 2.989122513717421339e-03 2.987295310356652758e-03 2.987209576474622597e-03 2.985462748628257834e-03 2.983466756687242968e-03 2.986036093964334649e-03 2.985666366598079685e-03 2.987005958504801179e-03 2.988991233710562492e-03 2.985414523319615977e-03 2.988308041838134369e-03 2.987951710390946564e-03 2.987844543038408861e-03 2.989058213305898284e-03 2.987756129972565095e-03 2.986992562585734021e-03 2.984672389403292009e-03 2.987046146262002655e-03 2.986196844993141419e-03 2.985127850651577569e-03 2.986282578875171581e-03 2.985508294753086520e-03 2.987689150377228868e-03 2.987158671982167567e-03 2.987155992798353962e-03 2.986446009087791523e-03 2.986770190329218234e-03 2.985567236796982365e-03 2.983780221193415693e-03 2.987627529149519852e-03 2.987935635288065800e-03 2.986483517661179827e-03 2.986783586248285393e-03 2.985034079218107025e-03 2.985202867798353744e-03 2.984709897976680314e-03 2.986014660493827109e-03 2.987946352023319787e-03 2.988356267146776227e-03 2.989521712105624226e-03 2.988332154492455515e-03 2.986842528292181238e-03 2.986545138888888843e-03 2.983257780349794341e-03 2.986713927469135995e-03 2.985478823731138598e-03 2.983035408093278554e-03 2.985880701303155089e-03 2.988629543895747476e-03 2.985682441700960015e-03 2.986212920096021749e-03 2.987022033607681943e-03 2.985519011488340074e-03 2.984366962448559667e-03 2.987493569958847833e-03 2.987166709533607516e-03 2.988085669581618583e-03 2.987994577331961644e-03 2.985213584533607731e-03 2.986542459705075238e-03 2.984624164094650152e-03 2.985623499657064604e-03 2.984107081618655576e-03 2.987764167524005476e-03 2.986925582990397794e-03 2.983793617112482852e-03 2.986796982167352552e-03 2.986293295610425134e-03 2.986279899691357976e-03 2.986818415637860092e-03 2.989012667181070032e-03 2.985891418038408643e-03 2.985869984567901102e-03 2.983295288923182645e-03 2.985135888203017951e-03 2.985907493141289407e-03 2.984811706961591239e-03 2.985867305384087931e-03 2.985009966563785880e-03 2.984492884087791304e-03 2.987812392832647334e-03 2.984932270233196100e-03 2.984353566529492508e-03 2.988246420610425353e-03 2.986304012345679122e-03 2.986912187071330636e-03 2.986421896433470377e-03 2.986464763374485458e-03 2.985473465363511821e-03 2.985012645747599485e-03 2.985634216392318158e-03 2.987892768347050719e-03 2.987815072016460939e-03 2.986898791152263477e-03 2.989012667181070032e-03 2.987225651577503360e-03 2.987035429526749102e-03 2.987129200960219645e-03 2.988316079389574751e-03 2.986320087448559885e-03 2.986861282578875173e-03 2.986638910322359387e-03 2.985741383744855860e-03 2.985717271090535148e-03 2.986772869513031406e-03 2.988123178155006887e-03 2.985848551097393562e-03 2.986416538065843600e-03 2.986965770747599270e-03 2.985658329046639303e-03 2.983823088134430774e-03 2.986435292352537536e-03 2.988080311213991806e-03 2.987557870370370454e-03 2.986494234396433380e-03 2.985272526577503575e-03 2.986076281721536559e-03 2.985446673525377070e-03 2.984174061213991803e-03 2.987793638545953399e-03 2.988517018175582997e-03 2.987292631172839587e-03 2.985543124142661219e-03 2.984956382887517246e-03 2.985151963305898281e-03 2.987292631172839587e-03 2.989476165980795540e-03 2.989012667181070032e-03 2.986295974794238740e-03 2.981685099451303073e-03 2.985401127400548818e-03 2.984742048182441841e-03 2.986601401748971082e-03 2.985427919238683135e-03 2.985052833504800961e-03 2.986108431927297652e-03 2.986191486625514209e-03 2.987758809156378700e-03 2.985698516803840779e-03 2.985497578017832533e-03
