# vvf statistics with RF=500
# gcat file: /disk2/salam/Abacus/AbacusCosmos_720box_products/GCAT_derivative/AbacusCosmos_720box_planck_rockstar_halos_z0.100_Mr21_hod-LMcut-pos_real-4.gcat.rsd_zz.1pz0.100by100
# stats order in row: stdvvf,p2.5,p16,p50,p84,p97.5,rho
# columns: numbers, mean, sigma,All, jnrealizations
0.000000000000000000e+00 1.413306334833523303e+00 5.387689371629880708e-03 1.413306607037984497e+00 1.413678287021420843e+00 1.413039702255040941e+00 1.413173001490177771e+00 1.413294241133910445e+00 1.413809000383319914e+00 1.413175896877875592e+00 1.413590703289093531e+00 1.412496402828934183e+00 1.411998905433509366e+00 1.413114614659913615e+00 1.414019496562080480e+00 1.413639554752337935e+00 1.413326039839416071e+00 1.413116039073063934e+00 1.413539908721850757e+00 1.413426491135314489e+00 1.413472517881580126e+00 1.413347981717624879e+00 1.413608401440898721e+00 1.413476031179670800e+00 1.413422094448578026e+00 1.414024757727185611e+00 1.413438067189215941e+00 1.413367163829083228e+00 1.413283042660629985e+00 1.413756691008418498e+00 1.413993627264995334e+00 1.413265367318189636e+00 1.414074058642263765e+00 1.412943349491688538e+00 1.413101650486232153e+00 1.412718356753452031e+00 1.413509877581052177e+00 1.413438134587039707e+00 1.412973816770428437e+00 1.412626222713721180e+00 1.413591523860764143e+00 1.413275120250815808e+00 1.413092455771772560e+00 1.413531110981782524e+00 1.413088087552338612e+00 1.413231892405246493e+00 1.413648186256932560e+00 1.413014990285006434e+00 1.412816437927505442e+00 1.413510799855295375e+00 1.413096375812927796e+00 1.413616532020742556e+00 1.413513204441227744e+00 1.413229032934795626e+00 1.412559751540043651e+00 1.413294590483467061e+00 1.413105027484931719e+00 1.413615035492547412e+00 1.412683329382779629e+00 1.413121912225261179e+00 1.413071529585391950e+00 1.413459325360572949e+00 1.413582590782609838e+00 1.412774937331521041e+00 1.413465517329363541e+00 1.413474738578604617e+00 1.413810644270540040e+00 1.413238920866893622e+00 1.413475832855187742e+00 1.412410369934842036e+00 1.413902050334125970e+00 1.413569460701445069e+00 1.413491345184854531e+00 1.413126915515048099e+00 1.413623552528249450e+00 1.413891900777241029e+00 1.412901667177455911e+00 1.413265306190703674e+00 1.413111638964081651e+00 1.413639818101501078e+00 1.413301343114667485e+00 1.412717619812338343e+00 1.413304901077338638e+00 1.413028538362995912e+00 1.412604196714638327e+00 1.413242816434700622e+00 1.412451119080941897e+00 1.413469655416305537e+00 1.412950965065155495e+00 1.413907769187598973e+00 1.413485578678362220e+00 1.413683516266456497e+00 1.413147397627023683e+00 1.412812406253130870e+00 1.413567010717419192e+00 1.413492095543974925e+00 1.413281169488902700e+00 1.413721802264589655e+00 1.412969424303802013e+00 1.413215997792151013e+00 1.413667137657340644e+00 1.413280855500170574e+00 1.413428196899451317e+00 1.413310185717548295e+00 1.413522416649192648e+00 1.412953301633079750e+00 1.412960250930165085e+00 1.412998993770542500e+00 1.413329051185735263e+00 1.413319294437153095e+00 1.413377651087515119e+00 1.413249845660710546e+00 1.413130931176348470e+00 1.413451192695743819e+00 1.413646186166595209e+00 1.413266673628809311e+00 1.413521938482562801e+00 1.412559667655959528e+00 1.413680757178124692e+00 1.413636244904697969e+00 1.413445052819567893e+00 1.413140690253922971e+00 1.412617212684847967e+00 1.413382315192742045e+00 1.413299544023236987e+00 1.412812637264219129e+00 1.413403388189399257e+00 1.412946231541567510e+00 1.413172738979030285e+00 1.413553547842765434e+00 1.413877863307141158e+00 1.413731562263784713e+00 1.412993070256820527e+00 1.413215627861517998e+00 1.413637248930369461e+00 1.413053336448746755e+00 1.413101807417379341e+00 1.413092923712253368e+00 1.413478327009228597e+00 1.413433451693516751e+00 1.413544271025284349e+00 1.412897727494086375e+00 1.412444014618359445e+00 1.412563057901830232e+00 1.413215966104109711e+00 1.413646033080805609e+00 1.413532776015861359e+00 1.413565990157356733e+00 1.413424439441689717e+00 1.413033636741970023e+00 1.413373492292977929e+00 1.413500761931252292e+00 1.413278454138322759e+00 1.413272422146551133e+00 1.412864949138100457e+00 1.413195497001409562e+00 1.412234041194765588e+00 1.413556965961505929e+00 1.413342299620213627e+00 1.414132121699636091e+00 1.413589313006774928e+00 1.413565015320320528e+00 1.412734718064204698e+00 1.413614911503607408e+00 1.413810949555658558e+00 1.413558126565927386e+00 1.413516677998313709e+00 1.413300338294678937e+00 1.413273875851402073e+00 1.413297693622243223e+00 1.412547214719299449e+00 1.413111606745380389e+00 1.413433764835973605e+00 1.413267707830994979e+00 1.413441223271978187e+00 1.413242626950980130e+00 1.413787523773371468e+00 1.413033089442282675e+00 1.413289645317461707e+00 1.413684810134900438e+00 1.413849891062026298e+00 1.413280045160080212e+00 1.413150940275090361e+00 1.413663282951286071e+00 1.413407155528281445e+00 1.413610203817179167e+00 1.413369011988164559e+00 1.414101958997103781e+00 1.413621770886079876e+00 1.413566034243275205e+00 1.413675182992326418e+00 1.413256348555107067e+00 1.412450163780234247e+00 1.413560738765078817e+00 1.413219203273130997e+00 1.413515739601086896e+00 1.413781082827388458e+00 1.413124043230808757e+00 1.412968601629392085e+00 1.413217289587831216e+00 1.413217793139403877e+00 1.413343274007234029e+00 1.413800004229647911e+00 1.413428049338275816e+00 1.413408207865902266e+00 1.413231415213745068e+00 1.413356099813872779e+00 1.413044155771728150e+00 1.413218881799024995e+00 1.413562991832535642e+00 1.413080484987811136e+00 1.413282251312234727e+00 1.413127769952621904e+00 1.413109708842445134e+00 1.413182649774303412e+00 1.413232098622637434e+00 1.413084922437270796e+00 1.412970647525286561e+00 1.412572545390208267e+00 1.413447139972134892e+00 1.413489410408745206e+00 1.413220155105814557e+00 1.413582381923480069e+00 1.413351709805044543e+00 1.413957925986977449e+00 1.413630788172682617e+00 1.413565667614093746e+00 1.412702359202664848e+00 1.413377506230047986e+00
1.000000000000000000e+00 1.999999980968425808e-02 1.606018550739875977e-04 2.000000000000000042e-02 1.999510900957775922e-02 1.999532603343082485e-02 2.000918524706906884e-02 1.999769484549263066e-02 2.001456372413010915e-02 1.999664939094266541e-02 2.002448940970165056e-02 1.998781074409314643e-02 2.000678872839269096e-02 2.000410627046509890e-02 2.000726369185525794e-02 2.000773257232179442e-02 2.000623287314079804e-02 2.002327882347737509e-02 1.999680095233249272e-02 1.999517236638048354e-02 2.000677759573189426e-02 1.998635574553072128e-02 1.999634937491086978e-02 1.999153252320851060e-02 1.999051280818972889e-02 2.000103784401093682e-02 1.999232933837554946e-02 2.000538878909235291e-02 2.001425294608235456e-02 2.000915780362963817e-02 2.000791267697055176e-02 1.999813033385527267e-02 2.001175021277418892e-02 1.998915390874740974e-02 1.997790867774454360e-02 1.997202066027072009e-02 2.000370050452365128e-02 1.999755695981596249e-02 1.997929176814325705e-02 1.999242809120631986e-02 1.999152058818071467e-02 1.998993011419589530e-02 1.999815880291412606e-02 1.998845822703804176e-02 1.998257789700412859e-02 2.001043930135261439e-02 2.001543356193412684e-02 2.000854048545048364e-02 1.998332721793550162e-02 2.000068652211925077e-02 1.998573518598964829e-02 2.001218796122087445e-02 2.000559417005836130e-02 1.999749544585445113e-02 1.999073002036698410e-02 1.999905755452457620e-02 1.998876826710426630e-02 1.999161424250962479e-02 1.998096314029872839e-02 1.998378069069706511e-02 2.000506823861349440e-02 2.000935140654437269e-02 1.999336975758389534e-02 1.999578966407180441e-02 1.999787407381381152e-02 1.999508882294772499e-02 2.000347944100739836e-02 2.000392135711095976e-02 1.999157705640614360e-02 1.995994621256857657e-02 1.999806900771528353e-02 2.000249754903925953e-02 1.999825540481081632e-02 2.000429815335705644e-02 1.999715954812092758e-02 1.999320772546775773e-02 1.998534940880270297e-02 2.001054690712788728e-02 2.000790567954433691e-02 2.000826224848998441e-02 1.998682550826120022e-02 1.999243693177290421e-02 1.998978143812437172e-02 1.998860391660983032e-02 1.997272331329074530e-02 2.000410178294412950e-02 2.000865579468186564e-02 2.000146859812349659e-02 2.001195492360203707e-02 2.002143909429817542e-02 2.000587853305699215e-02 2.001092408812540219e-02 1.999381196665920429e-02 1.998053967737848519e-02 1.999834472185734596e-02 1.999414612083537032e-02 2.000663598975280233e-02 2.002240630521253534e-02 1.999286101920338954e-02 2.001101335228900463e-02 2.001356546386678925e-02 2.001339216003088228e-02 2.001795175043263181e-02 2.000940034734375456e-02 2.000425876983034923e-02 1.999043319405339331e-02 2.000512658565812771e-02 2.000196972949803281e-02 1.999164340769551962e-02 2.000121371633069994e-02 1.999634847387286862e-02 2.000898403296155065e-02 2.000794947169869109e-02 2.000823724003725212e-02 2.000459904061466926e-02 2.000476497501307155e-02 1.999431462963514872e-02 1.998390430491939901e-02 2.001062837097411160e-02 2.001547466298584863e-02 1.999792529852414957e-02 2.000442208089019125e-02 1.998619322069232138e-02 1.999664298165188675e-02 1.999146069002992465e-02 2.000021049442202506e-02 2.001278746304276102e-02 2.001704593939336238e-02 2.002455942943760780e-02 2.001578373940513314e-02 2.000669047219409691e-02 2.000382018213433741e-02 1.997752333021420718e-02 2.000611059857825696e-02 1.999590877220620497e-02 1.998249544506458183e-02 1.999879732667009247e-02 2.001806707293805193e-02 1.999550179451654169e-02 1.999487961902131697e-02 2.000525811978084989e-02 1.999775857596479064e-02 1.999028566608380963e-02 2.000864352324608492e-02 2.000738017109515363e-02 2.001575151794695792e-02 2.000946320170344031e-02 1.999393850365607447e-02 2.000470705808379823e-02 1.998764652932540423e-02 1.999426151451590833e-02 1.998470210614114104e-02 2.000844749019380781e-02 2.000270730602682692e-02 1.998260319416525488e-02 2.000338858830119984e-02 1.999614384598179945e-02 2.000257684779440867e-02 2.000715906089533397e-02 2.001777643490325678e-02 1.999643294938173096e-02 1.999859281730056310e-02 1.998102490555510313e-02 1.999059548112620474e-02 1.999839749802101094e-02 1.999009694262353712e-02 1.999885641333664851e-02 1.999409111018726412e-02 1.998912028748113523e-02 2.000921404248185223e-02 1.999090878772514027e-02 1.999182599802446988e-02 2.001072223465342331e-02 1.999778333988926418e-02 2.000553802454303060e-02 1.999956478534565055e-02 2.000017234351368980e-02 1.999597751660128070e-02 1.999126027438232617e-02 1.999675685974559511e-02 2.001124557383420627e-02 2.000962620519357998e-02 2.000667375601768508e-02 2.001703404419022045e-02 2.000919467897239318e-02 2.000422318344368885e-02 2.000492222562902378e-02 2.001563296685602081e-02 2.000220601020781530e-02 2.000222725794899292e-02 2.000269465151510717e-02 1.999556402269671296e-02 1.999120610603123682e-02 2.000451174047671726e-02 2.001328296660237482e-02 1.999948372927604079e-02 2.000094164848993314e-02 2.000777896755719099e-02 1.999936555866254489e-02 1.998309599891457539e-02 2.000341732214522272e-02 2.001464006172637422e-02 2.000792241540456581e-02 1.999948481861096167e-02 1.999342608044711589e-02 2.000018350822344027e-02 1.999460354536754247e-02 1.998571682927098234e-02 2.001412795135808914e-02 2.001511506168822396e-02 2.000526393594168756e-02 1.999365961789457621e-02 1.999129288341460267e-02 1.999322272924124524e-02 2.000565317598331644e-02 2.002268369306672846e-02 2.002026059761507701e-02 1.999618221176215072e-02 1.996995808712293680e-02 1.999316936556217936e-02 1.998894793754636343e-02 2.000189814608787503e-02 1.999508230274492371e-02 1.999266101294117082e-02 2.000153536346489444e-02 2.000151680408525715e-02 2.001313882565661922e-02 1.999595981986139817e-02 1.999748006409583084e-02
2.000000000000000000e+00 1.000707195705434621e-01 5.270285944792466905e-03 1.000000000000000056e-01 9.997554504788878915e-02 9.997663016715412077e-02 1.000459262353453477e-01 9.998847422746315328e-02 1.000728186206505388e-01 9.998324695471332013e-02 1.001224470485082563e-01 9.993905372046572866e-02 1.000339436419634548e-01 1.000205313523254980e-01 1.000363184592762966e-01 1.000386628616089790e-01 1.000311643657039867e-01 1.001163941173868754e-01 9.998400476166245665e-02 9.997586183190242115e-02 1.000338879786594609e-01 9.993177872765361680e-02 9.998174687455434195e-02 9.995766261604253911e-02 9.995256404094864100e-02 1.000051892200546910e-01 9.996164669187773688e-02 1.000269439454617437e-01 1.000712647304117658e-01 1.000457890181481874e-01 1.000395633848527588e-01 9.999065166927637027e-02 1.000587510638709376e-01 9.994576954373704525e-02 9.988954338872270411e-02 1.018573053673806628e-01 1.000185025226182495e-01 9.998778479907981243e-02 9.989645884071629567e-02 1.019613832651522223e-01 9.995760294090356990e-02 9.994965057097947303e-02 9.999079401457061644e-02 9.994229113519022267e-02 9.991288948502065337e-02 1.000521965067630720e-01 1.000771678096706307e-01 1.000427024272524112e-01 9.991663608967750465e-02 1.000034326105962573e-01 9.992867592994825188e-02 1.000609398061043792e-01 1.000279708502918030e-01 9.998747722927224524e-02 9.995365010183492049e-02 9.999528777262288448e-02 9.994384133552133842e-02 9.995807121254812744e-02 9.990481570149364887e-02 9.991890345348533597e-02 1.000253411930674685e-01 1.000467570327218669e-01 9.996684878791947670e-02 9.997894832035901513e-02 9.998937036906904718e-02 9.997544411473863191e-02 1.000173972050369814e-01 1.000196067855547849e-01 9.995788528203072842e-02 1.017957256840997526e-01 9.999034503857642808e-02 1.000124877451962907e-01 9.999127702405408158e-02 1.000214907667852787e-01 9.998579774060463443e-02 9.996603862733879908e-02 9.992674704401352526e-02 1.000527345356394399e-01 1.000395283977216915e-01 1.000413112424499151e-01 9.993412754130601150e-02 9.996218465886451410e-02 9.994890719062186901e-02 9.994301958304914468e-02 1.018608888977827892e-01 1.000205089147206405e-01 1.000432789734093247e-01 1.000073429906175038e-01 1.000597746180101749e-01 1.001071954714908840e-01 1.000293926652849469e-01 1.000546204406270179e-01 9.996905983329604228e-02 9.990269838689244675e-02 9.999172360928673675e-02 9.997073060417684121e-02 1.000331799487640116e-01 1.001120315260626836e-01 9.996430509601694769e-02 1.000550667614450301e-01 1.000678273193339463e-01 1.000669608001544114e-01 1.000897587521631660e-01 1.000470017367187658e-01 1.000212938491517461e-01 9.995216597026695959e-02 1.000256329282906420e-01 1.000098486474901710e-01 9.995821703847759809e-02 1.000060685816534928e-01 9.998174236936434311e-02 1.000449201648077463e-01 1.000397473584934693e-01 1.000411862001862745e-01 1.000229952030733532e-01 1.000238248750653647e-01 9.997157314817574358e-02 1.019179119550889523e-01 1.000531418548705476e-01 1.000773733149292466e-01 9.998962649262074787e-02 1.000221104044509562e-01 1.019295854255308359e-01 9.998321490825942681e-02 9.995730345014962326e-02 1.000010524721101218e-01 1.000639373152138051e-01 1.000852296969668154e-01 1.001227971471880390e-01 1.000789186970256622e-01 1.000334523609704984e-01 1.000191009106716905e-01 9.988761665107104282e-02 1.000305529928913056e-01 9.997954386103102831e-02 9.991247722532291264e-02 9.999398663335047621e-02 1.000903353646902527e-01 9.997750897258271541e-02 9.997439809510658137e-02 1.000262905989042495e-01 9.998879287982394282e-02 9.995142833041903430e-02 1.000432176162304315e-01 1.000369008554757716e-01 1.000787575897348070e-01 1.000473160085172120e-01 9.996969251828037584e-02 1.000235352904189634e-01 9.993823264662701766e-02 9.997130757257954858e-02 9.992351053070570865e-02 1.000422374509690321e-01 1.000135365301341311e-01 9.991301597082627439e-02 1.000169429415060096e-01 9.998071922990900418e-02 1.000128842389720468e-01 1.000357953044766629e-01 1.000888821745162943e-01 9.998216474690865829e-02 9.999296408650282242e-02 9.990512452777551566e-02 9.995297740563102717e-02 9.999198749010504428e-02 9.995048471311769600e-02 9.999428206668323216e-02 9.997045555093632407e-02 9.994560143740567615e-02 1.000460702124092577e-01 9.995454393862569786e-02 9.995912999012233902e-02 1.000536111732671096e-01 9.998891669944631744e-02 1.000276901227151460e-01 9.999782392672824927e-02 1.000008617175684456e-01 9.997988758300641043e-02 9.995630137191163778e-02 9.998378429872797901e-02 1.000562278691710383e-01 1.000481310259679069e-01 1.000333687800884219e-01 1.000851702209511057e-01 1.000459733948619589e-01 1.000211159172184339e-01 1.000246111281451328e-01 1.000781648342801006e-01 1.000110300510390904e-01 1.000111362897449785e-01 1.000134732575755359e-01 9.997782011348356479e-02 1.019551511407593147e-01 1.000225587023835794e-01 1.000664148330118741e-01 9.999741864638020394e-02 1.000047082424496692e-01 1.000388948377859549e-01 9.999682779331273141e-02 9.991547999457286999e-02 1.000170866107261136e-01 1.000732003086318711e-01 1.000396120770228325e-01 9.999742409305481528e-02 9.996713040223557944e-02 1.000009175411172013e-01 9.997301772683771237e-02 9.992858414635490127e-02 1.000706397567904388e-01 1.000755753084411198e-01 1.000263196797084309e-01 9.996829808947288454e-02 9.995646441707302376e-02 9.996611364620623663e-02 1.000282658799165891e-01 1.001134184653336423e-01 1.001013029880753746e-01 9.998091105881075358e-02 1.018467862443269839e-01 9.996584682781090025e-02 9.994473968773180672e-02 1.000094907304393821e-01 9.997541151372461854e-02 9.996330506470585409e-02 1.000076768173244757e-01 1.000075840204262823e-01 1.000656941282830892e-01 9.997979909930698739e-02 9.998740032047916115e-02
3.000000000000000000e+00 4.840088272289663762e-01 3.898906462225198381e-03 4.839999999999999858e-01 4.838816380317817467e-01 4.838868900090259606e-01 4.842222829790714389e-01 4.839442152609216286e-01 4.843524421239486788e-01 4.839189152608124878e-01 4.845926437147800026e-01 4.837050200070541206e-01 4.841642872271031406e-01 4.840993717452553580e-01 4.841757813428972934e-01 4.841871282501874485e-01 4.841508355300072619e-01 4.845633475281524993e-01 4.839225830464463085e-01 4.838831712664077300e-01 4.841640178167118114e-01 4.836698090418434792e-01 4.839116548728430445e-01 4.837950870616459231e-01 4.837704099581914274e-01 4.840251158250646890e-01 4.838143699886882643e-01 4.841304086960349085e-01 4.843449212951929650e-01 4.842216188478372096e-01 4.841914867826873636e-01 4.839547540792976665e-01 4.842843551491353149e-01 4.837375245916873401e-01 4.834653900014179162e-01 4.833228999785513791e-01 4.840895522094723069e-01 4.839408784275462394e-01 4.834988607890667867e-01 4.838167598071929087e-01 4.837947982339732556e-01 4.837563087635406434e-01 4.839554430305217925e-01 4.837206890943206439e-01 4.835783851074999529e-01 4.842526310927332545e-01 4.843734921988058773e-01 4.842066797479016582e-01 4.835965186740391331e-01 4.840166138352858805e-01 4.836547915009495324e-01 4.842949486615452104e-01 4.841353789154123621e-01 4.839393897896777097e-01 4.837756664928810069e-01 4.839771928194948059e-01 4.837281920639232569e-01 4.837970646687329013e-01 4.835393079952292061e-01 4.836074927148690250e-01 4.841226513744465998e-01 4.842263040383738559e-01 4.838395481335302506e-01 4.838981098705376627e-01 4.839485525862942672e-01 4.838811495153349518e-01 4.840842024723790438e-01 4.840948968420851761e-01 4.837961647650286801e-01 4.850266929654164505e-01 4.839532699867098997e-01 4.840604406867500820e-01 4.839577807964217659e-01 4.841040153112407540e-01 4.839312610645264412e-01 4.838356269563197642e-01 4.836454556930254167e-01 4.842552351524949117e-01 4.841913174449729573e-01 4.841999464134575937e-01 4.836811772999211057e-01 4.838169737489042554e-01 4.837527108026098421e-01 4.837242147819578730e-01 4.833399041816359709e-01 4.840992631472479379e-01 4.842094702313011201e-01 4.840355400745886549e-01 4.842893091511692449e-01 4.845188260820158521e-01 4.841422604999791601e-01 4.842643629326347510e-01 4.838502495931527592e-01 4.835290601925593679e-01 4.839599422689477848e-01 4.838583361242159153e-01 4.841605909520177997e-01 4.845422325861433732e-01 4.838272366647220490e-01 4.842665231253939218e-01 4.843282842255762777e-01 4.843240902727473651e-01 4.844344323604697355e-01 4.842274884057188311e-01 4.841030622298944652e-01 4.837684832960921222e-01 4.841240633729266829e-01 4.840476674538524149e-01 4.837977704662315692e-01 4.840293719352029012e-01 4.839116330677234457e-01 4.842174135976695104e-01 4.841923772151083827e-01 4.841993412089015125e-01 4.841112967828750113e-01 4.841153123953163551e-01 4.838624140371706184e-01 4.836104841790495046e-01 4.842572065775735402e-01 4.843744868442576013e-01 4.839497922242844141e-01 4.841070143575426088e-01 4.836658759407541641e-01 4.839187601559756247e-01 4.837933486987241460e-01 4.840050939650129558e-01 4.843094566056347916e-01 4.844125117333193953e-01 4.845943381923901172e-01 4.843819664936042102e-01 4.841619094270971368e-01 4.840924484076509771e-01 4.834560645911838428e-01 4.841478764855938755e-01 4.839009922873901970e-01 4.835763897705628866e-01 4.839708953054162599e-01 4.844372231651008498e-01 4.838911434273003298e-01 4.838760867803158505e-01 4.841272464986965396e-01 4.839457575383478982e-01 4.837649131192282015e-01 4.842091732625553036e-01 4.841786001405027351e-01 4.843811867343163491e-01 4.842290094812232715e-01 4.838533117884770141e-01 4.841139108056278784e-01 4.837010460096747844e-01 4.838611286512849996e-01 4.836297909686155805e-01 4.842044292626901392e-01 4.840655168058491942e-01 4.835789972987991070e-01 4.840820038368890410e-01 4.839066810727595258e-01 4.840623597166247016e-01 4.841732492736670612e-01 4.844301897246588440e-01 4.839136773750378762e-01 4.839659461786736672e-01 4.835408027144335041e-01 4.837724106432541582e-01 4.839612194521084043e-01 4.837603460114896503e-01 4.839723252027468559e-01 4.838570048665317702e-01 4.837367109570434587e-01 4.842229798280607844e-01 4.837799926629484104e-01 4.838021891521921414e-01 4.842594780786128039e-01 4.839463568253201675e-01 4.841340201939413057e-01 4.839894678053647259e-01 4.840041707130313120e-01 4.839026559017509665e-01 4.837884986400523002e-01 4.839215160058434329e-01 4.842721428867878264e-01 4.842329541656846814e-01 4.841615048956279255e-01 4.844122238694033578e-01 4.842225112311319135e-01 4.841022010393372099e-01 4.841191178602224365e-01 4.843783177979156807e-01 4.840533854470291386e-01 4.840538996423656704e-01 4.840652105666656269e-01 4.838926493492604064e-01 4.837871877659559727e-01 4.841091841195365730e-01 4.843214477917774929e-01 4.839875062484801926e-01 4.840227878934563743e-01 4.841882510148839969e-01 4.839846465196336323e-01 4.835909231737327008e-01 4.840826991959144010e-01 4.843542894937782339e-01 4.841917224527905184e-01 4.839875326103852959e-01 4.838409111468202073e-01 4.840044408990072378e-01 4.838694057978945029e-01 4.836543472683577094e-01 4.843418964228657364e-01 4.843657844928550560e-01 4.841273872497888209e-01 4.838465627530487700e-01 4.837892877786333923e-01 4.838359900476381648e-01 4.841368068587962870e-01 4.845489453722148787e-01 4.844903064622848587e-01 4.839076095246440667e-01 4.832729857083750691e-01 4.838346986466047772e-01 4.837325400886219873e-01 4.840459351353266215e-01 4.838809917264271232e-01 4.838223965131763782e-01 4.840371557958504378e-01 4.840367066588632250e-01 4.843179595808901894e-01 4.839022276406458323e-01 4.839390175511191217e-01
4.000000000000000000e+00 1.846766448090632284e+00 9.588104826131399472e-03 1.846000000000000085e+00 1.847548072484984871e+00 1.847568125489008173e+00 1.846847798304475097e+00 1.845787234238969621e+00 1.847344231737209075e+00 1.845690738784008023e+00 1.846257923574492255e+00 1.846873712754206753e+00 1.846626599630645460e+00 1.846379008763928464e+00 1.846670438758240440e+00 1.846713716425301577e+00 1.846575294190895500e+00 1.846146307524614061e+00 1.847704407995522269e+00 1.847553926653556777e+00 1.846625572086053824e+00 1.846739270887038709e+00 1.845663047304273441e+00 1.847217605144466201e+00 1.847123383476731107e+00 1.846095793002209495e+00 1.847291230865900635e+00 1.846497385233224264e+00 1.847315546923401275e+00 1.846845265275015580e+00 1.846730340084381972e+00 1.845827429814841825e+00 1.847084544639057579e+00 1.846997821168260723e+00 1.847956552691370158e+00 1.847411911075041546e+00 1.846341556567532960e+00 1.845774507391013231e+00 1.848084488553251248e+00 1.847300355627463864e+00 1.847216502347897915e+00 1.847069542551700749e+00 1.847829873389264854e+00 1.846933540178315125e+00 1.846390197683181578e+00 1.846963547514846038e+00 1.845422974410326544e+00 1.846788286807079515e+00 1.846459434937240296e+00 1.846063365991606808e+00 1.846681931185443659e+00 1.847124948820686896e+00 1.846516341896386804e+00 1.847768579196951144e+00 1.847143453881909370e+00 1.845913012282618615e+00 1.846962187880434314e+00 1.847225156007889391e+00 1.848239090477632462e+00 1.846501335820408984e+00 1.846467798424025641e+00 1.846863134824045627e+00 1.847387365600752007e+00 1.847610964960234359e+00 1.845803777013014901e+00 1.847546207240369887e+00 1.846321152404982735e+00 1.846361941261341455e+00 1.847221720011927637e+00 1.846295024662593320e+00 1.845821769412120616e+00 1.846230523776323684e+00 1.845838973864038390e+00 1.846396719554856292e+00 1.845737826291561579e+00 1.847372393833220938e+00 1.846646285373369833e+00 1.846973479527904027e+00 1.846729694221942220e+00 1.846762605535625434e+00 1.846782676963335090e+00 1.847301172495816157e+00 1.847055804882692165e+00 1.846947001894748031e+00 1.847476906479393888e+00 1.846378594565743159e+00 1.846798929849136073e+00 1.846135551606798764e+00 1.847103439448467999e+00 1.845976684494291753e+00 1.846542588601160162e+00 1.847008293333974649e+00 1.847428225719310202e+00 1.848199920157509890e+00 1.845847217827433218e+00 1.847459101565188000e+00 1.846612501854183686e+00 1.846065861340595804e+00 1.847340358174393238e+00 1.847016532416275281e+00 1.847252092314904504e+00 1.847236096370850511e+00 1.845655151389888893e+00 1.846867652059828391e+00 1.846393084455341338e+00 1.847116027130533356e+00 1.846473183856245148e+00 1.846181806032668238e+00 1.847227850871066002e+00 1.846112026017323604e+00 1.845662964138465867e+00 1.846829226242351130e+00 1.846733736237789358e+00 1.846760297255438443e+00 1.846424491448733995e+00 1.846439807193706706e+00 1.847474671778287725e+00 1.846512757774552593e+00 1.846980998640910698e+00 1.847428311393593869e+00 1.845808505053778914e+00 1.846408158066164873e+00 1.846724253591970566e+00 1.847689811504634294e+00 1.847210967758764921e+00 1.848019449684594973e+00 1.847180282838846832e+00 1.847573340206007275e+00 1.846264379394147337e+00 1.845455260773153361e+00 1.846617530583515077e+00 1.846352602810999333e+00 1.847920908044814237e+00 1.846564008248773314e+00 1.845622379674633162e+00 1.848380828668473974e+00 1.845888993251649790e+00 1.847667590832182238e+00 1.847584365813328633e+00 1.847526876797569662e+00 1.846485324455772403e+00 1.845793116561550207e+00 1.847102395546144082e+00 1.846797797195613766e+00 1.846681189792082733e+00 1.847453865106504001e+00 1.846873453517227759e+00 1.845440523887455608e+00 1.846434461461134546e+00 1.846858539309667480e+00 1.847469763941270049e+00 1.846586474607441408e+00 1.846779703344888501e+00 1.846249884346276460e+00 1.846392535140869429e+00 1.846312766700200614e+00 1.847643691368718422e+00 1.846237843051424132e+00 1.846660781320639266e+00 1.845638987298080291e+00 1.845670761227933721e+00 1.845870117036842117e+00 1.846246701273291713e+00 1.847131022456061533e+00 1.845852089067339108e+00 1.847084957498414948e+00 1.845894446950972601e+00 1.847454018581303092e+00 1.846994714563256812e+00 1.846850456121075013e+00 1.847159971985802951e+00 1.847244722217460833e+00 1.846989662258510911e+00 1.847795180605767973e+00 1.846511159665321866e+00 1.845959829687403353e+00 1.846015907306313597e+00 1.847628322533958256e+00 1.847192449352927035e+00 1.845700658154518337e+00 1.847037966464897263e+00 1.846888498739367446e+00 1.846615987680432225e+00 1.845570538874338418e+00 1.846848668869152110e+00 1.846389799831852363e+00 1.846454321425559097e+00 1.847442922840810908e+00 1.846203614742181420e+00 1.846205575908692165e+00 1.846248716334844442e+00 1.847590115697176127e+00 1.847187444197286421e+00 1.846416433646000943e+00 1.847226017817399146e+00 1.845952348212178684e+00 1.846086914155620873e+00 1.846717998705528441e+00 1.845941441064552935e+00 1.846438070299706746e+00 1.846315418834004074e+00 1.847351277697344196e+00 1.846731238941841546e+00 1.845952448757791853e+00 1.847392569833313347e+00 1.848016956159845847e+00 1.847501367591960708e+00 1.846680235024638517e+00 1.847304009910351486e+00 1.847395120193823237e+00 1.846485861287417762e+00 1.847414148693458991e+00 1.847195462427509316e+00 1.847373780181891245e+00 1.846521788143260290e+00 1.846091436500752581e+00 1.847229404820617482e+00 1.847647236366822820e+00 1.847221123058871761e+00 1.847368849377945654e+00 1.846978789429283951e+00 1.846175198883911017e+00 1.847545604773630945e+00 1.847321877595764272e+00 1.846141714047809801e+00 1.846140001017069210e+00 1.847212713608105794e+00 1.847626687355193198e+00 1.845767409916045265e+00
5.000000000000000000e+00 4.985348748151118059e+00 2.082852544652740584e-02 4.985999999999999766e+00 4.986780186988693409e+00 4.984834780134304033e+00 4.984288045044904969e+00 4.985425324981312301e+00 4.987629280053223368e+00 4.985164693162006166e+00 4.984646087533555203e+00 4.982961218502421019e+00 4.983691072242619313e+00 4.985023282599902572e+00 4.987810838379514777e+00 4.985926957022591033e+00 4.987553855274001080e+00 4.983794099163518787e+00 4.985202477416490474e+00 4.984796470938654522e+00 4.985688976856387455e+00 4.984597122935362279e+00 4.985089899165279448e+00 4.985888211288202143e+00 4.985633894362518248e+00 4.988258838296327546e+00 4.986086936990862029e+00 4.985342886241814320e+00 4.987551834163721942e+00 4.986282124664505488e+00 4.987972630368758153e+00 4.985533892230120223e+00 4.986928153023327148e+00 4.983296069450729782e+00 4.984488215097263364e+00 4.983019154737544198e+00 4.986922535777745580e+00 4.985390950082119410e+00 4.982835366974928348e+00 4.984112323137734890e+00 4.985885234692269741e+00 4.985488570480455905e+00 4.985540989566490389e+00 4.985121481823288292e+00 4.983654927512830568e+00 4.986601473897071202e+00 4.987846043633984650e+00 4.986128288974260414e+00 4.983841808153114172e+00 4.986171149964328642e+00 4.984442355385819035e+00 4.985036021140119900e+00 4.985394067178543942e+00 4.985375614651514020e+00 4.983688994077488665e+00 4.985765048342977401e+00 4.983199928989093586e+00 4.985908592081900181e+00 4.983252207190503213e+00 4.983954904259848107e+00 4.985263005062482655e+00 4.986330370510858145e+00 4.984347080565664889e+00 4.984950363253100925e+00 4.985470006601783410e+00 4.984775643560867664e+00 4.986867424643143920e+00 4.984977202192050427e+00 4.985899317867692027e+00 4.982002574657117044e+00 4.987518410524192092e+00 4.986622638975487298e+00 4.985565072419336552e+00 4.985071099816578588e+00 4.985291875346547386e+00 4.986306006731659579e+00 4.984346142555394543e+00 4.986628289256270108e+00 4.985970095342448616e+00 4.986058952323704219e+00 4.984714281760343368e+00 4.982115283397807737e+00 4.985451490668218355e+00 4.983158956410830953e+00 4.983194466666040157e+00 4.985022164309676818e+00 4.986157024034720386e+00 4.986366121512188165e+00 4.984227523159631801e+00 4.987340478389675980e+00 4.985464930437801812e+00 4.987722828965257094e+00 4.984457323288139285e+00 4.983146595538194390e+00 4.985587339159036624e+00 4.984890525481232793e+00 4.985653688646398685e+00 4.987581410628442846e+00 4.984220252087404823e+00 4.984743426055191051e+00 4.987380513595603304e+00 4.987337326279695837e+00 4.986471781032769002e+00 4.986342566558063183e+00 4.985061285441723555e+00 4.983614995277510396e+00 4.985277545146005629e+00 4.984490856590910290e+00 4.985915865879261943e+00 4.984302458109610257e+00 4.985089674536506088e+00 4.986238821014018718e+00 4.985981008347314614e+00 4.984051896493279621e+00 4.985146080921175837e+00 4.985187431773257849e+00 4.984582637168042396e+00 4.981987343216406572e+00 4.988649652883846208e+00 4.987856286016073781e+00 4.985482776922069981e+00 4.985101982557834432e+00 4.982557969918596008e+00 4.985163095325814808e+00 4.983871150024460128e+00 4.984052455209968535e+00 4.987186635790256339e+00 4.984244438908947750e+00 4.984112841987020204e+00 4.987933307859758969e+00 4.987667934717988416e+00 4.986952371406090379e+00 4.984392070888445048e+00 4.985522761165702477e+00 4.985529944402289360e+00 4.983634363999106753e+00 4.983700293806187176e+00 4.984498701161574452e+00 4.984878597372974340e+00 4.984723489022014675e+00 4.987310849261366030e+00 4.985441212988021675e+00 4.983578216554693796e+00 4.984153101640599992e+00 4.985839138636912971e+00 4.987925278272381746e+00 4.986358229864498171e+00 4.984488868961459040e+00 4.985172998874482175e+00 4.984919044413755884e+00 4.985669079951975391e+00 4.986183175482215013e+00 4.984654502113304630e+00 4.984674660661885248e+00 4.983661236624814528e+00 4.984844436204658891e+00 4.983039046418664242e+00 4.984642150470366850e+00 4.985784037975117045e+00 4.988429887577892075e+00 4.985110734280865152e+00 4.985649189353030586e+00 4.983267611445443279e+00 4.985654512992875986e+00 4.987300360043922964e+00 4.985530177490310244e+00 4.985714903844826296e+00 4.984526913769684597e+00 4.983287687669046839e+00 4.986296139386476867e+00 4.981734469901105022e+00 4.983962221307500329e+00 4.986671980875632570e+00 4.983447608300404674e+00 4.985380075716123294e+00 4.983891544508135318e+00 4.986042965237962754e+00 4.982997597137039492e+00 4.985820312430952583e+00 4.987191160820551694e+00 4.986802396999483911e+00 4.986398850334240684e+00 4.985663099999606551e+00 4.988244883812202879e+00 4.986291313999919872e+00 4.985052417314166817e+00 4.985226618626753314e+00 4.987895735340519998e+00 4.986549958344808076e+00 4.986555255406684317e+00 4.986671776622716656e+00 4.984894110858290261e+00 4.983807682233587499e+00 4.987124776900845546e+00 4.985308786980651163e+00 4.985871293708517449e+00 4.986234752968540462e+00 4.985938518715252066e+00 4.983841897218706407e+00 4.983784142129294992e+00 4.984851596678589125e+00 4.987648303382211878e+00 4.987975058160358799e+00 4.985871565279713202e+00 4.984361121855465981e+00 4.986045748600103522e+00 4.984654663860128565e+00 4.984437777220182220e+00 4.987520685478434856e+00 4.985765161866536843e+00 4.985311772836667821e+00 4.984419342741118086e+00 4.983829315835261120e+00 4.984310426399842342e+00 4.985408771455042576e+00 4.985648239573615470e+00 4.985044888806154262e+00 4.985048225392303856e+00 4.982504542737173026e+00 4.984297122834651539e+00 4.985243615624062485e+00 4.984473018005099121e+00 4.986773526304583370e+00 4.986169656627528646e+00 4.986382766111798759e+00 4.986378139258454745e+00 4.987274195353629480e+00 4.982993187109459932e+00 4.985371779979090867e+00
6.000000000000000000e+00 2.034057097058341538e-03 1.925747996924591265e-05 2.043097350823045322e-03 2.033495156035665472e-03 2.033540702160493725e-03 2.035110703875171387e-03 2.033623756858710715e-03 2.035558127572016564e-03 2.033741640946501970e-03 2.036474408436214027e-03 2.032857510288066036e-03 2.034773126714677517e-03 2.034427512002743698e-03 2.034880294067215219e-03 2.035027649176954830e-03 2.034465020576131569e-03 2.036643197016460745e-03 2.033613040123456728e-03 2.033556777263374488e-03 2.034507887517146649e-03 2.032672646604938120e-03 2.033610360939643556e-03 2.033267425411522476e-03 2.033004865397805214e-03 2.033803262174211420e-03 2.033254029492455317e-03 2.034301590363511627e-03 2.035418810013717335e-03 2.034708826303154895e-03 2.034765089163237135e-03 2.033773791152263498e-03 2.035367905521261872e-03 2.032777134773662651e-03 2.031633123285322192e-03 2.031566143689986399e-03 2.034280156893004086e-03 2.033572852366255252e-03 2.031815307784636503e-03 2.033396026234567718e-03 2.033082561728394994e-03 2.033018261316872372e-03 2.034028313614540378e-03 2.032836076817558495e-03 2.032439557613168780e-03 2.034882973251028824e-03 2.035654578189300280e-03 2.034949952846365050e-03 2.032190393518518677e-03 2.034076538923182235e-03 2.032471707818929874e-03 2.035271454903978157e-03 2.034866898148148060e-03 2.033677340534979349e-03 2.033010223765431990e-03 2.034097972393689776e-03 2.033034336419753136e-03 2.033034336419753136e-03 2.032147526577503596e-03 2.032310956790123538e-03 2.034759730795610358e-03 2.034979423868312973e-03 2.033200445816186683e-03 2.033680019718792954e-03 2.033765753600823116e-03 2.033468364197530721e-03 2.034242648319615782e-03 2.034398040980795776e-03 2.033326367455418320e-03 2.029701431755829948e-03 2.033993484224965679e-03 2.034012238511659614e-03 2.034017596879286825e-03 2.034424832818930093e-03 2.033605002572016346e-03 2.033197766632373078e-03 2.032632458847736644e-03 2.035166966735253626e-03 2.034815993655692597e-03 2.035311642661179633e-03 2.032616383744855881e-03 2.033181691529492314e-03 2.032983431927297673e-03 2.032777134773662651e-03 2.031185699588477448e-03 2.034379286694101407e-03 2.035102666323731005e-03 2.033894354423868359e-03 2.035472393689986403e-03 2.036171660665294855e-03 2.034751693244169976e-03 2.035057120198902753e-03 2.033374592764060178e-03 2.031909079218107046e-03 2.033921146262002676e-03 2.033484439300411485e-03 2.034499849965706268e-03 2.036364561899862719e-03 2.033117391117969693e-03 2.035405414094650176e-03 2.035325038580246791e-03 2.035236625514403458e-03 2.036147548010974143e-03 2.034882973251028824e-03 2.034558792009602112e-03 2.032817322530864126e-03 2.034754372427983581e-03 2.034156914437585621e-03 2.033018261316872372e-03 2.034130122599451303e-03 2.033519268689986184e-03 2.035153570816186468e-03 2.034885652434842429e-03 2.034746334876543199e-03 2.034462341392318397e-03 2.034403399348422552e-03 2.033527306241426566e-03 2.032310956790123538e-03 2.035183041838134390e-03 2.035477752057613179e-03 2.033937221364883439e-03 2.034483774862825937e-03 2.032549404149520088e-03 2.033720207475994430e-03 2.033141503772290838e-03 2.033964013203017757e-03 2.035319680212620014e-03 2.035676011659807820e-03 2.036573538237311347e-03 2.035788537379972733e-03 2.034714184670782106e-03 2.034339098936899931e-03 2.031716177983539182e-03 2.034690072016460960e-03 2.033580889917695634e-03 2.032069830246913383e-03 2.033937221364883439e-03 2.035826045953360603e-03 2.033532664609053343e-03 2.033623756858710715e-03 2.034711505486968500e-03 2.033749678497942352e-03 2.032761059670781887e-03 2.034840106310013743e-03 2.034617734053497957e-03 2.035408093278463781e-03 2.035298246742112474e-03 2.033310292352537556e-03 2.034379286694101407e-03 2.032763738854595492e-03 2.033444251543210009e-03 2.032466349451303098e-03 2.035081232853223464e-03 2.034443587105624028e-03 2.032166280864197531e-03 2.034178347908093161e-03 2.033899712791495135e-03 2.034357853223593866e-03 2.034615054869684352e-03 2.036147548010974143e-03 2.033564814814814870e-03 2.033639831961591045e-03 2.031834062071330438e-03 2.033173653978051932e-03 2.033840770747599291e-03 2.033039694787379913e-03 2.033800582990397815e-03 2.033404063786008100e-03 2.032664609053497738e-03 2.035188400205761167e-03 2.032991469478738055e-03 2.032712834362140029e-03 2.035536694101509024e-03 2.033704132373113666e-03 2.034489133230452714e-03 2.034146197702332067e-03 2.034004200960219666e-03 2.033607681755829951e-03 2.033184370713305919e-03 2.033680019718792954e-03 2.035113383058984992e-03 2.035233946330589853e-03 2.034716863854595277e-03 2.036051097393689994e-03 2.034971386316872591e-03 2.034566829561042494e-03 2.034518604252400636e-03 2.035552769204389788e-03 2.034111368312757368e-03 2.034438228737997251e-03 2.034052426268861524e-03 2.033637152777777873e-03 2.033481760116597880e-03 2.034451624657064410e-03 2.035325038580246791e-03 2.033813978909464974e-03 2.034076538923182235e-03 2.034706147119341724e-03 2.033854166666666883e-03 2.032222543724279771e-03 2.034108689128943763e-03 2.035625107167352357e-03 2.034971386316872591e-03 2.034162272805212831e-03 2.033270104595336081e-03 2.034063143004115077e-03 2.033671982167352572e-03 2.032511895576131784e-03 2.035416130829904163e-03 2.035617069615912409e-03 2.034866898148148060e-03 2.033468364197530721e-03 2.033063807441701058e-03 2.033211162551440236e-03 2.034700788751714513e-03 2.036586934156378505e-03 2.036053776577503600e-03 2.033714849108367653e-03 2.030612354252400633e-03 2.033240633573388158e-03 2.032833397633744890e-03 2.034239969135802611e-03 2.033342442558299084e-03 2.033304933984910780e-03 2.034039030349794365e-03 2.033982767489712126e-03 2.035193758573388377e-03 2.033741640946501970e-03 2.033848808299039673e-03
