1.192999999999999972e+01
1.201999999999999957e+01
1.439999999999999947e+00
-7.099999999999999645e-01
1.729999999999999982e+00
5.100000000000000089e-01
2.259999999999999787e+00
8.599999999999999867e-01
1.310000000000000053e+00
6.300000000000000044e-01
2.209999999999999964e+00
