# vvf statistics with RF=500
# gcat file: /disk11/salam/Abacus/AbacusCosmos_720box_products/GCAT_v9July2021/AbacusCosmos_720box_22_rockstar_halos_z0.100_Mr21_hod-default_real-0.gcat.rsd_zz.1pz0.100by100
# stats order in row: stdvvf,p2.5,p16,p50,p84,p97.5,rho
# columns: numbers, mean, sigma,All, jnrealizations
0.000000000000000000e+00 1.527055865551349090e+00 6.193373719076674354e-03 1.527056187782708241e+00 1.527613864530995791e+00 1.526667067678127099e+00 1.527039143316803571e+00 1.527218063226245981e+00 1.527513921243876416e+00 1.527246715100022412e+00 1.527229342802095990e+00 1.526080916734590565e+00 1.525769751596825818e+00 1.526885464709559992e+00 1.527838798545351429e+00 1.527260594699017426e+00 1.527405446011109280e+00 1.526443701029349675e+00 1.527205388245062023e+00 1.527148718347188128e+00 1.527550012467776108e+00 1.527069693420747054e+00 1.527440768906925816e+00 1.527290724078508743e+00 1.527219487628694639e+00 1.527835469310612426e+00 1.527049460437329031e+00 1.526812107039320576e+00 1.526774338016482879e+00 1.527574424379720019e+00 1.527222480908332347e+00 1.527067256887450819e+00 1.527691192399545983e+00 1.526754927430893582e+00 1.527225566049053462e+00 1.526545628017576872e+00 1.527103580623897949e+00 1.527158961660596503e+00 1.526615736519575162e+00 1.526357566099375562e+00 1.527228809559450395e+00 1.526964448573559618e+00 1.527101715389421743e+00 1.527170358054892763e+00 1.527089230743297943e+00 1.527080335793957744e+00 1.527530291023901921e+00 1.527018142885049556e+00 1.526768424622527487e+00 1.527288996331268800e+00 1.526484256952523655e+00 1.527592610909472182e+00 1.527443303670596553e+00 1.527030829071453155e+00 1.526150506215970371e+00 1.526975830220512753e+00 1.526741552702289395e+00 1.527395454402245223e+00 1.526399491232887318e+00 1.526747054073516408e+00 1.526862925218259726e+00 1.527111249376794211e+00 1.527265971945953593e+00 1.526206569240709854e+00 1.527381609935503315e+00 1.527182464765468373e+00 1.527597969194746108e+00 1.527236462399013561e+00 1.527281195504745392e+00 1.526082714651361583e+00 1.527788018274815807e+00 1.527575423916755382e+00 1.527438581731937361e+00 1.526947216330828638e+00 1.527351896691675925e+00 1.527642783127022730e+00 1.526738291945186843e+00 1.526863707613445031e+00 1.526483934605783910e+00 1.527175375811881786e+00 1.527066185692798062e+00 1.526505281907824862e+00 1.527156318659169232e+00 1.526647928070187454e+00 1.526695179033017213e+00 1.526906748354468268e+00 1.525208176158856288e+00 1.527480714622857283e+00 1.526734549075209779e+00 1.527589590275850062e+00 1.527301442136534959e+00 1.526997698077510845e+00 1.526883304496282401e+00 1.526849118850883258e+00 1.527314521062719255e+00 1.527053526287492469e+00 1.527316951720135707e+00 1.527255394784879927e+00 1.526709176060664364e+00 1.526698106619108319e+00 1.527476399891934733e+00 1.526810391000952727e+00 1.527105479186356307e+00 1.526931369355394530e+00 1.527097515425990704e+00 1.526712554754661610e+00 1.526762057768980663e+00 1.526855719683645418e+00 1.527091350389916169e+00 1.527441791420045325e+00 1.527260247731761167e+00 1.527379400318893410e+00 1.526729017634827823e+00 1.527089864798482299e+00 1.527350570918469153e+00 1.527196055448743151e+00 1.527169641780704357e+00 1.526559153894564203e+00 1.527555756335543746e+00 1.527457329559973154e+00 1.527334944930951899e+00 1.526832535833638538e+00 1.526476866842036095e+00 1.527161422450682648e+00 1.526810371916898612e+00 1.526914531990514190e+00 1.527198350629539236e+00 1.527033735573595452e+00 1.526515425827874139e+00 1.527351744009494805e+00 1.527848257247366393e+00 1.527387780251048932e+00 1.526864267507944017e+00 1.526887447347637039e+00 1.527265905368989207e+00 1.526753550855641128e+00 1.527078473118648416e+00 1.526832921798164211e+00 1.527230338299539136e+00 1.527071705436113369e+00 1.527585893023289731e+00 1.526949404534210686e+00 1.525840563011407802e+00 1.526240616588941279e+00 1.527016729790842797e+00 1.527248140590628411e+00 1.527255222705671489e+00 1.527493389175092364e+00 1.527280265588229824e+00 1.526846913795694594e+00 1.526848438664548446e+00 1.527219835733540698e+00 1.526763972529370683e+00 1.526748262309540527e+00 1.526613299090066711e+00 1.526859225808726794e+00 1.525819548429130368e+00 1.527459303904137977e+00 1.526958517517271963e+00 1.527803384536282394e+00 1.527458962010098231e+00 1.527485206101116599e+00 1.526109605930424884e+00 1.527044729964349923e+00 1.527527291893419514e+00 1.527468590397931925e+00 1.527239480774475133e+00 1.527008522966779136e+00 1.526829145837522272e+00 1.526586214662021712e+00 1.526478842749983578e+00 1.526743480814654497e+00 1.527067739378378031e+00 1.526964830574571108e+00 1.527129966258031324e+00 1.526871219600857810e+00 1.527567081939484650e+00 1.527037902124106061e+00 1.526909798252437556e+00 1.527394461591620400e+00 1.527563555430148101e+00 1.527352406746104840e+00 1.527263234892379584e+00 1.527268236537791424e+00 1.527476359099364966e+00 1.527145650242801578e+00 1.527461325588659991e+00 1.527887090776862244e+00 1.527699462302262612e+00 1.527485370606412429e+00 1.527475002299908402e+00 1.527034277387396610e+00 1.526188414496775003e+00 1.527402240014111179e+00 1.526938347946724228e+00 1.527462176354998036e+00 1.527523604288567594e+00 1.526829989637988216e+00 1.526528316385259210e+00 1.526853265413607552e+00 1.527252999869818550e+00 1.527145740386571138e+00 1.527163452665071031e+00 1.527105467874617872e+00 1.527394321320342474e+00 1.526815480378717060e+00 1.527154042691539093e+00 1.526937149116877057e+00 1.527030831680097123e+00 1.527124860558039643e+00 1.527132471554217830e+00 1.527247209713870291e+00 1.526971577353909204e+00 1.526948272752228553e+00 1.527135713624503843e+00 1.527186215818834292e+00 1.526626224436389956e+00 1.526521686994698035e+00 1.526327024009120681e+00 1.526872663884021541e+00 1.527278709196557172e+00 1.526890865280202014e+00 1.527275465139244170e+00 1.526949697803687167e+00 1.527813079918671102e+00 1.527592722952726856e+00 1.527194989971622396e+00 1.526288601491954777e+00 1.526985441726481207e+00
1.000000000000000000e+00 1.799999980726257887e-02 1.493387150627716346e-04 1.799999999999999864e-02 1.799439600176609352e-02 1.799548232684445095e-02 1.800763995532478345e-02 1.799600620012436342e-02 1.801114982265904219e-02 1.799384131250602106e-02 1.801829310391367747e-02 1.799113636644549333e-02 1.800645225404641850e-02 1.800483664969618550e-02 1.800623346828059482e-02 1.800538438107948669e-02 1.800389663425602804e-02 1.802374240219785373e-02 1.799866033804959839e-02 1.799077289718225073e-02 1.800511283345761909e-02 1.799165121020978794e-02 1.799770282471485974e-02 1.799570323219086901e-02 1.799103143081891634e-02 1.799927932953780327e-02 1.799493494628654974e-02 1.800513713848668138e-02 1.801166797155731233e-02 1.800646195773281458e-02 1.800581425924898532e-02 1.799852770825825787e-02 1.801113304423141576e-02 1.799331222402730801e-02 1.798095691662370335e-02 1.797762903989579691e-02 1.799700951926150316e-02 1.799744047712639045e-02 1.798321342809784673e-02 1.799402541781745107e-02 1.799081185052552392e-02 1.798618148395050506e-02 1.799836428355375967e-02 1.798660536117063433e-02 1.798635917590670624e-02 1.801241927771187953e-02 1.801783717985408137e-02 1.801409616476944489e-02 1.798557681381865100e-02 1.799712506742046081e-02 1.798595529527307821e-02 1.800667116527826517e-02 1.800702636745466975e-02 1.799814670614300824e-02 1.799085693378105200e-02 1.799862990299353621e-02 1.798733463917562281e-02 1.799190459191217159e-02 1.798322482988203019e-02 1.798683082280106219e-02 1.800231503011262210e-02 1.800690583351248139e-02 1.799234939627553098e-02 1.799296327083061559e-02 1.800110238286218092e-02 1.799383669979300743e-02 1.800031028111822792e-02 1.800131341351162220e-02 1.799199866290716529e-02 1.796247038508302224e-02 1.799971394173590852e-02 1.799866366325696479e-02 1.799775854602258390e-02 1.800532949853160189e-02 1.799575590267348674e-02 1.799134401666812808e-02 1.798686411202020732e-02 1.801143499459890648e-02 1.800419054284755835e-02 1.800812129994785321e-02 1.798809026514645859e-02 1.799248593057838075e-02 1.799338239888853205e-02 1.798508757676728353e-02 1.797571699434232645e-02 1.800419124565327822e-02 1.801392421657701734e-02 1.799942595450379837e-02 1.801198531387470519e-02 1.801866267287710946e-02 1.800642535961782115e-02 1.800808992176173781e-02 1.799402175728015765e-02 1.798116804898618887e-02 1.800154345276536519e-02 1.799222491015353004e-02 1.800781629547565377e-02 1.801812856253008979e-02 1.799475644317012624e-02 1.801137791336796662e-02 1.800850474025455714e-02 1.801037135142231557e-02 1.801783631566350810e-02 1.801021365781211789e-02 1.800602040091072928e-02 1.799044073401045649e-02 1.800604054132681764e-02 1.800322116703913927e-02 1.799431210098590556e-02 1.800403435922394088e-02 1.799975117733296909e-02 1.800891664813998941e-02 1.800853066554630733e-02 1.800960223053455975e-02 1.800384120218571915e-02 1.800621156463182507e-02 1.799570371488377549e-02 1.798295220962696853e-02 1.801183825666046942e-02 1.801592089193508606e-02 1.800150642300372972e-02 1.800400973521992451e-02 1.799192378584396623e-02 1.798984188724011071e-02 1.798887121039132592e-02 1.800104579829830617e-02 1.801180278020864112e-02 1.801800841199115849e-02 1.802407080886694532e-02 1.801351676225945025e-02 1.800783884795583920e-02 1.800071368977937056e-02 1.797977616574389370e-02 1.800304716815481418e-02 1.799600611400822142e-02 1.797940894860536321e-02 1.799853044281689643e-02 1.801556051328332894e-02 1.799799993185156183e-02 1.799490827470621307e-02 1.800492034682184966e-02 1.799761244860477449e-02 1.798960351209755171e-02 1.800900242328772397e-02 1.800641553914746409e-02 1.801112239285921832e-02 1.801243195248388926e-02 1.799677391297223664e-02 1.800244776070166960e-02 1.799044814075024049e-02 1.799559138727230279e-02 1.798503084965740600e-02 1.800907418928184706e-02 1.800194211130299107e-02 1.798715920599797818e-02 1.800428818679667559e-02 1.799759441232916604e-02 1.800151274800395815e-02 1.800321336378491593e-02 1.801720817876562367e-02 1.799909930055788518e-02 1.800083482095246948e-02 1.797987789921525956e-02 1.799203110321812710e-02 1.799998320675296609e-02 1.799127926777483247e-02 1.799634139664893148e-02 1.799460690850595082e-02 1.798762206358627685e-02 1.801222638904493439e-02 1.799538705505807773e-02 1.799369652091242777e-02 1.800919624546250264e-02 1.799616734068965399e-02 1.800345591286461877e-02 1.799956395821937158e-02 1.800146871805986815e-02 1.799576273909569632e-02 1.799253324425505521e-02 1.799841680682160230e-02 1.801087926993010305e-02 1.801135306766205382e-02 1.800408328814871728e-02 1.801817979597547872e-02 1.800716866548271455e-02 1.800599630807377116e-02 1.800796768942504456e-02 1.801441391317063975e-02 1.800724463341384085e-02 1.800413531398557809e-02 1.800344719332562862e-02 1.799574941536987577e-02 1.799098360448777786e-02 1.800412528752235938e-02 1.801088510335979373e-02 1.800293293717123572e-02 1.800080757379979302e-02 1.800409836402096578e-02 1.799752473809305281e-02 1.798535771589576671e-02 1.800273711320495365e-02 1.801414185705930288e-02 1.800727008864791770e-02 1.800055685736796571e-02 1.799671690490479634e-02 1.799795751147690095e-02 1.799421885150519554e-02 1.798820338641854422e-02 1.800949683879985580e-02 1.801562645904794535e-02 1.800677869199092396e-02 1.799637012069109365e-02 1.799281739771699598e-02 1.799185337450719471e-02 1.800449016050614456e-02 1.801896375900524649e-02 1.801616203372236394e-02 1.799612046672118687e-02 1.797499517298219857e-02 1.799141189141306371e-02 1.799072049772781207e-02 1.800296681699094931e-02 1.799558370843789765e-02 1.798839875898965504e-02 1.800099477107038395e-02 1.800090544697715428e-02 1.801027130679821661e-02 1.799270611237700421e-02 1.799671676177691179e-02
2.000000000000000000e+00 9.399999899348235322e-02 7.798799564389146451e-04 9.400000000000000022e-02 9.397073467588959450e-02 9.397640770685435074e-02 9.403989754447386606e-02 9.397914348953834152e-02 9.405822685166388697e-02 9.396783796530923383e-02 9.409553065377142256e-02 9.395371213588202264e-02 9.403369510446461799e-02 9.402525805952453852e-02 9.403255255657644307e-02 9.402811843452620055e-02 9.402034909000370200e-02 9.412398810036656793e-02 9.399300398759236064e-02 9.395181401861842085e-02 9.402670035250090819e-02 9.395640076442889066e-02 9.398800364017760589e-02 9.397756132366343051e-02 9.395316413872101258e-02 9.399623649869742747e-02 9.397354916394086433e-02 9.402682727876378321e-02 9.406093274035484675e-02 9.403374577927137157e-02 9.403036335385581146e-02 9.399231136534867692e-02 9.405813923098628460e-02 9.396507494769815172e-02 9.390055278681266882e-02 9.388317387501138311e-02 9.398438304503228813e-02 9.398663360277115242e-02 9.391233679117765021e-02 9.396879940415779620e-02 9.395201744163329816e-02 9.392783663840820196e-02 9.399145792522520249e-02 9.393005021944664246e-02 9.392876458529056394e-02 9.406485622805091373e-02 9.409314971701576713e-02 9.407361330490711382e-02 9.392467891660850887e-02 9.398498646319575212e-02 9.392665543087051760e-02 9.403483830756427519e-02 9.403669325226327036e-02 9.399032168763570005e-02 9.395225287641216505e-02 9.399284504896625314e-02 9.393385867125048083e-02 9.395772397998577996e-02 9.391239633382839069e-02 9.393122763018332821e-02 9.401208960169925299e-02 9.403606379723185305e-02 9.396004684721666333e-02 9.396325263655987137e-02 9.400575688828027854e-02 9.396781387669680963e-02 9.400162035695075469e-02 9.400685893722736386e-02 9.395821523962630262e-02 9.380401201098910458e-02 9.399850614017640771e-02 9.399302135256415447e-02 9.398829462922905775e-02 9.402783182566504250e-02 9.397783638062820466e-02 9.395479653148912369e-02 9.393140147388330530e-02 9.405971608290539243e-02 9.402188394598169630e-02 9.404241123306100736e-02 9.393780471798705844e-02 9.396075985968710409e-02 9.396544141641788306e-02 9.392212401200691896e-02 9.387318874823215309e-02 9.402188761618934798e-02 9.407271535323553924e-02 9.399700220685316965e-02 9.406258997245679765e-02 9.409746062502490072e-02 9.403355465578194794e-02 9.404224736920019367e-02 9.396878028801859684e-02 9.390165536692787751e-02 9.400806025333023619e-02 9.395939675302399097e-02 9.404081843192842183e-02 9.409467138210157733e-02 9.397261698099955429e-02 9.405941799203272613e-02 9.404441364355158040e-02 9.405416150187209667e-02 9.409314520402053961e-02 9.405333799079662604e-02 9.403143987142269233e-02 9.395007938872126929e-02 9.403154504915114953e-02 9.401682165009328518e-02 9.397029652737085015e-02 9.402106832039169859e-02 9.399870059273884859e-02 9.404656471806438489e-02 9.404454903118626696e-02 9.405014498168047521e-02 9.402005961141432500e-02 9.403243817085507605e-02 9.397756384439305555e-02 9.391097265027416319e-02 9.406182200700467788e-02 9.408314243566100188e-02 9.400786687568614408e-02 9.402093972837070879e-02 9.395782421496294556e-02 9.394695207780946744e-02 9.394188298759914568e-02 9.400546139111337629e-02 9.406163674108956874e-02 9.409404392928716332e-02 9.412570311297183134e-02 9.407058753624378267e-02 9.404093620599160430e-02 9.400372704662561529e-02 9.389438664332923346e-02 9.401591298925290885e-02 9.397914303982070339e-02 9.389246895382800939e-02 9.399232564582157834e-02 9.408126045825739026e-02 9.398955519966926964e-02 9.397340987902133569e-02 9.402569514451411536e-02 9.398753167604716185e-02 9.394570722984277311e-02 9.404701265494701257e-02 9.403350337110341628e-02 9.405808360715368910e-02 9.406492241852697223e-02 9.398315265663279017e-02 9.401278275033093934e-02 9.395011806836237045e-02 9.397697724464425251e-02 9.392182777043311948e-02 9.404738743291631009e-02 9.401014213680450315e-02 9.393294252021167079e-02 9.402239386438263069e-02 9.398743748660787212e-02 9.400789990624289216e-02 9.401678089976567287e-02 9.408986493355381286e-02 9.399529634735785677e-02 9.400435962052956784e-02 9.389491791812414057e-02 9.395838465013911511e-02 9.399991230193215086e-02 9.395445839837968105e-02 9.398089396027775599e-02 9.397183607775330683e-02 9.393535966539499904e-02 9.406384892056798841e-02 9.397591017641440669e-02 9.396708183143157034e-02 9.404802483741528385e-02 9.397998500137931532e-02 9.401804754495968197e-02 9.399772289292337990e-02 9.400766997209042408e-02 9.397787208194417763e-02 9.396100694222084271e-02 9.399173221340169360e-02 9.405681396519054160e-02 9.405928824223516727e-02 9.402132383810997418e-02 9.409493893453860225e-02 9.403743636418750163e-02 9.403131405327413983e-02 9.404160904477522342e-02 9.407527265766889302e-02 9.403783308560560716e-02 9.402159552859135072e-02 9.401800200958940201e-02 9.397780250248712053e-02 9.395291437899172537e-02 9.402154316817232238e-02 9.405684442865670791e-02 9.401531644967200951e-02 9.400421732984336198e-02 9.402140256766503001e-02 9.398707363226371791e-02 9.392353473856678014e-02 9.401429381340364877e-02 9.407385192019858400e-02 9.403796601849467862e-02 9.400290803292159214e-02 9.398285494783616134e-02 9.398933367104603254e-02 9.396980955786045364e-02 9.393839546240795313e-02 9.404959460262146687e-02 9.408160484169482418e-02 9.403539983595259055e-02 9.398104396360905388e-02 9.396249085474431273e-02 9.395745651131534593e-02 9.402344861597654313e-02 9.409903296369406811e-02 9.408440173166122966e-02 9.397974021509954146e-02 9.386941923668482013e-02 9.395515098849044344e-02 9.395154037702301009e-02 9.401549337761939962e-02 9.397693714406457621e-02 9.393941574139041961e-02 9.400519491558978480e-02 9.400472844532513361e-02 9.405363904661291630e-02 9.396190969796879011e-02 9.398285420039054205e-02
3.000000000000000000e+00 4.443019724691548711e-01 8.923806594309104806e-03 4.440000000000000058e-01 4.438617680435636426e-01 4.438885640621630935e-01 4.441884522313446770e-01 4.439014862697342467e-01 4.442750289589230128e-01 4.438480857084818876e-01 4.444512298965373476e-01 4.457803788574827841e-01 4.441591555998116170e-01 4.441193040258392677e-01 4.441537588842546791e-01 4.441328147332939680e-01 4.440961169783153584e-01 4.445856459208804012e-01 4.439669550052234848e-01 4.437723981304955156e-01 4.441261165586213311e-01 4.437940631851747808e-01 4.439433363429665658e-01 4.438940130607081369e-01 4.437787752935332675e-01 4.439822234619325014e-01 4.438750620084015441e-01 4.441267160826715132e-01 4.442878099650803270e-01 4.441593949574094147e-01 4.441434183948083092e-01 4.439636834703703516e-01 4.442746150910415470e-01 4.438350348593402273e-01 4.455281547118984387e-01 4.454456973218625104e-01 4.439262348084503929e-01 4.439368651024509504e-01 4.455840660517577656e-01 4.458519631303656805e-01 4.437733589796296063e-01 4.436591432707791549e-01 4.439596523276594375e-01 4.436695989088756398e-01 4.456620106919105817e-01 4.443063421835596882e-01 4.444399837697340372e-01 4.443477053976463420e-01 4.456426254979509727e-01 4.439290849963714036e-01 4.456520034273218078e-01 4.441645554101972260e-01 4.441733170638818562e-01 4.439542854181941500e-01 4.457734551370194365e-01 4.439662042738405923e-01 4.456861805040182589e-01 4.438003132671668460e-01 4.455843485626325706e-01 4.456736970538485720e-01 4.440571040761113752e-01 4.441703438933078951e-01 4.438112851081297272e-01 4.438264273471551613e-01 4.440271921106004882e-01 4.438479719282274472e-01 4.440076536009163188e-01 4.440323975332867157e-01 4.438026336850434128e-01 4.450700995415015071e-01 4.439929438961523478e-01 4.439670370270051292e-01 4.439447108018904631e-01 4.441314609637795341e-01 4.438953122659460293e-01 4.437864857444805411e-01 4.456745218867229075e-01 4.442820632001063252e-01 4.441033667235731452e-01 4.442003253987137357e-01 4.437062265402793027e-01 4.458138180576643461e-01 4.438367658392504134e-01 4.456305032910115593e-01 4.453983210820376959e-01 4.441033840594475479e-01 4.443434640088997911e-01 4.439858402110937186e-01 4.442956377422427883e-01 4.444603459309686699e-01 4.441584922039062411e-01 4.441995514034562387e-01 4.438525366795772475e-01 4.455333861026578024e-01 4.440380718348789779e-01 4.438082144504537641e-01 4.441928019550661633e-01 4.444471712090755089e-01 4.438706589315297713e-01 4.442806551964098571e-01 4.442097835929457728e-01 4.442558266684171198e-01 4.444399624530331883e-01 4.442519368926989287e-01 4.441485032224646301e-01 4.457631426315924461e-01 4.441490000193948351e-01 4.440794554536321437e-01 4.438596984909857213e-01 4.440995141941905811e-01 4.439938623742132884e-01 4.442199439874530142e-01 4.442104230834755807e-01 4.442368550198524391e-01 4.440947496539144335e-01 4.441532185942516642e-01 4.438940249671331495e-01 4.455775936385348301e-01 4.442920103309582203e-01 4.443927153343987801e-01 4.440371584340919719e-01 4.440989068020914643e-01 4.457998893603560830e-01 4.437494332185893953e-01 4.457242533241406179e-01 4.440257963580248601e-01 4.442911352451464624e-01 4.444442074957819511e-01 4.445937466187179776e-01 4.443334134690664072e-01 4.441933582495773414e-01 4.440176043478911705e-01 4.454988983289876470e-01 4.440751634811520576e-01 4.439014841455360960e-01 4.454897995043328729e-01 4.439637509228168133e-01 4.443838259943221347e-01 4.439506649856718168e-01 4.438744041094199178e-01 4.441213685549390000e-01 4.439411070655844838e-01 4.457423981330838059e-01 4.442220597744305777e-01 4.441582499656374083e-01 4.442743523571940356e-01 4.443066548279359096e-01 4.439204231866485384e-01 4.440603780973078618e-01 4.437643874718393278e-01 4.438912542193834687e-01 4.456290977192890468e-01 4.442238300022855468e-01 4.440479054121404534e-01 4.456818336597276886e-01 4.441057752743179932e-01 4.459403948832671438e-01 4.440373144507642755e-01 4.440792629733612551e-01 4.444244684095520204e-01 4.439777827470945404e-01 4.440205922501609392e-01 4.455014190583336808e-01 4.438034338793804823e-01 4.439995857665731682e-01 4.437848886051125596e-01 4.439097544506736548e-01 4.438669704098134883e-01 4.456933022421933344e-01 4.443015842631083956e-01 4.458857014753279113e-01 4.438445141825065887e-01 4.442268407214083337e-01 4.439054610703448422e-01 4.440852458506606149e-01 4.439892443027445013e-01 4.440362283788100717e-01 4.438954808976938171e-01 4.438158200249580077e-01 4.439609479015995119e-01 4.442683553249425210e-01 4.442800423356639827e-01 4.441007211076683503e-01 4.444484349673951118e-01 4.441768270819069220e-01 4.441479089324864016e-01 4.441965363391510713e-01 4.443555431915424681e-01 4.441787009575413614e-01 4.441020044116442134e-01 4.440850307686988740e-01 4.438951522457902366e-01 4.457765937556415481e-01 4.441017570922182189e-01 4.442684992162082569e-01 4.440723457835571431e-01 4.440199201537282092e-01 4.441010929791837647e-01 4.439389435396285943e-01 4.456371967383062072e-01 4.440675154590555396e-01 4.443488324741294848e-01 4.441793288533152917e-01 4.440137358150764713e-01 4.439190169876516823e-01 4.439496186164302305e-01 4.438573983371281173e-01 4.437090168649907573e-01 4.442342553570631236e-01 4.443854526565159668e-01 4.441672077357761150e-01 4.439104629770470045e-01 4.438228291436859263e-01 4.437990499045108006e-01 4.441107572924849478e-01 4.444677727221294505e-01 4.443986634984849471e-01 4.439043048457892993e-01 4.453804359527811507e-01 4.437881599881889350e-01 4.437711056106193319e-01 4.440731814857767357e-01 4.438910648081347832e-01 4.437138360550781369e-01 4.440245376864027649e-01 4.440223343587698102e-01 4.442533589010226880e-01 4.438200841052993839e-01 4.439190134571638358e-01
4.000000000000000000e+00 1.814815043373109837e+00 9.102423442355296601e-03 1.814000000000000057e+00 1.815434618844845804e+00 1.815544216974973368e+00 1.814769937719953319e+00 1.815597069968102328e+00 1.815123654350194515e+00 1.813379341160329172e+00 1.813841505793976738e+00 1.815105757859167390e+00 1.814650243824455611e+00 1.814487426808271353e+00 1.814628195081166684e+00 1.814542625959899347e+00 1.814392694141135243e+00 1.814390068487917285e+00 1.815864842994337369e+00 1.815069087849053631e+00 1.814515259994006868e+00 1.815157699874498709e+00 1.813768495779597645e+00 1.815566503869923354e+00 1.815095171020397302e+00 1.813927372432309726e+00 1.815488992358687437e+00 1.814517709400824685e+00 1.815175872244720212e+00 1.814651221740406939e+00 1.814585948126536730e+00 1.813851625710026561e+00 1.815121963457543730e+00 1.815325277712977137e+00 1.814078764477146999e+00 1.815740533029475356e+00 1.815698293721049295e+00 1.815741772581195734e+00 1.814306421412538395e+00 1.815397231042027215e+00 1.815073017808575218e+00 1.814605865269673268e+00 1.815834974385201805e+00 1.814648629771437482e+00 1.814623792413698755e+00 1.815251587209408157e+00 1.815797591347517059e+00 1.815420580160654218e+00 1.814544860771925894e+00 1.813710270683373205e+00 1.814583045345328216e+00 1.814672305211931791e+00 1.814708101697931619e+00 1.815813023241983348e+00 1.815077566208132875e+00 1.813861924668348724e+00 1.814722205819051970e+00 1.815183263272916792e+00 1.814307571725876089e+00 1.814671376344818343e+00 1.814233303590238711e+00 1.814695954555091362e+00 1.815228139090909076e+00 1.815290072212688566e+00 1.814111095695110976e+00 1.815378191490227611e+00 1.814031269441581440e+00 1.814132362895004791e+00 1.815192753991078378e+00 1.814209508893385170e+00 1.813971171683829819e+00 1.813865326952674106e+00 1.813774111249164989e+00 1.814537095018684987e+00 1.813572289302761487e+00 1.815126707459406852e+00 1.814674734857149918e+00 1.815152393344578563e+00 1.814422313595859704e+00 1.814818446561411447e+00 1.814798440083664754e+00 1.815241913885018876e+00 1.815332357576753930e+00 1.814495502189410248e+00 1.815547416428574978e+00 1.814422384423058254e+00 1.815403251603928458e+00 1.813942148970549395e+00 1.815207853298262064e+00 1.813878709069628892e+00 1.814647533463706885e+00 1.814815284337544243e+00 1.815396861734487111e+00 1.814100065386606619e+00 1.814155545739798425e+00 1.815215579824378311e+00 1.814787708888490947e+00 1.815346472817772394e+00 1.815470983377608372e+00 1.815146640824971902e+00 1.814857088823431441e+00 1.815045201748893389e+00 1.815797504256311257e+00 1.815029309737288044e+00 1.814606722625114577e+00 1.815035576275721541e+00 1.814608752331491548e+00 1.814324622056055603e+00 1.815426154188356067e+00 1.814406573757346042e+00 1.813974924204555972e+00 1.814898599984774430e+00 1.814859701516722268e+00 1.814967691454982601e+00 1.814387107820272016e+00 1.814625987680118291e+00 1.815566552568274261e+00 1.814280067371254024e+00 1.815193033199005157e+00 1.813602703121465431e+00 1.814151813962709081e+00 1.814404092204941144e+00 1.815185199727369136e+00 1.814975159290446616e+00 1.814877228781702545e+00 1.814105393228506946e+00 1.815189457961026376e+00 1.815814847741775706e+00 1.814423128092605975e+00 1.815362189263257875e+00 1.814789981677327413e+00 1.814071924069987851e+00 1.815957392740133347e+00 1.814307086835157179e+00 1.815597061279940361e+00 1.815920303809141600e+00 1.813851901292769631e+00 1.815568153949775665e+00 1.815798215346801969e+00 1.815486301492582388e+00 1.814495861618601991e+00 1.813759387876059170e+00 1.814951109887175118e+00 1.814907244213551873e+00 1.814646543778527743e+00 1.815120890035923473e+00 1.815252864544765199e+00 1.813674882118424314e+00 1.814246679884045976e+00 1.815036323533468776e+00 1.815555219960361288e+00 1.814489779054324847e+00 1.814914476630959506e+00 1.814195721661312488e+00 1.814704506560685049e+00 1.814432153936064829e+00 1.815757302932764716e+00 1.814152451382176512e+00 1.814323835661435291e+00 1.815734202015602206e+00 1.813909229511778021e+00 1.814084131400432343e+00 1.815967667820741260e+00 1.815196026858006739e+00 1.813998307613882144e+00 1.815120175015505488e+00 1.815630887573025598e+00 1.815455896991489348e+00 1.814751203748482089e+00 1.815232148318195016e+00 1.815534605110303845e+00 1.815364048998720614e+00 1.814926777181609774e+00 1.815613327260689580e+00 1.814348279218690019e+00 1.813956056678329931e+00 1.814148014142255461e+00 1.815572507455432305e+00 1.815246687309287621e+00 1.813840449309688019e+00 1.815096388647400305e+00 1.815144136929942364e+00 1.814411504705654155e+00 1.813830099461531287e+00 1.814722442176980088e+00 1.814604294602545798e+00 1.814802966034279263e+00 1.815452602138418969e+00 1.814730098056261509e+00 1.814416747753879733e+00 1.814347400482927419e+00 1.815571163239538377e+00 1.815090345874988964e+00 1.814415737309197807e+00 1.815096976527481587e+00 1.814295574890478990e+00 1.814081385492934517e+00 1.814413024018557197e+00 1.815750273576498985e+00 1.814522756225928513e+00 1.814275840186321487e+00 1.815425184928087576e+00 1.814732663378184396e+00 1.814056118848082599e+00 1.813669136972072327e+00 1.815793935602336262e+00 1.815416746351857347e+00 1.814809852763115350e+00 1.814957070310163179e+00 1.815574799817387230e+00 1.814683141515085252e+00 1.813634188829646998e+00 1.815275355236336985e+00 1.815178096005836794e+00 1.814452508397675023e+00 1.813909018406528295e+00 1.815628773842909105e+00 1.815608598198093171e+00 1.815474512471202173e+00 1.815133555267006926e+00 1.815063801326316950e+00 1.814298989223421144e+00 1.815554445251289950e+00 1.814829563684734026e+00 1.814100250817870741e+00 1.814091248934253109e+00 1.815035119473997982e+00 1.815264127782035386e+00 1.815668757743715167e+00
5.000000000000000000e+00 5.286931757786907049e+00 1.945316071411584691e-02 5.285999999999999588e+00 5.288353047185702316e+00 5.286672808019636349e+00 5.286242751329786493e+00 5.286826710347646063e+00 5.287273092385020412e+00 5.288190030175381473e+00 5.287368009715113004e+00 5.285396061431320014e+00 5.285894095021181904e+00 5.285419825388592230e+00 5.287830561851734501e+00 5.287581213243675471e+00 5.289144744552548794e+00 5.286964437978037168e+00 5.287606437089237943e+00 5.287288257005227976e+00 5.287501468758721401e+00 5.287546383444987619e+00 5.287325140949565849e+00 5.286737705101406171e+00 5.285365233676134977e+00 5.287788283033106218e+00 5.286511999775737713e+00 5.287508606335588723e+00 5.287425197872712701e+00 5.287897661587536824e+00 5.287707454132785756e+00 5.286517559287508661e+00 5.289269403989291796e+00 5.286035280036466943e+00 5.288399217589216050e+00 5.285422937729364001e+00 5.285121795489795105e+00 5.287248069058019695e+00 5.285066613035422911e+00 5.284245464365724843e+00 5.287299704960001456e+00 5.287937356281448231e+00 5.285519644603621003e+00 5.288061976184166291e+00 5.285991113363692762e+00 5.287645747968308996e+00 5.287234221332736794e+00 5.288138007480097436e+00 5.287010184228774001e+00 5.287155408695522141e+00 5.285872417333031592e+00 5.287959098870050667e+00 5.288063409909187662e+00 5.285455749370663092e+00 5.285313970324122756e+00 5.287597495946100956e+00 5.286277791179947450e+00 5.287620849511965204e+00 5.285069963893108458e+00 5.286129725145423564e+00 5.284679589950838974e+00 5.288028013108165837e+00 5.285752422639166781e+00 5.285932765341793349e+00 5.286323733100527278e+00 5.286189359361411988e+00 5.288091153697399349e+00 5.288385851702748219e+00 5.285649384969616449e+00 5.282962123257195053e+00 5.287915962438860085e+00 5.289607265479408404e+00 5.289341261581082421e+00 5.287565096068780335e+00 5.286753178518744711e+00 5.289455140900430230e+00 5.284690566645850573e+00 5.287356806192256897e+00 5.287230622749566677e+00 5.288384955084686645e+00 5.286499861256930721e+00 5.285792533383249392e+00 5.286055895851252906e+00 5.285617404505495998e+00 5.285909379828026999e+00 5.287230829140179722e+00 5.286085983997767634e+00 5.287831358189782449e+00 5.287518355472997200e+00 5.287476457674271657e+00 5.287886913941099998e+00 5.286825043725166040e+00 5.286243725138748850e+00 5.286463406401940013e+00 5.286453260628761974e+00 5.285715851382881247e+00 5.288295385438017249e+00 5.287319725960218264e+00 5.286459559526868190e+00 5.285338785467200040e+00 5.288497558721421576e+00 5.287044567828639963e+00 5.287233967740814222e+00 5.286998275993290974e+00 5.287767991067450879e+00 5.285191700080405397e+00 5.285773234465049875e+00 5.286945949387161114e+00 5.286329021667415695e+00 5.287184756825430654e+00 5.287926901429819360e+00 5.288618522337110051e+00 5.286504224263705254e+00 5.286818788119144408e+00 5.287128033041873287e+00 5.287824129480211965e+00 5.288737369540843503e+00 5.284989843829258405e+00 5.287475186010773598e+00 5.288673666276944019e+00 5.286442386222095280e+00 5.287177525576250758e+00 5.283628285109512213e+00 5.287014643527787605e+00 5.284730608919407047e+00 5.286307116100268821e+00 5.287464771701247734e+00 5.287284468452072339e+00 5.287060770600970905e+00 5.287967920654384812e+00 5.288302008349697658e+00 5.286209586898542589e+00 5.287952057990551680e+00 5.286894851714796673e+00 5.286826685048636953e+00 5.287943942995377178e+00 5.287568276756430485e+00 5.286566146175696979e+00 5.287412424423947321e+00 5.286504164258135852e+00 5.289445488555219121e+00 5.285298855740268920e+00 5.284945742887325437e+00 5.288593686632050428e+00 5.287884029996305024e+00 5.289266276036323156e+00 5.287649468718047530e+00 5.287052247322066023e+00 5.286718825726056892e+00 5.287192814698265408e+00 5.286704847549774655e+00 5.287599069799276741e+00 5.286663778675849024e+00 5.284570117562499725e+00 5.284227660073184119e+00 5.287259297522623136e+00 5.283293826374850788e+00 5.286444243663829035e+00 5.286943657831502996e+00 5.289051556477641469e+00 5.287735394519450516e+00 5.287745228654788576e+00 5.284086338158262564e+00 5.287158251137349829e+00 5.287995066517204634e+00 5.289436104725800725e+00 5.286925183637753101e+00 5.284966064009054776e+00 5.284363637346902287e+00 5.287589124428524023e+00 5.282645844384826539e+00 5.286148177921385027e+00 5.286699608945769846e+00 5.286874049864827896e+00 5.289015270401561608e+00 5.287871900614668164e+00 5.288431476727810221e+00 5.284755657714435451e+00 5.285806433090040279e+00 5.285835042550104390e+00 5.289194878936140043e+00 5.287332756084793139e+00 5.287199125619673090e+00 5.287334760130137035e+00 5.288105198096756610e+00 5.287760915804331496e+00 5.288339844794487377e+00 5.290232885834444509e+00 5.288127507345864231e+00 5.287214403873764290e+00 5.289012708794774476e+00 5.286751272693105186e+00 5.285351183362853256e+00 5.287211459435733119e+00 5.287195382564064516e+00 5.286861305882619710e+00 5.288237247236294181e+00 5.287203552900822778e+00 5.285273098086659793e+00 5.287695168473355523e+00 5.286803798911188679e+00 5.288151420705631267e+00 5.288134982699604691e+00 5.286163530447058889e+00 5.287035499618697898e+00 5.285400189203716792e+00 5.286301627042192308e+00 5.286533106341894772e+00 5.286787849789913452e+00 5.286585497593957683e+00 5.287990675881334646e+00 5.286933622123028087e+00 5.285889911062637836e+00 5.285606702466335349e+00 5.289319109375361094e+00 5.287564809725872728e+00 5.286742659006750777e+00 5.284860710393789240e+00 5.284648580856766920e+00 5.285477004544016033e+00 5.285273888443592583e+00 5.286871255256341939e+00 5.286702591678866803e+00 5.286590524169737293e+00 5.288292241634454882e+00 5.288266000200843919e+00 5.289016340429743224e+00 5.285857217902755423e+00 5.287035457570905983e+00
6.000000000000000000e+00 2.261370456104252417e-03 1.959102903377279124e-05 2.261370456104252417e-03 2.260687826381999662e-03 2.260757796137841807e-03 2.262515113467261727e-03 2.260771251860119093e-03 2.262687346712412024e-03 2.260625930059523801e-03 2.263828391961529921e-03 2.260200729235559928e-03 2.262324042210923578e-03 2.262087221498842570e-03 2.262065692343199000e-03 2.262181411554784003e-03 2.261810033619929272e-03 2.264571147831238949e-03 2.261204526117449251e-03 2.260461770247740223e-03 2.261877312231316134e-03 2.259998893401399776e-03 2.261126482928240821e-03 2.260970396549823527e-03 2.260324521880511649e-03 2.260921955949625386e-03 2.260736266982197804e-03 2.261629726941413124e-03 2.262835359657462599e-03 2.262197558421516572e-03 2.261890767953593420e-03 2.261266422439925112e-03 2.262829977368551598e-03 2.260125377190806781e-03 2.258812098696538588e-03 2.258642556595844442e-03 2.261226055273092821e-03 2.260989234561011814e-03 2.259089286575451886e-03 2.260720120115465234e-03 2.259985437679122491e-03 2.259638280044367481e-03 2.261320245329034254e-03 2.259619442033179194e-03 2.259899321056547776e-03 2.262760007612709453e-03 2.263693834738756631e-03 2.263187899581128610e-03 2.259743234678130482e-03 2.261320245329034254e-03 2.259288431265156320e-03 2.262248690166170431e-03 2.262539333767361015e-03 2.260876206493882094e-03 2.260311066158233930e-03 2.261454802551807544e-03 2.260009657979221778e-03 2.260276081280313074e-03 2.259460664510306617e-03 2.259702867511298625e-03 2.261799269042107704e-03 2.262297130766369006e-03 2.260093083457341209e-03 2.260416020791997365e-03 2.261379450507054831e-03 2.260504828559027797e-03 2.261570521763392981e-03 2.261662020674878697e-03 2.260477917114473226e-03 2.256486949887014787e-03 2.261306789606756969e-03 2.260959631972001959e-03 2.261075351183586962e-03 2.262049545476465997e-03 2.260577489459325226e-03 2.260381035914076076e-03 2.259780910700507055e-03 2.262730405023699164e-03 2.262028016320822427e-03 2.262953770013502886e-03 2.259546781132881332e-03 2.260284154713679359e-03 2.260407947358631080e-03 2.259554854566247616e-03 2.258246958360890858e-03 2.261880003375771418e-03 2.263080253802909891e-03 2.261266422439925112e-03 2.263002210613701461e-03 2.263823009672618920e-03 2.262227161010526861e-03 2.262262145888448150e-03 2.260599018614969230e-03 2.259094668864362887e-03 2.261452111407352260e-03 2.260534431148038086e-03 2.262321351066468294e-03 2.263898361717372066e-03 2.260537122292493369e-03 2.263220193314594182e-03 2.262496275456073441e-03 2.262488202022707156e-03 2.263879523706183779e-03 2.262644288401124450e-03 2.262041472043099712e-03 2.259993511112488775e-03 2.262202940710427573e-03 2.261791195608740986e-03 2.260278772424768358e-03 2.261979575720623852e-03 2.260973087694279245e-03 2.262614685812114161e-03 2.262418232266865011e-03 2.262372482811122153e-03 2.261799269042107704e-03 2.262176029265873002e-03 2.260841221615961238e-03 2.259409532765652758e-03 2.262908020557760028e-03 2.263300927648258330e-03 2.261659329530423413e-03 2.261947281987158279e-03 2.260254552124669504e-03 2.260251860980213787e-03 2.259896629912092059e-03 2.261530154596560691e-03 2.263117929825286465e-03 2.263666923294202060e-03 2.264409679163911088e-03 2.262975299169146890e-03 2.262294439621913723e-03 2.261497860863095118e-03 2.258847083574459878e-03 2.261656638385967696e-03 2.260965014260912526e-03 2.258704452918320303e-03 2.261255657862103110e-03 2.263446249448853621e-03 2.261072660039131245e-03 2.260779325293485378e-03 2.261984958009534852e-03 2.261010763716655818e-03 2.259686720644565622e-03 2.262396703111221440e-03 2.262184102699239287e-03 2.262668508701223737e-03 2.263074871513999324e-03 2.260835839327050237e-03 2.261683549830522701e-03 2.260074245446152923e-03 2.260916573660714385e-03 2.259514487399415759e-03 2.262789610201719741e-03 2.261557066041115695e-03 2.259487575954861188e-03 2.261920370542603708e-03 2.261411744240520404e-03 2.261618962363591123e-03 2.261613580074680122e-03 2.263938728884204356e-03 2.260951558538635241e-03 2.261344465629133542e-03 2.258680232618221016e-03 2.260375653625165508e-03 2.261468258274085263e-03 2.260168435502094356e-03 2.260779325293485378e-03 2.260857368482693808e-03 2.259659809200011051e-03 2.263330530237268618e-03 2.260477917114473226e-03 2.260074245446152923e-03 2.263096400669642894e-03 2.261199143828538250e-03 2.261557066041115695e-03 2.261548992607748977e-03 2.261333701051311540e-03 2.260728193548831519e-03 2.260488681692294794e-03 2.261086115761408531e-03 2.262964534591324888e-03 2.262773463334986739e-03 2.261863856509038848e-03 2.263718055038855918e-03 2.262463981722607868e-03 2.262173338121417718e-03 2.262501657744984442e-03 2.263147532414296753e-03 2.261866547653494132e-03 2.261885385664682419e-03 2.261766975308642132e-03 2.261091498050319532e-03 2.260572107170414659e-03 2.261697005552799986e-03 2.262972608024691173e-03 2.261352539062499827e-03 2.261575904052303982e-03 2.261939208553791995e-03 2.260833148182594954e-03 2.259401459332286040e-03 2.261578595196759266e-03 2.263230957892416184e-03 2.262415541122409727e-03 2.261616271219135839e-03 2.260722811259920518e-03 2.261250275573192109e-03 2.260547886870315371e-03 2.259815895578428345e-03 2.262520495756172728e-03 2.263204046447861613e-03 2.262649670690035451e-03 2.260981161127645529e-03 2.260265316702491072e-03 2.260418711936452649e-03 2.261958046564980281e-03 2.263997934062224500e-03 2.263454322882219906e-03 2.260886971071704096e-03 2.257897109581679697e-03 2.260348742180610503e-03 2.260254552124669504e-03 2.261726608141809841e-03 2.260668988370811375e-03 2.260033878279321066e-03 2.261336392195767257e-03 2.261306789606756969e-03 2.262617376956569878e-03 2.260658223792989373e-03 2.260919264805169668e-03
