# vvf statistics with RF=500
# gcat file: /disk11/salam/Abacus/AbacusCosmos_720box_products/GCAT_v9July2021/AbacusCosmos_720box_32_rockstar_halos_z0.100_Mr21_hod-default_real-0.gcat.rsd_zz.1pz0.100by100
# stats order in row: stdvvf,p2.5,p16,p50,p84,p97.5,rho
# columns: numbers, mean, sigma,All, jnrealizations
0.000000000000000000e+00 1.419721041839342224e+00 5.328467573915197410e-03 1.419721298914345509e+00 1.420152885597579351e+00 1.419438854592563581e+00 1.419615895710971687e+00 1.419604625040968182e+00 1.420188801513280197e+00 1.420040818901889157e+00 1.419872231776928784e+00 1.418549729213384181e+00 1.418578956181045569e+00 1.419397387378950048e+00 1.420306778719936824e+00 1.419963452965561590e+00 1.420113600943522680e+00 1.419517266222071195e+00 1.420137222760329720e+00 1.419920156966838487e+00 1.420091816768740411e+00 1.419628426717590930e+00 1.420173793348264324e+00 1.420068807006194644e+00 1.419750248817560845e+00 1.420455654110250210e+00 1.419714553529241030e+00 1.419533679469327403e+00 1.419493950079502742e+00 1.420069706540766141e+00 1.420302907741121556e+00 1.419309877562918487e+00 1.420472136925434281e+00 1.419529531326235494e+00 1.419541185002908712e+00 1.419294515518582322e+00 1.419727325449494204e+00 1.419934069400244470e+00 1.419435802292413396e+00 1.419122221347563828e+00 1.419866374191483427e+00 1.419572186618098364e+00 1.419523365571474072e+00 1.419966769314226385e+00 1.419867425382410842e+00 1.419893147148828527e+00 1.419863506142501119e+00 1.419540627948043809e+00 1.419203941133666325e+00 1.419711869081117905e+00 1.419428542685810646e+00 1.420072642345226122e+00 1.419960617246534884e+00 1.419718090428561563e+00 1.419065916486576207e+00 1.419281888236203715e+00 1.419486894766512464e+00 1.419881061247039167e+00 1.419452164721213272e+00 1.419532001607381577e+00 1.419479682968680212e+00 1.419781538732180604e+00 1.419718892601143478e+00 1.419417164923324259e+00 1.419921681066138586e+00 1.420041889449410899e+00 1.420027955754102011e+00 1.419733445234811597e+00 1.419532803951727651e+00 1.418929973307756498e+00 1.420613331333182572e+00 1.420060332737187236e+00 1.420135941680859659e+00 1.419464117381140644e+00 1.419749950470625910e+00 1.420321695570785581e+00 1.419457948451083862e+00 1.419782754244480083e+00 1.419471018453009936e+00 1.419902515200859972e+00 1.419810841106657451e+00 1.419389051370193222e+00 1.419714498556986726e+00 1.419552661931451354e+00 1.419410025102074258e+00 1.419722466227895996e+00 1.418750704642074423e+00 1.420043911746504017e+00 1.419604964615940990e+00 1.420199042893860231e+00 1.419700651631271349e+00 1.420031697889489131e+00 1.419634387567817457e+00 1.419036706959118321e+00 1.419945059075087945e+00 1.419676883523932620e+00 1.419769124060155985e+00 1.419962666419582131e+00 1.419411569873378021e+00 1.419319199631099870e+00 1.420050742797591026e+00 1.419844683996686063e+00 1.419763808315329889e+00 1.419383024807916671e+00 1.419880960214131349e+00 1.419006258277316412e+00 1.419644945009171266e+00 1.419240333792444186e+00 1.419764210103963142e+00 1.419614496938936821e+00 1.419711563705818413e+00 1.419596476983749023e+00 1.418795556474155450e+00 1.419731495242758657e+00 1.420173213802736756e+00 1.419739109850979286e+00 1.419736008562873852e+00 1.419209337329817577e+00 1.419934931310115278e+00 1.420036924289260316e+00 1.419739303069960101e+00 1.419548152743292491e+00 1.419158933733526418e+00 1.419754879377773671e+00 1.419693943273041103e+00 1.419442979886915701e+00 1.419898396204750890e+00 1.419405433859168175e+00 1.419565554153068510e+00 1.419925565257969424e+00 1.420169289449794370e+00 1.420221742964366207e+00 1.419630816136989049e+00 1.419585372332432538e+00 1.419842904060353073e+00 1.419433083448873756e+00 1.419634831828354038e+00 1.419727922320678459e+00 1.419937623947731931e+00 1.419914395475863955e+00 1.420124203638046145e+00 1.419180268335919370e+00 1.419100908775957404e+00 1.418929982203620543e+00 1.419809041027878083e+00 1.420072553937593351e+00 1.420005214155825701e+00 1.420018548849115936e+00 1.419879890878899653e+00 1.419758535868032245e+00 1.419474293849558588e+00 1.419732109326659719e+00 1.419361717667941614e+00 1.419548874821118023e+00 1.419324647748949175e+00 1.419780053658691976e+00 1.418807148894923653e+00 1.419977851952995085e+00 1.419884989953453136e+00 1.420262390328157265e+00 1.420025180318771785e+00 1.420008901082855601e+00 1.419083655957922518e+00 1.419883978555541271e+00 1.420112629165066753e+00 1.419912027099245799e+00 1.419942352740142244e+00 1.419736611695513684e+00 1.419636325463047299e+00 1.419356535176023559e+00 1.419387132670580032e+00 1.419346194662593819e+00 1.419730009231788603e+00 1.419540510992058913e+00 1.419947201811650350e+00 1.419411657867702292e+00 1.420230342251951550e+00 1.419443561624341710e+00 1.419662444285801683e+00 1.419774155019154049e+00 1.420351744432718721e+00 1.419750782097678021e+00 1.419834489689679957e+00 1.420185086847053579e+00 1.420041742109965588e+00 1.419806220672871655e+00 1.419986316398630599e+00 1.420458370916208635e+00 1.420206576217272865e+00 1.420095886648554018e+00 1.420211400114607336e+00 1.419581524514741844e+00 1.419078918786931931e+00 1.420069638745915297e+00 1.419659867466849024e+00 1.419969020652033898e+00 1.420003384495708731e+00 1.419904333951088615e+00 1.419462487725521749e+00 1.419596869474086143e+00 1.419961980239911270e+00 1.419874253437901857e+00 1.420026735681367835e+00 1.419785263355070937e+00 1.419706929399270567e+00 1.419589094249489980e+00 1.419920385447009936e+00 1.419435059881520189e+00 1.419928065637810377e+00 1.419881270676701890e+00 1.419337013096024780e+00 1.419535198429709544e+00 1.419437107673616083e+00 1.419859739484431005e+00 1.419919770717778862e+00 1.419650326917619054e+00 1.419627877711350905e+00 1.419657966765197843e+00 1.419094170163736512e+00 1.419654467385128793e+00 1.420146212739644254e+00 1.419754983802927306e+00 1.419973606715962955e+00 1.419777008893070791e+00 1.420422956128965186e+00 1.420081154040267801e+00 1.419755419484989734e+00 1.418874795128844291e+00 1.419848445652746038e+00
1.000000000000000000e+00 2.199999982289053621e-02 1.703863909329123081e-04 2.199999999999999872e-02 2.200003205389557126e-02 2.199048475077739623e-02 2.200811209931276616e-02 2.199768526307787145e-02 2.201565421511374188e-02 2.199614916256703231e-02 2.202127132787715449e-02 2.198765435791900230e-02 2.200614718402987141e-02 2.200634553730250118e-02 2.200653646238669506e-02 2.200759327440949750e-02 2.200431086339746725e-02 2.202316455677097440e-02 2.199831789370029073e-02 2.199363903997771097e-02 2.200519823736473563e-02 2.198488801024370623e-02 2.199901093938777183e-02 2.199358591646348796e-02 2.198859557892887326e-02 2.200045222482381949e-02 2.198973494763876990e-02 2.200131173176900906e-02 2.201475021333690330e-02 2.200705552079551541e-02 2.201038924908429659e-02 2.199929811691276119e-02 2.201637009931673925e-02 2.198961727875343650e-02 2.197594627789378405e-02 2.197213819750568065e-02 2.199953343004697887e-02 2.199438689805960356e-02 2.198043681103596658e-02 2.199229730789950543e-02 2.198993154475589046e-02 2.198712052780285933e-02 2.199799178095634272e-02 2.198787527326722530e-02 2.198431070860365488e-02 2.201327346727946499e-02 2.201675145610857906e-02 2.201011442394921677e-02 2.198479423120896364e-02 2.199759093578769475e-02 2.198614321126612578e-02 2.200866871700723690e-02 2.200815210457339466e-02 2.199363430412230522e-02 2.199257964010490826e-02 2.199761603055958373e-02 2.198810049861801147e-02 2.198975536619499765e-02 2.198226186048045719e-02 2.198443017891328968e-02 2.200579785622734305e-02 2.200977735441050562e-02 2.198930998093863790e-02 2.199320855840268540e-02 2.199865360629997546e-02 2.199810017817204269e-02 2.200222385714496395e-02 2.199982602433907947e-02 2.198684377285886268e-02 2.195698478664067504e-02 2.200167051621212261e-02 2.200051751716355225e-02 2.199669213885049879e-02 2.200334016611498258e-02 2.199865549210546292e-02 2.199705681668142482e-02 2.198707938657186098e-02 2.201329599148105914e-02 2.200577681347590936e-02 2.200890664311408451e-02 2.198943911893596129e-02 2.199012248405865511e-02 2.199108958906884070e-02 2.198235526616074478e-02 2.197457026926350268e-02 2.199899156914440074e-02 2.200849067215239485e-02 2.200220530805679572e-02 2.201478824332799705e-02 2.202314127172240107e-02 2.200989955927348807e-02 2.201439159847860469e-02 2.199568158122742687e-02 2.197947132176285637e-02 2.200188332975193048e-02 2.199128458809734496e-02 2.200661049959964921e-02 2.202145741536122581e-02 2.199767830706160499e-02 2.200966572563741591e-02 2.201377746154471390e-02 2.201262464511561517e-02 2.202111716294812005e-02 2.200948868209734108e-02 2.200590218249483254e-02 2.199171814513665654e-02 2.200394805940757148e-02 2.200057857115807203e-02 2.199355751288470037e-02 2.200222426414948085e-02 2.199661382828584089e-02 2.200905453069249354e-02 2.200657845123380960e-02 2.200946983095305662e-02 2.200429130061230115e-02 2.200290290621058006e-02 2.199629853800244908e-02 2.198069373126552636e-02 2.201113408645406083e-02 2.201525039182085017e-02 2.199972724424614084e-02 2.200430133690075424e-02 2.198792439095533305e-02 2.199035880723177253e-02 2.199003947216403645e-02 2.199699306237521898e-02 2.201344093755836645e-02 2.202315750149774418e-02 2.203184919566154171e-02 2.201460108374768757e-02 2.201164778477351230e-02 2.200274166061763279e-02 2.197813574799669170e-02 2.200444693895248563e-02 2.199484120617943572e-02 2.197839657540691036e-02 2.199971811311537268e-02 2.201808815176965403e-02 2.199602433444845795e-02 2.199702909728849451e-02 2.200398539269095982e-02 2.199275528956776138e-02 2.198988250526616797e-02 2.200839713728841920e-02 2.201151512316894959e-02 2.201616660234756787e-02 2.201152271809403774e-02 2.199475170090117726e-02 2.200451390264117346e-02 2.198588432503584614e-02 2.199013779563354851e-02 2.198132849511569634e-02 2.201052823478027304e-02 2.200050279054339628e-02 2.198322629754429283e-02 2.200158292706361554e-02 2.199621863337909711e-02 2.200041279949471740e-02 2.200740001768905149e-02 2.201968594026711135e-02 2.200178579347128807e-02 2.199891871177506522e-02 2.197934725976520218e-02 2.199105075273221147e-02 2.199908225327306538e-02 2.198973933821007573e-02 2.199871944737689933e-02 2.199054999332237387e-02 2.198805791489727435e-02 2.201164030427476756e-02 2.199425939362720933e-02 2.199178177193566661e-02 2.201215589092555061e-02 2.199529351074584055e-02 2.200353202770724201e-02 2.200162168573183141e-02 2.200191755791227124e-02 2.199495611786720511e-02 2.198820268779249146e-02 2.199298921808633817e-02 2.200994379165308393e-02 2.200765673161875560e-02 2.200913190699705160e-02 2.202203199310017942e-02 2.200977008205776825e-02 2.200806497405031689e-02 2.201013381763830545e-02 2.201605539893616154e-02 2.200621637490644128e-02 2.200851883886743160e-02 2.200287284526158613e-02 2.199554765374688026e-02 2.199554300073721172e-02 2.200550245284114623e-02 2.201246270943357786e-02 2.200276646011657330e-02 2.200058932722835647e-02 2.200824301952627321e-02 2.199575579193812497e-02 2.197905000230127026e-02 2.200673397776864437e-02 2.201479672801681317e-02 2.200967652382744208e-02 2.200256733894774552e-02 2.199218656170404129e-02 2.199868511461271561e-02 2.199411103753620006e-02 2.198314340703674818e-02 2.201286419225173194e-02 2.201365637749821622e-02 2.200640664996874121e-02 2.199620437719772628e-02 2.199101434574773223e-02 2.199066832536072241e-02 2.200577704985043348e-02 2.202070774453579460e-02 2.201884257567587877e-02 2.199835007091687292e-02 2.197087085288660160e-02 2.199293381156331925e-02 2.199231534125642429e-02 2.200303415555615941e-02 2.199376961248132589e-02 2.198909642966268355e-02 2.200142276827785764e-02 2.200235847181768872e-02 2.201011075767174419e-02 2.199172161267797312e-02 2.199726311312447113e-02
2.000000000000000000e+00 1.019999991788561322e-01 7.899732670525902401e-04 1.019999999999999934e-01 1.020001486135158342e-01 1.019558838445133869e-01 1.020376106422682672e-01 1.019892680379064914e-01 1.020725786337091656e-01 1.019821461173562316e-01 1.020986216110667949e-01 1.019427611139881035e-01 1.020285005805021267e-01 1.020294202184025140e-01 1.020303054165201256e-01 1.020352051813531169e-01 1.020199867302973434e-01 1.021073993086654141e-01 1.019922011435195203e-01 1.019705082762602938e-01 1.020241009186910464e-01 1.019299353202208214e-01 1.019954143553433029e-01 1.019702619763307172e-01 1.019471249568520560e-01 1.020020966787286154e-01 1.019524074845070266e-01 1.020060816654745073e-01 1.020683873527438307e-01 1.020327119600519389e-01 1.020481683366635667e-01 1.019967458147773426e-01 1.020758977331957945e-01 1.019518619287659300e-01 1.018884781975075426e-01 1.018708225520717908e-01 1.019978368120359885e-01 1.019739756182763413e-01 1.019092979420758577e-01 1.019642875184431641e-01 1.019533189802318551e-01 1.019402860834496272e-01 1.019906891662521325e-01 1.019437853578753078e-01 1.019272587398896701e-01 1.020615406210229614e-01 1.020776658419579597e-01 1.020468941474009100e-01 1.019295005265142828e-01 1.019888307022884105e-01 1.019357548885974907e-01 1.020401913243062786e-01 1.020377961212039220e-01 1.019704863191125133e-01 1.019655965132136716e-01 1.019889470507762547e-01 1.019448295845016977e-01 1.019525021523586261e-01 1.019177595349548410e-01 1.019278126476888952e-01 1.020268809697813250e-01 1.020453313704487025e-01 1.019504371843518581e-01 1.019685124071397220e-01 1.019937576292089670e-01 1.019911917351612879e-01 1.020103106103993768e-01 1.019991933855720900e-01 1.019390029468910941e-01 1.018005658289704018e-01 1.020077451206198443e-01 1.020023993977582921e-01 1.019846635528523088e-01 1.020154862247149297e-01 1.019937663724889698e-01 1.019863543318866167e-01 1.019400953377422592e-01 1.020616450514121865e-01 1.020267834079337660e-01 1.020412944362562163e-01 1.019510359150667400e-01 1.019542042442719426e-01 1.019586880947737223e-01 1.019181925976543751e-01 1.018820985211307817e-01 1.019953245478513043e-01 1.020393658436156425e-01 1.020102246100815097e-01 1.020685636736116120e-01 1.021072913507129615e-01 1.020458979566316315e-01 1.020667246838553449e-01 1.019799782402362603e-01 1.019048215827186993e-01 1.020087318015771294e-01 1.019595921811786016e-01 1.020306486799620188e-01 1.020994843803111340e-01 1.019892357872856231e-01 1.020448138188643772e-01 1.020638773217073109e-01 1.020585324455360460e-01 1.020979068463958306e-01 1.020439929806331164e-01 1.020273646642942261e-01 1.019616023092699553e-01 1.020183046390714665e-01 1.020026824662783327e-01 1.019701302870108794e-01 1.020103124974203190e-01 1.019843004765979971e-01 1.020419800968470209e-01 1.020305000920840310e-01 1.020439055798732647e-01 1.020198960301115648e-01 1.020134589287945148e-01 1.019828386761931771e-01 1.019104891176856181e-01 1.020516216735597448e-01 1.020707063620784893e-01 1.019987354051412054e-01 1.020199425619944117e-01 1.019440130853383614e-01 1.019552999244382196e-01 1.019538193709423474e-01 1.019860587437396576e-01 1.020623170741342539e-01 1.021073665978531747e-01 1.021476644526125993e-01 1.020676959337392803e-01 1.020540033657681006e-01 1.020127113355908527e-01 1.018986293770755697e-01 1.020206176260524400e-01 1.019760819559228371e-01 1.018998386677956725e-01 1.019986930698985605e-01 1.020838632491138515e-01 1.019815673688064805e-01 1.019862258147011952e-01 1.020184777297489936e-01 1.019664108879959896e-01 1.019530916153249533e-01 1.020389321819735878e-01 1.020533882983287732e-01 1.020749542472478150e-01 1.020534235111632687e-01 1.019756669769054519e-01 1.020209280940636148e-01 1.019345545978934814e-01 1.019542752343010061e-01 1.019134321137182275e-01 1.020488127248903587e-01 1.020023311197921084e-01 1.019222310158871686e-01 1.020073390254767620e-01 1.019824682093030815e-01 1.020019138885664145e-01 1.020343091729219720e-01 1.020912711776020693e-01 1.020082795879123372e-01 1.019949867545934807e-01 1.019042463861841163e-01 1.019585080353948014e-01 1.019957449924478454e-01 1.019524278407921702e-01 1.019940628923838022e-01 1.019561863326764739e-01 1.019446321508873654e-01 1.020539686834557452e-01 1.019733844613625040e-01 1.019618973062471901e-01 1.020563591306548196e-01 1.019781790043670783e-01 1.020163757648244879e-01 1.020075187247566767e-01 1.020088904957750786e-01 1.019766147282934049e-01 1.019453033706742701e-01 1.019674954656730331e-01 1.020461030340279324e-01 1.020354993920506020e-01 1.020423388415317850e-01 1.021021483316462836e-01 1.020452976531769224e-01 1.020373921524150990e-01 1.020469840635957887e-01 1.020744386677949339e-01 1.020288213745662309e-01 1.020394964347489941e-01 1.020133195553037248e-01 1.019793573037355294e-01 1.019793357306907067e-01 1.020255113722634832e-01 1.020577816528284026e-01 1.020128263150859305e-01 1.020027323353314697e-01 1.020382176359854454e-01 1.019803223080767568e-01 1.019028681924877139e-01 1.020312211696546290e-01 1.020686030117143178e-01 1.020448638831999572e-01 1.020119031169395424e-01 1.019637740588096447e-01 1.019939037132044091e-01 1.019726966285769282e-01 1.019218467053521898e-01 1.020596430731671167e-01 1.020633159320371713e-01 1.020297035589459722e-01 1.019824021124621782e-01 1.019583392393758475e-01 1.019567349630360747e-01 1.020267845038520110e-01 1.020960086337568684e-01 1.020873610326790693e-01 1.019923503287964162e-01 1.018649466815651494e-01 1.019672385808844811e-01 1.019643711276434217e-01 1.020140674484876497e-01 1.019711136578679705e-01 1.019494470829815369e-01 1.020065964711064366e-01 1.020109347329729160e-01 1.020468771492053645e-01 1.019616183860524161e-01 1.019873107972134596e-01
3.000000000000000000e+00 4.820177447482339450e-01 3.939482277579085812e-03 4.819999999999999840e-01 4.820007022717121004e-01 4.817915295397593445e-01 4.821777287213069307e-01 4.819492862183424320e-01 4.823429696220374319e-01 4.819156316526049810e-01 4.824660354562176345e-01 4.817295182053163427e-01 4.821346792137453652e-01 4.821390249536275374e-01 4.821432079486538957e-01 4.821663617393353030e-01 4.820944470980717544e-01 4.825075143801640376e-01 4.819631465801608727e-01 4.818606371486025552e-01 4.821138886549909963e-01 4.816689100426120862e-01 4.819783305811320973e-01 4.818594732607000553e-01 4.817501395019871402e-01 4.820099078347763744e-01 4.817751020346312529e-01 4.820287388505756221e-01 4.823231637649267323e-01 4.821545800465198983e-01 4.822276190026650866e-01 4.819846223796341311e-01 4.823586539941213114e-01 4.817725240163252542e-01 4.814730048156729003e-01 4.813895732362608038e-01 4.819897778764837826e-01 4.818770220393058246e-01 4.815713883145152918e-01 4.818312410185255357e-01 4.817794092987426890e-01 4.817178224727717839e-01 4.819560017464071255e-01 4.817343582597637397e-01 4.816562618884982494e-01 4.822908096013046042e-01 4.823670091747425115e-01 4.822215978337964781e-01 4.816668554292145576e-01 4.819472195931667757e-01 4.816964103559214783e-01 4.821899237089767309e-01 4.821786052001989509e-01 4.818605333903159815e-01 4.818374266604802947e-01 4.819477693968054477e-01 4.817392927424491433e-01 4.817755493866358596e-01 4.816113734887081943e-01 4.816588793743729613e-01 4.821270257591627195e-01 4.822142129466301941e-01 4.817657914005646913e-01 4.818512056886406492e-01 4.819705017380266909e-01 4.819583766308602191e-01 4.820487226883578002e-01 4.819961883514289336e-01 4.817117590235441837e-01 4.830536653060948371e-01 4.820365994915564722e-01 4.820113383305832944e-01 4.819275277693609305e-01 4.820731800030646497e-01 4.819705430543105851e-01 4.819355175291112348e-01 4.817169211058016653e-01 4.822913030860850325e-01 4.821265647316085867e-01 4.821951364536813389e-01 4.817686206966879103e-01 4.817835926052850826e-01 4.818047809968719064e-01 4.816134199222490975e-01 4.814428577175003943e-01 4.819779061967091049e-01 4.821860229080660587e-01 4.820483162946989086e-01 4.823239969674588123e-01 4.825070042259180791e-01 4.822168903440828269e-01 4.823153068393948861e-01 4.819053873705281821e-01 4.815502353222589349e-01 4.820412620427468320e-01 4.818090532483145783e-01 4.821448300366832362e-01 4.824701124638232086e-01 4.819491338183497509e-01 4.822117672616924589e-01 4.823018516574796299e-01 4.822765944975330732e-01 4.824626578427724244e-01 4.822078883986780640e-01 4.821293114528413248e-01 4.818185520889031181e-01 4.820864983924749714e-01 4.820126759680996020e-01 4.818588509641102413e-01 4.820487316054568039e-01 4.819258120560807046e-01 4.821983765360810525e-01 4.821441278861225421e-01 4.822074753872442332e-01 4.820940184952330898e-01 4.820636000360681850e-01 4.819189043325990962e-01 4.815770172031810792e-01 4.822439377123117210e-01 4.823341222208022971e-01 4.819940241693927430e-01 4.820942383811893106e-01 4.817354343836577346e-01 4.817887702311688392e-01 4.817817738901393199e-01 4.819341207302207386e-01 4.822944787228696795e-01 4.825073598055414914e-01 4.826977869231301455e-01 4.823198964711993275e-01 4.822551923754924141e-01 4.820600672917135787e-01 4.815209741152002287e-01 4.820974283897772050e-01 4.818869755172039415e-01 4.815266886066423280e-01 4.819938241146186630e-01 4.823962949614987727e-01 4.819128967820071052e-01 4.819349102224115278e-01 4.820873163307746734e-01 4.818412749805300876e-01 4.817783348881042316e-01 4.821839736442281033e-01 4.822522858803379164e-01 4.823541955605239462e-01 4.822524522782420942e-01 4.818850145379257599e-01 4.820988955033202461e-01 4.816907383939671994e-01 4.817839280679713787e-01 4.815909243020802255e-01 4.822306640529132604e-01 4.820110156837235094e-01 4.816325034280158346e-01 4.820346804929391826e-01 4.819171536949420354e-01 4.820090440616570104e-01 4.821621276602783279e-01 4.824313010549430847e-01 4.820391251115073161e-01 4.819763099579809640e-01 4.815475172366739387e-01 4.818039301280421238e-01 4.819798930035280593e-01 4.817751982280571443e-01 4.819719442561665734e-01 4.817929589446083849e-01 4.817383597718402632e-01 4.822550284845653623e-01 4.818742285331051867e-01 4.818199460942269030e-01 4.822663245193688497e-01 4.818968850990679176e-01 4.820773835161313858e-01 4.820355296601246953e-01 4.820420119506234058e-01 4.818894931278178140e-01 4.817415316143627835e-01 4.818464001417098186e-01 4.822178594353084824e-01 4.821677520291018371e-01 4.822000717805717263e-01 4.824827009397402722e-01 4.822140536159928992e-01 4.821766962496478182e-01 4.822220227318937957e-01 4.823517591948740524e-01 4.821361951229502507e-01 4.821866400151864074e-01 4.820629414280038216e-01 4.819024531411816303e-01 4.819023511979698138e-01 4.821205537395196195e-01 4.822730466339538169e-01 4.820606106261903778e-01 4.820129116238212608e-01 4.821805970641664940e-01 4.819070132597352840e-01 4.815410045958732899e-01 4.821475353311130418e-01 4.823241828592774172e-01 4.822120038402193942e-01 4.820562480624006052e-01 4.818288146700612784e-01 4.819711920565149521e-01 4.818709781860204266e-01 4.816306873723505411e-01 4.822818427575151778e-01 4.822991988160972299e-01 4.821403638765878741e-01 4.819168413549683172e-01 4.818031324841093865e-01 4.817955514919940452e-01 4.821265699103595148e-01 4.824536878575569343e-01 4.824128237034442379e-01 4.819638515537242318e-01 4.833591587635052145e-01 4.818451862351600390e-01 4.818316361129816316e-01 4.820664755899122245e-01 4.818634978734545049e-01 4.817611126862461068e-01 4.820311715595421709e-01 4.820516719734602717e-01 4.822215175089900052e-01 4.818186280595810334e-01 4.819400372966362034e-01
4.000000000000000000e+00 1.845390015363347125e+00 9.121995274415446026e-03 1.846000000000000085e+00 1.846002689613237546e+00 1.845201584087957869e+00 1.844679941415124480e+00 1.845805772529170330e+00 1.845312107848624539e+00 1.845676879731760867e+00 1.845782924027521421e+00 1.844964088396294555e+00 1.846515804623597434e+00 1.846532448266382742e+00 1.844547874392775677e+00 1.844636454455050423e+00 1.844361328732042171e+00 1.845941611031167051e+00 1.845858855989578773e+00 1.845466257627220719e+00 1.844435706804571362e+00 1.846730592860471365e+00 1.845917008823173999e+00 1.845461800081436232e+00 1.845043065395577386e+00 1.846037945773853162e+00 1.845138668788234959e+00 1.846110066220254309e+00 1.845236336063329485e+00 1.844591380924860413e+00 1.844870807968701953e+00 1.845941105628225332e+00 1.845372111960912331e+00 1.845128795299038282e+00 1.845979487343077929e+00 1.845659608590477063e+00 1.845960850539396514e+00 1.845529009719001134e+00 1.846356692127021359e+00 1.845353674108294983e+00 1.845155165073607995e+00 1.844919295196549180e+00 1.845831492165700416e+00 1.844982625202331583e+00 1.844683525821924741e+00 1.845112557893787697e+00 1.845404076593828213e+00 1.844847772625561655e+00 1.844724097764170123e+00 1.845797857612003989e+00 1.844837289454421381e+00 1.844726596098242855e+00 1.844683294583333799e+00 1.845465860245898870e+00 1.845377364346984628e+00 1.845799963291499868e+00 1.845001523656765841e+00 1.845140382090725728e+00 1.846509996280358390e+00 1.846692135028716431e+00 1.844485965767419078e+00 1.844819520069680641e+00 1.845103010218760220e+00 1.845430136309607061e+00 1.845887025328625031e+00 1.845840587677526790e+00 1.846186601831345531e+00 1.845985401860451791e+00 1.844896072940793719e+00 1.844386722077816732e+00 1.845740141123546341e+00 1.846043424394723687e+00 1.845722440378091855e+00 1.846280270302193660e+00 1.845887183564849376e+00 1.845753040163359726e+00 1.844915843073256845e+00 1.845114445831412597e+00 1.844484202002253603e+00 1.844746538631926169e+00 1.845113846070717489e+00 1.845171186616921588e+00 1.845252335519140141e+00 1.846517842357502603e+00 1.845863902618134267e+00 1.845915383483661909e+00 1.844711672702227911e+00 1.846185045394220348e+00 1.845239523668037451e+00 1.845939659320732229e+00 1.844829763059105288e+00 1.845206277617933877e+00 1.845637645406628780e+00 1.846275591028079921e+00 1.846158028487366431e+00 1.845268697710350070e+00 1.844554080057352552e+00 1.845798521542095560e+00 1.845805188856169288e+00 1.844810163548881610e+00 1.845154801776747844e+00 1.845058174799690809e+00 1.845770002203469762e+00 1.844795324081249799e+00 1.844494710205476062e+00 1.845305077087375789e+00 1.846331278075744375e+00 1.846048547379899984e+00 1.845459416762961657e+00 1.844186433776892731e+00 1.845715869409802812e+00 1.844758934299861819e+00 1.844551393821597607e+00 1.844793744012610759e+00 1.844359689014958281e+00 1.846243580221124114e+00 1.845689413688750946e+00 1.846378273426304339e+00 1.844933238882785931e+00 1.845278260114438629e+00 1.845977113312653461e+00 1.846360921269036171e+00 1.844986746622888418e+00 1.845191016279538854e+00 1.845164221164309559e+00 1.845747690597484336e+00 1.845126594948074183e+00 1.845941019670992667e+00 1.844666646291298173e+00 1.845223836292306130e+00 1.844976296141925376e+00 1.844229801008132608e+00 1.846163402831722200e+00 1.844372734337653919e+00 1.845567130300328929e+00 1.846185312334180484e+00 1.845976347127771922e+00 1.845516115993783846e+00 1.845666405517811359e+00 1.845750714254298153e+00 1.846334410677614057e+00 1.845392102933731238e+00 1.845151050214606681e+00 1.846704596156110156e+00 1.844965176687433761e+00 1.845355055214950690e+00 1.844965813280245781e+00 1.845559619993798695e+00 1.846378757467072917e+00 1.844815566546189833e+00 1.845172471397251490e+00 1.844433290999253350e+00 1.844882457497037498e+00 1.846042188697414099e+00 1.844592533875762053e+00 1.846132821970883242e+00 1.845682708964446084e+00 1.846034637630329600e+00 1.844620256028118632e+00 1.845650039720570623e+00 1.846149844306727017e+00 1.845189305475677610e+00 1.846265169820276775e+00 1.845249076797439214e+00 1.845922992706457988e+00 1.845139037197081944e+00 1.845892549993534359e+00 1.845207058530595745e+00 1.844997950495471217e+00 1.844975669140121344e+00 1.845518310937992013e+00 1.845310415954238392e+00 1.845018884675759807e+00 1.845605082765309879e+00 1.844296048140552591e+00 1.846136074175498187e+00 1.846160900541184313e+00 1.845576772435584489e+00 1.845010098257497289e+00 1.845411731663062938e+00 1.844833470536740405e+00 1.844641773322953870e+00 1.844765419841025489e+00 1.845846681603487749e+00 1.844818910514296473e+00 1.844675991461308229e+00 1.844849398169319921e+00 1.845345734347194622e+00 1.844521045242158097e+00 1.844714033585070023e+00 1.846241057834222099e+00 1.845626407673488290e+00 1.845626017243676920e+00 1.846461705815670706e+00 1.845044601645250637e+00 1.844231879657043827e+00 1.846049449911979501e+00 1.844690914909383972e+00 1.845643872359899129e+00 1.846240200193306702e+00 1.844564429772971970e+00 1.845240234839227389e+00 1.844811068633536388e+00 1.844215189682711031e+00 1.845344381495712005e+00 1.845889669162503299e+00 1.845505862513264983e+00 1.846584046191086736e+00 1.845078253205099550e+00 1.845144652732123136e+00 1.846537576174649642e+00 1.845681512741227381e+00 1.845246021920468715e+00 1.845216987664358932e+00 1.844484221814736369e+00 1.845735685496545653e+00 1.845579350433923516e+00 1.845861555950570443e+00 1.845553151642474576e+00 1.845407082552085853e+00 1.845355187270879993e+00 1.844254317402070686e+00 1.845477213847296794e+00 1.845085091325332494e+00 1.846119383192769359e+00 1.844197682819628037e+00 1.844847465324849889e+00 1.845305368045615291e+00 1.845770350310353525e+00
5.000000000000000000e+00 4.992011797028489184e+00 1.962379004867211701e-02 4.991999999999999993e+00 4.994007276234294856e+00 4.991840038426468951e+00 4.990789584448426908e+00 4.993074596804662590e+00 4.993550660609889391e+00 4.993125859902716179e+00 4.992822790156874468e+00 4.989198661578711835e+00 4.989393734270045400e+00 4.989438706366585485e+00 4.993483182737926462e+00 4.991722292695608409e+00 4.992978174094552912e+00 4.993252036780618575e+00 4.993618161869965988e+00 4.992556062074940293e+00 4.993179527314761224e+00 4.990569578325320776e+00 4.992925521454636417e+00 4.992544003037211908e+00 4.991411196416854601e+00 4.994102655035006499e+00 4.991669833114000809e+00 4.990297524614880409e+00 4.991344275642021877e+00 4.991600320398618784e+00 4.992356470587756334e+00 4.991840736346750518e+00 4.993713036163206276e+00 4.991643122277030109e+00 4.992535431677869617e+00 4.991670305051517431e+00 4.991894131036114679e+00 4.992725825859530175e+00 4.989559156105165094e+00 4.988352854370284639e+00 4.993713545345474181e+00 4.991076359811249752e+00 4.991544316842457363e+00 4.993246584783775255e+00 4.994435678254594002e+00 4.993010663714750663e+00 4.991798011957708781e+00 4.990293215757213297e+00 4.990548290484434268e+00 4.993453142423806668e+00 4.990854508957410118e+00 4.993967010695460118e+00 4.991849045537329665e+00 4.992554987035763503e+00 4.992315578303814227e+00 4.991459055661520594e+00 4.993297731413435692e+00 4.991674468126264586e+00 4.991971829770925240e+00 4.994312925894487165e+00 4.989314532130090463e+00 4.992217681750382496e+00 4.993572393853155766e+00 4.992458342757409184e+00 4.991694491029521785e+00 4.993568740445053500e+00 4.994504815571906065e+00 4.991960523340940092e+00 4.991013536438962284e+00 4.990223815145608199e+00 4.995129264129568369e+00 4.994117476396126243e+00 4.993249115519063253e+00 4.990757610405171185e+00 4.991694918935930758e+00 4.993331897386683593e+00 4.991067020751811967e+00 4.993015772613204284e+00 4.991310286329309065e+00 4.992020188597240171e+00 4.991602679998463188e+00 4.991757803881315070e+00 4.991977336718627534e+00 4.989994645418489583e+00 4.994220515741704780e+00 4.989771269546843691e+00 4.989925066940733345e+00 4.994500604928893139e+00 4.993354242463940551e+00 4.993246757425061411e+00 4.992245400035214331e+00 4.993264276200374496e+00 4.993019718938626283e+00 4.991338123796692727e+00 4.992427344641892084e+00 4.992021601498097816e+00 4.991499381500102750e+00 4.991313469492134836e+00 4.991473186765978731e+00 4.990191483612701262e+00 4.993124978777641942e+00 4.992863499051224174e+00 4.992787836762964560e+00 4.990151343013705443e+00 4.991338722302237407e+00 4.992120018946021531e+00 4.990895491656535121e+00 4.990131230458126232e+00 4.994536969744180155e+00 4.991604614763335945e+00 4.993231339020885784e+00 4.992053732188888482e+00 4.989491514307011322e+00 4.992147929838897547e+00 4.992973735120754597e+00 4.990658431908672199e+00 4.993159768126555598e+00 4.990916336172350753e+00 4.992525413245716415e+00 4.993459066144820824e+00 4.991938109239852039e+00 4.990975621415216779e+00 4.989259934529500562e+00 4.991811449241612131e+00 4.991738960181235640e+00 4.989317971875106394e+00 4.991047427115506530e+00 4.991248331930352222e+00 4.991215290508050906e+00 4.991310463896976302e+00 4.992641929364538100e+00 4.993722244801219290e+00 4.991034827135975682e+00 4.991008646607859589e+00 4.992828953802731284e+00 4.993092094721988339e+00 4.991936037303270624e+00 4.992101077319410329e+00 4.993097523919799663e+00 4.993325605084487862e+00 4.992904321832421388e+00 4.990356109341921531e+00 4.991703328695420439e+00 4.991904623412237285e+00 4.990610792471215085e+00 4.991665409659530539e+00 4.992613561967693236e+00 4.992808636104567377e+00 4.991023835189975166e+00 4.992794458539958846e+00 4.991761279608815549e+00 4.993758173572192760e+00 4.990387037958363692e+00 4.990114042036888797e+00 4.992190844660512994e+00 4.990359036638519541e+00 4.989142317298258966e+00 4.992093667958074299e+00 4.991678458557653464e+00 4.992463339547834167e+00 4.992405212773121548e+00 4.991954636041930016e+00 4.989311827966700363e+00 4.991968520870212700e+00 4.993791671492985529e+00 4.991670829773687146e+00 4.993709314554555689e+00 4.991854848484178930e+00 4.991289146681681110e+00 4.990639174441933612e+00 4.989447730397500003e+00 4.992134462229396163e+00 4.991656569283473566e+00 4.990932054801964668e+00 4.992801449196115904e+00 4.990367827809174983e+00 4.994435285646085632e+00 4.990855497290594300e+00 4.991322010128895315e+00 4.992408552505598784e+00 4.994256336724190781e+00 4.991736685944435870e+00 4.992071282541603594e+00 4.992995253708349956e+00 4.992216032248557589e+00 4.991829282750503083e+00 4.992298534091597517e+00 4.993641656395065631e+00 4.993410551978771039e+00 4.991932227543112610e+00 4.994652135874380505e+00 4.990989722159292263e+00 4.988989071530849806e+00 4.993248556571954211e+00 4.990825636120667319e+00 4.992627734950088048e+00 4.994133777280836739e+00 4.991869666701640895e+00 4.991036950607051104e+00 4.993240541431897661e+00 4.991527388593888226e+00 4.991354821788538842e+00 4.992194811540860755e+00 4.992582552546688035e+00 4.992226349506817762e+00 4.991701640552121511e+00 4.992663205520718073e+00 4.990173553397341699e+00 4.992917832697097325e+00 4.993097514714367691e+00 4.991453144697454825e+00 4.991138738680501952e+00 4.991960256484734515e+00 4.991881709856883731e+00 4.991310339943348495e+00 4.990693127920703631e+00 4.992272125794149140e+00 4.991625616091683426e+00 4.991382387396692266e+00 4.992395975224873439e+00 4.994254883859867711e+00 4.992688477478925080e+00 4.992585702033260908e+00 4.993523898299762287e+00 4.994322968399074192e+00 4.991285024692006189e+00 4.990292384512120982e+00 4.990121558658564993e+00 4.993378726679255308e+00
6.000000000000000000e+00 2.157415444958847746e-03 1.734226774114891405e-05 2.157415444958847746e-03 2.157358643869874363e-03 2.156505551077491332e-03 2.158357058462852685e-03 2.157030324246307206e-03 2.158852229042658704e-03 2.157143352313436926e-03 2.159764527013062312e-03 2.156066894531250173e-03 2.158141766906415248e-03 2.158176751784336538e-03 2.157926475349977811e-03 2.158330147018298114e-03 2.157888799327601238e-03 2.159742997857418308e-03 2.157132587735614924e-03 2.156893075879078633e-03 2.157880725894234953e-03 2.155951175319664737e-03 2.157377481881062650e-03 2.156815032689869769e-03 2.156405978732638899e-03 2.157078764846505781e-03 2.156392523010361613e-03 2.157407084470072938e-03 2.158795715009093844e-03 2.158017974261463960e-03 2.158305926718198826e-03 2.157315585558586789e-03 2.159156328366126573e-03 2.156325244398974751e-03 2.154931231571042844e-03 2.154750924892526263e-03 2.157415157903439223e-03 2.156850017567791059e-03 2.155383343839561289e-03 2.156788121245315198e-03 2.156222980909667034e-03 2.156091114831349027e-03 2.157431304770171792e-03 2.156066894531250173e-03 2.155921572730654882e-03 2.158795715009093844e-03 2.159019079998897566e-03 2.158583114597112124e-03 2.155843529541446018e-03 2.157291365258487501e-03 2.156029218508873600e-03 2.158327455873842397e-03 2.158187516362158106e-03 2.156850017567791059e-03 2.156677784322641196e-03 2.157256380380566645e-03 2.156260656932043607e-03 2.156440963610559754e-03 2.155811235807980446e-03 2.155832764963624450e-03 2.158292470995921541e-03 2.158402807918595543e-03 2.156109952842537314e-03 2.156839252989969057e-03 2.157102985146605069e-03 2.157078764846505781e-03 2.157778462404927235e-03 2.157530877115024226e-03 2.156088423686893744e-03 2.153173914241622491e-03 2.157614302593143657e-03 2.157221395502645356e-03 2.157175646046902498e-03 2.157770388971560951e-03 2.157046471113040209e-03 2.156954972201554060e-03 2.156136864287092319e-03 2.158723054108796415e-03 2.158012591972552959e-03 2.158854920187113988e-03 2.156118026275904032e-03 2.156475948488481044e-03 2.156327935543430468e-03 2.155625546840553297e-03 2.154702484292328121e-03 2.157148734602347927e-03 2.158408190207506544e-03 2.157775771260471952e-03 2.159064829454640858e-03 2.159670336957120879e-03 2.158491615685625975e-03 2.158618099475032980e-03 2.157051853401951210e-03 2.155305300650352859e-03 2.157541641692846228e-03 2.156761209800760627e-03 2.157810756138392808e-03 2.159783365024250598e-03 2.156941516479276774e-03 2.158978712832065709e-03 2.158655775497409553e-03 2.158618099475032980e-03 2.159632660934744305e-03 2.158257486118000251e-03 2.157939931072255096e-03 2.156475948488481044e-03 2.157864579027502384e-03 2.157377481881062650e-03 2.156637417155808905e-03 2.157703110360174089e-03 2.156998030512841634e-03 2.158343602740575400e-03 2.158200972084435825e-03 2.158311309007109827e-03 2.157705801504629806e-03 2.157845741016314097e-03 2.156925369612544205e-03 2.155431784439759864e-03 2.158645010919587551e-03 2.158884522776124276e-03 2.157579317715222801e-03 2.157958769083443383e-03 2.156295641809964896e-03 2.156435581321649187e-03 2.156580903122244479e-03 2.156968427923831779e-03 2.158782259286816559e-03 2.159525015156525587e-03 2.160402328249007905e-03 2.158959874820877423e-03 2.158389352196318257e-03 2.157703110360174089e-03 2.155332212094907430e-03 2.157813447282848525e-03 2.156833870701058056e-03 2.155321447517085428e-03 2.157417849047894506e-03 2.159242444988701288e-03 2.156938825334821491e-03 2.157151425746803210e-03 2.157950695650077098e-03 2.156438272466104471e-03 2.156400596443727898e-03 2.158389352196318257e-03 2.158591188030478409e-03 2.159091740899195429e-03 2.158577732308201123e-03 2.156763900945215910e-03 2.158028738839285528e-03 2.155846220685901735e-03 2.156465183910659042e-03 2.155695516596395443e-03 2.158475468818893406e-03 2.157522803681657941e-03 2.155813926952436163e-03 2.157447451636904795e-03 2.157425922481261225e-03 2.157417849047894506e-03 2.158077179439484104e-03 2.159476574556327012e-03 2.157269836102843931e-03 2.157213322069279071e-03 2.155297227216986140e-03 2.156475948488481044e-03 2.157302129836309503e-03 2.156508242221946616e-03 2.157156808035714211e-03 2.156583594266699763e-03 2.156099188264715746e-03 2.158615408330577697e-03 2.156753136367394342e-03 2.156182613742835177e-03 2.159005624276620280e-03 2.157019559668485638e-03 2.157697728071263088e-03 2.157587391148589086e-03 2.157692345782352087e-03 2.156976501357198064e-03 2.156279494943231893e-03 2.156758518656304909e-03 2.158472777674437688e-03 2.158440483940972116e-03 2.158262868406911252e-03 2.159699939546131167e-03 2.158408190207506544e-03 2.158171369495425537e-03 2.158510453696814262e-03 2.158809170731371130e-03 2.157791918127204521e-03 2.158338220451664399e-03 2.157708492649085090e-03 2.157059926835317495e-03 2.157065309124228496e-03 2.157746168671461663e-03 2.158758038986717271e-03 2.157412466758983505e-03 2.157385555314428934e-03 2.158190207506613823e-03 2.156895767023533916e-03 2.155286462639164572e-03 2.157902255049878957e-03 2.158900669642857279e-03 2.158529291708002548e-03 2.157692345782352087e-03 2.156597049988977048e-03 2.157288674114032218e-03 2.156981883646109065e-03 2.155593253107087725e-03 2.158784950431271842e-03 2.158774185853450274e-03 2.158394734485229258e-03 2.157119132013337638e-03 2.156362920421351324e-03 2.156494786499669331e-03 2.158149840339781533e-03 2.159495412567515298e-03 2.159411987089395867e-03 2.157224086647101073e-03 2.154368782379849964e-03 2.156610505711254334e-03 2.156798885823137200e-03 2.157643905182153946e-03 2.156718151489473052e-03 2.156540535955412188e-03 2.157423231336805507e-03 2.157399011036706220e-03 2.158381278762951973e-03 2.156750445222938625e-03 2.157164881469080496e-03
