# vvf statistics with RF=500
# gcat file: /disk11/salam/Abacus/AbacusCosmos_720box_products/GCAT_v9July2021/AbacusCosmos_720box_39_rockstar_halos_z0.100_Mr21_hod-default_real-0.gcat.rsd_zz.1pz0.100by100
# stats order in row: stdvvf,p2.5,p16,p50,p84,p97.5,rho
# columns: numbers, mean, sigma,All, jnrealizations
0.000000000000000000e+00 1.519453628953592705e+00 6.234053283417370986e-03 1.519453947160858576e+00 1.519880889746125563e+00 1.519024707911668104e+00 1.519611743915474378e+00 1.519478965949514260e+00 1.519863747913409391e+00 1.519411435406643252e+00 1.519848754095771026e+00 1.518167837574639023e+00 1.517451777781810174e+00 1.519240346212430204e+00 1.520313249283536283e+00 1.519763772553617054e+00 1.519622634807448414e+00 1.519124260147292071e+00 1.519675352132217050e+00 1.519428380754451746e+00 1.519920515365400959e+00 1.519560145365687287e+00 1.519852707590089613e+00 1.519604949918558212e+00 1.519465905034330433e+00 1.520135548973142958e+00 1.519325906978000962e+00 1.519757680597632499e+00 1.518993090714794381e+00 1.519570502285563451e+00 1.519947945576438864e+00 1.519138784980946788e+00 1.519995326326529561e+00 1.518839985950032334e+00 1.519347424609923447e+00 1.518709713456534161e+00 1.519491894549042987e+00 1.519698722180617745e+00 1.518943107456650399e+00 1.518694400522773602e+00 1.519621476935494986e+00 1.519464038261850503e+00 1.519249153352520532e+00 1.519737869071713821e+00 1.519373736719706436e+00 1.519329622342383113e+00 1.519882270655091183e+00 1.519600664188663242e+00 1.518667078361030986e+00 1.519617614307588793e+00 1.519166438927470830e+00 1.519915500688524768e+00 1.519815763157800870e+00 1.519483832238048393e+00 1.518621802288726341e+00 1.519316945098573735e+00 1.519172018567437554e+00 1.519739069809348697e+00 1.518719371696319875e+00 1.519111546429386284e+00 1.519075577177352754e+00 1.519464383630884097e+00 1.519554337075741390e+00 1.518876074909004448e+00 1.519757337306104406e+00 1.519939955949622057e+00 1.519773937321454271e+00 1.519360017001576857e+00 1.519740111227958712e+00 1.518511734814253389e+00 1.520178020824793919e+00 1.519872613726181987e+00 1.519885052157033956e+00 1.519328720286048595e+00 1.519728154687558952e+00 1.520075960137561966e+00 1.518999941307023427e+00 1.519376857125770419e+00 1.519529949772210342e+00 1.519639471630390259e+00 1.519307002755498237e+00 1.519213576135939103e+00 1.519623547237145544e+00 1.519126929179717811e+00 1.519175226902137021e+00 1.519436214017858999e+00 1.518060263858285186e+00 1.519852240152587131e+00 1.519322420517623895e+00 1.520163759673295534e+00 1.519747268694206177e+00 1.519813426752056440e+00 1.519134381915114185e+00 1.519126183993260604e+00 1.519824870810382755e+00 1.519320355746839546e+00 1.519647759812880583e+00 1.519748086868546677e+00 1.519158891686956947e+00 1.519391613607837588e+00 1.519846206340769834e+00 1.519567375323519487e+00 1.519486504517643555e+00 1.519358521864232037e+00 1.519398231587779424e+00 1.519080038255219200e+00 1.519165355180400967e+00 1.519229148564898990e+00 1.519460330170357087e+00 1.519703445879324599e+00 1.519450862651070322e+00 1.519605160470943295e+00 1.519033255560027440e+00 1.519588430934372347e+00 1.519680039096042323e+00 1.519646356473101090e+00 1.519853246178976436e+00 1.518953111537242329e+00 1.519844660650327306e+00 1.519720430346751083e+00 1.519762094575785039e+00 1.519560231815354490e+00 1.518745365959841331e+00 1.519244766371819155e+00 1.519343392785938773e+00 1.519224399506050593e+00 1.519688568521105898e+00 1.519146003486614660e+00 1.519035830723758806e+00 1.519700154620875265e+00 1.520058949429851536e+00 1.519801152053994464e+00 1.519179003086337021e+00 1.519472852044355227e+00 1.519789581055671190e+00 1.518971461935168188e+00 1.519516065337428667e+00 1.519449411864696176e+00 1.519902592747586656e+00 1.519390152461969956e+00 1.519774890925883026e+00 1.519004089402214985e+00 1.518492948396807707e+00 1.519029878527307975e+00 1.519342839014311997e+00 1.519949824658176407e+00 1.519752801838672118e+00 1.519799651893139814e+00 1.519645935082480470e+00 1.519504519781950558e+00 1.519464084790651537e+00 1.519303454139082632e+00 1.518924296143270070e+00 1.519109322546734031e+00 1.519288878911591478e+00 1.519374712532455041e+00 1.518648052864153275e+00 1.519808080449286614e+00 1.519495482156573374e+00 1.519994057329890236e+00 1.519859826208578513e+00 1.519939546654694329e+00 1.518424787987451063e+00 1.519774983680100444e+00 1.520112138667025992e+00 1.519575122587742744e+00 1.519533867694004003e+00 1.519248779714834408e+00 1.519148884328001659e+00 1.519174667073444063e+00 1.519011894530726270e+00 1.519101420182377149e+00 1.519594886962636560e+00 1.519342123175539516e+00 1.519656376889573224e+00 1.519052949007738240e+00 1.520211204197613686e+00 1.519367454656947558e+00 1.519522533493371075e+00 1.519856145276780923e+00 1.520158916995196563e+00 1.519485328633021437e+00 1.519590912722908804e+00 1.519717236771533697e+00 1.519395932685025707e+00 1.519590969329883245e+00 1.519936480783312893e+00 1.519928394928605986e+00 1.520155822062242867e+00 1.519766966419379584e+00 1.519649964817555654e+00 1.519515492579554206e+00 1.518619902560710999e+00 1.519718250934740000e+00 1.519090090881161093e+00 1.519807931409276502e+00 1.519880580760280431e+00 1.519277245579609081e+00 1.519039194784190361e+00 1.519368128646205296e+00 1.520009423121335468e+00 1.519635342977197823e+00 1.519712545296353134e+00 1.519308242083110994e+00 1.519944083466484352e+00 1.519474195217259682e+00 1.519528694260130708e+00 1.519137396110270100e+00 1.519499319255536163e+00 1.519638690109547774e+00 1.519325685683950100e+00 1.519204174318770528e+00 1.519191860865841459e+00 1.519308931694413500e+00 1.519727625777621327e+00 1.519353079383365834e+00 1.519088670054244528e+00 1.519029859398688176e+00 1.518499256914703333e+00 1.519449501581929374e+00 1.519742152067709018e+00 1.519174976863370885e+00 1.519723221981299499e+00 1.519556196280203109e+00 1.520232418215934578e+00 1.520029904744333304e+00 1.519330299428981901e+00 1.518783341233777229e+00 1.519493389463438815e+00
1.000000000000000000e+00 1.799999983891904104e-02 1.507405025748836025e-04 1.799999999999999864e-02 1.799444292893247546e-02 1.799720534725712806e-02 1.800815088044454074e-02 1.799801953568580526e-02 1.801021277058164477e-02 1.799418098929096016e-02 1.801659169434003185e-02 1.798741762153495405e-02 1.800769360944282776e-02 1.800694551427676343e-02 1.800523742323003468e-02 1.800688506707316672e-02 1.800388234207434685e-02 1.802333458432867075e-02 1.799624284235044891e-02 1.799309497370425726e-02 1.800686829356310664e-02 1.798726718573142799e-02 1.799600849070927613e-02 1.799310634197720873e-02 1.799052657998568075e-02 1.800092031573269358e-02 1.799229341176004568e-02 1.800301394775882802e-02 1.801224085653614984e-02 1.800519942666977888e-02 1.800476460529644440e-02 1.800091872592471387e-02 1.801191975398535802e-02 1.799134562687025249e-02 1.797965675924886875e-02 1.797879249921034706e-02 1.800154441715599851e-02 1.799581132900647529e-02 1.798034310155985360e-02 1.799459130547570451e-02 1.799161572277598389e-02 1.798885625769789179e-02 1.800071697080359717e-02 1.798872908411557753e-02 1.798766218986538878e-02 1.801028003315840662e-02 1.801593775807232636e-02 1.801035888009078212e-02 1.798940203773604501e-02 1.799827290723822124e-02 1.798698780172787795e-02 1.800846675297292435e-02 1.800828508132196193e-02 1.799831663141329696e-02 1.799095597433678431e-02 1.799881801546131602e-02 1.798815805683636609e-02 1.799101089698428024e-02 1.798476873925174135e-02 1.798593431176826601e-02 1.800307799711216988e-02 1.800840673011823087e-02 1.799537912688821753e-02 1.799474863215040632e-02 1.799957277424017385e-02 1.799396791891891625e-02 1.800275374842097431e-02 1.800132619869789646e-02 1.799233885091309007e-02 1.796265181169360431e-02 1.799958266675940818e-02 1.799982369546113473e-02 1.799793225613282102e-02 1.800326432754709507e-02 1.799653371507647925e-02 1.799229633278856544e-02 1.798458492238446879e-02 1.801180335766190341e-02 1.800688854873521913e-02 1.800891185844033862e-02 1.798674809954146220e-02 1.799536621188383562e-02 1.799271633909529586e-02 1.798484385907208466e-02 1.797494343422398680e-02 1.800245537182422473e-02 1.801321525734461346e-02 1.799733247095753122e-02 1.800923962723938523e-02 1.801961704868545663e-02 1.800929140505484055e-02 1.800840737306769537e-02 1.799435049301308098e-02 1.798220416109495151e-02 1.800014529761035167e-02 1.799389221165186015e-02 1.800780842961959352e-02 1.801643442793177466e-02 1.799644509215364563e-02 1.801279684090845851e-02 1.801176788732266471e-02 1.800927309267092921e-02 1.801993970450453328e-02 1.800915547120696125e-02 1.800599918101479166e-02 1.798797278171347311e-02 1.800498015109884206e-02 1.800247633623500501e-02 1.799392261629069109e-02 1.800335774916275375e-02 1.799648336389842243e-02 1.800958527546933294e-02 1.800573049831937292e-02 1.800956227881600480e-02 1.800402585157973717e-02 1.800512151544129968e-02 1.799640518495175187e-02 1.798218036607205847e-02 1.801003898197857736e-02 1.801518658172495194e-02 1.799925397828905718e-02 1.800255267151927921e-02 1.798906754233718999e-02 1.799173140939998652e-02 1.799011991140944677e-02 1.799873885182203329e-02 1.801290175295184454e-02 1.801802269839123186e-02 1.802436088912641107e-02 1.801345711799456559e-02 1.800887789716383233e-02 1.800029144024048455e-02 1.797781959450858724e-02 1.800327962428080811e-02 1.799771538045382910e-02 1.797821474931542846e-02 1.799756627489343744e-02 1.801595147121946502e-02 1.799725651750680791e-02 1.799710378523883270e-02 1.800197640642227717e-02 1.799846956917629248e-02 1.799036145095542910e-02 1.801065422552093620e-02 1.800929222288932818e-02 1.801154192791422706e-02 1.801111334287504653e-02 1.799364916919688959e-02 1.800467845757865171e-02 1.798958379666741256e-02 1.799546418498476977e-02 1.798058492201070474e-02 1.800802475874247258e-02 1.800247078427485645e-02 1.798789565932394641e-02 1.800631421537931751e-02 1.799678308608245944e-02 1.800180210287284296e-02 1.800692710102849703e-02 1.801534361561767800e-02 1.799765116255614902e-02 1.799834390841522844e-02 1.798140921148660629e-02 1.799187718030447955e-02 1.799756270988067328e-02 1.798955294486829018e-02 1.800072379608276540e-02 1.799257547411159744e-02 1.798789933162981206e-02 1.800821705542944920e-02 1.799437543560173866e-02 1.799368616594491932e-02 1.801035255753520234e-02 1.799729765909637361e-02 1.800367481959261676e-02 1.799972510230561304e-02 1.800144600966353120e-02 1.799442489972568823e-02 1.799386831799665992e-02 1.799541936210029627e-02 1.800884273489474635e-02 1.801175555655946600e-02 1.800404090657059877e-02 1.801861947899810468e-02 1.800856589638930375e-02 1.800515865695417536e-02 1.800780973236767654e-02 1.801667641932710659e-02 1.800401972424994779e-02 1.800556865463248321e-02 1.800157520775056905e-02 1.799857846446227538e-02 1.799167587017198866e-02 1.800384211789691352e-02 1.801208187339603528e-02 1.799951061637179023e-02 1.800199419115323593e-02 1.800700281799881564e-02 1.799764062229473188e-02 1.798410661837063218e-02 1.800481699974144922e-02 1.801416193284078107e-02 1.800903652580220296e-02 1.800068598886353510e-02 1.799641542124401014e-02 1.799607566269611353e-02 1.799409890718852920e-02 1.798799301504484457e-02 1.801223408685015404e-02 1.801184340927272989e-02 1.800616670673186454e-02 1.799488278202055272e-02 1.799332803986574900e-02 1.799311706766125105e-02 1.800530102847305164e-02 1.802098361603560878e-02 1.801647104100424085e-02 1.799490190033696535e-02 1.797340812191799281e-02 1.799273705038134663e-02 1.798914614051070129e-02 1.800388875466523222e-02 1.799493100781186794e-02 1.799127022275124471e-02 1.800195475578213883e-02 1.800239684361251702e-02 1.801076185985052078e-02 1.799531715644442018e-02 1.799780489474479481e-02
2.000000000000000000e+00 9.391177180650162049e-02 6.003431981953559309e-03 9.400000000000000022e-02 9.397097973998071174e-02 9.398540570234278912e-02 9.404256570898815448e-02 9.398965757524808950e-02 9.405333335748192192e-02 9.396961183296390074e-02 9.408664551488683803e-02 9.393429202357143903e-02 9.404017773820144699e-02 9.403627101900087493e-02 9.202676905206462477e-02 9.403595535027098329e-02 9.402027445305491393e-02 9.412185838482749201e-02 9.398037928783010975e-02 9.396394041823334653e-02 9.403586775527400521e-02 9.393350641437522852e-02 9.397915545148177729e-02 9.396399978588097779e-02 9.395052769548077609e-02 9.400480609327073467e-02 9.395975448363580451e-02 9.401573950496276699e-02 9.406392447302211468e-02 9.402715256149773992e-02 9.402488182765920965e-02 9.400479779094017552e-02 9.406224760414576280e-02 9.395480494032242003e-02 9.389376307607742722e-02 9.388924971809847753e-02 9.400806528959244901e-02 9.397812582925603453e-02 9.389734730814591757e-02 9.397175459526201091e-02 9.395621544116346258e-02 9.394180490131122385e-02 9.400374418086324124e-02 9.394114077260357076e-02 9.393556921374147939e-02 9.405368461760502119e-02 9.408323051437771090e-02 9.405409637380741927e-02 9.394465508595491177e-02 9.399098073779960094e-02 9.393204740902336147e-02 9.404421526552526889e-02 9.404326653579246631e-02 9.399120907515833012e-02 9.395277008820319964e-02 9.399382741407576181e-02 9.393815874125657772e-02 9.395305690647345886e-02 9.392045897164798263e-02 9.392654585034539150e-02 9.401607398491911016e-02 9.404390181283964201e-02 9.397586877374958236e-02 9.397257619011879781e-02 9.399776893214313589e-02 9.396849913213212169e-02 9.401438068619841215e-02 9.400692570431123940e-02 9.395999177699058957e-02 9.380495946106659488e-02 9.399782059307690285e-02 9.199909888791248103e-02 9.398920178202695153e-02 9.401704704385704936e-02 9.398189828984383765e-02 9.395976973789584019e-02 9.391949903911889219e-02 9.406163975667881927e-02 9.403597353228393407e-02 9.404653970518843387e-02 9.393079563093874318e-02 9.397580132872669634e-02 9.396196310416432551e-02 9.392085126404310647e-02 9.386914904539192528e-02 9.401282249730429086e-02 9.406901301057742082e-02 9.398606957055599675e-02 9.404825138669456464e-02 9.410244458757961727e-02 9.404852178195305390e-02 9.404390517046462561e-02 9.397049701906831642e-02 9.390706617460697903e-02 9.400075877640960698e-02 9.396810377195971564e-02 9.404077735468009680e-02 9.408582423475481127e-02 9.398143548124682223e-02 9.206540607575434965e-02 9.406145452268502294e-02 9.404842615061484445e-02 9.210191404524539771e-02 9.404781190519191647e-02 9.403132905641056749e-02 9.393719119339258294e-02 9.402600745573840013e-02 9.401293197811613767e-02 9.396826255174027531e-02 9.401753491229437876e-02 9.398163534480287462e-02 9.405005643856206854e-02 9.402992593566784907e-02 9.404993634492803123e-02 9.402102389158306650e-02 9.402674569174901409e-02 9.398122707697026401e-02 9.390694191170963212e-02 9.405242579477701703e-02 9.407930770456364444e-02 9.399610410884286227e-02 9.401333061793401558e-02 9.394290827664976418e-02 9.395681958242214915e-02 9.394840398180490104e-02 9.399341400395949675e-02 9.406737582097074446e-02 9.409411853604310316e-02 9.412721797654903522e-02 9.407027606063829428e-02 9.204537591883736602e-02 9.400152196570030205e-02 9.388416899354483369e-02 9.401712692679978223e-02 9.398806920903667039e-02 9.388623257975835246e-02 9.398729054666572769e-02 9.224167153267628927e-02 9.398567292475777657e-02 9.398487532291389945e-02 9.201010163282496990e-02 9.399200775014286691e-02 9.394966535498947002e-02 9.405563873327600632e-02 9.404852605286649625e-02 9.205899207600605483e-02 9.405803634612523723e-02 9.396683455025042764e-02 9.402443194513296354e-02 9.394560427148537785e-02 9.397631296603158046e-02 9.389861014827811936e-02 9.404190707343290656e-02 9.401290298454646754e-02 9.393678844313617382e-02 9.403297423586977344e-02 9.398320056065284644e-02 9.400941098166928911e-02 9.403617486092659405e-02 9.408012777044787167e-02 9.398773384890432570e-02 9.399135152172397034e-02 9.390291477109673213e-02 9.395758083047896225e-02 9.398727192937685049e-02 9.394544315653441391e-02 9.400377982398777643e-02 9.396122747591612034e-02 9.393680762073347568e-02 9.404291128946490330e-02 9.397062727480907929e-02 9.396702775549013731e-02 9.405406335601716739e-02 9.398588777528105176e-02 9.401919072453922277e-02 9.399856442315153437e-02 9.400755138379844611e-02 9.397088558745636533e-02 9.396797899398254272e-02 9.397607889096820655e-02 9.204519620057315110e-02 9.406139012869943472e-02 9.402110251209090663e-02 9.409723505699009449e-02 9.404473301447748013e-02 9.402693965298292156e-02 9.404078415792009593e-02 9.208523503211632488e-02 9.402099189330528906e-02 9.402908075196964033e-02 9.400822608491964105e-02 9.399257642552522052e-02 9.395652954423149017e-02 9.402006439346165256e-02 9.406309422773484474e-02 9.399744432994157350e-02 9.401041410935578879e-02 9.403657027177159122e-02 9.398767880531692931e-02 9.391700122926886773e-02 9.402515544309424100e-02 9.407395676039075061e-02 9.404719074585594918e-02 9.400358238628735152e-02 9.398128053316316677e-02 9.397950623852414920e-02 9.396918318198453635e-02 9.393729685634530369e-02 9.406388912021747262e-02 9.406184891509090928e-02 9.403220391293307112e-02 9.397327675055178187e-02 9.396515754152112709e-02 9.396405579778653594e-02 9.402768314869261457e-02 9.410958110596373549e-02 9.408601543635548847e-02 9.397337659064859683e-02 9.386113130334951260e-02 9.396207126310258950e-02 9.394331873377810560e-02 9.402030794102954336e-02 9.397352859635085820e-02 9.395441116325649322e-02 9.401020816908450817e-02 9.401251684997648239e-02 9.405620082366382417e-02 9.397554515032084665e-02 9.398853667255614719e-02
3.000000000000000000e+00 4.478576524188495056e-01 6.998773350949514908e-03 4.480000000000000093e-01 4.478616906756527349e-01 4.479304441983996687e-01 4.482028663577307670e-01 4.479507084437355791e-01 4.462530497599674351e-01 4.478551712890194159e-01 4.484129488369074656e-01 4.476868385804255723e-01 4.481914853905770713e-01 4.481728661331105257e-01 4.481303536448364433e-01 4.481713616693766555e-01 4.480966271805170709e-01 4.465781791450325611e-01 4.479064885207222346e-01 4.478281415677504151e-01 4.481709441953484752e-01 4.476830944004266399e-01 4.479006557687641998e-01 4.478284245114327322e-01 4.477642171018658135e-01 4.480229056360137130e-01 4.478081915815833591e-01 4.480750138108863800e-01 4.483046613182330442e-01 4.481294079526700891e-01 4.481185857318226162e-01 4.480228660674596131e-01 4.462953450154150126e-01 4.477846022687707039e-01 4.474936793413051839e-01 4.474721688692352983e-01 4.480384388269937901e-01 4.478957486330500393e-01 4.475107616388230847e-01 4.478653836029508617e-01 4.477913246557577720e-01 4.477226446360364487e-01 4.480178446066673259e-01 4.477194794268766209e-01 4.476929256144274727e-01 4.482558586030537251e-01 4.463949022277921008e-01 4.482578210155928056e-01 4.477362284947637994e-01 4.479570145801513026e-01 4.476761408430049993e-01 4.482107280739927591e-01 4.482062064684577130e-01 4.479581028262865083e-01 4.477749042501599219e-01 4.479705817181482974e-01 4.477052671923718030e-01 4.477762712138309564e-01 4.476209108435988959e-01 4.476499206484546023e-01 4.480766079281250924e-01 4.482092341718315054e-01 4.478849916025512412e-01 4.478692992890768165e-01 4.479893668255332528e-01 4.478498682042041934e-01 4.480685377384775459e-01 4.480330076120365712e-01 4.478093225116147047e-01 4.470704450910408245e-01 4.479896130393452580e-01 4.479956119759216371e-01 4.479485361526391318e-01 4.480812454856166194e-01 4.479137280196812676e-01 4.478082642827376225e-01 4.476163358460134578e-01 4.482937724573629046e-01 4.481714483240766267e-01 4.482218062545150761e-01 4.476701749219208493e-01 4.478846701624421556e-01 4.478187177730384994e-01 4.476227804924607367e-01 4.473763699184636344e-01 4.480611114765140623e-01 4.483289130716881510e-01 4.479336081660540980e-01 4.482299640557357856e-01 4.464860668729840887e-01 4.462302203696921210e-01 4.482092501741293256e-01 4.478593900483255896e-01 4.475570813428076944e-01 4.480036162960798762e-01 4.478479839344463032e-01 4.481943431371987474e-01 4.484090346507463853e-01 4.479115222936018714e-01 4.483184991514994611e-01 4.482928896400307783e-01 4.482307969731431085e-01 4.464940615671678659e-01 4.482278695055955109e-01 4.481493129497014505e-01 4.477006559004241826e-01 4.481239504273489271e-01 4.480616332574045568e-01 4.478487406721238795e-01 4.480835706458284884e-01 4.479124748348052298e-01 4.482385668561256198e-01 4.481426257359488741e-01 4.482379944949761441e-01 4.481001989726511869e-01 4.481274688287612551e-01 4.479105290476880219e-01 4.475564891111267762e-01 4.482498591070223637e-01 4.483779771451543716e-01 4.479814323485276639e-01 4.480635331578131653e-01 4.477279032759478583e-01 4.477942039672885843e-01 4.477540955728573913e-01 4.479686114231261618e-01 4.463196767675846055e-01 4.484485649377373262e-01 4.466036086972433039e-01 4.483349327145314533e-01 4.462199745630593961e-01 4.480072536237631464e-01 4.474479543522136837e-01 4.480816262043223475e-01 4.479431383579619563e-01 4.474577893162950959e-01 4.479394272862366466e-01 4.463952420091045203e-01 4.479317177690583240e-01 4.479279164326109286e-01 4.480491905598433799e-01 4.479619092772766376e-01 4.477601072237796243e-01 4.482651718351877701e-01 4.482312731030232977e-01 4.462859833249858688e-01 4.482765987560011212e-01 4.478419348777892828e-01 4.481164416108464610e-01 4.477407522726111755e-01 4.478871086040653871e-01 4.475167802811552686e-01 4.481997273287015027e-01 4.480614950752853098e-01 4.476987364098404809e-01 4.481571538049963777e-01 4.479199345869412374e-01 4.480448523381684867e-01 4.481724078478203643e-01 4.463801806980824405e-01 4.479415400458419128e-01 4.479587817205568090e-01 4.475372959303333675e-01 4.477978320431337256e-01 4.479393385570301089e-01 4.477399844056108025e-01 4.480180144802821673e-01 4.478152118001109128e-01 4.476988278094531370e-01 4.482045133795773961e-01 4.478600108416432857e-01 4.478428556857402265e-01 4.482576636542094928e-01 4.479327417375096876e-01 4.480914621765273442e-01 4.479931581018286035e-01 4.480359895738478815e-01 4.478612419487282281e-01 4.478473892479168383e-01 4.478859930122739974e-01 4.462191033201698409e-01 4.482925827410356168e-01 4.481005736746460077e-01 4.484634181439527967e-01 4.482131956434671771e-01 4.481283932397484016e-01 4.481943755611511038e-01 4.464132046122161190e-01 4.481000464702209474e-01 4.481385976264085080e-01 4.480392051706808543e-01 4.479646195599499836e-01 4.477928216576139153e-01 4.480956260454342921e-01 4.483007044045235201e-01 4.479878197852534272e-01 4.480496332020360573e-01 4.481742923590816274e-01 4.479412777104466725e-01 4.476044313905579997e-01 4.481198897713427609e-01 4.483524747729261128e-01 4.482249090866325947e-01 4.480170735006035465e-01 4.479107838176287215e-01 4.479023276048810787e-01 4.478531283566922760e-01 4.477011594855606069e-01 4.483044928282705621e-01 4.482947692974545983e-01 4.481534824786597149e-01 4.478726381302893245e-01 4.478339423255475182e-01 4.478286914617911618e-01 4.481319367086626371e-01 4.465199273751045417e-01 4.484099459094389450e-01 4.478731139639422487e-01 4.473381577010700494e-01 4.478192332539357445e-01 4.477298594971552137e-01 4.480967867827790885e-01 4.478738384166509046e-01 4.477827255440309795e-01 4.480486516994665602e-01 4.480596547743559976e-01 4.482678507340573937e-01 4.478834492270610812e-01 4.479453662692037264e-01
4.000000000000000000e+00 1.819024792918287670e+00 8.943146314586912851e-03 1.820000000000000062e+00 1.819438118369839152e+00 1.819717429555998578e+00 1.818823238924898611e+00 1.819799753052675717e+00 1.819031489828746073e+00 1.819411633361641467e+00 1.817673917606749789e+00 1.818727781732978777e+00 1.818777054553725847e+00 1.818701496941953044e+00 1.818528979746233620e+00 1.818695391774389991e+00 1.818392116549508941e+00 1.818354200285603461e+00 1.819620109615434078e+00 1.819301825118986082e+00 1.818693697649873986e+00 1.818712571001733114e+00 1.819596414060604461e+00 1.819302974577695409e+00 1.819042131976329912e+00 1.818092951889002107e+00 1.819220778300182584e+00 1.818304408723641519e+00 1.819236326510151214e+00 1.818525142093647906e+00 1.818481225134940926e+00 1.820092893399054557e+00 1.819203895152521344e+00 1.819124946716881075e+00 1.819940811963968841e+00 1.819853329642291628e+00 1.820156157734662106e+00 1.819576478821765875e+00 1.820010285057892085e+00 1.819453120886987740e+00 1.819152256414015900e+00 1.818873243833898146e+00 1.818072414051163488e+00 1.818860385171686245e+00 1.818752510308611514e+00 1.819038283348999308e+00 1.819609713565304876e+00 1.819046246889169050e+00 1.818928428259978025e+00 1.817825563631060515e+00 1.818684322174707768e+00 1.818855142050265217e+00 1.818836793213518099e+00 1.817829979772743076e+00 1.819085548516274686e+00 1.819880488229977500e+00 1.818802647969010478e+00 1.819091101806188160e+00 1.818459950302120598e+00 1.818577802634346874e+00 1.818310877708328999e+00 1.818849079741941210e+00 1.819532778385364313e+00 1.819469028361874630e+00 1.817956850198257701e+00 1.819390089579579373e+00 1.818278128590518294e+00 1.820134093423898536e+00 1.819225372703434651e+00 1.818219533383652609e+00 1.817957849342700216e+00 1.819982173652181512e+00 1.817791157869415031e+00 1.818329697082256668e+00 1.819649520079955174e+00 1.819221073648621623e+00 1.818441364374429714e+00 1.819192139123852137e+00 1.818695743422257260e+00 1.818900097702474294e+00 1.818660085620303235e+00 1.819531472534921202e+00 1.819263540952968938e+00 1.820465861734963164e+00 1.819463718730894630e+00 1.818247992554246739e+00 1.819334740991805921e+00 1.819730283174594732e+00 1.818933202351177947e+00 1.817979142245155000e+00 1.818938431910538833e+00 1.818849144679837160e+00 1.819428772071322697e+00 1.818200642955156265e+00 1.818014675058645446e+00 1.819382434733688214e+00 1.818788651391578748e+00 1.818378708550650424e+00 1.819640559317757589e+00 1.819292480931754330e+00 1.819188556619589114e+00 1.818936582359763632e+00 1.820013910154957948e+00 1.818924702591903086e+00 1.818605917282493767e+00 1.818783914595473394e+00 1.818502995260983024e+00 1.818250109959735461e+00 1.819385508980503330e+00 1.818339132665437896e+00 1.819644429016396225e+00 1.818968112822402672e+00 1.818578780330256883e+00 1.818965790160416596e+00 1.818406611009553364e+00 1.818517273059571338e+00 1.819636524256232679e+00 1.818198237013952445e+00 1.819013937179836393e+00 1.819533844754220198e+00 1.817924651807194980e+00 1.818257819823447363e+00 1.818894607058538115e+00 1.819163953617109808e+00 1.819001013264733180e+00 1.819872483906449956e+00 1.819303077048136208e+00 1.819820292537514428e+00 1.818457743036308916e+00 1.819359168917451308e+00 1.818896667613546958e+00 1.818029435464288746e+00 1.819754850066368945e+00 1.818331242052361851e+00 1.819768999579220559e+00 1.819794848514039387e+00 1.819753923350336366e+00 1.819611098593165943e+00 1.819722603436799480e+00 1.819707160507481936e+00 1.818199617048650074e+00 1.819845256438936465e+00 1.819025435596604678e+00 1.819076076777614626e+00 1.818938514511822202e+00 1.819165734719336847e+00 1.819122447630379558e+00 1.819357860441018993e+00 1.818472524215443809e+00 1.818946806107482939e+00 1.819541378704015555e+00 1.818036919892193293e+00 1.818810500632989768e+00 1.820249823743346429e+00 1.818776116664976961e+00 1.818637735753311002e+00 1.819674734259448812e+00 1.818182012390157087e+00 1.818699637203878172e+00 1.819549705177385235e+00 1.819762506436232830e+00 1.817832734749938117e+00 1.820118199073811116e+00 1.819178692675230913e+00 1.819753562887934883e+00 1.818943686647793934e+00 1.820073183826146135e+00 1.819249297937950427e+00 1.818776487975903411e+00 1.818829922598374393e+00 1.819431294044175917e+00 1.819361601223319580e+00 1.819045608311055551e+00 1.819726763308633144e+00 1.818371156778854303e+00 1.819972204788678605e+00 1.818146046976016672e+00 1.819436295416708482e+00 1.819380018819662048e+00 1.819536846612363146e+00 1.818893116224369333e+00 1.819187311212506097e+00 1.818408131563630459e+00 1.819880567378808545e+00 1.818865155535319911e+00 1.818521024352371951e+00 1.818788782969135598e+00 1.819684318352037922e+00 1.818405992149244810e+00 1.818562434117880988e+00 1.818159095982807560e+00 1.819856266962296854e+00 1.819158337984056573e+00 1.818388053907588064e+00 1.819220269212999508e+00 1.817950572253550723e+00 1.818201413306476777e+00 1.818707284617880227e+00 1.819761440698689503e+00 1.818393002524141933e+00 1.818486516973886413e+00 1.819430355216918871e+00 1.818912689106022551e+00 1.820069361096201987e+00 1.819637559259116522e+00 1.819603205894829268e+00 1.819403333949062285e+00 1.818785960410089997e+00 1.819235642771865669e+00 1.819196184336545619e+00 1.818622837379918256e+00 1.819482592404300325e+00 1.819325390697536626e+00 1.819304059063526546e+00 1.818535403875778389e+00 1.818117013706703755e+00 1.819663575141428513e+00 1.819484525478515247e+00 1.819308311007476808e+00 1.819265635094113875e+00 1.818902554207193045e+00 1.818392764221188340e+00 1.819487468567644317e+00 1.819117322522625813e+00 1.818197430333996056e+00 1.818242081204864302e+00 1.819086947844902546e+00 1.819526512484935576e+00 1.819778050468640274e+00
5.000000000000000000e+00 5.261939346724102684e+00 1.927645509536973778e-02 5.261999999999999567e+00 5.264374247986578936e+00 5.261183029848167436e+00 5.262381868396571072e+00 5.261421044265483182e+00 5.262984398514413797e+00 5.262298262645978220e+00 5.262846618268882892e+00 5.260320353320000031e+00 5.262248243648293133e+00 5.260028861892623198e+00 5.263531073390913306e+00 5.262011969600270511e+00 5.263134937999733864e+00 5.260811105892379658e+00 5.262901240118486257e+00 5.261980663421067739e+00 5.262007068007886090e+00 5.262274944447871583e+00 5.262832705282979084e+00 5.261983988009334645e+00 5.263228498344699524e+00 5.264269141223160808e+00 5.259747107371186559e+00 5.262881077394830243e+00 5.261575690203726730e+00 5.261519388015725163e+00 5.263392852948326706e+00 5.260268472131333972e+00 5.263483216997943970e+00 5.261469076658055855e+00 5.260048471900252487e+00 5.261793271435561081e+00 5.260451313013364327e+00 5.262775046438338045e+00 5.260249265156343945e+00 5.259169233904517071e+00 5.263547133118795962e+00 5.262739836279838990e+00 5.264209674128340843e+00 5.262702630941812565e+00 5.262390505101730120e+00 5.263004054134068355e+00 5.262655596219127041e+00 5.261025943973185015e+00 5.260900684813474726e+00 5.263494921316778097e+00 5.262193209105500813e+00 5.262474173368754116e+00 5.262421084875195554e+00 5.261507895249820876e+00 5.261355124939379735e+00 5.261654466519857465e+00 5.260536889510368574e+00 5.263370187973289482e+00 5.261544010049981956e+00 5.261885004765093576e+00 5.258899117156432546e+00 5.262456633356771718e+00 5.264648137899631486e+00 5.262464266646652788e+00 5.261875107669544249e+00 5.264235281168168079e+00 5.262805012455064713e+00 5.261837651563234353e+00 5.263758688272685227e+00 5.259065280423627087e+00 5.263877953212307226e+00 5.263948440717078903e+00 5.265395070044190717e+00 5.260953909049873367e+00 5.262986304231255019e+00 5.263746249359143370e+00 5.261490233404256145e+00 5.261597990282680826e+00 5.262012987019292432e+00 5.262604243077565691e+00 5.262123082899185178e+00 5.260645389274041683e+00 5.261869933833202673e+00 5.261565986770754932e+00 5.260666778416219991e+00 5.262717787029949079e+00 5.261860323506553527e+00 5.265219599559019414e+00 5.260698997779149622e+00 5.263730357888229960e+00 5.262715155032691605e+00 5.262456821240893312e+00 5.260348460790823744e+00 5.260793728462556551e+00 5.262042475334759217e+00 5.262213811229743854e+00 5.261131297783470551e+00 5.262800679003626136e+00 5.260960781939583164e+00 5.259736677545269856e+00 5.263438838184289814e+00 5.262709803747171122e+00 5.261822393715323898e+00 5.259123626479166091e+00 5.261753094007655562e+00 5.260482706829984423e+00 5.261455310821105513e+00 5.260723640477562135e+00 5.262222702897455306e+00 5.260981208922004271e+00 5.260971970046306012e+00 5.262801030498260424e+00 5.261124403854721798e+00 5.260793247889697710e+00 5.265177337928651724e+00 5.261496620623401732e+00 5.262948716310334341e+00 5.260786767096414351e+00 5.262283251103695214e+00 5.262436169261655472e+00 5.263781830095200398e+00 5.260745947343967721e+00 5.258804078209904809e+00 5.261581896615640908e+00 5.261110622981074236e+00 5.259631464476882456e+00 5.261768745390043911e+00 5.261262627930239688e+00 5.263113379624911659e+00 5.263932468925078823e+00 5.262594318837875207e+00 5.262085197696968031e+00 5.261608411434897548e+00 5.260958379095391990e+00 5.263331875706053431e+00 5.261624183299648649e+00 5.259288811441082068e+00 5.262659601981774848e+00 5.263197683786435377e+00 5.261153339884818259e+00 5.262577769477445599e+00 5.259552774103739559e+00 5.259182330829304419e+00 5.263113401457784946e+00 5.260714361552894403e+00 5.263372807823824218e+00 5.263247565751263402e+00 5.262142734814023726e+00 5.261367149270205879e+00 5.262952681847255398e+00 5.260674030077214347e+00 5.262317853841799398e+00 5.262345012832522428e+00 5.260722018071430028e+00 5.260460152815625179e+00 5.259844452470247234e+00 5.259059946266319230e+00 5.262526814739826975e+00 5.262024252856105200e+00 5.264033361862376914e+00 5.263313095538642905e+00 5.261515869226718323e+00 5.260561161538248598e+00 5.263623623971299459e+00 5.263287228045103738e+00 5.262943655982023294e+00 5.262211589721528249e+00 5.260179419232702713e+00 5.260461226761074194e+00 5.262401206197717229e+00 5.260355752340908353e+00 5.262153554307447578e+00 5.261024097084449735e+00 5.261210015675839458e+00 5.263074272260908515e+00 5.261819639767790768e+00 5.264422877492712871e+00 5.262369592897556458e+00 5.262206823663023059e+00 5.262660417894220011e+00 5.262584043641465037e+00 5.261433928688315831e+00 5.261180842697852356e+00 5.261436887867446011e+00 5.262503145278207839e+00 5.261507474198832135e+00 5.263782828158474203e+00 5.262871367378996190e+00 5.263175099389068023e+00 5.261627284631492429e+00 5.262460485732416871e+00 5.261584437777805157e+00 5.259566579380277496e+00 5.263123179131864227e+00 5.261529249462019386e+00 5.261706940930744203e+00 5.264583190123923728e+00 5.262046379037431443e+00 5.259310537403904640e+00 5.263348536976471870e+00 5.261407634368890029e+00 5.262136857937601775e+00 5.262640673651088008e+00 5.261300503111523419e+00 5.263251650114204594e+00 5.260852785394830811e+00 5.262274258191133924e+00 5.260488623955336784e+00 5.261573712703229155e+00 5.261459591442000594e+00 5.261802048744978144e+00 5.260504066610675267e+00 5.260049563654086491e+00 5.261987124676045902e+00 5.261549078320459039e+00 5.262127215882397735e+00 5.260809543973238966e+00 5.260509655531839357e+00 5.260217443681332483e+00 5.261875990733744679e+00 5.262824643107186340e+00 5.261136380529951140e+00 5.262517601395648725e+00 5.261447025142364176e+00 5.263371527151726958e+00 5.262700677282726502e+00 5.261944137143486522e+00 5.262630528417967746e+00 5.261358297563727859e+00
6.000000000000000000e+00 2.217019247256515370e-03 1.925233791248730290e-05 2.217019247256515804e-03 2.216396970933917718e-03 2.216760275435405731e-03 2.218060098207396205e-03 2.216690305679563586e-03 2.218191964285714211e-03 2.216292016300154284e-03 2.219287260079089684e-03 2.215516966696979683e-03 2.218108538807594780e-03 2.217799057195215910e-03 2.217578383349867906e-03 2.218076245074129208e-03 2.217594530216600475e-03 2.219946590470678847e-03 2.216571895323522865e-03 2.216254340277777710e-03 2.217747925450562051e-03 2.215333968874007818e-03 2.216496543278769719e-03 2.216426573522927573e-03 2.215834521742724838e-03 2.216773731157683017e-03 2.216173605944113563e-03 2.217266210593033318e-03 2.218531048487103370e-03 2.217470737571649187e-03 2.217489575582837474e-03 2.217024007592041310e-03 2.218646767698688373e-03 2.215664979642030259e-03 2.214410906325782642e-03 2.214634271315586364e-03 2.217317342337687177e-03 2.216477705267581432e-03 2.214389377170139072e-03 2.216388897500551000e-03 2.215756478553516408e-03 2.215627303619653685e-03 2.217231225715112462e-03 2.215541186997078971e-03 2.215694582231040547e-03 2.218245787174823788e-03 2.219012763344631670e-03 2.218496063609182081e-03 2.215616539041832117e-03 2.216940582113921879e-03 2.215142897617669668e-03 2.218035877907297351e-03 2.218286154341655644e-03 2.216579968756889150e-03 2.215985225832231131e-03 2.217085903914517171e-03 2.215799536864803982e-03 2.215721493675595118e-03 2.215266690262621390e-03 2.215150971051035953e-03 2.217538016183035615e-03 2.218011657607198064e-03 2.216165532510747278e-03 2.216450793823026861e-03 2.216832936335703160e-03 2.216316236600253571e-03 2.217411532393628610e-03 2.217212387703924176e-03 2.216114400766093420e-03 2.212341416239528135e-03 2.216919052958278308e-03 2.216703761401840871e-03 2.216762966579861015e-03 2.217613368227788762e-03 2.216477705267581432e-03 2.215920638365299986e-03 2.215371644896384391e-03 2.218466461020171792e-03 2.217968599295910490e-03 2.218649458843143657e-03 2.215064854428461238e-03 2.216195135099757567e-03 2.216168223655202996e-03 2.215263999118165673e-03 2.213767722800926048e-03 2.217618750516699763e-03 2.218496063609182081e-03 2.216674158812830583e-03 2.218307683497299215e-03 2.219437964168595543e-03 2.218105847663139497e-03 2.217842115506503484e-03 2.216448102678571577e-03 2.214690785349151224e-03 2.217053610181051598e-03 2.216378132922729432e-03 2.217890556106702060e-03 2.219198452312059252e-03 2.216332383466986140e-03 2.218932029010967956e-03 2.218533739631558654e-03 2.218135450252149352e-03 2.219717843191964125e-03 2.218127376818783067e-03 2.217651044250165335e-03 2.215500819830247114e-03 2.217686029128086624e-03 2.217433061549272614e-03 2.216028284143518705e-03 2.217508413594025760e-03 2.216356603767085428e-03 2.218165052841159640e-03 2.217858262373236487e-03 2.217941687851355918e-03 2.217511104738481044e-03 2.217607985938877761e-03 2.216593424479166869e-03 2.215005649250441095e-03 2.218294227775021929e-03 2.218735575465718805e-03 2.217072448192239885e-03 2.217293122037588323e-03 2.215635377053020404e-03 2.215982534687775413e-03 2.215812992587081268e-03 2.216865230069168732e-03 2.218703281732253233e-03 2.219279186645722966e-03 2.220043471671075998e-03 2.218638694265321655e-03 2.217906702973434629e-03 2.216959420125110165e-03 2.214378612592317070e-03 2.217376547515707754e-03 2.216695687968474587e-03 2.214200997058256206e-03 2.216754893146494730e-03 2.219155394000771678e-03 2.216590733334711152e-03 2.216539601590057293e-03 2.217513795882936328e-03 2.216690305679563586e-03 2.215414703207671965e-03 2.218348050664131505e-03 2.217952452429177487e-03 2.218463769875716508e-03 2.218636003120866371e-03 2.216240884555500425e-03 2.217505722449570043e-03 2.215519657841435400e-03 2.216692996824018869e-03 2.214709623360339510e-03 2.218191964285714211e-03 2.217395385526896041e-03 2.215484672963514111e-03 2.217753307739473052e-03 2.217058992469962599e-03 2.217341562637786465e-03 2.217661808827987337e-03 2.219252275201168394e-03 2.216542292734512577e-03 2.216649938512731295e-03 2.214575066137566221e-03 2.216200517388668568e-03 2.216771040013227299e-03 2.215812992587081268e-03 2.216937890969466595e-03 2.216195135099757567e-03 2.215269381407076674e-03 2.218358815241953073e-03 2.216017519565696703e-03 2.215656906208663974e-03 2.218792089499283665e-03 2.216862538924713449e-03 2.217282357459766321e-03 2.217080521625606170e-03 2.217241990292934464e-03 2.216332383466986140e-03 2.216141312210647991e-03 2.216437338100749575e-03 2.218248478319279071e-03 2.218533739631558654e-03 2.217524560460758330e-03 2.219472949046516833e-03 2.218186581996803210e-03 2.217820586350859914e-03 2.218178508563436926e-03 2.218942793588789524e-03 2.217322724626598178e-03 2.217591839072145191e-03 2.217158564814814600e-03 2.216757584290950014e-03 2.216383515211639999e-03 2.217325415771053895e-03 2.218601018242945516e-03 2.216760275435405731e-03 2.217271592881944319e-03 2.217885173817791059e-03 2.216574586467978582e-03 2.215064854428461238e-03 2.217457281849371901e-03 2.218775942632550662e-03 2.218261934041556357e-03 2.217231225715112462e-03 2.216628409357087725e-03 2.216606880201444155e-03 2.216423882378472290e-03 2.215406629774305681e-03 2.218450314153439223e-03 2.218622547398589086e-03 2.218057407062940922e-03 2.216466940689759864e-03 2.215987916976686414e-03 2.216251649133322427e-03 2.217723705150462764e-03 2.219650564580577697e-03 2.219144629422949676e-03 2.216631100501543009e-03 2.213315610532407603e-03 2.216103636188271418e-03 2.215775316564704694e-03 2.217352327215608467e-03 2.216351221478174427e-03 2.216084798177083131e-03 2.217139726803626747e-03 2.217026698736497027e-03 2.218216184585813499e-03 2.216593424479166869e-03 2.216768348868772016e-03
