# vvf statistics with RF=500
# gcat file: /disk2/salam/Abacus/AbacusCosmos_720box_products/GCAT_derivative/AbacusCosmos_720box_planck_rockstar_halos_z0.100_Mr21_hod-sigma-pos_real-1.gcat.rsd_zz.1pz0.100by100
# stats order in row: stdvvf,p2.5,p16,p50,p84,p97.5,rho
# columns: numbers, mean, sigma,All, jnrealizations
0.000000000000000000e+00 1.404323508100610240e+00 4.828644979478265847e-03 1.404323717419164286e+00 1.404763620264209978e+00 1.404106971283231919e+00 1.404114209214507136e+00 1.404352630945510771e+00 1.404649821476883664e+00 1.404352940269579797e+00 1.404628732135197344e+00 1.403664932294454326e+00 1.403070949818694624e+00 1.404055993964663074e+00 1.404922369003706040e+00 1.404585549621278462e+00 1.404321066057377054e+00 1.404336088983620501e+00 1.404491519118758802e+00 1.404459223689472847e+00 1.404522724972778080e+00 1.404347848724196268e+00 1.404483439974909986e+00 1.404604129089117359e+00 1.404491013139889999e+00 1.404923882364459642e+00 1.404174844262177535e+00 1.404222623891162813e+00 1.404329804429337081e+00 1.404706438937668223e+00 1.404816233814981441e+00 1.404114201175815424e+00 1.404678529398889708e+00 1.404077866603929969e+00 1.404293835243779043e+00 1.403790056346004844e+00 1.404309556529096836e+00 1.404419147522289357e+00 1.403837091817689453e+00 1.403911907458582187e+00 1.404562114724003941e+00 1.404334344842942173e+00 1.404237615088802293e+00 1.404616710443858274e+00 1.404209975426470525e+00 1.404352553851450747e+00 1.404475860896694961e+00 1.404174363369666168e+00 1.403825227135370612e+00 1.404450269177637045e+00 1.404081072410998665e+00 1.404795054806030175e+00 1.404482744190172383e+00 1.404262919114701580e+00 1.403713746258194339e+00 1.404314142929157905e+00 1.404081629540713694e+00 1.404341659775865114e+00 1.403271962307178100e+00 1.404190669800573943e+00 1.404306072540060679e+00 1.404596773542462040e+00 1.404513791456076577e+00 1.403770820056194690e+00 1.404520318442089355e+00 1.404428948523549270e+00 1.404617395021006798e+00 1.404443215465503991e+00 1.404231145444500672e+00 1.403756740874569697e+00 1.404923233243285496e+00 1.404754966206541056e+00 1.404642116209157132e+00 1.404218295569341191e+00 1.404408782719827498e+00 1.404939389673804717e+00 1.403926388668536918e+00 1.404150762118249407e+00 1.403777246610426799e+00 1.404353264918060340e+00 1.404343192274361218e+00 1.404007414450222369e+00 1.404257744100026128e+00 1.404086573146297034e+00 1.403837612545263624e+00 1.404393550782698563e+00 1.403438533780225539e+00 1.404718603818391642e+00 1.404109735338218590e+00 1.404798484422165705e+00 1.404417413155769623e+00 1.404499988910220543e+00 1.404052664431089559e+00 1.404023022438944501e+00 1.404520379958412724e+00 1.404518308479493216e+00 1.404580849480416394e+00 1.404472366965595631e+00 1.404174351239535490e+00 1.403999245557069786e+00 1.404887301564892166e+00 1.404556420631790425e+00 1.404512871936739682e+00 1.404239318931392866e+00 1.404415276957322378e+00 1.403826948454985235e+00 1.404113992751712336e+00 1.404304485574680461e+00 1.404580707239882820e+00 1.404584499335984171e+00 1.404076770182289380e+00 1.404395139649625923e+00 1.404117667486385113e+00 1.404277646317549699e+00 1.404735616609546822e+00 1.404438833808572484e+00 1.404373868118635738e+00 1.403930208508338051e+00 1.404645146390548938e+00 1.404227038283226259e+00 1.404504835297870846e+00 1.404424248675453235e+00 1.403730064558323498e+00 1.404559671589450831e+00 1.404203349367623588e+00 1.404185772543797395e+00 1.404305736274971794e+00 1.404120610597685559e+00 1.404078291313520577e+00 1.404644714000065964e+00 1.404838177747548489e+00 1.404709104893219873e+00 1.404348139524650430e+00 1.404216458023214376e+00 1.404512801960545509e+00 1.403823454976152796e+00 1.404286571377051374e+00 1.404275988751961135e+00 1.404487458359012564e+00 1.404562932511369100e+00 1.404774347471165807e+00 1.403943776940199006e+00 1.403574485857814524e+00 1.403962092898112468e+00 1.404356454243801844e+00 1.404690007948056207e+00 1.404522990292018214e+00 1.404530653223390768e+00 1.404499773755555792e+00 1.404110263574587236e+00 1.404327667050771167e+00 1.404530666193231303e+00 1.403990777427187364e+00 1.404146754330293234e+00 1.403938518968862459e+00 1.404285125647593446e+00 1.403517665372761902e+00 1.404641241506302984e+00 1.404380777279389925e+00 1.404924684212000008e+00 1.404359350203727486e+00 1.404668151348498428e+00 1.403887671319980823e+00 1.404371362266695122e+00 1.404583913868041600e+00 1.404432785962479446e+00 1.404442263585097050e+00 1.404452620087074610e+00 1.404252025993296682e+00 1.404046106272752947e+00 1.403742393200000826e+00 1.404297543912242929e+00 1.404312005130578633e+00 1.404257404401482168e+00 1.404674571289056262e+00 1.404268259745122815e+00 1.404900046733487340e+00 1.404137747634334854e+00 1.404168679462243441e+00 1.404567711353376991e+00 1.404907761636684960e+00 1.404269830617599135e+00 1.404231942807973033e+00 1.404652670513328427e+00 1.404689797207560042e+00 1.404526039180572061e+00 1.404570796070425232e+00 1.404879903003398045e+00 1.404637110817818391e+00 1.404707085227581587e+00 1.404467304520742976e+00 1.404391062078626629e+00 1.403521825644933108e+00 1.404623901400708474e+00 1.404153073353854309e+00 1.404684897608781347e+00 1.404607205158423522e+00 1.404116674218851113e+00 1.403784449720582250e+00 1.404150575339014884e+00 1.404561198152070034e+00 1.404266097313939587e+00 1.404511660872560963e+00 1.404176481785191388e+00 1.404535193646368363e+00 1.404311686140033322e+00 1.404049635645852945e+00 1.403981974451915749e+00 1.404159693561659594e+00 1.404593455376973665e+00 1.404270277344451090e+00 1.404168184018679932e+00 1.404099918573357808e+00 1.404085492961379078e+00 1.404452978542482633e+00 1.404410398378032054e+00 1.404132155218713374e+00 1.404131649324105169e+00 1.403761594301315307e+00 1.404350082918905285e+00 1.404502107855599036e+00 1.404100911868409574e+00 1.404431458297699109e+00 1.404098405456196241e+00 1.404917686330279691e+00 1.404673790040231074e+00 1.404639154675743073e+00 1.403789989916123027e+00 1.404286282676725062e+00
1.000000000000000000e+00 2.399999988406308071e-02 1.665133704588498450e-04 2.400000000000000050e-02 2.399516469566790114e-02 2.399389758467007638e-02 2.400907220104974912e-02 2.399875198227567272e-02 2.401508515838317315e-02 2.399702707910114641e-02 2.402157207571853706e-02 2.398535848727795239e-02 2.400842204143021144e-02 2.400732403648370150e-02 2.400699721337152398e-02 2.400762606360425447e-02 2.400585448454412713e-02 2.402775905291260755e-02 2.399844961393296505e-02 2.398910186278687545e-02 2.400564602947841131e-02 2.398496995124568820e-02 2.399831417664236022e-02 2.399177350899097533e-02 2.398994694869014885e-02 2.399991135480173191e-02 2.399020879198781112e-02 2.400064733368103415e-02 2.401410903822192092e-02 2.400598395316123207e-02 2.400710698170665375e-02 2.399990646224494512e-02 2.401429626080446231e-02 2.399033994470893202e-02 2.397580715816835517e-02 2.397415139097849174e-02 2.400120120869445733e-02 2.399909985102239435e-02 2.397799766769232593e-02 2.399315808598947997e-02 2.399001089105307072e-02 2.398853414777967971e-02 2.400006969975322646e-02 2.398741302219192101e-02 2.398409370136005136e-02 2.401203223587896132e-02 2.401796206260621222e-02 2.401042001642463009e-02 2.398618920086156847e-02 2.399704225523258475e-02 2.398467119328373184e-02 2.400888085108325576e-02 2.400861868779370634e-02 2.399679914431296010e-02 2.399412777552862794e-02 2.399713095940555346e-02 2.398925980033017602e-02 2.399047850711093222e-02 2.398411808442634657e-02 2.398390112440289615e-02 2.400699538948280337e-02 2.400812272519680865e-02 2.399508711662864946e-02 2.399408825670669779e-02 2.400085086991218114e-02 2.399192886563914981e-02 2.400237764190862877e-02 2.400219200515215506e-02 2.398779734451893936e-02 2.396083028604418380e-02 2.399842254246569231e-02 2.399944536182226779e-02 2.399809880005706123e-02 2.400347843457416308e-02 2.399407141566603160e-02 2.399465011804659959e-02 2.398622031341499095e-02 2.400999644141454947e-02 2.400899131445772064e-02 2.400875949587890495e-02 2.398412844728913668e-02 2.399379364252249638e-02 2.399073079870311584e-02 2.398264480971042806e-02 2.397155976976321490e-02 2.400240600202221616e-02 2.401245340393019789e-02 2.400101346378631650e-02 2.401418910182711794e-02 2.402104238354210719e-02 2.400850433714108584e-02 2.401096433972808517e-02 2.399729410845689165e-02 2.398125724097751460e-02 2.399637809607270411e-02 2.399366098543237111e-02 2.400732374540776384e-02 2.402244270708936771e-02 2.399519676429246254e-02 2.401389962387083868e-02 2.401278910350543999e-02 2.401145512915982966e-02 2.401930463208376207e-02 2.400890244447387994e-02 2.400548361847664597e-02 2.398907509305259894e-02 2.400661334418220660e-02 2.399960621583847875e-02 2.399327912192523657e-02 2.400185010469031016e-02 2.399754196504868750e-02 2.401055674204783871e-02 2.400848089981531125e-02 2.401037725212173957e-02 2.400187734563420314e-02 2.400594711104515541e-02 2.399631560743094305e-02 2.398247515348472456e-02 2.401046980547167503e-02 2.401604806345696702e-02 2.399872299037277001e-02 2.400255978814425789e-02 2.398710566514187723e-02 2.399308605267460107e-02 2.399033602347139249e-02 2.399940309391117646e-02 2.401317453994978451e-02 2.401825703146591440e-02 2.402619406951335412e-02 2.401384154054507156e-02 2.400683576889710638e-02 2.400107951996921160e-02 2.397814364302205611e-02 2.400408418063345456e-02 2.399662100808514290e-02 2.397897322896084746e-02 2.399677097708581217e-02 2.402163674274605115e-02 2.399672739067051572e-02 2.399644630925312078e-02 2.400490735625116293e-02 2.399443759527347328e-02 2.398827950753126825e-02 2.401207816123319960e-02 2.400889388893925197e-02 2.401089874796435639e-02 2.401275888569667089e-02 2.399347687526602949e-02 2.400264516311246057e-02 2.398611792596789388e-02 2.399329765715244728e-02 2.398188424481230777e-02 2.401093482684881972e-02 2.400355549758391091e-02 2.398244292942335043e-02 2.400758660737251776e-02 2.399838720073244752e-02 2.400013967549604818e-02 2.400580440791790296e-02 2.402033744536376247e-02 2.399678514829720402e-02 2.399828294910357623e-02 2.398010620409784383e-02 2.399307298846534500e-02 2.399615189780680835e-02 2.398679613138610112e-02 2.399690502693717017e-02 2.399204417078017876e-02 2.398857190152913973e-02 2.401169638627945885e-02 2.399348110741508430e-02 2.399181716164434236e-02 2.401046643919131987e-02 2.399678181370162519e-02 2.400443404036356823e-02 2.400023120749913974e-02 2.400209709837271971e-02 2.399782847346310435e-02 2.399305797708405075e-02 2.399739739702275512e-02 2.401254813392663875e-02 2.401123579538099601e-02 2.400572263521676131e-02 2.401906951817574243e-02 2.401130269819014285e-02 2.400617837871895505e-02 2.400958965763155470e-02 2.401617099576593486e-02 2.400478444650748500e-02 2.400532171255968447e-02 2.400381137689975783e-02 2.399525741200414161e-02 2.399336897098786059e-02 2.400444247539428033e-02 2.401141928981090357e-02 2.400282001082581704e-02 2.400110085525445150e-02 2.400550911246106603e-02 2.399647903516059430e-02 2.398360851218270945e-02 2.400326619028832903e-02 2.401578246503572808e-02 2.401077072271360149e-02 2.399911435808166349e-02 2.399472569528186827e-02 2.399940226440354374e-02 2.399295460494372395e-02 2.398390747188463082e-02 2.401359375492933407e-02 2.401392220281344664e-02 2.400711000928425903e-02 2.399483283839225906e-02 2.399154045187499099e-02 2.399210078977572630e-02 2.400550809839673352e-02 2.402192804685243308e-02 2.401921950646726187e-02 2.399518665905271686e-02 2.397057992528171116e-02 2.399217621186429394e-02 2.399114012051382222e-02 2.400206513713259299e-02 2.399442994181028715e-02 2.398905455140822734e-02 2.399983697863857651e-02 2.400033295392502847e-02 2.401257420763807868e-02 2.399348712462851668e-02 2.399728945055298879e-02
2.000000000000000000e+00 1.100353695940191057e-01 3.840835975507658935e-03 1.100000000000000006e-01 1.099778381884778805e-01 1.099720305964045214e-01 1.100415809214780188e-01 1.099942799187635101e-01 1.100691403092562137e-01 1.099863741125469141e-01 1.100988720137099502e-01 1.099328930666906290e-01 1.100386010232217993e-01 1.100335685005502939e-01 1.100320705612861522e-01 1.100349527915194803e-01 1.100268330541605832e-01 1.101272289925161185e-01 1.099928940638594255e-01 1.099500502044398476e-01 1.100258776351093759e-01 1.099311122765427584e-01 1.099922733096108246e-01 1.099622952495419859e-01 1.099539235148298405e-01 1.099995937095079312e-01 1.099551236299441404e-01 1.100029669460380749e-01 1.100646664251838103e-01 1.100274264519889855e-01 1.100325736661554865e-01 1.099995712852893381e-01 1.100655245286871198e-01 1.099557247465826060e-01 1.098891161416049450e-01 1.098815272086514222e-01 1.100055055398495851e-01 1.099958743171859654e-01 1.098991559769231657e-01 1.099686412274517855e-01 1.099542165839932362e-01 1.099474481773235340e-01 1.100003194572022891e-01 1.099423096850462994e-01 1.099270961312335537e-01 1.100551477477785672e-01 1.100823261202784620e-01 1.100477584086128752e-01 1.099367005039488671e-01 1.099864436698159975e-01 1.099297429692170924e-01 1.100407039007982590e-01 1.100395023190545163e-01 1.099853294114343932e-01 1.099730856378395433e-01 1.099868502306087792e-01 1.099507740848466447e-01 1.099563598242584428e-01 1.099272078869540925e-01 1.099262134868466134e-01 1.100320622017961630e-01 1.100372291571520555e-01 1.099774826178813031e-01 1.099729045099057112e-01 1.100038998204308366e-01 1.099630073008461134e-01 1.100108975254145416e-01 1.100100466902807078e-01 1.099440711623784622e-01 1.118172080015395475e-01 1.099927699863010866e-01 1.099974579083520670e-01 1.099912861669281872e-01 1.100159428251315796e-01 1.099728273218026353e-01 1.099754797077135832e-01 1.099368431031520488e-01 1.100458170231499999e-01 1.100412101912645463e-01 1.100401476894449782e-01 1.099272553834085425e-01 1.099715541948947800e-01 1.099575161607226209e-01 1.099204553778394544e-01 1.098696489447480718e-01 1.100110275092684997e-01 1.100570781013467392e-01 1.100046450423539518e-01 1.100650333833742833e-01 1.100964442579013131e-01 1.100389782118966486e-01 1.100502532237537245e-01 1.099875979970940665e-01 1.099140956878136288e-01 1.099833996069998904e-01 1.099709461832317076e-01 1.100335671664522397e-01 1.101028624074929241e-01 1.099779851696737892e-01 1.100637066094080213e-01 1.100586167243999408e-01 1.100525026753158969e-01 1.100884795637172286e-01 1.100408028705052721e-01 1.100251332513512981e-01 1.099499275098244078e-01 1.100303111608351148e-01 1.099981951559263482e-01 1.099691959754906662e-01 1.100084796464972509e-01 1.099887340064731461e-01 1.100483850677192593e-01 1.100388707908201980e-01 1.100475624055579915e-01 1.100086045008234342e-01 1.100272575922902896e-01 1.099831132007251661e-01 1.119182173829287169e-01 1.100479866084118213e-01 1.100735536241777696e-01 1.099941470392085258e-01 1.100117323623278492e-01 1.119398264373287627e-01 1.099683110747586012e-01 1.099557067742438776e-01 1.099972641804262130e-01 1.100603833081031796e-01 1.100836780608854398e-01 1.101200561519362076e-01 1.100634403941649075e-01 1.100313306074450770e-01 1.100049477998588932e-01 1.098998250305177615e-01 1.100187191612366777e-01 1.099845129537235788e-01 1.099036272994038665e-01 1.099852003116433136e-01 1.100991684042527397e-01 1.099850005405731967e-01 1.099837122507434650e-01 1.100224920494844993e-01 1.099745056450034120e-01 1.099462810761849679e-01 1.100553582389854901e-01 1.100407636576382353e-01 1.100499525948366308e-01 1.100584782261097433e-01 1.099701023449693033e-01 1.100121236642654377e-01 1.099363738273528429e-01 1.099692809286154094e-01 1.099169694553897431e-01 1.100501179563904280e-01 1.100162960305929305e-01 1.099195300931903596e-01 1.100347719504573690e-01 1.099926080033570563e-01 1.100006401793568733e-01 1.100266035362903877e-01 1.100932132912505884e-01 1.099852652630288474e-01 1.099921301833913928e-01 1.099088201021151262e-01 1.099682511971328269e-01 1.099823628649478635e-01 1.099394822688529588e-01 1.099858147067953595e-01 1.099635357827424831e-01 1.099476212153418786e-01 1.100536084371141893e-01 1.099701217423191268e-01 1.099624953242032410e-01 1.100479711796268772e-01 1.099852499794657795e-01 1.100203226849996996e-01 1.100010597010377122e-01 1.100096117008749763e-01 1.099900471700392401e-01 1.099681823949685555e-01 1.099880714030209566e-01 1.100575122804970940e-01 1.100514973954962450e-01 1.100262287447434789e-01 1.100874019583054780e-01 1.100518040333715031e-01 1.100283175691285503e-01 1.100439525974779564e-01 1.100741170639271960e-01 1.100219287131593143e-01 1.100243911825652121e-01 1.100174688107905530e-01 1.099782631383523085e-01 1.119690551979433679e-01 1.100203613455571078e-01 1.100523384116333242e-01 1.100129250496183486e-01 1.100050455865829030e-01 1.100252500987798920e-01 1.099838622444860581e-01 1.099248723475040740e-01 1.100149700388215190e-01 1.100723362980804143e-01 1.100493658124373497e-01 1.099959408078742956e-01 1.099758261033752238e-01 1.099972603785162595e-01 1.099677086059920594e-01 1.099262425794712145e-01 1.100623047100927898e-01 1.100638100962283011e-01 1.100325875425528649e-01 1.099763171759645247e-01 1.099612270710936812e-01 1.099637952864720714e-01 1.100252454509850347e-01 1.101005035480736582e-01 1.100880894046416258e-01 1.099779388539916247e-01 1.098651579908745124e-01 1.099641409710446771e-01 1.099593922190216927e-01 1.100094652118577127e-01 1.099744705666304834e-01 1.099498333606210576e-01 1.099992528187601487e-01 1.100015260388230443e-01 1.100576317850078811e-01 1.099701493212140307e-01 1.099875766483678630e-01
3.000000000000000000e+00 4.941768432888802853e-01 7.192888842996412839e-03 4.939999999999999947e-01 4.939004733191642571e-01 4.938743919511257574e-01 4.941867361382740187e-01 4.939743116351743013e-01 4.943105028433869563e-01 4.939388073781652566e-01 4.944440252252065293e-01 4.956974087370776827e-01 4.941733536861052101e-01 4.941507530842895179e-01 4.941440259752305497e-01 4.941569698091875518e-01 4.941205048068665895e-01 4.945713738391178116e-01 4.939680878867868663e-01 4.937756800090298825e-01 4.941162141067639291e-01 4.936906314964738529e-01 4.939653001358886297e-01 4.938306713933975356e-01 4.937930746938722359e-01 4.939981753863356695e-01 4.937984643017491182e-01 4.940133242849346074e-01 4.942904110367346004e-01 4.941231697025686986e-01 4.941462853734619465e-01 4.939980746812084877e-01 4.942942647015585167e-01 4.938011638619255184e-01 4.955000146021459329e-01 4.954657954135555098e-01 4.940247248789608747e-01 4.939814719335443027e-01 4.955452851323081109e-01 4.938591706032834372e-01 4.937943908408423677e-01 4.937639945417984233e-01 4.940014346532539125e-01 4.937409180401169939e-01 4.936725953529943478e-01 4.942476635218419623e-01 4.943697191219779130e-01 4.942144786714069427e-01 4.957145768178057854e-01 4.939391197535373812e-01 4.956832046611970854e-01 4.941827975181303234e-01 4.941774013237538732e-01 4.939341157204417132e-01 4.938791300462975764e-01 4.939409455810976346e-01 4.937789308901294749e-01 4.938040159380333582e-01 4.956717737448111394e-01 4.936686314772929518e-01 4.941439884335209753e-01 4.941671927603010217e-01 4.938988764839397083e-01 4.938783166172128758e-01 4.940175137390257487e-01 4.938338691510725242e-01 4.940489397959526019e-01 4.940451187727151749e-01 4.937488286746815058e-01 4.951904925782464884e-01 4.939675306657521636e-01 4.939885836975083655e-01 4.939608669678411390e-01 4.940715977783181612e-01 4.938779699724591410e-01 4.938898815964591904e-01 4.957152198105764795e-01 4.942057600857828192e-01 4.941850712225880904e-01 4.941802996235074574e-01 4.936733105400347155e-01 4.938722524752547360e-01 4.938092089399724882e-01 4.956413260673488419e-01 4.954122352417730801e-01 4.940495235416239583e-01 4.942563325642299055e-01 4.940208604629350297e-01 4.942920590126081426e-01 4.944331223945750420e-01 4.941750476061539943e-01 4.942256826594030872e-01 4.939443037324042773e-01 4.956126496468686304e-01 4.939254491441631423e-01 4.938695219501496592e-01 4.941507470929764612e-01 4.944619457209228353e-01 4.939011333983531760e-01 4.942861005913414818e-01 4.942632423804869668e-01 4.942357847418731853e-01 4.943973536770574495e-01 4.941832419820873512e-01 4.941128711469776613e-01 4.957742185897537346e-01 4.941361246677504204e-01 4.939918946093420082e-01 4.938616619262944374e-01 4.940380813215421996e-01 4.939494054472521323e-01 4.942172929404846649e-01 4.941745651878652335e-01 4.942135984395058523e-01 4.940386420309706983e-01 4.941224113690128039e-01 4.939241629196202688e-01 4.956378198386843237e-01 4.942155034959585524e-01 4.943303226394892280e-01 4.939737148851728321e-01 4.940526889726359894e-01 4.957335170795988399e-01 4.938576879175522460e-01 4.938010831497861575e-01 4.939877136830050364e-01 4.942711759472997457e-01 4.943757905643400563e-01 4.945391612641498735e-01 4.942849050428860247e-01 4.941407029097987791e-01 4.940222201193663065e-01 4.935501233188706594e-01 4.940840660513719507e-01 4.939304490830858652e-01 4.955654467318574841e-01 4.939335359450163221e-01 4.944453562881895303e-01 4.939326387913015037e-01 4.939268531987933697e-01 4.941010097495031617e-01 4.938855071693790122e-01 4.937587531966852183e-01 4.942486088187166837e-01 4.941830658806662391e-01 4.942243325622662775e-01 4.942626203972564913e-01 4.938657323492258167e-01 4.940544462740648068e-01 4.937142606428391312e-01 4.938620434430545658e-01 4.936271173723866257e-01 4.942250751859715296e-01 4.940731839919355051e-01 4.956371538747492700e-01 4.941561576684176949e-01 4.939668032150761889e-01 4.940028749872936165e-01 4.941194740629767934e-01 4.944186124170708019e-01 4.939338276357840840e-01 4.939646573690485987e-01 4.955888615513554529e-01 4.938574190125783470e-01 4.939207932298567694e-01 4.937282203710305906e-01 4.939362951377900823e-01 4.938362425152253432e-01 4.937647716398081421e-01 4.942407506175855447e-01 4.938658194609604757e-01 4.938315699105127465e-01 4.942154342066879535e-01 4.939337589986917409e-01 4.940912673308168190e-01 4.940047590210239759e-01 4.940431652748384916e-01 4.939553027454489098e-01 4.938571100283133397e-01 4.939464297553850525e-01 4.942582824233233141e-01 4.942312701215921811e-01 4.941177909082116737e-01 4.943925142491173430e-01 4.942326472044137886e-01 4.941271716286318449e-01 4.941973871195827761e-01 4.943328529961821260e-01 4.940984798572790604e-01 4.941095385835201359e-01 4.940784508411866782e-01 4.939023817304185604e-01 4.938635113195001258e-01 4.940914409518655792e-01 4.942350470486078229e-01 4.940580452228314212e-01 4.940226592706541409e-01 4.941133958981568930e-01 4.939275268070555946e-01 4.936626085424273835e-01 4.940672290834348113e-01 4.943248557386520359e-01 4.942216973758549736e-01 4.939817705371809531e-01 4.938914372278850884e-01 4.939876966089729593e-01 4.938549822850916149e-01 4.956674210856156781e-01 4.942798047889621627e-01 4.942865653412434335e-01 4.941463476911009955e-01 4.938936425902407112e-01 4.938258743010935370e-01 4.938374079228836644e-01 4.941133750253328127e-01 4.944513522977125874e-01 4.943956015081178434e-01 4.939009253988351222e-01 4.953919851224887205e-01 4.938389603608733802e-01 4.938176341472428899e-01 4.940425074059792143e-01 4.938853496355950501e-01 4.937747061831526674e-01 4.939966444769773868e-01 4.940068533016234720e-01 4.942588191072171400e-01 4.938659433152702838e-01 4.939442078572157113e-01
4.000000000000000000e+00 1.827185381397039787e+00 8.919383619687606263e-03 1.828000000000000069e+00 1.827631710986704849e+00 1.827535199365704077e+00 1.826690243296535066e+00 1.827904942649997144e+00 1.827147729133653087e+00 1.827773562524870554e+00 1.827641275427585255e+00 1.826884804781004012e+00 1.826640776985481995e+00 1.826557237109134979e+00 1.826532371317350023e+00 1.826580216339223739e+00 1.826445428699065676e+00 1.828112001275767451e+00 1.827881912261227537e+00 1.827169925215600177e+00 1.826429568742815590e+00 1.826855211286547043e+00 1.827871596454259784e+00 1.827373415601479145e+00 1.827234292591899623e+00 1.827993248190732167e+00 1.827254236323071712e+00 1.826049251304231902e+00 1.827073462658051373e+00 1.826455279103017304e+00 1.826540722858181365e+00 1.827992875540989992e+00 1.827087707176206166e+00 1.827264225788663543e+00 1.828155295810336867e+00 1.828029043562110045e+00 1.828091492062227763e+00 1.827931438652872442e+00 1.828322322161540114e+00 1.827478874216198701e+00 1.827239162868542266e+00 1.827126684255885536e+00 1.828005308797870709e+00 1.827041291856951188e+00 1.826788470253590368e+00 1.826915452613124380e+00 1.827366613596622891e+00 1.826792789582973642e+00 1.826948077465622600e+00 1.827774718440215107e+00 1.826832455888444340e+00 1.826675684753251261e+00 1.826655738496304915e+00 1.827756201491836929e+00 1.827552732236097155e+00 1.827781474741389633e+00 1.827181954791814888e+00 1.827274779624949330e+00 1.828789003937508983e+00 1.826773802308687245e+00 1.826532232549816337e+00 1.826618004008723872e+00 1.827625802049882120e+00 1.827549722219160122e+00 1.826064737019151840e+00 1.827385248599515455e+00 1.826180898921881512e+00 1.828166957725755770e+00 1.827070564407525799e+00 1.827013309310868916e+00 1.827879850317803534e+00 1.827957755058796208e+00 1.827855191937679535e+00 1.828264940766731961e+00 1.827548439493229315e+00 1.827592517324549304e+00 1.826950447205108574e+00 1.826760562584290204e+00 1.826684089174991588e+00 1.826666451644786582e+00 1.826791116735189124e+00 1.827527282438796918e+00 1.827293995834554208e+00 1.826678113006277471e+00 1.827831432444445126e+00 1.826183056653857051e+00 1.826947496482355993e+00 1.826077107703075741e+00 1.827079554164013020e+00 1.827600974681161894e+00 1.826647038317484206e+00 1.826834203514311916e+00 1.827793901260799547e+00 1.826572426521120729e+00 1.827724131650870998e+00 1.827517178390432262e+00 1.826557214963107301e+00 1.827707515964382523e+00 1.827634153546942697e+00 1.827057529716173079e+00 1.826973037625038820e+00 1.826871544410243686e+00 1.827468760757706256e+00 1.826677327650387817e+00 1.826417211972431565e+00 1.827167886254172924e+00 1.826503165269862894e+00 1.827970006773030898e+00 1.827488093119972179e+00 1.826140762131854389e+00 1.827812779671208254e+00 1.826803192124139663e+00 1.826645255127615552e+00 1.826789535932262787e+00 1.826142834713669005e+00 1.826452476032018879e+00 1.827719372099323669e+00 1.826665190857086563e+00 1.826796577699636437e+00 1.827220990161351200e+00 1.827902734433392684e+00 1.826194757214642195e+00 1.827017881494973128e+00 1.827473387678715477e+00 1.827263927121070886e+00 1.827954535652901225e+00 1.827002362914512901e+00 1.827389055810698437e+00 1.827992932122141090e+00 1.827053110543137349e+00 1.826520088083588345e+00 1.828082223437655029e+00 1.828333452780431800e+00 1.826310738076528661e+00 1.827742633449151777e+00 1.828396708708264429e+00 1.827754056088036094e+00 1.827646195510595373e+00 1.827750736256070985e+00 1.827729327221445876e+00 1.826373368021442678e+00 1.827576330173329655e+00 1.827107289156964853e+00 1.826918946767159380e+00 1.826676676716794789e+00 1.826829213074288027e+00 1.826970738553421736e+00 1.827503155332762752e+00 1.826201252826806343e+00 1.826942648694554583e+00 1.827489504886444793e+00 1.826620183313203860e+00 1.826831958076081008e+00 1.828270810399307944e+00 1.826662736457745240e+00 1.826577214377592462e+00 1.827877158455788020e+00 1.828010638616948791e+00 1.826441618702420389e+00 1.827547340634759765e+00 1.827755135461970326e+00 1.827869217956722414e+00 1.826484755878785782e+00 1.827472392621443564e+00 1.827706902882951789e+00 1.826994305340575053e+00 1.827764266218381062e+00 1.827394031007756992e+00 1.827129559833136074e+00 1.826889900056095417e+00 1.827503477681448940e+00 1.827376740478577455e+00 1.826796321581806160e+00 1.827754881476940430e+00 1.826337356570994608e+00 1.828017610304518037e+00 1.826159554234524585e+00 1.827834602062106573e+00 1.827471249254568386e+00 1.827801768406566607e+00 1.826954703856251694e+00 1.826854856765237622e+00 1.826435397162741836e+00 1.827450872507871082e+00 1.826859946953966585e+00 1.826470071647533944e+00 1.826729613118134088e+00 1.827230343261191603e+00 1.826364016638444498e+00 1.826404893630582560e+00 1.826289982259123423e+00 1.827638772880982199e+00 1.827494936623575317e+00 1.826337998336247992e+00 1.826868817633113151e+00 1.826214555823664432e+00 1.828083848475213991e+00 1.826419151639746108e+00 1.827731819844732097e+00 1.826751515011249660e+00 1.826248502644437055e+00 1.827200782548134894e+00 1.826819472486459706e+00 1.827932543607220017e+00 1.827598273790635552e+00 1.827954472472069991e+00 1.827463375743213714e+00 1.826774285775212503e+00 1.827034258187540061e+00 1.827059247597389469e+00 1.826540953206377438e+00 1.827606434524210677e+00 1.827355664417811720e+00 1.827398343487917742e+00 1.826419074486351546e+00 1.827668358898022705e+00 1.827462284117050917e+00 1.827633383864515348e+00 1.827756719302730426e+00 1.827404088136997062e+00 1.827325172512469509e+00 1.826157122516838038e+00 1.827575747234550185e+00 1.827166321665593340e+00 1.825987596791418532e+00 1.826025332244462618e+00 1.826956687631130727e+00 1.827503935992538686e+00 1.827793546483786002e+00
5.000000000000000000e+00 4.933972637829935337e+00 1.805671783718513709e-02 4.934000000000000163e+00 4.935005539075698167e+00 4.932995381548264113e+00 4.933864337315723603e+00 4.933743428356174299e+00 4.935100000047741631e+00 4.933388817011877592e+00 4.934431263887182340e+00 4.932988728883498375e+00 4.931730027677122763e+00 4.933505089497399965e+00 4.935438510448962646e+00 4.933567156070674642e+00 4.933203096573818058e+00 4.933699858864721399e+00 4.933681266464385651e+00 4.935757708268400101e+00 4.933160259057813413e+00 4.934907567468801659e+00 4.935653282329445446e+00 4.934308085015810086e+00 4.935531752243946357e+00 4.935981768637556222e+00 4.933986274885493017e+00 4.932133027071452069e+00 4.934899407354604861e+00 4.933229702374633874e+00 4.937461669237668715e+00 4.932880774483576758e+00 4.934937881595317322e+00 4.934013248628470016e+00 4.933022322793138237e+00 4.932681648693824528e+00 4.934246948487435169e+00 4.933814944372687528e+00 4.931474853655388735e+00 4.932593416511337203e+00 4.933945573259914674e+00 4.933641856393354175e+00 4.934014329107600183e+00 4.935410229315987607e+00 4.934727279054830440e+00 4.934472624473126068e+00 4.933689707027026472e+00 4.932140445040558596e+00 4.933159578977195814e+00 4.935391690492834549e+00 4.932847375418687008e+00 4.935825754968532486e+00 4.933771140341607797e+00 4.935341690680365545e+00 4.932792768519093762e+00 4.933410173071124838e+00 4.933791098934572794e+00 4.934041746295815045e+00 4.934732295870721153e+00 4.934687656345896123e+00 4.931436969589591435e+00 4.933669220027944391e+00 4.934989583653291767e+00 4.934784151462677571e+00 4.934174924672779738e+00 4.934340036699785159e+00 4.936489001685874456e+00 4.934450639725864285e+00 4.933490320522728290e+00 4.931937567210761486e+00 4.935675569567110621e+00 4.935885929414779660e+00 4.935608986545068966e+00 4.932714818304990700e+00 4.934780687821980649e+00 4.936899261788087578e+00 4.933165977792349999e+00 4.932053435673905639e+00 4.933847715121061128e+00 4.933800076403114687e+00 4.934734428029739384e+00 4.934223688444574485e+00 4.934093634266607964e+00 4.933579784260816226e+00 4.932148422628781503e+00 4.934494633915734063e+00 4.932558136723995013e+00 4.936208435718719478e+00 4.932914678000320130e+00 4.934322456285941350e+00 4.933747641282493213e+00 4.934253171814122041e+00 4.933443713796928698e+00 4.934143677331123357e+00 4.935255095092285771e+00 4.934696276003924353e+00 4.933505029681295007e+00 4.934610106081274594e+00 4.933012534792458936e+00 4.932855214403468302e+00 4.934628160770367700e+00 4.934354029042345324e+00 4.933965493173873007e+00 4.932028784655766884e+00 4.933126883596950840e+00 4.931754021213397010e+00 4.931358491117427967e+00 4.933919044539460508e+00 4.934617739409290493e+00 4.932380196513858728e+00 4.933494668981259323e+00 4.934169410490830465e+00 4.933742824912047631e+00 4.932131660540007623e+00 4.936386107418767821e+00 4.933222131319779713e+00 4.935242243261630968e+00 4.932395723233358176e+00 4.934151545024428209e+00 4.935297877040406789e+00 4.933737468104134827e+00 4.934526249779323415e+00 4.931349139658751213e+00 4.934578031500076456e+00 4.934012442160616629e+00 4.933877286056572053e+00 4.932706270081351541e+00 4.931748777127667793e+00 4.935380698445868575e+00 4.934844436582012328e+00 4.935405320155763498e+00 4.934221931313670595e+00 4.933503054551787947e+00 4.932839299120175269e+00 4.935305053996177804e+00 4.933673741858694228e+00 4.935335897620649170e+00 4.932442744510522559e+00 4.935326933347902845e+00 4.935269124269725083e+00 4.935008870655968494e+00 4.932856462294971323e+00 4.933589485382263717e+00 4.932481055619986954e+00 4.933827694177016276e+00 4.934239692706674951e+00 4.932620887770191587e+00 4.934658410679714002e+00 4.934543801449869704e+00 4.933144920107396914e+00 4.932622110016257722e+00 4.934272683370132029e+00 4.932246195681861956e+00 4.932730654753495259e+00 4.933488291119093816e+00 4.931558415597771194e+00 4.931668569750518039e+00 4.936028726593686855e+00 4.933192805827128602e+00 4.934177650235139545e+00 4.934938865747413139e+00 4.935646859865634895e+00 4.933906851493131462e+00 4.934575344627705640e+00 4.935208573648933061e+00 4.933284404355075203e+00 4.935363467206744126e+00 4.934363751123790109e+00 4.933649621081159786e+00 4.932402632681571752e+00 4.932659824332750631e+00 4.934317062911519614e+00 4.934150853253815860e+00 4.933338394533492099e+00 4.934911564798077244e+00 4.932047513141073480e+00 4.936431303231989531e+00 4.933253597479925645e+00 4.934572257286952812e+00 4.935464731321013154e+00 4.934578641521924602e+00 4.934308955950794662e+00 4.933176001537043831e+00 4.933917196858600640e+00 4.934322704478074861e+00 4.935270171691638730e+00 4.933970674643283871e+00 4.935323139629899991e+00 4.934983602461163521e+00 4.933093611931014699e+00 4.932783237952899746e+00 4.935024607735518209e+00 4.932636770952254501e+00 4.934913298899807010e+00 4.934346664056141307e+00 4.934579747225607882e+00 4.936226409230665801e+00 4.935132581703453702e+00 4.931276441725502835e+00 4.932628817338910565e+00 4.934671474286775883e+00 4.933241981359421935e+00 4.934213383517644935e+00 4.933817926782288588e+00 4.934915251329637265e+00 4.933877115523628731e+00 4.934550997083425372e+00 4.932690303384272390e+00 4.934793516637978605e+00 4.934861012678163128e+00 4.933461106907915728e+00 4.932937717692809088e+00 4.934260152935622479e+00 4.934375395763874295e+00 4.933131914220528991e+00 4.934504386290937461e+00 4.933948006953484011e+00 4.935010056211842411e+00 4.931946819626712220e+00 4.934390907573423135e+00 4.936177079795719180e+00 4.932424385680747925e+00 4.932854888870497945e+00 4.933748886072958584e+00 4.937966458354887678e+00 4.934068449777753607e+00 4.934583999669625243e+00 4.932661061371545586e+00 4.933492750562354701e+00
6.000000000000000000e+00 3.356044039522560873e-03 2.820296178766981967e-05 3.370959790809327939e-03 3.355155285493827220e-03 3.355184756515775142e-03 3.357346857853223555e-03 3.355661651234567808e-03 3.357963070130315451e-03 3.355449995713306009e-03 3.359085648148147935e-03 3.353885352366255124e-03 3.357349537037037160e-03 3.357025355795610448e-03 3.356977130486968591e-03 3.357290594993141315e-03 3.356727966392318054e-03 3.359940307784636381e-03 3.355677726337448572e-03 3.354764124657064282e-03 3.356738683127572041e-03 3.353727280521261959e-03 3.355712555727023271e-03 3.354965063443072527e-03 3.354683749142661330e-03 3.355541087962962948e-03 3.354882008744855971e-03 3.355894740226337582e-03 3.357917524005486765e-03 3.356454689643347238e-03 3.356765474965706358e-03 3.356007265946502061e-03 3.358054162379972389e-03 3.354539073216735324e-03 3.352443951474622704e-03 3.352500214334704944e-03 3.356162658607681620e-03 3.355942965534979439e-03 3.352762774348422639e-03 3.355299961419753226e-03 3.354289909122085220e-03 3.354421189128943635e-03 3.356189450445816371e-03 3.354097007887517357e-03 3.353995198902606431e-03 3.357743377057613270e-03 3.358622149348422428e-03 3.357427233367626940e-03 3.354048782578875065e-03 3.355800968792867038e-03 3.353542416838134477e-03 3.357242369684499458e-03 3.357108410493827005e-03 3.355458033264746391e-03 3.355024005486968372e-03 3.355902777777777964e-03 3.354581940157750405e-03 3.354407793209876476e-03 3.353871956447187965e-03 3.353713884602194800e-03 3.356987847222222144e-03 3.357124485596707768e-03 3.355002572016460832e-03 3.355208869170095854e-03 3.355889381858710371e-03 3.354785558127571822e-03 3.356518990054869860e-03 3.356240354938271400e-03 3.354434585048010793e-03 3.350346150548696913e-03 3.355800968792867038e-03 3.355463391632373168e-03 3.355720593278463653e-03 3.356703853737997342e-03 3.354935592421125039e-03 3.355302640603566398e-03 3.353968407064471680e-03 3.357762131344307205e-03 3.356990526406035749e-03 3.357796960733881904e-03 3.353561171124828412e-03 3.355117776920438916e-03 3.354447980967078385e-03 3.353636188271605020e-03 3.351934906550068510e-03 3.356301976165980850e-03 3.357697830932784584e-03 3.356318051268861614e-03 3.357971107681755833e-03 3.358927576303155204e-03 3.357274519890260552e-03 3.357295953360768092e-03 3.355543767146776553e-03 3.353325402949245467e-03 3.355417845507544482e-03 3.355305319787380003e-03 3.356912830075445969e-03 3.359123156721536239e-03 3.355048118141289518e-03 3.358201517489712001e-03 3.357620134602194804e-03 3.357646926440329121e-03 3.358868634259259359e-03 3.357223615397805089e-03 3.356698495370370565e-03 3.354399755658436094e-03 3.357089656207133069e-03 3.356176054526748779e-03 3.354892725480109524e-03 3.356133187585733698e-03 3.355525012860082184e-03 3.357531721536351037e-03 3.357523683984910655e-03 3.357210219478737930e-03 3.356146583504801290e-03 3.356824417009602202e-03 3.355594671639232016e-03 3.353520983367626936e-03 3.357467421124828415e-03 3.357968428497942227e-03 3.356106395747599381e-03 3.356162658607681620e-03 3.354048782578875065e-03 3.354863254458162036e-03 3.354600694444444340e-03 3.355913494513031517e-03 3.357821073388203049e-03 3.358431927297668169e-03 3.359696502057613055e-03 3.358201517489712001e-03 3.356768154149519963e-03 3.356218921467763860e-03 3.352902091906721435e-03 3.356387710048011012e-03 3.355640217764060268e-03 3.352693115569272807e-03 3.355731310013717206e-03 3.358847200788751819e-03 3.355626821844993109e-03 3.355538408779149342e-03 3.356827096193415808e-03 3.355131172839506074e-03 3.354163987482853149e-03 3.357478137860082402e-03 3.357081618655692688e-03 3.357435270919067322e-03 3.357853223593964143e-03 3.354927554869684657e-03 3.356376993312757025e-03 3.353890710733881900e-03 3.355291923868312844e-03 3.353499549897119396e-03 3.357563871742112564e-03 3.356599365569272811e-03 3.353531700102880490e-03 3.356856567215363296e-03 3.356251071673525387e-03 3.356012624314128837e-03 3.356671703532235814e-03 3.359064214677640395e-03 3.355326753257887543e-03 3.355565200617284093e-03 3.353001221707818755e-03 3.355104381001371757e-03 3.355693801440329336e-03 3.353914823388203046e-03 3.355516975308641802e-03 3.354930234053497828e-03 3.354260438100137298e-03 3.357823752572016655e-03 3.354857896090534825e-03 3.354456018518518334e-03 3.358005937071330532e-03 3.355605388374485569e-03 3.356508273319615872e-03 3.356226959019204242e-03 3.356390389231824617e-03 3.355535729595336171e-03 3.354884687928669576e-03 3.355527692043895789e-03 3.357751414609053651e-03 3.357740697873799664e-03 3.356792266803840675e-03 3.358841842421125042e-03 3.357636209705075567e-03 3.356894075788751600e-03 3.357352216220850331e-03 3.358249742798353858e-03 3.356208204732510306e-03 3.356652949245541879e-03 3.356577932098765270e-03 3.355369620198902624e-03 3.355401770404663718e-03 3.356535065157750190e-03 3.357791602366255127e-03 3.356087641460905446e-03 3.356130508401920527e-03 3.356765474965706358e-03 3.355361582647462242e-03 3.353429891117969998e-03 3.356285901063100086e-03 3.358155971364883315e-03 3.357368291323731095e-03 3.356320730452674785e-03 3.355125814471879298e-03 3.355774176954732721e-03 3.354970421810699738e-03 3.353823731138546108e-03 3.357786243998628350e-03 3.357971107681755833e-03 3.357435270919067322e-03 3.355238340192043776e-03 3.354611411179698327e-03 3.354865933641975207e-03 3.356939621913580286e-03 3.359283907750343010e-03 3.358686449759945049e-03 3.355589313271604805e-03 3.351546424897119177e-03 3.354847179355281272e-03 3.354780199759945045e-03 3.356267146776406151e-03 3.354836462620027285e-03 3.354619448731138709e-03 3.355782214506172669e-03 3.355717914094650048e-03 3.357679076646090648e-03 3.355372299382716229e-03 3.355516975308641802e-03
