# vvf statistics with RF=500
# gcat file: /disk2/salam/Abacus/AbacusCosmos_720box_products/GCAT_derivative/AbacusCosmos_720box_planck_rockstar_halos_z0.100_Mr21_hod-fradsat-pos_real-2.gcat.rsd_zz.1pz0.100by100
# stats order in row: stdvvf,p2.5,p16,p50,p84,p97.5,rho
# columns: numbers, mean, sigma,All, jnrealizations
0.000000000000000000e+00 1.443968948189549684e+00 5.082569547566945234e-03 1.443969189176918855e+00 1.444409257743850095e+00 1.443777010426942509e+00 1.443729240203951214e+00 1.443949104890347668e+00 1.443955630394004430e+00 1.443915506109228364e+00 1.444261227598943487e+00 1.443086958189562896e+00 1.442796981008126034e+00 1.443906262382176786e+00 1.444533230860195694e+00 1.444311710949062855e+00 1.444206152967590029e+00 1.443907445865588279e+00 1.444137433223870781e+00 1.444032740882182031e+00 1.444248984155040327e+00 1.443938403312776675e+00 1.444279407526547931e+00 1.444181102374143988e+00 1.444064585464731154e+00 1.444734065990993521e+00 1.443976049107150716e+00 1.443867178665189988e+00 1.444038999826495084e+00 1.444340362934714239e+00 1.444358372896727971e+00 1.443871716863944110e+00 1.444536349331692282e+00 1.443604778330265237e+00 1.443710744431305093e+00 1.443400339841480307e+00 1.444080335113701707e+00 1.444007572684813834e+00 1.443399524282809709e+00 1.443332189363144336e+00 1.444023928923780176e+00 1.443868494035152716e+00 1.443914313488738665e+00 1.444236133176537207e+00 1.443837489565442667e+00 1.444007988073501725e+00 1.444311614813345468e+00 1.443823563139458477e+00 1.443263080133107668e+00 1.444016633619515932e+00 1.443615168373368896e+00 1.444411197289640958e+00 1.443947626926354699e+00 1.443936874451021923e+00 1.443409979318530434e+00 1.443908394995911726e+00 1.443515351436760241e+00 1.444054583461582331e+00 1.443225934604940308e+00 1.443655781589259668e+00 1.444016455411310851e+00 1.444043948381873887e+00 1.444042612541459158e+00 1.443353567140915894e+00 1.444080006890112511e+00 1.444170315300177476e+00 1.444392661598691285e+00 1.444055545697116694e+00 1.443876732454113965e+00 1.443328615235301982e+00 1.444454083784188381e+00 1.444261317347059981e+00 1.444397208227058860e+00 1.443690946425262078e+00 1.444210166521747052e+00 1.444441475027255839e+00 1.443642701506497206e+00 1.443883505065202577e+00 1.443995688192147631e+00 1.444176299933835894e+00 1.443974575312930941e+00 1.443712548733261825e+00 1.443966785571943356e+00 1.443593188175356978e+00 1.443790054813017809e+00 1.444146093060415748e+00 1.442478751508061707e+00 1.444196180431503329e+00 1.443624165914090707e+00 1.444432809716990507e+00 1.444100573908331242e+00 1.444270507807112081e+00 1.443752558751993043e+00 1.443717418361738281e+00 1.444034162664202814e+00 1.444031459591647470e+00 1.444210840754134528e+00 1.444348835469521086e+00 1.443580686169867233e+00 1.443721418820512747e+00 1.444535440212649791e+00 1.444075975801950351e+00 1.444037710265185348e+00 1.443884123509118877e+00 1.444176249431130765e+00 1.443557510619563056e+00 1.443713071389790326e+00 1.443451914874771314e+00 1.443993558075605366e+00 1.444147181269091584e+00 1.444001569458920553e+00 1.443739588229376425e+00 1.443552585152518608e+00 1.444125019680017274e+00 1.444394754395946778e+00 1.443987084449005698e+00 1.444069912622282681e+00 1.443444173305303835e+00 1.444363327419172061e+00 1.444340374969604435e+00 1.444239134562176563e+00 1.444180488286772368e+00 1.443384771486110552e+00 1.444168785888508388e+00 1.444025834399160990e+00 1.443905141368768019e+00 1.443838389243654374e+00 1.443904459313179789e+00 1.443867662358852666e+00 1.444051686655069666e+00 1.444498836084328719e+00 1.444241819520226677e+00 1.443927360021914685e+00 1.444098639986953980e+00 1.443892815084659054e+00 1.443744828896623256e+00 1.444018813153930658e+00 1.444059194266085644e+00 1.444145555736596087e+00 1.444229620509936973e+00 1.444354834235274998e+00 1.443597929773054567e+00 1.442950919052116587e+00 1.443343080475831153e+00 1.443773186640237016e+00 1.444358405359617459e+00 1.444251357927677670e+00 1.444310971384001219e+00 1.444163461892165046e+00 1.443864450047816606e+00 1.443854750775698914e+00 1.444204313176824517e+00 1.443652567632730754e+00 1.443724101966987527e+00 1.443526663498555962e+00 1.443801861969047584e+00 1.443277868275658626e+00 1.444170522772792342e+00 1.444017558739483009e+00 1.444368060051700597e+00 1.444229160321666372e+00 1.444348917472557448e+00 1.443474168054529327e+00 1.444040677985775734e+00 1.444467086493997687e+00 1.444078996774768475e+00 1.444071534680685831e+00 1.443849948180106368e+00 1.443713404297281455e+00 1.443685264979825078e+00 1.443519569117801549e+00 1.443931119695159859e+00 1.444079886909062971e+00 1.443860808825357944e+00 1.444126033760027239e+00 1.444056841658647894e+00 1.444571234439297802e+00 1.443785423068155049e+00 1.443906708863002208e+00 1.444113998816896727e+00 1.444526037495649229e+00 1.444158775902447456e+00 1.443830047577962628e+00 1.444269660750297835e+00 1.444254561869334763e+00 1.444147534092878660e+00 1.444135257549013396e+00 1.444548192626287531e+00 1.444500074297125902e+00 1.444460481011160979e+00 1.444378516418186820e+00 1.443992453425662292e+00 1.443408901412430057e+00 1.444323750821761232e+00 1.443807707308626620e+00 1.444127955694068932e+00 1.444194386817613474e+00 1.443633718513658515e+00 1.443713751105462295e+00 1.443759530170623417e+00 1.444139474606666029e+00 1.444154837252780821e+00 1.444241629427602369e+00 1.443968212152389796e+00 1.444181669786296585e+00 1.443886766316608172e+00 1.444002477074859625e+00 1.443751064816148455e+00 1.444126726006152550e+00 1.444013108367606213e+00 1.443807110194639032e+00 1.443843457012385478e+00 1.443904675273135929e+00 1.443893215424241205e+00 1.444239152865150144e+00 1.443988554343302866e+00 1.443753652228681128e+00 1.443434518818656143e+00 1.443373995528632880e+00 1.443934017132852965e+00 1.444242965761152853e+00 1.443786336391502889e+00 1.443985041968172789e+00 1.443961186530713148e+00 1.444633765804474557e+00 1.444338109985718654e+00 1.444261422046864807e+00 1.443393129739498848e+00 1.444040366120579177e+00
1.000000000000000000e+00 2.199999987837866766e-02 1.641113602822164019e-04 2.199999999999999872e-02 2.199616033179176491e-02 2.199599447421259762e-02 2.200853404378842054e-02 2.199669453421215781e-02 2.201502376395054680e-02 2.199475883398121015e-02 2.202129388509004720e-02 2.198768590759422534e-02 2.200851445872512024e-02 2.200594210007812690e-02 2.200494296262621441e-02 2.200925372326710885e-02 2.200713530951699942e-02 2.202583287170455442e-02 2.199861240623826944e-02 2.199537581919852949e-02 2.200535688976594864e-02 2.198646484923509614e-02 2.199621549097059009e-02 2.199294344398295895e-02 2.198945494220525335e-02 2.200103452688767156e-02 2.199245450899476456e-02 2.200267686374114684e-02 2.201208701288445008e-02 2.200811706076016838e-02 2.200694346438101731e-02 2.199899860227944384e-02 2.201097741894490409e-02 2.198826107096129787e-02 2.197476690320871243e-02 2.197502006991728860e-02 2.200184317767099607e-02 2.199617023265253157e-02 2.197798905605697489e-02 2.199371387171613138e-02 2.199093364502445816e-02 2.198604829077919348e-02 2.199927920576989077e-02 2.198783962468676967e-02 2.198559180101777172e-02 2.201173129582267157e-02 2.201626875804973266e-02 2.201258506432543505e-02 2.198679731639513468e-02 2.199836014050527214e-02 2.198471159376129067e-02 2.200729881923529224e-02 2.200733442313031196e-02 2.199854847060307012e-02 2.199372068047336301e-02 2.199751491411282289e-02 2.198858555743177928e-02 2.199105089331257826e-02 2.198159156181512738e-02 2.198221922003196910e-02 2.200773263433672758e-02 2.200825123685378609e-02 2.199411758492963651e-02 2.199342911955304639e-02 2.199710834837251272e-02 2.199354608080830026e-02 2.200325413285824511e-02 2.200283877042069625e-02 2.199094726054193552e-02 2.196175816436111636e-02 2.199977768354901414e-02 2.199865190814974739e-02 2.199835929067246038e-02 2.200135450567512752e-02 2.199350318074881627e-02 2.199545510090004236e-02 2.198594154215872953e-02 2.201142169305436713e-02 2.201014208357717633e-02 2.200929405038061504e-02 2.198613607846262863e-02 2.199494779223123281e-02 2.198924210474250546e-02 2.198621827369538068e-02 2.197498789245993026e-02 2.200291016033920424e-02 2.201153021656908348e-02 2.200147506660387470e-02 2.201240449851122119e-02 2.202189765140288857e-02 2.200783184320811298e-02 2.201111983152550383e-02 2.199470165154056647e-02 2.198127120160365752e-02 2.199832291754258776e-02 2.199263270511479448e-02 2.200635295884959333e-02 2.202132228028986713e-02 2.199519803919509214e-02 2.201342061097825292e-02 2.201360898044833064e-02 2.201270986962990811e-02 2.201949726386917203e-02 2.201015822486834458e-02 2.200619312435897826e-02 2.199075864352487836e-02 2.200555899917952182e-02 2.200252058852634682e-02 2.199345416795604052e-02 2.200299630601445025e-02 2.199727944719355802e-02 2.201086344200056319e-02 2.200836109895032422e-02 2.201054330892042096e-02 2.200387943206197350e-02 2.200323745969975237e-02 2.199345242360490477e-02 2.198136715140487640e-02 2.201057057233885700e-02 2.201632956596439802e-02 2.200204482486696131e-02 2.200401592466274397e-02 2.198959353151963558e-02 2.199266793319243005e-02 2.199063568323121609e-02 2.199926500526598952e-02 2.201490903363729698e-02 2.201893808284957621e-02 2.202650919875084184e-02 2.201553266589040617e-02 2.200439410596741543e-02 2.200338239415986982e-02 2.197620304478371464e-02 2.200425084338651638e-02 2.199567382656351933e-02 2.197781046919161999e-02 2.199564624074594466e-02 2.201796248889967972e-02 2.199640254448614884e-02 2.199510846641978060e-02 2.200584807661304376e-02 2.199650579552018051e-02 2.198775139755132502e-02 2.200779903906803503e-02 2.200549356901810097e-02 2.201394434871639313e-02 2.201251460711599675e-02 2.199405704693880789e-02 2.200463428500245427e-02 2.198469774830780557e-02 2.199507341329988430e-02 2.198374070337807268e-02 2.201028674272242913e-02 2.200188969992916688e-02 2.198204360529328397e-02 2.200626585272162997e-02 2.199737598203924810e-02 2.200254675147438402e-02 2.200501835117125299e-02 2.202060169865874967e-02 2.199713098745856299e-02 2.199990412652253272e-02 2.197905118969828778e-02 2.199208403451003227e-02 2.199956015442545987e-02 2.198831694540881107e-02 2.199844381333633872e-02 2.199375774021201935e-02 2.199080004240662120e-02 2.200974121373692333e-02 2.199348737152157993e-02 2.199068680399985168e-02 2.201269020655371306e-02 2.199945084151187780e-02 2.200429290539693619e-02 2.200041740412130367e-02 2.200213090051204509e-02 2.199465294243660093e-02 2.199061854484433282e-02 2.199459086515350922e-02 2.201043661011331531e-02 2.200976547317213747e-02 2.200681081767826008e-02 2.201829489909035500e-02 2.200877902719890894e-02 2.200820088612597675e-02 2.200724587845857838e-02 2.201488632186876515e-02 2.200343716629028432e-02 2.200573639880715193e-02 2.200215305313268921e-02 2.199561076055335518e-02 2.199387423044540935e-02 2.200555499763609882e-02 2.201082732870556294e-02 2.200118452644926614e-02 2.200101441800641697e-02 2.200656553306686719e-02 2.199799939431796442e-02 2.198321913571925357e-02 2.199894264826506018e-02 2.201481648432003155e-02 2.200925107543531475e-02 2.200005911803674594e-02 2.199087784375538743e-02 2.199812356612778144e-02 2.199527440905733530e-02 2.198558383966117344e-02 2.201156917540129238e-02 2.201462986363979246e-02 2.200682965336312955e-02 2.199306361877238075e-02 2.199211635284868682e-02 2.199297766385123476e-02 2.200552248570002492e-02 2.202121870852944557e-02 2.201993495505373197e-02 2.199696371916444806e-02 2.196631817529794140e-02 2.199419396695357493e-02 2.198940000784656290e-02 2.200552926564303471e-02 2.199221711814960956e-02 2.198998237885361334e-02 2.200121686251389069e-02 2.200151219978064426e-02 2.201075895076573530e-02 2.199716106462460893e-02 2.199608205179111667e-02
2.000000000000000000e+00 1.039999994250628140e-01 7.757991576977524024e-04 1.039999999999999813e-01 1.039818488411974329e-01 1.039810647871868277e-01 1.040403427524543567e-01 1.039843741617302031e-01 1.040710214295844094e-01 1.039752235788202750e-01 1.041006620022438683e-01 1.039417879268090678e-01 1.040402501685187553e-01 1.040280899276420645e-01 1.040233667324148431e-01 1.040437448736263315e-01 1.040337305540803697e-01 1.041221190298760868e-01 1.039934404658536399e-01 1.039781402362112417e-01 1.040253234788935666e-01 1.039360156509295391e-01 1.039821095936791506e-01 1.039666417351921696e-01 1.039501506358793820e-01 1.040048904907417276e-01 1.039643304061570739e-01 1.040126542649581487e-01 1.040571386063628562e-01 1.040383715599571685e-01 1.040328236498011677e-01 1.039952661198664530e-01 1.040518932531940832e-01 1.039445068809079636e-01 1.038807162697139158e-01 1.038819130577908201e-01 1.040087132035356077e-01 1.039818956452665255e-01 1.038959482649965960e-01 1.039702837572035188e-01 1.039571408673883590e-01 1.039340464655016394e-01 1.039965926090940379e-01 1.039425145894283670e-01 1.039318885139021847e-01 1.040554570347980851e-01 1.040769068562350796e-01 1.040594930313566008e-01 1.039375873138679018e-01 1.039922479369340125e-01 1.039277275341442819e-01 1.040345035091122944e-01 1.040346718184342045e-01 1.039931382246690600e-01 1.039703159440558966e-01 1.039882523212606186e-01 1.039460408169502331e-01 1.039576951320230896e-01 1.039129782922169759e-01 1.039159454037874991e-01 1.040365542714099950e-01 1.040390058469451706e-01 1.039721922196673864e-01 1.039689376560689604e-01 1.039863303741246081e-01 1.039694905638210431e-01 1.040153831735117079e-01 1.040134196419887497e-01 1.039572052316527773e-01 1.038192204133434604e-01 1.039989490495044216e-01 1.039936272021624447e-01 1.039922439195425374e-01 1.040064031177369563e-01 1.039692877635398638e-01 1.039785150224365601e-01 1.039335418356594487e-01 1.040539934580752002e-01 1.040479443950921151e-01 1.040439355108901814e-01 1.039344614618233492e-01 1.039761168360021915e-01 1.039491444951463894e-01 1.039348500211054321e-01 1.038817609461742120e-01 1.040137571216035173e-01 1.040545064783265639e-01 1.040069730421274152e-01 1.040586394475075810e-01 1.041035161702681955e-01 1.040370232588020000e-01 1.040525664763023717e-01 1.039749532618281236e-01 1.039114638621263936e-01 1.039920719738376964e-01 1.039651727878153908e-01 1.040300321691071672e-01 1.041007962340975562e-01 1.039772998216495214e-01 1.040634428882608320e-01 1.040643333621193850e-01 1.040600830200686666e-01 1.040921688837451731e-01 1.040480206993776302e-01 1.040292765878788050e-01 1.039563135875721522e-01 1.040262789052122799e-01 1.040119155093972708e-01 1.039690560667012875e-01 1.040141643557046663e-01 1.039871392049149940e-01 1.040513544530935752e-01 1.040395251950378963e-01 1.040498410967147097e-01 1.040183391333838747e-01 1.040153043549442990e-01 1.039690478206777291e-01 1.039119174430048614e-01 1.040499699783291321e-01 1.040771943118316972e-01 1.040096664448256214e-01 1.040189843711329803e-01 1.039508057853655576e-01 1.039653393205460380e-01 1.039557323207294104e-01 1.039965254794392169e-01 1.040704790681035857e-01 1.040895254825616317e-01 1.041253162122767056e-01 1.040734271478455514e-01 1.040207721373005018e-01 1.040159894996648404e-01 1.038875053026139250e-01 1.040200948960089966e-01 1.039795489983002807e-01 1.038951040361785760e-01 1.039794185926171816e-01 1.040849135838893824e-01 1.039829938466618059e-01 1.039768763867116863e-01 1.040276454530798395e-01 1.039834819424590301e-01 1.039420975156971766e-01 1.040368681846852439e-01 1.040259695989946553e-01 1.040659187393865870e-01 1.040591599609119872e-01 1.039719060400743772e-01 1.040219075291025086e-01 1.039276620829096276e-01 1.039767106810539909e-01 1.039231378705145203e-01 1.040486282383242117e-01 1.040089331269378886e-01 1.039151152250228083e-01 1.040296203946840803e-01 1.039875955514582562e-01 1.040120391887879997e-01 1.040237231146277364e-01 1.040973898482050047e-01 1.039864373952586601e-01 1.039995467799247064e-01 1.039009692603918844e-01 1.039625790722292359e-01 1.039979207300112674e-01 1.039447710146598480e-01 1.039926434812263045e-01 1.039704911355477102e-01 1.039565092913767447e-01 1.040460493740290870e-01 1.039692130290111316e-01 1.039559739825447471e-01 1.040599900673448291e-01 1.039974039780561521e-01 1.040202937346036971e-01 1.040019731831188926e-01 1.040100733478751260e-01 1.039747230006093787e-01 1.039556513029004786e-01 1.039744295443620486e-01 1.040493367023538618e-01 1.040461640549955602e-01 1.040321965926608722e-01 1.040864849775180456e-01 1.040415008558493865e-01 1.040387678253228004e-01 1.040342532436223655e-01 1.040703717033796133e-01 1.040162484224631673e-01 1.040271175216338218e-01 1.040101780693545308e-01 1.039792508680704025e-01 1.039710418166510386e-01 1.040262599888251982e-01 1.040511837356990210e-01 1.040055995795783478e-01 1.040047954305757943e-01 1.040310370654070338e-01 1.039905425913212889e-01 1.039206722779455749e-01 1.039950016099802921e-01 1.040700415622401731e-01 1.040437323566033023e-01 1.040002794670828040e-01 1.039568770795709224e-01 1.039911295853313267e-01 1.039776608428164967e-01 1.039318508783982908e-01 1.040546906473515665e-01 1.040691593553881023e-01 1.040322856340802626e-01 1.039672098341967027e-01 1.039627318498301534e-01 1.039668035018421893e-01 1.040261062960364802e-01 1.041003066221392048e-01 1.040942379693449160e-01 1.039856466724137507e-01 1.038407768286811750e-01 1.039725532983259981e-01 1.039498909461837456e-01 1.040261383466761641e-01 1.039632081948890507e-01 1.039526439727625207e-01 1.040057524409747497e-01 1.040071485807812363e-01 1.040508604945289267e-01 1.039865795782254215e-01 1.039814787902852838e-01
3.000000000000000000e+00 4.777741639703020904e-01 8.073587227595869359e-03 4.779999999999999805e-01 4.779165744816574191e-01 4.779129708488009665e-01 4.781854214968575545e-01 4.779281812433369137e-01 4.763250596200209186e-01 4.778861237565008580e-01 4.764607222410391918e-01 4.777324483559108881e-01 4.781849959668458272e-01 4.781291056289702079e-01 4.781073970970605158e-01 4.782010581691671369e-01 4.781550308158693530e-01 4.765589294059712766e-01 4.779698513719042308e-01 4.778995291625862674e-01 4.781163906049146761e-01 4.777059180879261735e-01 4.779177729401791752e-01 4.778466802829024473e-01 4.777708846533686993e-01 4.760223833999333021e-01 4.778360570590680645e-01 4.780581609485576311e-01 4.782626178253985283e-01 4.781763615928800726e-01 4.781508625442784655e-01 4.779782423586169671e-01 4.762375114280806288e-01 4.777449450872500170e-01 4.774517536242620652e-01 4.774572542463847435e-01 4.780400472239425547e-01 4.779167896003595484e-01 4.775217622179651622e-01 4.778634195763777903e-01 4.778030128328041859e-01 4.776968674087478939e-01 4.779843391071821879e-01 4.777357882091034513e-01 4.776869491312042970e-01 4.782548890637835504e-01 4.763519967650760023e-01 4.782734391248890105e-01 4.777131416925851637e-01 4.779643703255236353e-01 4.776678246280862128e-01 4.781585834361122833e-01 4.781593570116495218e-01 4.779684622249212311e-01 4.778635675121030713e-01 4.779460058611785800e-01 4.777519952932904879e-01 4.778055603183368749e-01 4.776000348430741727e-01 4.776136721443309807e-01 4.781680090551344020e-01 4.781792768734595134e-01 4.778721911634712383e-01 4.778572326884707455e-01 4.779371722964573244e-01 4.778597739375621267e-01 4.780707034321018956e-01 4.780616787391405720e-01 4.778033086608656776e-01 4.771691092074824558e-01 4.779951696698376273e-01 4.779707096407082023e-01 4.779643518609743569e-01 4.780294297142140825e-01 4.778588418362697543e-01 4.779012517377372871e-01 4.776945480523578924e-01 4.782481622399994414e-01 4.782203598159041058e-01 4.782019343673606371e-01 4.776987747956880637e-01 4.778902293039331561e-01 4.777662602757690169e-01 4.777005606739269106e-01 4.774565551179930090e-01 4.780632298473699859e-01 4.782505201600009692e-01 4.780320491743932920e-01 4.782695159221983516e-01 4.764737855485352003e-01 4.781701645933399414e-01 4.782416036122358882e-01 4.778848813380177640e-01 4.775930742893885750e-01 4.779635615720617126e-01 4.778399287747669422e-01 4.781380324695502781e-01 4.764613366099080261e-01 4.778956664879661087e-01 4.782915932748911247e-01 4.762944488497002915e-01 4.782761508037771114e-01 4.764218498909875144e-01 4.782207105221394916e-01 4.781345597019814875e-01 4.777992105274951329e-01 4.781207818912641683e-01 4.780547655143451702e-01 4.778577769219539695e-01 4.780651015579502894e-01 4.779408898072054490e-01 4.782360329671031529e-01 4.781816638771934080e-01 4.782290773483618418e-01 4.780842894784373964e-01 4.780703411698400962e-01 4.778577390219611032e-01 4.775951590168877603e-01 4.782296697080897219e-01 4.763533124272297248e-01 4.780444284675639532e-01 4.780872550903996210e-01 4.777738958211993903e-01 4.778406941848173939e-01 4.777965389356601533e-01 4.779840305689609936e-01 4.763225772732433416e-01 4.784114728910044412e-01 4.765735626638818445e-01 4.763360704074469099e-01 4.780954719387465746e-01 4.780734902003826448e-01 4.774829570639370635e-01 4.780923592335797889e-01 4.779060040498800954e-01 4.775178820124361678e-01 4.779054046852982407e-01 4.763886429416475665e-01 4.779218371029264056e-01 4.778937203158479807e-01 4.781270627555015418e-01 4.779240804663020814e-01 4.777338712740696880e-01 4.781694518488417422e-01 4.781193602723023961e-01 4.763017049995001972e-01 4.772713394361059458e-01 4.778708758380341148e-01 4.781006903741442660e-01 4.776675238041422911e-01 4.778929587071520380e-01 4.776467298279417628e-01 4.782235028646054653e-01 4.780410580257337672e-01 4.776098565150086461e-01 4.781361398909518279e-01 4.779429872461254392e-01 4.780553339638525245e-01 4.781090350845390025e-01 4.764457458437074688e-01 4.779376641820542448e-01 4.779979169308077869e-01 4.775448394852627731e-01 4.778280076588997671e-01 4.779904433552440990e-01 4.777461590866096675e-01 4.779661883079440732e-01 4.778643727191519974e-01 4.778001100122892808e-01 4.782116500075568322e-01 4.778584983448779799e-01 4.777976496505422221e-01 4.782757235787579164e-01 4.779880682837580608e-01 4.780932731263515811e-01 4.780090690531810793e-01 4.780462986565798822e-01 4.778838230220315841e-01 4.777961665652541434e-01 4.778824742519717228e-01 4.762258102915426505e-01 4.782121770989218867e-01 4.781479804931912936e-01 4.763958350894095251e-01 4.761899462248491144e-01 4.781781828894643982e-01 4.781574331774182118e-01 4.763220858731605500e-01 4.780746802493979764e-01 4.781246363013553768e-01 4.780467799726102474e-01 4.779046337974774405e-01 4.778669037342230252e-01 4.781206949486389024e-01 4.782352483236935736e-01 4.780257365292158722e-01 4.780220405366849001e-01 4.781426511275437830e-01 4.779565322947267325e-01 4.776353975851729272e-01 4.779770266304863013e-01 4.763205748425606845e-01 4.782010006390036150e-01 4.780012844737074884e-01 4.778018004234125260e-01 4.779592302095036493e-01 4.778973257967911725e-01 4.776867761526382705e-01 4.782513666291735577e-01 4.763165370496609263e-01 4.781483897412535100e-01 4.778492913533271547e-01 4.778287098482578155e-01 4.778474237873131525e-01 4.781199885529369142e-01 4.764590956936371469e-01 4.764313199366171370e-01 4.779340298982093782e-01 4.772681858087461926e-01 4.778738507365367649e-01 4.777696910795752872e-01 4.781201358626077647e-01 4.778308992034324132e-01 4.777823444132739961e-01 4.780264391037108984e-01 4.780328559770521957e-01 4.782337626575464129e-01 4.779383176768437491e-01 4.779148736707342637e-01
4.000000000000000000e+00 1.824840573027154633e+00 9.055157690324439415e-03 1.824000000000000066e+00 1.823681656599462464e+00 1.825667541359645707e+00 1.824707549812276453e+00 1.823725946836499023e+00 1.825245606611172633e+00 1.825564983220440585e+00 1.825765456654738550e+00 1.824977930330320630e+00 1.824705926032482495e+00 1.824492654115568380e+00 1.824409816537737150e+00 1.824767217783600071e+00 1.824591582025409497e+00 1.824139431465713557e+00 1.825884829717776547e+00 1.825616192993477993e+00 1.824444134860594868e+00 1.824876582486512966e+00 1.825685885750559123e+00 1.825414305850585617e+00 1.825124760203036045e+00 1.824085771683777946e+00 1.825373724246565521e+00 1.824221936339265770e+00 1.825002123250056396e+00 1.824672978128479617e+00 1.824575676319589723e+00 1.823916975025350107e+00 1.824910127825250195e+00 1.825025668889787900e+00 1.825903359048433039e+00 1.825924394900400038e+00 1.824152816185086401e+00 1.825682129310159940e+00 1.826171090657824791e+00 1.825478251352438797e+00 1.825247492537030114e+00 1.824842008134673010e+00 1.823940239605649216e+00 1.824990688849001730e+00 1.824804119484474851e+00 1.824972631071843487e+00 1.825348827940123098e+00 1.825043416242254413e+00 1.824904177260796345e+00 1.823864040740073467e+00 1.824731062282187066e+00 1.824605138467507937e+00 1.824608090354076895e+00 1.823879655017272672e+00 1.825478816479289002e+00 1.825793737871364231e+00 1.825052601266837993e+00 1.825257224144943846e+00 1.824472099630655597e+00 1.824524195262653636e+00 1.824641105683190601e+00 1.824684102546422881e+00 1.825511759549159896e+00 1.825454616922902673e+00 1.823760255792339358e+00 1.825464324707088970e+00 1.824269797196974352e+00 1.824235359874879503e+00 1.825248622624980666e+00 1.824822451111460131e+00 1.823981567945154536e+00 1.825408137789360952e+00 1.823863970281207614e+00 1.824112300834155986e+00 1.825460764002151848e+00 1.825622773374703467e+00 1.824833147999174621e+00 1.824946962187780297e+00 1.824840870929307801e+00 1.824770561267919922e+00 1.824849294512398412e+00 1.825580666755192372e+00 1.825107094693628085e+00 1.824856116716716548e+00 1.823923995074174131e+00 1.824241278748123252e+00 1.824955959773727487e+00 1.824122296431157642e+00 1.825028445694748536e+00 1.823813523675275494e+00 1.824649331000527397e+00 1.824921935122841621e+00 1.825560237077866965e+00 1.824445509733103821e+00 1.823860954618076402e+00 1.825388514524528105e+00 1.824526718042802642e+00 1.823765872485824557e+00 1.825601437253192572e+00 1.825112690655651404e+00 1.825128308197170757e+00 1.825053763736588897e+00 1.825616500422607702e+00 1.824842209189084574e+00 1.824513466310489829e+00 1.825232967412564911e+00 1.824460891568338461e+00 1.824208979703275224e+00 1.825456695940351315e+00 1.824248421007743426e+00 1.823774441440047633e+00 1.824900678100410234e+00 1.824693211112972335e+00 1.824874136157765836e+00 1.824321640185501803e+00 1.824268414840561237e+00 1.825456551159207130e+00 1.824453473566604700e+00 1.824876396543003265e+00 1.825353869469048318e+00 1.824169534570788009e+00 1.824332956662947591e+00 1.825136263116129864e+00 1.825391438454971871e+00 1.825222761708191310e+00 1.823939062254780197e+00 1.825236094425201294e+00 1.825570139232619571e+00 1.824195443642001591e+00 1.825287799208368034e+00 1.824364311331116539e+00 1.824280431224891252e+00 1.824024852717048173e+00 1.824352433560773035e+00 1.825640927604772257e+00 1.824158268942904559e+00 1.823639033778209129e+00 1.825489253625137032e+00 1.825701411192350632e+00 1.825594002712841668e+00 1.824484858715553992e+00 1.825709981028174944e+00 1.824983365996760032e+00 1.824646611239094884e+00 1.824455466813136972e+00 1.825156113275395509e+00 1.825037574699071907e+00 1.823507275164381269e+00 1.824384224356567108e+00 1.824729913109548018e+00 1.825591093303890355e+00 1.824650478380380303e+00 1.824852864487532145e+00 1.824156673303218401e+00 1.824509619239342628e+00 1.824519496152920750e+00 1.825782206509257488e+00 1.824211148849512298e+00 1.824416066933471026e+00 1.825708068106979942e+00 1.823762132778382616e+00 1.823992051217141031e+00 1.824261248744957875e+00 1.825342974864332612e+00 1.823963532803274390e+00 1.825030306468931496e+00 1.824430938366230048e+00 1.825481892437597287e+00 1.825236403519749473e+00 1.824807635175279552e+00 1.825459451836290992e+00 1.825227004731987623e+00 1.825052133488817230e+00 1.825954419845485788e+00 1.824355920883818705e+00 1.824034606596238950e+00 1.824176671024271279e+00 1.825556194222237805e+00 1.825221339222079742e+00 1.823551533547272951e+00 1.824865289856667738e+00 1.824809646502999039e+00 1.824564678702052190e+00 1.825516813451855125e+00 1.824727861164127773e+00 1.824679928013353658e+00 1.824600749195838478e+00 1.825234211413119478e+00 1.824284972332430810e+00 1.824475599610192900e+00 1.824178507677910233e+00 1.825635693125928549e+00 1.825491561126968865e+00 1.824460559804011339e+00 1.824897683979951779e+00 1.824098208011066369e+00 1.824084104474713808e+00 1.824544342377907746e+00 1.825833949728391081e+00 1.824607188264698143e+00 1.823912335928884909e+00 1.825228421245442600e+00 1.824766998254273354e+00 1.824004901422682901e+00 1.825242861031697084e+00 1.825844255988605891e+00 1.825607775951758827e+00 1.824803458691877545e+00 1.824959189815088978e+00 1.825212948694499016e+00 1.824566240351561230e+00 1.825424280358107332e+00 1.825345657286441048e+00 1.825417146099652443e+00 1.824457864268947516e+00 1.825759223834441336e+00 1.825652789000818732e+00 1.825747988690649137e+00 1.825201346565665350e+00 1.825518099257146698e+00 1.825120200651264568e+00 1.824458426387858934e+00 1.825354020806417399e+00 1.825168537444849859e+00 1.824100888964788059e+00 1.824125375109086233e+00 1.824892014827122599e+00 1.825764368363842483e+00 1.825674810298662631e+00
5.000000000000000000e+00 5.066913676959437396e+00 1.728069749783850764e-02 5.065999999999999837e+00 5.067115480069120714e+00 5.067077272514065811e+00 5.065964381715661879e+00 5.067238540881237263e+00 5.067458197302071810e+00 5.066792625937126537e+00 5.066899529378446232e+00 5.065163280894887876e+00 5.063959099548480225e+00 5.065367763399801326e+00 5.069138678844984369e+00 5.068130880094144253e+00 5.067643067182414640e+00 5.065941560492047913e+00 5.067680348855252426e+00 5.064935177275443401e+00 5.067233545616104173e+00 5.066880762982814979e+00 5.069127842691858454e+00 5.066374426095710426e+00 5.067569843499120097e+00 5.068238317375760360e+00 5.066261793253884704e+00 5.066616408714210706e+00 5.066782210602129410e+00 5.067869137718682637e+00 5.067598890479738216e+00 5.067769314379646062e+00 5.068527800198857847e+00 5.067294710444262940e+00 5.064184918148553649e+00 5.066240990664567789e+00 5.066424433549148176e+00 5.069067421410479390e+00 5.064927477918584664e+00 5.064552476096087830e+00 5.067910617285182440e+00 5.066784765193204976e+00 5.067833955220082842e+00 5.067197586234632567e+00 5.066679565052731427e+00 5.066700331002091495e+00 5.067744772307447576e+00 5.066896852988363342e+00 5.064958581795024450e+00 5.067622236003669123e+00 5.066476717289533305e+00 5.067680719011181445e+00 5.067688917617188871e+00 5.065665752367052299e+00 5.064554043967183894e+00 5.067427526578353714e+00 5.067369489826323736e+00 5.066338288530154443e+00 5.065757691745576885e+00 5.067900722000097780e+00 5.065779911830963655e+00 5.067900034813693999e+00 5.067844584614507930e+00 5.066486308086129320e+00 5.066184019770604507e+00 5.068512664986275951e+00 5.068749633878435468e+00 5.066653691406874493e+00 5.065914578019387271e+00 5.065180042089467705e+00 5.067948786373927206e+00 5.069689326105419447e+00 5.067622040233092484e+00 5.066311905715918051e+00 5.066503369092499653e+00 5.068952607343781835e+00 5.065111218872829113e+00 5.066629066073969234e+00 5.068335445245544690e+00 5.068140166328554130e+00 5.066804996263887695e+00 5.064836614338338094e+00 5.067520794138386186e+00 5.066823938528890459e+00 5.066233572298034282e+00 5.066670130558109442e+00 5.066654046213901808e+00 5.068339801706747139e+00 5.064854162339263333e+00 5.069040441213828352e+00 5.067803459895105611e+00 5.068560593932190272e+00 5.064779934850204945e+00 5.065683863278660937e+00 5.065613813648671027e+00 5.066302843160080727e+00 5.067462913160547089e+00 5.066906062855786708e+00 5.064894239389197139e+00 5.065087960580541449e+00 5.067132539863197671e+00 5.066925580900266901e+00 5.066486143168442702e+00 5.065787984713794323e+00 5.067426107636481269e+00 5.065871127517458383e+00 5.065279580538413207e+00 5.066580422794293881e+00 5.068491483251687413e+00 5.066689967557691077e+00 5.067373283562588426e+00 5.066500566831402708e+00 5.065924572958383720e+00 5.066426878016955015e+00 5.068893680076821617e+00 5.066745498674497306e+00 5.066491676492256957e+00 5.065705975346487477e+00 5.068434114521301659e+00 5.067758769183805079e+00 5.066470867398909839e+00 5.066924757924612166e+00 5.065602728079159789e+00 5.066310958428147160e+00 5.065842801937082918e+00 5.065830750758068213e+00 5.065430433103272456e+00 5.066357480699298144e+00 5.068099525639852665e+00 5.067575337275863845e+00 5.069012242229220533e+00 5.066778873127904426e+00 5.066513720142864052e+00 5.066978853299822561e+00 5.067003406955632450e+00 5.066284909702561734e+00 5.066997052186383854e+00 5.066133005400462075e+00 5.069170950024763478e+00 5.068872723852194895e+00 5.067346652550985375e+00 5.067195062349830081e+00 5.067177253890236877e+00 5.065795196992750604e+00 5.065264519704894219e+00 5.069211003208965671e+00 5.066880635019791690e+00 5.068630419453625358e+00 5.067067149446474517e+00 5.066473526541844130e+00 5.066865093572900491e+00 5.068251493069708680e+00 5.066367821143017203e+00 5.066435146356417007e+00 5.065861867219861203e+00 5.067442854994899548e+00 5.064095915283091998e+00 5.066586447407692262e+00 5.067155589410616834e+00 5.066740263573208836e+00 5.067339083838181324e+00 5.067977914237100201e+00 5.065172251444105100e+00 5.066176449404402149e+00 5.067898675574010525e+00 5.067307586964667543e+00 5.067641511181298242e+00 5.066562010336113531e+00 5.065880664314398096e+00 5.066242250289263005e+00 5.064500319278560703e+00 5.067853731649056392e+00 5.066921054817636438e+00 5.065873543777235533e+00 5.066988539033675742e+00 5.068096154731216885e+00 5.068490881990683761e+00 5.066768232375849834e+00 5.067538128945053622e+00 5.068753440287649958e+00 5.068403266674275542e+00 5.066247834370168235e+00 5.065567726396486670e+00 5.068211153136070735e+00 5.068021570535893972e+00 5.067888440414281881e+00 5.067668528194142930e+00 5.069427913935780516e+00 5.068791798125416470e+00 5.067320936198046688e+00 5.068495985148930849e+00 5.066988878840199995e+00 5.066588845449879308e+00 5.067279164455658069e+00 5.066492254207498824e+00 5.068272871820221681e+00 5.066983627383365274e+00 5.067511863205306888e+00 5.065539315073400495e+00 5.066132773549846924e+00 5.067756424609424215e+00 5.067410485299847167e+00 5.066129429363837922e+00 5.066013613271552529e+00 5.067897757629082456e+00 5.065567908454696955e+00 5.068910966087304182e+00 5.066677730321916151e+00 5.066663013828733853e+00 5.067367528612359173e+00 5.065572062028676825e+00 5.066402109997200753e+00 5.066183894374415964e+00 5.066382309109002335e+00 5.067271677843469213e+00 5.066882231935275982e+00 5.066586851930999558e+00 5.065300827331231659e+00 5.064234808414143529e+00 5.066662501114578276e+00 5.067557183626457906e+00 5.067273239079437275e+00 5.068206399500841286e+00 5.067691393672173916e+00 5.068280320873654432e+00 5.068348355840377906e+00 5.066476514848985424e+00 5.065346270608557688e+00 5.067097447203517291e+00
6.000000000000000000e+00 2.986949719354310088e-03 2.646071829288920889e-05 3.000225051440329020e-03 2.986440650720164746e-03 2.986196844993141419e-03 2.988152649176954809e-03 2.986395104595336060e-03 2.988867991255144026e-03 2.986287937242798358e-03 2.989824459876543397e-03 2.985098379629629647e-03 2.988208912037037049e-03 2.987675754458161709e-03 2.987718621399176790e-03 2.988294645919067211e-03 2.987841863854595256e-03 2.990462105624142834e-03 2.986601401748971082e-03 2.986357596021947756e-03 2.987523040980795755e-03 2.984964420438957627e-03 2.986312049897119503e-03 2.986038773148148254e-03 2.985585991083676300e-03 2.986649627057613374e-03 2.985896776406035853e-03 2.986941658093278558e-03 2.988522376543209774e-03 2.987742734053497936e-03 2.987796317729767004e-03 2.986762152777777853e-03 2.988514338991769392e-03 2.985162680041152268e-03 2.983338155864197726e-03 2.983656978737997227e-03 2.987169388717421121e-03 2.986437971536351141e-03 2.983919538751714489e-03 2.986207561728394973e-03 2.985283243312757129e-03 2.985066229423868119e-03 2.987097050754458118e-03 2.985154642489711886e-03 2.985146604938271504e-03 2.988182120198902732e-03 2.989157343106996038e-03 2.988661694101509003e-03 2.984988533093278339e-03 2.986885395233196318e-03 2.984581297153635071e-03 2.987946352023319787e-03 2.987949031207132958e-03 2.986518347050754526e-03 2.986086998456790112e-03 2.986794302983538946e-03 2.985395769032921608e-03 2.985449352709190676e-03 2.984511638374485673e-03 2.984516996742112450e-03 2.987943672839506182e-03 2.988112461419752900e-03 2.985835155178326403e-03 2.986127186213991588e-03 2.986282578875171581e-03 2.986081640089163335e-03 2.987453382201645923e-03 2.987300668724279969e-03 2.985596707818929853e-03 2.981497556584361986e-03 2.986888074417009490e-03 2.986593364197530701e-03 2.986703210733882008e-03 2.987351573216735431e-03 2.985821759259259245e-03 2.986261145404664041e-03 2.985237697187928876e-03 2.988736711248285178e-03 2.988101744684499347e-03 2.988581318587105618e-03 2.984851894718792715e-03 2.986054848251029018e-03 2.985283243312757129e-03 2.985055512688614566e-03 2.983472115054869745e-03 2.987397119341563684e-03 2.988557205932784473e-03 2.986968449931412875e-03 2.988734032064472006e-03 2.989776234567901106e-03 2.988066915294924648e-03 2.988029406721536343e-03 2.986148619684499128e-03 2.984308020404663822e-03 2.986654985425240150e-03 2.986242391117969672e-03 2.987563228737997231e-03 2.990124528463648963e-03 2.985851230281207167e-03 2.989151984739368828e-03 2.988661694101509003e-03 2.988471472050754311e-03 2.990092378257887436e-03 2.987965106310013722e-03 2.987761488340191871e-03 2.985545803326474824e-03 2.987788280178326622e-03 2.987257801783264888e-03 2.985945001714677711e-03 2.987456061385459528e-03 2.986258466220850435e-03 2.988433963477366440e-03 2.988131215706447269e-03 2.988005294067215198e-03 2.987381044238682920e-03 2.987431948731138383e-03 2.985851230281207167e-03 2.984460733882030210e-03 2.988380379801097372e-03 2.989066250857338666e-03 2.987180105452675108e-03 2.987506965877914991e-03 2.985521690672153679e-03 2.985744062928669465e-03 2.985599387002743459e-03 2.986799661351166157e-03 2.988843878600822880e-03 2.989548503943758543e-03 2.990470143175582782e-03 2.988967121056241346e-03 2.987359610768175380e-03 2.987193501371742266e-03 2.983798975480109628e-03 2.987389081790123302e-03 2.986207561728394973e-03 2.983895426097393777e-03 2.986395104595336060e-03 2.989237718621398990e-03 2.986349558470507374e-03 2.986338841735253821e-03 2.987648962620027392e-03 2.986467442558299063e-03 2.984859932270233097e-03 2.987959747942386945e-03 2.987734696502057554e-03 2.988629543895747476e-03 2.988758144718792718e-03 2.986089677640603717e-03 2.987359610768175380e-03 2.984819744513031621e-03 2.986162015603566720e-03 2.984760802469135776e-03 2.988452717764060376e-03 2.987252443415637677e-03 2.984409829389574748e-03 2.987568587105624007e-03 2.986933620541838176e-03 2.987450703017832752e-03 2.987370327503429367e-03 2.989979852537722957e-03 2.986555855624142830e-03 2.986636231138545781e-03 2.983731995884773835e-03 2.985920889060356565e-03 2.986938978909464953e-03 2.985318072702331828e-03 2.986534422153635290e-03 2.986092356824416889e-03 2.985473465363511821e-03 2.988452717764060376e-03 2.985628858024691381e-03 2.985192151063100190e-03 2.988972479423868123e-03 2.986963091563786098e-03 2.987182784636488279e-03 2.987233689128943742e-03 2.987249764231824506e-03 2.986116469478738034e-03 2.985594028635116682e-03 2.986111111111111258e-03 2.988230345507544589e-03 2.988495584705075456e-03 2.987828467935528098e-03 2.989481524348422316e-03 2.988206232853223444e-03 2.987930276920439023e-03 2.987978502229080881e-03 2.988876028806584408e-03 2.987279235253772428e-03 2.987707904663923237e-03 2.987126521776406040e-03 2.986255787037036830e-03 2.986293295610425134e-03 2.987498928326474609e-03 2.988538451646090537e-03 2.986855924211248396e-03 2.986930941358024571e-03 2.987740054869684331e-03 2.986596043381344306e-03 2.984594693072702230e-03 2.986783586248285393e-03 2.988846557784636485e-03 2.988206232853223444e-03 2.987089013203017736e-03 2.985835155178326403e-03 2.986687135631001244e-03 2.986279899691357976e-03 2.984918874314128941e-03 2.988581318587105618e-03 2.988993912894375663e-03 2.988085669581618583e-03 2.986038773148148254e-03 2.985819080075445640e-03 2.985776213134430559e-03 2.987638245884773839e-03 2.989974494170096180e-03 2.989612804355281164e-03 2.986601401748971082e-03 2.982017318244170167e-03 2.985950360082304487e-03 2.985401127400548818e-03 2.987665037722908156e-03 2.985744062928669465e-03 2.985604745370370235e-03 2.986738040123456707e-03 2.986987204218106810e-03 2.988163365912208363e-03 2.986480838477366222e-03 2.986446009087791523e-03
