# vvf statistics with RF=500
# gcat file: /disk2/salam/Abacus/AbacusCosmos_720box_products/GCAT_derivative/AbacusCosmos_720box_planck_rockstar_halos_z0.100_Mr21_hod-LMcut-pos_real-5.gcat.rsd_zz.1pz0.100by100
# stats order in row: stdvvf,p2.5,p16,p50,p84,p97.5,rho
# columns: numbers, mean, sigma,All, jnrealizations
0.000000000000000000e+00 1.413339263647549693e+00 5.481207919781220898e-03 1.413339529206556477e+00 1.413594588166156019e+00 1.412938618237055799e+00 1.413306182154060231e+00 1.413261292182434348e+00 1.413779948930081964e+00 1.413444948290403680e+00 1.413736532688328884e+00 1.412059044649287110e+00 1.411779860747463200e+00 1.413206010900136311e+00 1.413783968497559496e+00 1.413737537843192005e+00 1.413573945816807731e+00 1.413193819781776162e+00 1.413693404292925004e+00 1.413286580905883216e+00 1.413688359449819743e+00 1.413387798445406185e+00 1.413620414587233309e+00 1.413533614774223457e+00 1.413436136386505781e+00 1.414170068270752534e+00 1.413181107853286766e+00 1.413197314431311247e+00 1.413319124657457238e+00 1.413715015935107289e+00 1.413879323265412546e+00 1.413307829632344914e+00 1.413755080793993590e+00 1.413136438358577163e+00 1.413249209094320724e+00 1.412954644385989722e+00 1.413518614602538692e+00 1.413414201925198288e+00 1.412763442804462422e+00 1.412848394010818520e+00 1.413464231509006463e+00 1.413487429010854557e+00 1.413318258158443808e+00 1.413692170966453832e+00 1.413164312462813932e+00 1.413095309454540649e+00 1.413660217362596949e+00 1.412894345905818083e+00 1.412611049001367247e+00 1.413584461273087678e+00 1.412849687423277656e+00 1.413920710874800424e+00 1.413397059496009023e+00 1.413174535932903764e+00 1.412345260881762377e+00 1.413517374323279840e+00 1.412922315125444195e+00 1.413320523507097359e+00 1.413011505206599017e+00 1.413027922147285453e+00 1.413107203545740154e+00 1.413466626630002221e+00 1.413566371403309763e+00 1.412781170001123465e+00 1.413634219696414451e+00 1.413349717199460231e+00 1.413846240214987615e+00 1.413571226821028093e+00 1.413469010922869140e+00 1.412479573640870401e+00 1.414074095565658107e+00 1.413762313309578245e+00 1.413500641624946041e+00 1.413009087697393307e+00 1.413369478217479713e+00 1.413973025517655691e+00 1.412924616581624715e+00 1.413614438459639855e+00 1.413275782942010839e+00 1.413541539209953957e+00 1.413241182324289635e+00 1.412952092853165142e+00 1.413247581279231335e+00 1.413046534841432500e+00 1.412905307749610317e+00 1.413359168557939638e+00 1.412410596797043283e+00 1.413633442929967288e+00 1.413160933593672564e+00 1.413732366517719274e+00 1.413402897096985411e+00 1.413723360686285790e+00 1.413098196075875501e+00 1.412922896401070050e+00 1.413455137425068786e+00 1.413309151013886433e+00 1.413613156643983126e+00 1.413653056735409086e+00 1.413139922691839745e+00 1.413120451443892867e+00 1.413755006996652908e+00 1.413385121703321978e+00 1.413739671579710144e+00 1.413004386916474786e+00 1.413674459778486048e+00 1.412966072171280008e+00 1.413334470788629282e+00 1.412634671014484145e+00 1.413417569702471344e+00 1.413522815074366390e+00 1.413242611452254271e+00 1.413383322913799978e+00 1.413021578330338368e+00 1.413402471262291238e+00 1.413634571558268771e+00 1.413263851597356346e+00 1.413525275029246853e+00 1.412798868549932862e+00 1.413715132107076222e+00 1.413740716227746219e+00 1.413678499500240937e+00 1.413280716806085469e+00 1.412813900878063134e+00 1.413411396584650648e+00 1.413244404996715442e+00 1.413047864864268144e+00 1.413297380467922082e+00 1.413240460711263635e+00 1.413219596550779666e+00 1.413681924755479935e+00 1.413904746249220690e+00 1.413610991786800719e+00 1.413242740030476119e+00 1.413230763938035928e+00 1.413535121908259251e+00 1.413264232990136593e+00 1.413064749091511807e+00 1.413030714733422233e+00 1.413437940779351809e+00 1.413529262145600374e+00 1.413547882586547511e+00 1.413104356091895442e+00 1.412623952226705892e+00 1.412706756228058858e+00 1.413379995425118496e+00 1.413783604598880750e+00 1.413650956472603415e+00 1.413671507207185707e+00 1.413598213097035705e+00 1.413121455813734828e+00 1.413254280448810185e+00 1.413471724571387922e+00 1.412916893586168454e+00 1.412910458789153889e+00 1.412880847703295473e+00 1.413291697109497980e+00 1.412301092828379900e+00 1.413759897545161293e+00 1.413517610428918214e+00 1.413995348884506287e+00 1.413461017511795426e+00 1.413650473651154149e+00 1.412827380958864287e+00 1.413561768660120954e+00 1.413882174608553699e+00 1.413596049963531387e+00 1.413517761632200553e+00 1.413356614818413792e+00 1.413096717911134670e+00 1.412943779897791741e+00 1.412942556125452942e+00 1.413132488021074495e+00 1.413478292215763155e+00 1.413353886795215120e+00 1.413415725677669821e+00 1.413447300301047926e+00 1.413917995446309250e+00 1.412962344285571659e+00 1.413292925899421348e+00 1.413725791079404992e+00 1.413846552808373902e+00 1.413397710739606961e+00 1.413325761832238125e+00 1.413745930507350534e+00 1.413750862368261529e+00 1.413309135188148824e+00 1.413632582014231254e+00 1.413998579335056682e+00 1.413877494300306958e+00 1.413409660156629721e+00 1.413706167111758338e+00 1.413403200002549820e+00 1.412726426530616308e+00 1.413323927110853528e+00 1.413292704159089697e+00 1.413637976062646961e+00 1.413841926021427886e+00 1.413107764944522060e+00 1.412791274569447308e+00 1.413295237070893995e+00 1.413676187512760141e+00 1.413349495280679324e+00 1.413477258076682563e+00 1.413219227517904075e+00 1.413580416503533499e+00 1.413244170052804671e+00 1.413252464546260079e+00 1.413134078627101609e+00 1.413306789751546999e+00 1.413483419249770945e+00 1.413362827108120445e+00 1.413290012681217123e+00 1.413211445116144160e+00 1.413205574577262258e+00 1.413345715738200337e+00 1.413639564901097545e+00 1.413340801494253895e+00 1.413024527880548664e+00 1.412494102128993845e+00 1.413259688047432849e+00 1.413517040754272314e+00 1.413152809516879493e+00 1.413209829147529017e+00 1.413311427330820047e+00 1.413953994028435579e+00 1.413741349369341149e+00 1.413714175627825309e+00 1.412715667245078244e+00 1.413362580235344890e+00
1.000000000000000000e+00 1.999999983251819768e-02 1.582018036051594521e-04 2.000000000000000042e-02 1.999719269122458842e-02 1.999558588229162839e-02 2.000782125579337462e-02 1.999614951146394884e-02 2.001540429115915287e-02 1.999649130212814013e-02 2.002176617640156336e-02 1.998688792159286284e-02 2.000556413290749402e-02 2.000322066653802133e-02 2.000529799173957068e-02 2.000842711807097538e-02 2.000726232160723872e-02 2.002365837827907447e-02 1.999942588086258549e-02 1.999157140321074222e-02 2.000497857691056411e-02 1.998646427852379323e-02 1.999582377413462730e-02 1.999288441666267208e-02 1.999063207272444229e-02 2.000070576049236062e-02 1.999169336998432231e-02 2.000550943990435718e-02 2.001538714151916698e-02 2.000804717714957034e-02 2.000631709725739574e-02 2.000185298013749252e-02 2.001035259614464962e-02 1.999178436112465998e-02 1.997995320529227445e-02 1.997431238095582345e-02 1.999968765269707210e-02 1.999781275863905805e-02 1.997859660324218314e-02 1.999223951437915231e-02 1.999061317002536961e-02 1.998944647245926368e-02 2.000127285967807575e-02 1.998862995689945632e-02 1.998441568759971171e-02 2.001271510751637464e-02 2.001507766100083310e-02 2.000907774294360258e-02 1.998465832057650174e-02 1.999834679114153094e-02 1.998561179099423921e-02 2.001006328685294225e-02 2.000214517061799438e-02 1.999539888042383209e-02 1.999531846505239741e-02 1.999976480906790616e-02 1.998566617309206414e-02 1.998991253051205300e-02 1.998338170976019651e-02 1.998262363549601489e-02 2.000487460744480861e-02 2.000634168189330958e-02 1.999556294325588804e-02 1.999490712489907646e-02 1.999837399604278282e-02 1.999303301240049069e-02 2.000370866659931940e-02 2.000489317447718893e-02 1.999279272072298011e-02 1.996061078863266974e-02 1.999773127453434093e-02 2.000393744083171083e-02 1.999629391826300215e-02 2.000473972971616651e-02 1.999594429962178732e-02 1.999561085557688411e-02 1.998519663806503158e-02 2.001068906062336908e-02 2.001069957222720991e-02 2.000818569288511511e-02 1.998756282908134910e-02 1.999372809835353246e-02 1.999000351823596727e-02 1.998633998853101279e-02 1.997214423146088935e-02 2.000210868700079761e-02 2.001298914352777486e-02 2.000265751389802144e-02 2.001168120927379612e-02 2.002133340453664603e-02 2.000809495921780298e-02 2.001061732413526167e-02 1.999538482664602740e-02 1.998197700407788185e-02 1.999868444415946189e-02 1.999366786108147664e-02 2.000520611731998813e-02 2.001813826045467648e-02 1.999734288877055496e-02 2.000930235856444861e-02 2.001199522585222698e-02 2.001221472901858200e-02 2.001610180514154860e-02 2.001160371822205408e-02 2.000658405868965817e-02 1.998962325959107930e-02 2.000469095412511777e-02 2.000298179158191067e-02 1.999310740332962272e-02 2.000386282436707880e-02 1.999521538001207410e-02 2.000917233395510531e-02 2.000790196105577123e-02 2.000921765821611631e-02 2.000334324560332916e-02 2.000103959023338124e-02 1.999667735057772053e-02 1.998354791948707757e-02 2.000957257825303551e-02 2.001468944077399240e-02 2.000057152493141602e-02 2.000531200958331063e-02 1.999128580301930830e-02 1.999302731363450381e-02 1.998866247140618571e-02 2.000031744564061825e-02 2.001348797161680432e-02 2.001782332978136250e-02 2.002615147695225792e-02 2.001151121417466330e-02 2.000745373499144414e-02 1.999956047303334122e-02 1.997926941762201772e-02 2.000370039850266415e-02 1.999445133118634213e-02 1.997923252041925932e-02 1.999965842588775564e-02 2.001830396836783849e-02 1.999522876718812583e-02 1.999728219526746356e-02 2.000511540972653435e-02 1.999631119585621591e-02 1.998885770502140807e-02 2.000931864192398088e-02 2.000737781719839556e-02 2.001648257641495954e-02 2.001372111702158507e-02 1.999394487399928227e-02 2.000408739617813569e-02 1.998929372539045429e-02 1.999345679929478634e-02 1.998276061065783205e-02 2.001146198622701100e-02 2.000400012883660900e-02 1.998146875246949172e-02 2.000719458567192313e-02 1.999508582898994191e-02 2.000110258257109183e-02 2.000693838076413739e-02 2.001792200525637222e-02 1.999602704871329684e-02 1.999953179202205999e-02 1.998033388688413847e-02 1.999266906751309691e-02 1.999979423557980002e-02 1.999002744769374021e-02 1.999306648616744342e-02 1.999351682608206324e-02 1.999004670527326430e-02 2.001058434789039497e-02 1.999087591785856516e-02 1.999305311381698730e-02 2.001004435184854102e-02 1.999584686845021567e-02 2.000509803969964528e-02 2.000070260982978604e-02 2.000241616515013518e-02 1.999744647775649614e-02 1.999157413914584916e-02 1.999677949805767768e-02 2.001129153497245919e-02 2.000821274991292781e-02 2.000526157703532912e-02 2.001793727376348364e-02 2.000978454370912554e-02 2.000484631711519148e-02 2.000601103898961425e-02 2.001533167165127705e-02 2.000552245605186769e-02 2.000542246531035462e-02 2.000545902061347595e-02 1.999622288664215652e-02 1.999121233512120982e-02 2.000447610916378238e-02 2.001001556419394409e-02 2.000205799217704555e-02 2.000170440708150255e-02 2.000732614410353355e-02 1.999933503201466525e-02 1.998603110035580138e-02 2.000298278224233242e-02 2.001368160155880122e-02 2.000825268482579397e-02 1.999968004993546433e-02 1.999469046876667724e-02 1.999907048911055488e-02 1.999516425205663875e-02 1.998523811602892844e-02 2.001283579822757397e-02 2.001336391153012498e-02 2.000448036948352520e-02 1.999342084085220517e-02 1.999153846474618565e-02 1.999359966964563834e-02 2.000713882645384356e-02 2.001860823229120387e-02 2.001871763193216816e-02 1.999786841465895498e-02 1.996808529527096046e-02 1.999415828662749750e-02 1.999083826033080588e-02 1.999988928249095410e-02 1.999388341110460571e-02 1.999065623262574060e-02 2.000086917326072619e-02 2.000005127262758156e-02 2.001162843225098506e-02 1.999571174080009769e-02 1.999562959930291720e-02
2.000000000000000000e+00 1.019999991458428040e-01 8.068291983863030547e-04 1.019999999999999934e-01 1.019856827252453996e-01 1.019774879996873107e-01 1.020398884045462112e-01 1.019803625084661353e-01 1.020785618849116699e-01 1.019821056408535126e-01 1.021110074996479655e-01 1.019331284001235988e-01 1.020283770778282195e-01 1.020164253993439130e-01 1.020270197578718036e-01 1.020429783021619685e-01 1.020370378401969369e-01 1.021206577292232687e-01 1.019970719923991853e-01 1.019570141563747867e-01 1.020253907422438711e-01 1.019309678204713410e-01 1.019787012480865979e-01 1.019637105249796283e-01 1.019522235708946595e-01 1.020035993785110423e-01 1.019576361869200393e-01 1.020280981435122136e-01 1.020784744217477641e-01 1.020410406034628070e-01 1.020322171960127144e-01 1.020094501987011959e-01 1.020527982403377082e-01 1.019581002417357801e-01 1.018977613469905924e-01 1.018689931428746892e-01 1.019984070287550670e-01 1.019888450690591974e-01 1.018908426765351427e-01 1.019604215233336636e-01 1.019521271671293833e-01 1.019461770095422548e-01 1.020064915843581915e-01 1.019420127801872189e-01 1.019205200067585249e-01 1.020648470483335041e-01 1.020768960711042617e-01 1.020462964890123669e-01 1.019217574349401689e-01 1.019915686348217970e-01 1.019266201340706113e-01 1.020513227629500086e-01 1.020109403701517786e-01 1.019765342901615551e-01 1.019761241717672406e-01 1.019988005262463249e-01 1.019268974827695351e-01 1.019485539056114720e-01 1.019152467197770168e-01 1.019113805410296891e-01 1.020248604979685225e-01 1.020323425776558796e-01 1.019773710106050280e-01 1.019740263369852962e-01 1.019917073798181917e-01 1.019644683632424942e-01 1.020189141996565296e-01 1.020249551898336493e-01 1.019632428756871989e-01 1.017991150220266122e-01 1.019884295001251273e-01 1.020200809482417204e-01 1.019810989831413106e-01 1.020241726215524586e-01 1.019793159280711209e-01 1.019776153634421173e-01 1.019245028541316545e-01 1.020545142091791868e-01 1.020545678183587684e-01 1.020417470337140892e-01 1.019365704283148877e-01 1.019680133016030166e-01 1.019490179430034282e-01 1.019303339415081611e-01 1.018579355804505315e-01 1.020107543037040571e-01 1.020662446319916400e-01 1.020135533208798850e-01 1.020595741672963574e-01 1.021088003631368951e-01 1.020412842920107865e-01 1.020541483530898463e-01 1.019764626158947418e-01 1.019080827207971968e-01 1.019932906652132598e-01 1.019677060915155226e-01 1.020265511983319273e-01 1.020925051283188556e-01 1.019864487327298286e-01 1.020474420286786865e-01 1.020611756518463309e-01 1.020622951179947641e-01 1.020821192062218857e-01 1.020591789629324841e-01 1.020335786993172567e-01 1.019470786239144999e-01 1.020239238660380909e-01 1.020152071370677427e-01 1.019648477569810724e-01 1.020197004042720929e-01 1.019755984380615738e-01 1.020467789031710426e-01 1.020403000013844347e-01 1.020470100569021848e-01 1.020170505525769822e-01 1.020053019101902353e-01 1.019830544879463813e-01 1.019160943893841070e-01 1.020488201490904745e-01 1.020749161479473643e-01 1.020029147771502331e-01 1.020270912488748793e-01 1.019555575953984827e-01 1.019644392995359694e-01 1.019421786041715544e-01 1.020016189727671607e-01 1.020687886552457124e-01 1.020908989818849477e-01 1.021333725324565095e-01 1.020587071922907929e-01 1.020380140484563602e-01 1.019977584124700520e-01 1.018942740298722921e-01 1.020188720323635945e-01 1.019717017890503508e-01 1.018940858541382277e-01 1.019982579720275645e-01 1.020933502386759811e-01 1.019756667126594379e-01 1.019861391958640645e-01 1.020260885896053238e-01 1.019811870988667074e-01 1.019431742956091735e-01 1.020475250738123035e-01 1.020376268677118253e-01 1.020840611397162839e-01 1.020699776968100880e-01 1.019691188573963320e-01 1.020208457205084990e-01 1.019453979994913162e-01 1.019666296764034086e-01 1.019120791143549448e-01 1.020584561297577519e-01 1.020204006570667038e-01 1.019054906375944092e-01 1.020366923869268083e-01 1.019749377278486857e-01 1.020056231711125722e-01 1.020353857418970916e-01 1.020914022268075011e-01 1.019797379484378014e-01 1.019976121393124935e-01 1.018997028231091034e-01 1.019626122443167970e-01 1.019989506014569863e-01 1.019491399832380685e-01 1.019646390794539670e-01 1.019669358130185222e-01 1.019492381968936517e-01 1.020539801742410130e-01 1.019534671810786719e-01 1.019645708804666345e-01 1.020512261944275523e-01 1.019788190290960989e-01 1.020260000024681701e-01 1.020035833101319012e-01 1.020123224422656988e-01 1.019869770365581241e-01 1.019570281096438269e-01 1.019835754400941485e-01 1.020575868283595256e-01 1.020418850245559256e-01 1.020268340428801823e-01 1.020914800961937596e-01 1.020499011729165406e-01 1.020247162172874672e-01 1.020306562988470278e-01 1.020781915254215105e-01 1.020281645258645370e-01 1.020276545730828127e-01 1.020278410051287388e-01 1.019807367218749927e-01 1.019551829091181472e-01 1.020228281567352874e-01 1.020510793773891089e-01 1.020104957601029316e-01 1.020086924761156588e-01 1.020373633349280357e-01 1.019966086632748126e-01 1.019287586118145794e-01 1.020152121894359054e-01 1.020697761679498772e-01 1.020420886926115406e-01 1.019983682546708736e-01 1.019729213907100418e-01 1.019952594944638219e-01 1.019753376854888594e-01 1.019247143917475229e-01 1.020654625709606217e-01 1.020681559488036266e-01 1.020228498843659820e-01 1.019664462883462380e-01 1.019568461702055479e-01 1.019673583151927548e-01 1.020364080149146202e-01 1.020949019846851408e-01 1.020954599228540566e-01 1.019891289147606683e-01 1.018372350058819042e-01 1.019702072618002414e-01 1.019532751276871207e-01 1.019994353407038673e-01 1.019688053966334856e-01 1.019523467863912847e-01 1.020044327836296949e-01 1.020002614904006732e-01 1.020593050044800165e-01 1.019781298780804979e-01 1.019777109564448808e-01
3.000000000000000000e+00 4.840176635115792103e-01 3.957214990329976576e-03 4.839999999999999858e-01 4.839320631276350371e-01 4.838931783514574536e-01 4.841892743901996532e-01 4.839068181774275335e-01 4.843727838460514801e-01 4.839150895115009732e-01 4.845267414689178320e-01 4.836826877025472426e-01 4.841346520163613554e-01 4.840779401302201523e-01 4.841282114000975967e-01 4.842039362573175576e-01 4.841757481828952714e-01 4.845725327543535799e-01 4.839861063168745536e-01 4.837960279576999367e-01 4.841204815612356605e-01 4.836724355402757802e-01 4.838989353340579780e-01 4.838278028832366795e-01 4.837732961599315318e-01 4.840170794039151403e-01 4.837989795536205562e-01 4.841333284456854069e-01 4.843723688247639214e-01 4.841947416870195919e-01 4.841528737536289762e-01 4.840448421193273010e-01 4.842505328267004971e-01 4.838011815392168069e-01 4.835148675680729924e-01 4.833783596191308929e-01 4.839924411952691297e-01 4.839470687590651798e-01 4.834820377984608286e-01 4.838121962479754457e-01 4.837728387146139619e-01 4.837446046335142080e-01 4.840308032042094366e-01 4.837248449569668263e-01 4.836228596399130275e-01 4.843077056018962323e-01 4.843648793962201937e-01 4.842196813792351562e-01 4.836287313579513691e-01 4.839599923456250341e-01 4.836518053420605923e-01 4.842435315418412434e-01 4.840519131289554577e-01 4.838886529062567665e-01 4.838867068542680450e-01 4.839943083794433498e-01 4.836531213888279890e-01 4.837558832383916929e-01 4.835978373761968263e-01 4.835794919790035729e-01 4.841179655001643933e-01 4.841534687018180794e-01 4.838926232267924399e-01 4.838767524225576766e-01 4.839606507042353845e-01 4.838313989000918580e-01 4.840897497317035447e-01 4.841184148223479089e-01 4.838255838414960985e-01 4.850428421637738574e-01 4.839450968437309930e-01 4.840952860681274061e-01 4.839103128219646721e-01 4.841147014591312692e-01 4.839018520508472365e-01 4.838937827049606399e-01 4.836417586411737579e-01 4.842586752670855477e-01 4.842589296478984617e-01 4.841980937678198038e-01 4.836990204637686697e-01 4.838482199801554806e-01 4.837580851413104122e-01 4.836694277224504734e-01 4.833258904013534862e-01 4.840510302254192876e-01 4.843143372733721419e-01 4.840643118363320840e-01 4.842826852644259161e-01 4.845162683897868416e-01 4.841958980130707801e-01 4.842569392440733145e-01 4.838883128048339088e-01 4.835638434986847534e-01 4.839681635486589584e-01 4.838467622381717459e-01 4.841259880391436954e-01 4.844389459030031819e-01 4.839356979082474197e-01 4.842251170772596258e-01 4.842902844656238326e-01 4.842955964422496762e-01 4.843896636844254311e-01 4.842808099809737254e-01 4.841593342202897277e-01 4.837488828821041031e-01 4.841135210898278585e-01 4.840721593562822833e-01 4.838331991605768212e-01 4.840934803496833028e-01 4.838842121962921849e-01 4.842219704817135595e-01 4.841912274575497221e-01 4.842230673288299703e-01 4.840809065436005865e-01 4.840251580836477663e-01 4.839195918839808708e-01 4.836018596515873069e-01 4.842316563937233975e-01 4.843554844667306014e-01 4.840138309033402697e-01 4.841285506319160659e-01 4.837891164330672678e-01 4.838312609899549921e-01 4.837256318080296880e-01 4.840076821845029631e-01 4.843264089131266714e-01 4.844313245807089774e-01 4.846328657422446229e-01 4.842785713830268790e-01 4.841803803867929523e-01 4.839893634474068396e-01 4.834983199064528114e-01 4.840895496437644940e-01 4.838657222147095260e-01 4.834974269941461067e-01 4.839917339064837010e-01 4.844429560345017705e-01 4.838845361659526167e-01 4.839342291254726258e-01 4.841237929153821562e-01 4.839107309397204237e-01 4.837303564615180740e-01 4.842255111345603602e-01 4.841785431762011815e-01 4.843988783492420014e-01 4.843320510319223948e-01 4.838534659507826019e-01 4.840989149875108977e-01 4.837409081544489786e-01 4.838416545429338189e-01 4.835828067779195383e-01 4.842773800666936856e-01 4.840968031178459197e-01 4.835515438097616747e-01 4.841741089732605197e-01 4.838810770615565859e-01 4.840266824982203953e-01 4.841679088144920651e-01 4.844337125272042410e-01 4.839038545788617585e-01 4.839886693669337991e-01 4.835240800625961732e-01 4.838225914338169509e-01 4.839950205010311590e-01 4.837586642341885068e-01 4.838322089652521418e-01 4.838431071911859505e-01 4.837591302676130245e-01 4.842561412189475556e-01 4.837791972121772699e-01 4.838318853543711051e-01 4.842430733147347066e-01 4.838994942164951962e-01 4.841233725607314020e-01 4.840170031578808207e-01 4.840584711966333109e-01 4.839382047617071803e-01 4.837960941673295490e-01 4.839220638529957430e-01 4.842732551463334589e-01 4.841987485478928543e-01 4.841273301642549654e-01 4.844340820250762625e-01 4.842367859577608180e-01 4.841172808741875944e-01 4.841454671435486690e-01 4.843710264539609067e-01 4.841336434364552077e-01 4.841312236605105901e-01 4.841321082988461200e-01 4.839085938567401768e-01 4.837873385099331625e-01 4.841083218417635003e-01 4.842423766534934559e-01 4.840498034106844871e-01 4.840412466513723255e-01 4.841772926873055272e-01 4.839839077747549179e-01 4.836619526286103365e-01 4.840721833302644717e-01 4.843310947577229575e-01 4.841997149727841898e-01 4.839922572084382479e-01 4.838715093441536275e-01 4.839775058364754190e-01 4.838829748997706681e-01 4.836427624079000509e-01 4.843106263171072512e-01 4.843234066590290099e-01 4.841084249415013030e-01 4.838407843486233761e-01 4.837952308468576601e-01 4.838451120054244603e-01 4.841727596001830225e-01 4.844503192214471010e-01 4.844529666927584466e-01 4.839484156347467203e-01 4.852244726750843395e-01 4.838586305363854478e-01 4.837782859000054891e-01 4.839973206362811475e-01 4.838519785487314651e-01 4.837738808295429238e-01 4.840210339929095218e-01 4.840012407975874953e-01 4.842814080604738169e-01 4.838962241273623288e-01 4.838942363031306093e-01
4.000000000000000000e+00 1.848769357275538816e+00 9.101405822490206063e-03 1.848000000000000087e+00 1.847740604669152020e+00 1.849591694111975881e+00 1.848722684035307928e+00 1.849643829810415196e+00 1.849423356503105742e+00 1.847675796316639918e+00 1.848009018081864241e+00 1.848787132747339745e+00 1.848514125880652781e+00 1.848297589588113521e+00 1.848489534436736248e+00 1.848778665709758018e+00 1.848671038516509268e+00 1.848183668315158457e+00 1.847946951391703063e+00 1.849220354796993648e+00 1.848460020506536239e+00 1.848747945763450806e+00 1.849613699107452991e+00 1.849341808541297150e+00 1.849133466727010955e+00 1.848065212269494495e+00 1.849231636723549732e+00 1.848509072247162432e+00 1.849421771876371245e+00 1.848743559168620321e+00 1.848583699786583434e+00 1.848171215364704523e+00 1.848956579883765494e+00 1.849240053404031414e+00 1.848145671489535236e+00 1.849621326476509342e+00 1.847971139109209293e+00 1.849797680174112946e+00 1.850018045460226190e+00 1.849282155080071322e+00 1.849131718227346788e+00 1.849023798702482013e+00 1.848117612234254192e+00 1.848948271013199696e+00 1.848558451102973343e+00 1.849174875934513018e+00 1.849393175876477224e+00 1.848838783447988687e+00 1.848580894653326645e+00 1.847847243501477443e+00 1.848669090666967163e+00 1.848929847705212071e+00 1.848198213765102738e+00 1.849574396439204627e+00 1.849566958017346829e+00 1.847978268357874487e+00 1.848674121011016025e+00 1.849066909072365039e+00 1.848462808152818493e+00 1.848392686283381270e+00 1.848450413727900310e+00 1.848585971406941697e+00 1.847590015956843912e+00 1.849528909053164583e+00 1.847849757234353296e+00 1.849355553647045403e+00 1.848342680793777282e+00 1.848452129321692006e+00 1.849333326666875665e+00 1.848352559027385045e+00 1.847790369766973306e+00 1.848363819532850005e+00 1.847657558047501425e+00 1.848437951025774018e+00 1.849624847715015230e+00 1.849594004140861836e+00 1.848630689021015350e+00 1.848987669201599404e+00 1.848988640473794076e+00 1.848756358022584534e+00 1.848849561690025123e+00 1.849419849097701851e+00 1.849075325436826844e+00 1.848736448939118482e+00 1.849420555833278357e+00 1.848194842678873462e+00 1.849200196861966017e+00 1.848245554284177139e+00 1.849079343736898862e+00 1.847969073238732385e+00 1.848747974231724989e+00 1.848981040750098170e+00 1.849573096464757427e+00 1.848332872877203936e+00 1.847878442640334296e+00 1.849414277150036590e+00 1.848481045240366827e+00 1.847674161439966767e+00 1.847754482922399077e+00 1.848859537931355046e+00 1.849108358868745583e+00 1.849128640961316794e+00 1.849487806795079070e+00 1.849072183563718053e+00 1.848608367022924304e+00 1.849040151512174601e+00 1.848433444161160732e+00 1.848275517542168567e+00 1.849362434807990008e+00 1.848356924971517934e+00 1.847557901113115353e+00 1.848847523657451752e+00 1.848730141201553323e+00 1.848851711619169169e+00 1.848308915893747573e+00 1.848096058137564279e+00 1.849692654928439151e+00 1.848478182552554694e+00 1.848884506230580316e+00 1.849357304327516882e+00 1.848052808903662969e+00 1.848490829685497605e+00 1.849193936779286007e+00 1.849355026511191546e+00 1.848951278605072357e+00 1.848029331977193213e+00 1.849246288577392594e+00 1.849646875671798085e+00 1.848413781322693294e+00 1.849063636189739235e+00 1.848688725113209363e+00 1.847959387708280499e+00 1.848082421130036623e+00 1.848341916821646391e+00 1.849486748134736791e+00 1.850076931390823631e+00 1.847968438552028747e+00 1.849691286677188407e+00 1.849558660964901513e+00 1.849748603062240537e+00 1.848472663858731879e+00 1.847659154497114375e+00 1.848969337714480243e+00 1.848861042513775921e+00 1.848681710309131976e+00 1.849522990060742167e+00 1.849267831212794366e+00 1.847440506357533652e+00 1.848377675406859710e+00 1.849009669598616679e+00 1.849394753934767710e+00 1.848405356485849360e+00 1.849059087527375800e+00 1.848369611904502552e+00 1.848285859603427950e+00 1.848664779716085782e+00 1.849545439181569773e+00 1.848101878629568873e+00 1.848641106382606036e+00 1.847654201085163317e+00 1.847632899301108411e+00 1.847956737582838294e+00 1.848180884536782864e+00 1.849321888744961617e+00 1.847980987367573658e+00 1.849077538911670926e+00 1.849358649970488599e+00 1.849400306412590789e+00 1.849079320237777102e+00 1.848977993745072546e+00 1.849156022401917232e+00 1.849357413028071440e+00 1.848928098110805163e+00 1.849615835331645197e+00 1.848471058868247141e+00 1.848064921148272255e+00 1.848223253659872611e+00 1.849763799192475799e+00 1.849220607870991184e+00 1.847702425620529443e+00 1.849043337831455025e+00 1.848758858091954504e+00 1.848486169718064343e+00 1.847655610368369450e+00 1.848904091838722952e+00 1.848447799701443683e+00 1.848555420002640393e+00 1.849416646460578129e+00 1.848510274939192621e+00 1.848501035794676728e+00 1.848504413504685306e+00 1.849650617014399367e+00 1.849187140998711509e+00 1.848413592486733315e+00 1.848925438131520549e+00 1.848190158477158729e+00 1.848157487214330708e+00 1.848676935715166669e+00 1.849938490461356722e+00 1.848707876782911486e+00 1.848275609079191639e+00 1.849264179984033252e+00 1.848762548077903300e+00 1.847970436614036815e+00 1.847509399314041012e+00 1.847914113193815044e+00 1.849552693315239527e+00 1.848634525732675726e+00 1.849186027756227757e+00 1.849234825425383422e+00 1.848413986140277743e+00 1.849391427778829033e+00 1.849217307989022174e+00 1.849407969442221633e+00 1.848659627564335217e+00 1.849719400663707214e+00 1.849729509190532140e+00 1.849802828355953332e+00 1.849044698342090953e+00 1.849459641513043540e+00 1.849152539080599400e+00 1.847989769702164331e+00 1.849434215527176129e+00 1.849135701517881092e+00 1.848080311609290982e+00 1.848004737590788649e+00 1.849074467139991018e+00 1.849603336024008948e+00 1.849595737935519901e+00
5.000000000000000000e+00 4.996580428340983815e+00 2.012864383538863836e-02 4.996000000000000441e+00 4.997298453537024621e+00 4.996896911984678447e+00 4.995952967571605896e+00 4.995038147963693831e+00 4.999847991931556379e+00 4.997123176401822242e+00 4.997432837629830260e+00 4.994723291606056215e+00 4.995389363987001730e+00 4.994804200434543873e+00 4.997323438336544577e+00 4.998105094094129619e+00 4.995813401705328616e+00 4.997905131218456809e+00 4.997856527627559942e+00 4.995893693662364576e+00 4.997243648512259107e+00 4.996616069630948509e+00 4.996956361156243531e+00 4.996221815724001480e+00 4.995658954973838384e+00 4.998176369547040920e+00 4.995924173159082216e+00 4.995375707144117605e+00 4.997842169237336485e+00 4.998010184851962023e+00 4.997578010894897282e+00 4.996462874438345025e+00 4.998586078516932929e+00 4.995946911845052796e+00 4.994988301323068036e+00 4.993578095238955683e+00 4.995921975643728530e+00 4.995853583363116357e+00 4.994649150810545279e+00 4.994061430691911774e+00 4.997653292506342382e+00 4.995362673467570680e+00 4.996317960347582243e+00 4.997157489224863802e+00 4.994105480331167968e+00 4.999176233857590468e+00 4.997864967340073683e+00 4.996266712413016897e+00 4.994166114312068139e+00 4.997586863106268318e+00 4.994404386569460286e+00 4.998513809055864954e+00 4.996535863620374940e+00 4.996850180217916382e+00 4.994830552570089566e+00 4.995941249305162479e+00 4.996416543273015876e+00 4.997478132628013547e+00 4.995845427440050557e+00 4.995655908874003792e+00 4.995217189478968756e+00 4.997584152136948177e+00 4.996891179519646009e+00 4.996727290512279041e+00 4.997593661611091420e+00 4.996258949798882298e+00 4.998926795783170007e+00 4.995221825666953386e+00 4.996198900908672691e+00 4.992148758237030748e+00 4.999432818633584574e+00 4.998983966463844908e+00 4.997073850173924470e+00 4.995183510510127434e+00 4.996986480475484882e+00 4.996903152808663151e+00 4.994300639852450985e+00 4.998670127343717517e+00 4.996671683185134327e+00 4.998044786082702196e+00 4.996890707270337906e+00 4.994433278968712919e+00 4.995501879207168372e+00 4.994586363133899809e+00 4.995033272288368131e+00 4.996526750012798779e+00 4.997243389138884773e+00 4.998664112723115061e+00 4.996266418316226421e+00 4.998075617775016966e+00 4.998022120812606772e+00 4.998652207568987649e+00 4.996796679716729805e+00 4.995494251019469978e+00 4.997671242595449925e+00 4.996417598484260481e+00 4.997300488106533045e+00 4.996527309809486894e+00 4.997335987903761101e+00 4.996322798933542586e+00 4.996995207895301050e+00 4.999051239308841765e+00 4.998020620743844233e+00 4.994896288068225054e+00 4.997644697860676111e+00 4.995406852571810496e+00 4.995171331245042090e+00 4.996744851537161303e+00 4.996277540092073366e+00 4.996964933526895969e+00 4.996804323465017461e+00 4.996290331788589612e+00 4.995973119675626073e+00 4.996301649256563948e+00 4.998085351704562029e+00 4.994509598676152073e+00 4.997169669909372836e+00 4.993888625079820898e+00 4.996390272789782649e+00 4.997667953361266235e+00 4.996142766927867740e+00 4.997326939993910422e+00 4.993823193594223220e+00 4.996257525677262556e+00 4.995166751604405597e+00 4.996079297921026452e+00 4.997367946512715875e+00 4.996448703113427925e+00 4.997476035694695895e+00 4.998875501300831026e+00 4.997861943000862617e+00 4.997890162211031218e+00 4.994817354405504339e+00 4.995724137522102204e+00 4.996613387663467520e+00 4.994808130104814836e+00 4.995914674786761545e+00 4.996568670504612619e+00 4.996807668920312473e+00 4.997320820597339619e+00 4.997277829349688005e+00 4.997078167844468233e+00 4.995215540484849726e+00 4.996326864888418484e+00 4.995842240954440072e+00 4.998115699330814898e+00 4.997426162920289627e+00 4.996486824012420058e+00 4.997021031565298088e+00 4.995324501975074050e+00 4.996364854143767076e+00 4.995690152664457706e+00 4.996862057960884229e+00 4.996199072178184153e+00 4.994667836711082387e+00 4.995796488042278938e+00 4.994772440081686860e+00 4.998275535384515855e+00 4.997733207514881038e+00 4.998475124712516759e+00 4.997007159473452198e+00 4.995883041647109835e+00 4.993085438332346193e+00 4.998167266878274617e+00 4.997948579471391817e+00 4.997506861923435295e+00 4.996267314893244382e+00 4.996279887253685104e+00 4.995512671647788672e+00 4.996642911668232045e+00 4.995719891872855811e+00 4.994264667831483706e+00 4.996508074656580867e+00 4.994962547738863279e+00 4.999274000120941253e+00 4.997125545309400785e+00 4.998603799671019310e+00 4.995362130143572443e+00 4.995894377372548156e+00 4.997195196564613084e+00 4.998820625436120046e+00 4.996050723653258530e+00 4.997314341943424942e+00 4.998478937258741261e+00 4.998444179018539657e+00 4.997210610015375032e+00 4.997501557539605344e+00 4.999829851578488693e+00 4.997379509521756802e+00 4.997354531834526270e+00 4.997363663349246643e+00 4.997056099371874893e+00 4.995803962546789379e+00 4.997118132069112484e+00 4.996500886379227957e+00 4.996514086445825953e+00 4.998425931329667726e+00 4.995829338182653068e+00 4.995833890997263715e+00 4.994509171978914530e+00 4.996745099004135326e+00 4.997416295909232531e+00 4.998061520669483393e+00 4.995920076473878702e+00 4.996673148144792798e+00 4.996017796560930257e+00 4.996791546588954525e+00 4.994311005195628539e+00 4.997205098817424584e+00 4.997336968709071847e+00 4.997119196296984533e+00 4.996355868128966371e+00 4.995885462340071470e+00 4.996400557444444779e+00 4.997783278848170418e+00 4.996644614779884641e+00 4.996671920930269017e+00 4.995467529981806543e+00 4.992021323817739997e+00 4.996540155828212093e+00 4.995710481256668167e+00 4.995972342766240359e+00 4.996471464435041199e+00 4.995664992533172644e+00 4.998217206397854717e+00 4.998012813029633072e+00 4.998904782376295763e+00 4.994928792851863975e+00 4.996907836865799091e+00
6.000000000000000000e+00 2.027692850021850859e-03 1.894248154758556869e-05 2.036704818244170195e-03 2.027349108367626843e-03 2.027156207133058979e-03 2.028616362311385334e-03 2.027153527949245373e-03 2.029208461934156518e-03 2.027324995713305697e-03 2.029921124828532129e-03 2.026231888717421135e-03 2.028393990054869547e-03 2.028032300240054965e-03 2.028163580246913379e-03 2.028739604766803799e-03 2.028163580246913379e-03 2.030288173010973921e-03 2.027485746742112467e-03 2.026890967935528112e-03 2.028118034122085127e-03 2.026108646262002669e-03 2.027306241426611762e-03 2.026992776920439037e-03 2.026665916495198720e-03 2.027375900205761160e-03 2.026797196502057568e-03 2.027997470850480266e-03 2.029237932956104440e-03 2.028201088820301683e-03 2.028289501886145450e-03 2.027887624314128959e-03 2.028830697016460738e-03 2.026644483024691180e-03 2.025347758058984766e-03 2.025353116426611977e-03 2.027708118998628253e-03 2.027158886316872584e-03 2.025495113168724378e-03 2.027145490397805425e-03 2.026588220164608940e-03 2.026569465877915005e-03 2.028029621056241360e-03 2.026451581790123316e-03 2.026258680555555452e-03 2.028744963134430576e-03 2.029103973765431987e-03 2.028586891289437411e-03 2.026081854423868352e-03 2.027651856138546014e-03 2.025872878086419724e-03 2.028739604766803799e-03 2.028142146776405839e-03 2.027158886316872584e-03 2.027185678155006901e-03 2.027667931241426778e-03 2.026280114026062992e-03 2.026467656893004080e-03 2.026127400548697038e-03 2.026012195644718954e-03 2.028219843106996052e-03 2.028509194958847631e-03 2.027008852023319801e-03 2.027191036522633678e-03 2.027375900205761160e-03 2.026955268347050733e-03 2.028069808813443269e-03 2.028193051268861302e-03 2.026939193244169969e-03 2.023485725308641920e-03 2.027504501028806402e-03 2.027804569615912402e-03 2.027373221021947988e-03 2.028093921467763981e-03 2.027199074074074060e-03 2.027073152434842422e-03 2.026130079732510209e-03 2.028900355795610570e-03 2.028661908436214020e-03 2.028929826817558492e-03 2.026162229938271737e-03 2.026861496913580189e-03 2.026470336076817685e-03 2.026312264231824520e-03 2.024766375171467570e-03 2.027801890432098797e-03 2.028951260288066032e-03 2.027788494513031638e-03 2.029144161522633896e-03 2.029819315843621203e-03 2.028233239026063211e-03 2.028624399862825715e-03 2.027182998971193296e-03 2.025838048696845025e-03 2.027528613683127548e-03 2.027233903463648759e-03 2.028139467592592667e-03 2.029771090534979346e-03 2.027113340192043898e-03 2.029026277434842207e-03 2.028852130486968278e-03 2.028838734567901120e-03 2.029677319101508802e-03 2.028576174554183858e-03 2.028316293724279767e-03 2.026668595679012325e-03 2.028268068415637910e-03 2.027962641460905133e-03 2.026955268347050733e-03 2.028091242283950810e-03 2.026941872427983574e-03 2.028669945987654401e-03 2.028514553326474408e-03 2.028458290466392169e-03 2.027970679012345515e-03 2.027809927983539179e-03 2.027316958161865749e-03 2.025942536865569122e-03 2.028731567215363418e-03 2.029020919067215430e-03 2.027804569615912402e-03 2.028241276577503593e-03 2.026580182613168558e-03 2.027003493655692590e-03 2.026513203017832766e-03 2.027614347565157710e-03 2.029002164780521061e-03 2.029471021947873779e-03 2.030237268518518459e-03 2.028967335390946362e-03 2.028294860253772227e-03 2.027598272462276946e-03 2.025527263374485472e-03 2.027994791666666661e-03 2.027105302640603516e-03 2.025414737654320993e-03 2.027702760631001477e-03 2.029666602366255249e-03 2.027083869170095975e-03 2.027493784293552849e-03 2.028260030864197528e-03 2.027140132030178215e-03 2.026301547496570533e-03 2.028519911694101618e-03 2.028262710048011133e-03 2.029170953360768213e-03 2.029243291323731217e-03 2.027081189986282370e-03 2.028059092078189282e-03 2.026483731995884843e-03 2.027051718964334882e-03 2.025894311556927264e-03 2.028761038237311340e-03 2.028187692901234525e-03 2.025824652777777866e-03 2.028297539437585832e-03 2.027563443072702247e-03 2.027828682270233114e-03 2.028214484739368842e-03 2.029666602366255249e-03 2.027089227537722752e-03 2.027445558984910991e-03 2.025422775205761375e-03 2.026947230795610351e-03 2.027552726337448694e-03 2.026738254458161723e-03 2.026979381001371879e-03 2.026971343449931497e-03 2.026582861796982164e-03 2.028913751714677728e-03 2.026521240569273147e-03 2.026561428326474623e-03 2.028986089677640731e-03 2.027488425925926072e-03 2.028209126371742065e-03 2.027772419410150875e-03 2.027858153292181036e-03 2.027362504286694001e-03 2.026888288751714506e-03 2.027249978566529522e-03 2.028894997427983359e-03 2.028605645576131780e-03 2.028077846364883217e-03 2.029674639917695630e-03 2.028844092935528330e-03 2.028112675754458350e-03 2.028343085562414085e-03 2.029187028463648977e-03 2.027858153292181036e-03 2.028214484739368842e-03 2.028107317386831140e-03 2.027308920610425367e-03 2.027158886316872584e-03 2.027868870027435023e-03 2.028852130486968278e-03 2.027595593278463774e-03 2.027817965534979561e-03 2.028412744341563916e-03 2.027346429183813237e-03 2.026116683813443051e-03 2.027756344307270111e-03 2.028994127229081113e-03 2.028640474965706479e-03 2.027756344307270111e-03 2.027000814471879419e-03 2.027702760631001477e-03 2.027263374485596681e-03 2.026081854423868352e-03 2.028921789266118110e-03 2.029079861111111275e-03 2.028477044753086538e-03 2.026960626714677510e-03 2.026821309156378714e-03 2.026936514060356798e-03 2.028351123113854466e-03 2.029811278292181255e-03 2.029500492969821702e-03 2.027611668381344105e-03 2.024168917181070042e-03 2.027065114883402040e-03 2.026617691186556863e-03 2.027812607167352350e-03 2.026778442215363633e-03 2.026818629972565108e-03 2.027600951646090551e-03 2.027448238168724163e-03 2.028822659465020790e-03 2.027174961419752914e-03 2.027359825102880830e-03
