# vvf statistics with RF=500
# gcat file: /disk2/salam/Abacus/AbacusCosmos_720box_products/GCAT_derivative/AbacusCosmos_720box_planck_rockstar_halos_z0.100_Mr21_hod-gammaIHV-neg_real-5.gcat.rsd_zz.1pz0.100by100
# stats order in row: stdvvf,p2.5,p16,p50,p84,p97.5,rho
# columns: numbers, mean, sigma,All, jnrealizations
0.000000000000000000e+00 1.466272941330203583e+00 5.003218958632899005e-03 1.466273176049662563e+00 1.466732748887014104e+00 1.465773485215196237e+00 1.466015179249029687e+00 1.466294195187840099e+00 1.466576976929747422e+00 1.466451430361695563e+00 1.466477035177581767e+00 1.465534368558663258e+00 1.465196374165578019e+00 1.465994822816483634e+00 1.466912960798147703e+00 1.466490309518047708e+00 1.466256482221739210e+00 1.466201216622068371e+00 1.466579685433066826e+00 1.466562723473484597e+00 1.466431755270941606e+00 1.466124331136861025e+00 1.466600696502835310e+00 1.466516161589047185e+00 1.466190624569152501e+00 1.466905308806346842e+00 1.466234498841837208e+00 1.466270230494147730e+00 1.466317528065484987e+00 1.466572787993896565e+00 1.466626410282309445e+00 1.465956814080029647e+00 1.466818078925848035e+00 1.466161222337715397e+00 1.466065310558254842e+00 1.465712918433102585e+00 1.466221279080796913e+00 1.466427489414371843e+00 1.465579908381617225e+00 1.465930577013254243e+00 1.466346183188459218e+00 1.466161090045366100e+00 1.466304662970024264e+00 1.466351378076518497e+00 1.466275838194146086e+00 1.466296820476624907e+00 1.466527248375677051e+00 1.466066390283225829e+00 1.465453616899849321e+00 1.466325390930819372e+00 1.466018661212257213e+00 1.466899642835570505e+00 1.466511704277353889e+00 1.466200322590177407e+00 1.465620225689665101e+00 1.466153969833271065e+00 1.466113394682026172e+00 1.466460065651873368e+00 1.465732374368723612e+00 1.466040158896150247e+00 1.466169695609599311e+00 1.466474996440255474e+00 1.466510119801037515e+00 1.465635634007503629e+00 1.466426069143775601e+00 1.466516447120592925e+00 1.466550677596877517e+00 1.466189542670123913e+00 1.466419146965483256e+00 1.465483102109968128e+00 1.466748360598072454e+00 1.466539379551758726e+00 1.466842059252519759e+00 1.465928694663710230e+00 1.466174278580137713e+00 1.466737501151555101e+00 1.465916701581766901e+00 1.466142700960902490e+00 1.465824276104112922e+00 1.466419468701062989e+00 1.466419633024344860e+00 1.465985950574469454e+00 1.466288864382904844e+00 1.465768763085123272e+00 1.465853021114750465e+00 1.466152348274063044e+00 1.465332956718033763e+00 1.466494348335761755e+00 1.465930929566281016e+00 1.466778181712891094e+00 1.466367104659915821e+00 1.466535858474216303e+00 1.466141726599448969e+00 1.465726642386967704e+00 1.466414347305567967e+00 1.466414208125417673e+00 1.466612820484807456e+00 1.466489242277065674e+00 1.465987659993212677e+00 1.466141479497273581e+00 1.466849046643014409e+00 1.466332041063772795e+00 1.466399520787551536e+00 1.466243916392043323e+00 1.466481428575476587e+00 1.465835337708338404e+00 1.466072256229825399e+00 1.466136507068600769e+00 1.466173962434456746e+00 1.466301571108499679e+00 1.466203143799904129e+00 1.466320188071680519e+00 1.466112409035380759e+00 1.466226537186714918e+00 1.466739360985136909e+00 1.466451115752218870e+00 1.466444541665203438e+00 1.465469385553910708e+00 1.466751029768768921e+00 1.466490606940472619e+00 1.466465966890211137e+00 1.466255478289558267e+00 1.465679951973682948e+00 1.466252300502296047e+00 1.466302780541923312e+00 1.466053445094771313e+00 1.466352551789316117e+00 1.466099475550470155e+00 1.466076885039899524e+00 1.466488220564994727e+00 1.466679644456726717e+00 1.466499703299202206e+00 1.466162110080946102e+00 1.466391022039149172e+00 1.466393861895923134e+00 1.465917089133417228e+00 1.466124681194397761e+00 1.466334446835787286e+00 1.466451190658865533e+00 1.466253429512420992e+00 1.466567265406105047e+00 1.466028626314422434e+00 1.465620523443078582e+00 1.465893575073627275e+00 1.466283802526107349e+00 1.466751932046896689e+00 1.466415836725957433e+00 1.466646609333414286e+00 1.466327766036957136e+00 1.466155457962275532e+00 1.466348619765425410e+00 1.466430826977990431e+00 1.465978739526341945e+00 1.466201747330394545e+00 1.465980804909079449e+00 1.466201106078761640e+00 1.465472301660213805e+00 1.466519582375046316e+00 1.466472154388265725e+00 1.466792223014020680e+00 1.466344076775746519e+00 1.466585070193159090e+00 1.465691843422499918e+00 1.466289150152170206e+00 1.466701223081823935e+00 1.466330909874252519e+00 1.466373861572007886e+00 1.466341696400546679e+00 1.466185668382647966e+00 1.466184588661182397e+00 1.465741269797367075e+00 1.466042544612747855e+00 1.466560224060572848e+00 1.466255301738990324e+00 1.466476105490798432e+00 1.465996898076670663e+00 1.466685727301579201e+00 1.466030019859149380e+00 1.466323694973193259e+00 1.466600166677779704e+00 1.466805224312437650e+00 1.466245926032184510e+00 1.466231596516723190e+00 1.466747818610345755e+00 1.466745877110400054e+00 1.466435109495975997e+00 1.466437414778236192e+00 1.466695434830047828e+00 1.466703023079294566e+00 1.466484201982541480e+00 1.466564247083621986e+00 1.466329725305021370e+00 1.465366921310815362e+00 1.466544031471253451e+00 1.466312331403445857e+00 1.466536580033707349e+00 1.466692066268486583e+00 1.466011227996727451e+00 1.465933965860019006e+00 1.466200200380881613e+00 1.466481116279364949e+00 1.466420424663868571e+00 1.466585544445788480e+00 1.465993790045788447e+00 1.466471649791585286e+00 1.466119341015272637e+00 1.466253700448981734e+00 1.466247650602891417e+00 1.466609056011098478e+00 1.466727071817409023e+00 1.466139654852806284e+00 1.466203796501676759e+00 1.466169364187938529e+00 1.465996617310392436e+00 1.466310649449254155e+00 1.466535410615246393e+00 1.465755984308454440e+00 1.465802435777812995e+00 1.465691233033512786e+00 1.466359337253824835e+00 1.466464000449707372e+00 1.466023615323570395e+00 1.466549067486156543e+00 1.466277103133472703e+00 1.467076565886573425e+00 1.466756455688191352e+00 1.466462538204645671e+00 1.465654290195273823e+00 1.466095486745063736e+00
1.000000000000000000e+00 1.599999993979374716e-02 1.193987776563444278e-04 1.600000000000000033e-02 1.599620367088379347e-02 1.599542194525704203e-02 1.600694237501499792e-02 1.599739219136007626e-02 1.600928538581123522e-02 1.599626929879499615e-02 1.601510083555257591e-02 1.599052075009967794e-02 1.600469458393229821e-02 1.600433729434602714e-02 1.600492221431809234e-02 1.600584913017934208e-02 1.600482016126954232e-02 1.601922130636187352e-02 1.599888523403104543e-02 1.599683183264651726e-02 1.600493094069521324e-02 1.598992767455899994e-02 1.599845811536675100e-02 1.599524983739789366e-02 1.599187289003100795e-02 1.600048877611897485e-02 1.599470278912170848e-02 1.600258791848125153e-02 1.601095110068236765e-02 1.600456251856573198e-02 1.600551172428926749e-02 1.600017901417662494e-02 1.600984989800054853e-02 1.599285950144968896e-02 1.598312035532473488e-02 1.598206897184106454e-02 1.600014355228147542e-02 1.599837481153371446e-02 1.598419975533671086e-02 1.599417162699504416e-02 1.599275226687294979e-02 1.599146668715026656e-02 1.600089401517570259e-02 1.599147015220697687e-02 1.598772588497463648e-02 1.600964110957392439e-02 1.601232245135867510e-02 1.600818219741819218e-02 1.598947064834775264e-02 1.599748088414702785e-02 1.599019741600484976e-02 1.600724970388670704e-02 1.600476673271734526e-02 1.599742087851207042e-02 1.599490064448818097e-02 1.599997976256239615e-02 1.599210099862888312e-02 1.599373802228659311e-02 1.598711011255115125e-02 1.598993129872142496e-02 1.600579428073355820e-02 1.600555051460950118e-02 1.599416319156843000e-02 1.599514966960372681e-02 1.600070974674858496e-02 1.599463654937400420e-02 1.600155815345534818e-02 1.600291029957180353e-02 1.599222354433369256e-02 1.596998396822286656e-02 1.599857897278017874e-02 1.599742075432927790e-02 1.599876325605140842e-02 1.600244891076166992e-02 1.599706083230047551e-02 1.599392694743036192e-02 1.599021083240117699e-02 1.600762822244970740e-02 1.600660323122975182e-02 1.600709779980242012e-02 1.598934528554828496e-02 1.599513582422905367e-02 1.599362266884147080e-02 1.598769731781356229e-02 1.598101854376933126e-02 1.600159840057606073e-02 1.600937233623101960e-02 1.600023341429053156e-02 1.601045458267809363e-02 1.601565930986970088e-02 1.600463058795284152e-02 1.600847488722627679e-02 1.599501545527008337e-02 1.598649212493031060e-02 1.599907239755543609e-02 1.599485007099813241e-02 1.600544357707876092e-02 1.601484184485967716e-02 1.599495169987770124e-02 1.600922945829770863e-02 1.600938473441978344e-02 1.600974035984710150e-02 1.601466852606367106e-02 1.600561408340355624e-02 1.600324983545383176e-02 1.599143659418405389e-02 1.600657819311038579e-02 1.600239525227192469e-02 1.599467513473825514e-02 1.600193592021233527e-02 1.599696554136897236e-02 1.600693604763896161e-02 1.600411000009326068e-02 1.600573006964872008e-02 1.600079975179521941e-02 1.600345032669989176e-02 1.599616976174026567e-02 1.598650518997695238e-02 1.600684325132072441e-02 1.601041829481123294e-02 1.600015404954775386e-02 1.600379615592498195e-02 1.599070778155920261e-02 1.599324570369793988e-02 1.599288363184908981e-02 1.600066344161682821e-02 1.600993219124118017e-02 1.601277568366955492e-02 1.601963841808604072e-02 1.601085962305804841e-02 1.600374818179100753e-02 1.600163335477881518e-02 1.598408796493883816e-02 1.600299358306345177e-02 1.599635055086686200e-02 1.598454667988499431e-02 1.599729169335218498e-02 1.601454662281811755e-02 1.599748841428389259e-02 1.599682663380706804e-02 1.600206866652568310e-02 1.599806043174322942e-02 1.599181756620239245e-02 1.600661279129150794e-02 1.600597643037920959e-02 1.601031229375673992e-02 1.600909710492342750e-02 1.599610501919051728e-02 1.600343048519585476e-02 1.599242702902019600e-02 1.599594595900516794e-02 1.598719997199000292e-02 1.600868738243765160e-02 1.600168390663925591e-02 1.598662102556923023e-02 1.600541239635539653e-02 1.599846328290229977e-02 1.600073556026926011e-02 1.600484626128979154e-02 1.601524476779647016e-02 1.599721952462964877e-02 1.600031373756082009e-02 1.598678032635049429e-02 1.599268151377820912e-02 1.599941293731486913e-02 1.599191447769071975e-02 1.599851604467403959e-02 1.599447214759838407e-02 1.599194563461474317e-02 1.600629007015880526e-02 1.599437177942275232e-02 1.599291186125982589e-02 1.600925424892961357e-02 1.599774447628574126e-02 1.600426249081282615e-02 1.600145648760701797e-02 1.600172954377138135e-02 1.599670575568219386e-02 1.599383121794988732e-02 1.599819688500327824e-02 1.600955182023718060e-02 1.600673025846377495e-02 1.600311999740467242e-02 1.601270969747725648e-02 1.600538172179896690e-02 1.600394078534147710e-02 1.600412228088954336e-02 1.601309265047392780e-02 1.600235046143148529e-02 1.600398281347525237e-02 1.600291780683923623e-02 1.599653291789751228e-02 1.599436980890723420e-02 1.600347387005305114e-02 1.600851107156936459e-02 1.600225201770131417e-02 1.600220773737455471e-02 1.600396863385315435e-02 1.599938638437262139e-02 1.598824219953015949e-02 1.600205204046471416e-02 1.601149630816207231e-02 1.600780275260618377e-02 1.599962196099537562e-02 1.599492414631950576e-02 1.599863231396351365e-02 1.599616006148776859e-02 1.598921434839256986e-02 1.600812631388790624e-02 1.601242204431340896e-02 1.600459683099173316e-02 1.599414135237834517e-02 1.599590743602912271e-02 1.599396727276522490e-02 1.600472879205024415e-02 1.601501760487545820e-02 1.601276108278081728e-02 1.599898986276693594e-02 1.597963032469689945e-02 1.599566055172549003e-02 1.599132209559210940e-02 1.600138429430541034e-02 1.599498962073117939e-02 1.599266997835128296e-02 1.600093774703909358e-02 1.600043356030211167e-02 1.600974102741833244e-02 1.599719750304817029e-02 1.599680419229487088e-02
2.000000000000000000e+00 8.999999966133981344e-02 6.716181243169388158e-04 8.999999999999999667e-02 8.997864564872135040e-02 8.997424844207087269e-02 9.003905085945936027e-02 8.998533107640042938e-02 9.005223029518819033e-02 8.997901480572184640e-02 9.008494219998322561e-02 8.994667921931068233e-02 9.002640703461917138e-02 9.002439728069640268e-02 9.002768745553926810e-02 9.003290135725880439e-02 9.002711340714117383e-02 9.010811984828553944e-02 8.999372944142462749e-02 8.998217905863667432e-02 9.002773654141056625e-02 8.994334316939436857e-02 8.999132689893797610e-02 8.997328033536314273e-02 8.995428500642442537e-02 9.000274936566922401e-02 8.997020318880961931e-02 9.001455704145702730e-02 9.006159994133831892e-02 9.002566416693223716e-02 9.003100344912713660e-02 9.000100695474351487e-02 9.005540567625308634e-02 8.995983469565449475e-02 8.990505199870162112e-02 8.989913796660599365e-02 9.000080748158328925e-02 8.999085831487713127e-02 8.991112362376899036e-02 8.996721540184711430e-02 8.995923150116034994e-02 8.995200011522022643e-02 9.000502883536332099e-02 8.995201960616425185e-02 8.993095810298233628e-02 9.005423124135331081e-02 9.006931378889254658e-02 9.004602486047733056e-02 8.994077239695610904e-02 8.998582997332701949e-02 8.994486046502726817e-02 9.004077958436274010e-02 9.002681287153507794e-02 8.998549244163039917e-02 8.997131612524603139e-02 8.999988616441347011e-02 8.995556811728745716e-02 8.996477637536208494e-02 8.992749438310022880e-02 8.994336355530799243e-02 9.003259282912627615e-02 9.003122164467845800e-02 8.996716795257242438e-02 8.997271689152094853e-02 9.000399232546080208e-02 8.996983059022876927e-02 9.000876461318634003e-02 9.001637043509139180e-02 8.995625743687701847e-02 8.983115982125362831e-02 8.999200672188849282e-02 8.998549174310217780e-02 8.999304331528916456e-02 9.001377512303439243e-02 8.998346718169018821e-02 8.996583907929578405e-02 8.994493593225662276e-02 9.004290875127959892e-02 9.003714317566735570e-02 9.003992512388860059e-02 8.994006723120909208e-02 8.997263901128842167e-02 8.996412751223327453e-02 8.993079741270129657e-02 8.989322930870249917e-02 9.000899100324034896e-02 9.005271939129949610e-02 9.000131295538423004e-02 9.005880702756427492e-02 9.008808361801708131e-02 9.002604705723472878e-02 9.004767124064780304e-02 8.997196193589421243e-02 8.992401820273299151e-02 8.999478223624933493e-02 8.997103164936449959e-02 9.003062012106803624e-02 9.008348537733569528e-02 8.997160331181207338e-02 9.005191570292460368e-02 9.005278913111128269e-02 9.005478952413994986e-02 9.008251045910814492e-02 9.003157921914500816e-02 9.001828032442779626e-02 8.995183084228530745e-02 9.003700233624592486e-02 9.001347329402958897e-02 8.997004763290268603e-02 9.001088955119437851e-02 8.998293117020048082e-02 9.003901526796914689e-02 9.002311875052458612e-02 9.003223164177405480e-02 9.000449860384811263e-02 9.001940808768688074e-02 8.997845490978899352e-02 8.992409169362035326e-02 9.003849328867906399e-02 9.005860290831317616e-02 9.000086652870610548e-02 9.002135337707801999e-02 8.994773127127052292e-02 8.996200708330090445e-02 8.995997042915114539e-02 9.000373185909464613e-02 9.005586857573164017e-02 9.007186322064124340e-02 9.011046610173396865e-02 9.006108537970153316e-02 9.002108352257441604e-02 9.000918762063084277e-02 8.991049480278097417e-02 9.001683890473191618e-02 8.997947184862610526e-02 8.991307507435310209e-02 8.998476577510604313e-02 9.008182475335189954e-02 8.998587233034688326e-02 8.998214981516475253e-02 9.001163624920696660e-02 8.998908992855567113e-02 8.995397380988845448e-02 9.003719695101473908e-02 9.003361742088304698e-02 9.005800665238165859e-02 9.005117121519427836e-02 8.997809073294665838e-02 9.001929647922668476e-02 8.995740203823859860e-02 8.997719601940405709e-02 8.992799984244376210e-02 9.004886652621178766e-02 9.000947197484579498e-02 8.992474326882690661e-02 9.003044472949911503e-02 8.999135596632544531e-02 9.000413752651459376e-02 9.002726021975508697e-02 9.008575181885514205e-02 8.998435982604177652e-02 9.000176477377960782e-02 8.992563933572153556e-02 8.995883351500241765e-02 8.999669777239614754e-02 8.995451893701029988e-02 8.999165275129147878e-02 8.996890583024091947e-02 8.995469419470791816e-02 9.003538164464328086e-02 8.996834125925297354e-02 8.996012921958651543e-02 9.005205515022908502e-02 8.998731267910729803e-02 9.002397651082215402e-02 9.000819274278946958e-02 9.000972868371402702e-02 8.998146987571234434e-02 8.996530060096810666e-02 8.998985747814343406e-02 9.005372898883413912e-02 9.003785770385872023e-02 9.001754998540129060e-02 9.007149204830956768e-02 9.003027218511917840e-02 9.002216691754581779e-02 9.002318783000369529e-02 9.007364615891584603e-02 9.001322134555210519e-02 9.002240332579829196e-02 9.001641266347069903e-02 8.998049766317349485e-02 8.996833017510319497e-02 9.001954051904841048e-02 9.004787477757768277e-02 9.001266759956991215e-02 9.001241852273186850e-02 9.002232356542400060e-02 8.999654841209599188e-02 8.993386237235713454e-02 9.001154272761402453e-02 9.006466673341165241e-02 9.004389048340977197e-02 8.999787353059898742e-02 8.997144832304722339e-02 8.999230676604476342e-02 8.997840034586870872e-02 8.993933070970820676e-02 9.004571051561947870e-02 9.006987399926293103e-02 9.002585717432848300e-02 8.996704510712819070e-02 8.997697932766381135e-02 8.996606590930439351e-02 9.002659945528262986e-02 9.008447402742444932e-02 9.007178109064210847e-02 8.999431797806400901e-02 8.988542057642005811e-02 8.997559060345587667e-02 8.995118678770562537e-02 9.000778665546793622e-02 8.997181661661288188e-02 8.995876862822596576e-02 9.000527482709490268e-02 9.000243877669937553e-02 9.005479327922810695e-02 8.998423595464596914e-02 8.998202358165865999e-02
3.000000000000000000e+00 4.640088312097533363e-01 3.532286990246512760e-03 4.640000000000000235e-01 4.638899064556300522e-01 4.638672364124542535e-01 4.642013288754349154e-01 4.639243735494422149e-01 4.642692761885258146e-01 4.638918096650548883e-01 4.644379242310246458e-01 4.637251017528906671e-01 4.641361429340365996e-01 4.641257815360347871e-01 4.641427442152247229e-01 4.641696247752009619e-01 4.641397846768167135e-01 4.645574178844943392e-01 4.639676717869002931e-01 4.639081231467489519e-01 4.641429972801611181e-01 4.637079025622110051e-01 4.639552853456357928e-01 4.638622452845388988e-01 4.637643138108992202e-01 4.640141745074502500e-01 4.638463808845295633e-01 4.640750496359562494e-01 4.643175819197886689e-01 4.641323130384061857e-01 4.641598400043887573e-01 4.640051914111221754e-01 4.642856470420159143e-01 4.637929255420409902e-01 4.635104903044172664e-01 4.634800001833908611e-01 4.640041630161627628e-01 4.639528695344776743e-01 4.635417929047645491e-01 4.638309771828562633e-01 4.637898157393155474e-01 4.637525339273577130e-01 4.640259264400953265e-01 4.637526344140023293e-01 4.636440506642645065e-01 4.642795921776437518e-01 4.643573510894016265e-01 4.642372837251275697e-01 4.636946488020848300e-01 4.639269456402637659e-01 4.637157250641406048e-01 4.642102414127145527e-01 4.641382352488029883e-01 4.639252054768500666e-01 4.638521186901573001e-01 4.639994131143094225e-01 4.637709289602375828e-01 4.638184026463111342e-01 4.636261932639834105e-01 4.637080076629213066e-01 4.641680341412732225e-01 4.641609649236755897e-01 4.638307325554845151e-01 4.638593404185080149e-01 4.640205826557090019e-01 4.638444599318460870e-01 4.640451864502050938e-01 4.640843986875822780e-01 4.637744827856770669e-01 4.651257830744910393e-01 4.639587902106251383e-01 4.639252018755490314e-01 4.639641344254908373e-01 4.640710184120884207e-01 4.639147641367138419e-01 4.638238814754805373e-01 4.637161141396341502e-01 4.642212184510414730e-01 4.641914937056627610e-01 4.642058361942701383e-01 4.636910132809002327e-01 4.638589389026425702e-01 4.638150573964026635e-01 4.636432222165933204e-01 4.634495377693105822e-01 4.640463536167057645e-01 4.642717977506995997e-01 4.640067690144253909e-01 4.643031828976647568e-01 4.644541199862213809e-01 4.641342870506324214e-01 4.642457717295619957e-01 4.638554482028323656e-01 4.636082716229789624e-01 4.639730995291076465e-01 4.638506520589458781e-01 4.641578637352840597e-01 4.644304135009306722e-01 4.638535992964533672e-01 4.642676542906334913e-01 4.642721572981737266e-01 4.642824704355659193e-01 4.644253872558464780e-01 4.641628084187031655e-01 4.640942452281611175e-01 4.637516612313375974e-01 4.641907676002012262e-01 4.640694623158858612e-01 4.638455789074094060e-01 4.640561416861577193e-01 4.639120006997002332e-01 4.642011453815298450e-01 4.641191900027045181e-01 4.641661720198129171e-01 4.640231928020613350e-01 4.641000594742968333e-01 4.638889230904676975e-01 4.636086505093315879e-01 4.641984542883009768e-01 4.643021305495257378e-01 4.640044674368848376e-01 4.641100885218244487e-01 4.637305256652168861e-01 4.638041254072401975e-01 4.637936253236236706e-01 4.640192398068879731e-01 4.642880335459942387e-01 4.643704948264171239e-01 4.645695141244951532e-01 4.643149290686834352e-01 4.641086972719392079e-01 4.640473672885856438e-01 4.635385509832263273e-01 4.640868139088401012e-01 4.638941659751390501e-01 4.635518537166648523e-01 4.639214591072133298e-01 4.644218520617253709e-01 4.639271640142328401e-01 4.639079723804049316e-01 4.640599913292448031e-01 4.639437525205536983e-01 4.637627094198693567e-01 4.641917709474537301e-01 4.641733164809970225e-01 4.642990565189454299e-01 4.642638160427793870e-01 4.638870455565249906e-01 4.640994840706797464e-01 4.637803838415856528e-01 4.638824328111498252e-01 4.636287991877101056e-01 4.642519340906919312e-01 4.640488332925383763e-01 4.636120097415076247e-01 4.641569594943065202e-01 4.639554352041667107e-01 4.640213312478085883e-01 4.641405415774039755e-01 4.644420982660976693e-01 4.639193662142598318e-01 4.640090983892637966e-01 4.636166294641643759e-01 4.637877638995680507e-01 4.639829751821312187e-01 4.637655198530309386e-01 4.639569652955471413e-01 4.638396922803531552e-01 4.637664234038275102e-01 4.641824120346053628e-01 4.638367816032598068e-01 4.637944439765349647e-01 4.642683732189588075e-01 4.639345898122865242e-01 4.641236122335719583e-01 4.640422381406035246e-01 4.640501567693701146e-01 4.639044669147836530e-01 4.638211053205467116e-01 4.639477096650950205e-01 4.642770027868782790e-01 4.641951774954494181e-01 4.640904799247355106e-01 4.643685812268404378e-01 4.641560699321700123e-01 4.641142827749028532e-01 4.641195461457968130e-01 4.643796868637438680e-01 4.640681633815130769e-01 4.641155015907823533e-01 4.640846163983378125e-01 4.638994546190278179e-01 4.638367244583098126e-01 4.641007422315384656e-01 4.642468210755115732e-01 4.640653085133381039e-01 4.640640243838620727e-01 4.641150903817414797e-01 4.639822051468059927e-01 4.636590237863745800e-01 4.640595091734767141e-01 4.643333929367000623e-01 4.642262798255792910e-01 4.639890368688658895e-01 4.638528002432656949e-01 4.639603371049419445e-01 4.638886417831453168e-01 4.636872161033844808e-01 4.642356631027492742e-01 4.643602392850888494e-01 4.641333080987602999e-01 4.638300992189720029e-01 4.638813156448445274e-01 4.638250509101915497e-01 4.641371349694570769e-01 4.644355105413882634e-01 4.643700714006437358e-01 4.639707060202411526e-01 4.634092794162100737e-01 4.638741560000391728e-01 4.637483407721711970e-01 4.640401445348569243e-01 4.638546990012041848e-01 4.637874293721871988e-01 4.640271946641336687e-01 4.640125732487612176e-01 4.642824897951315921e-01 4.639187275883969730e-01 4.639073215765512903e-01
4.000000000000000000e+00 1.843460096235354229e+00 9.147290883150312191e-03 1.844000000000000083e+00 1.843562473069357388e+00 1.843472379190874033e+00 1.842799240923601367e+00 1.843699450054248512e+00 1.843068980041518312e+00 1.843570036686123181e+00 1.843738483692990204e+00 1.842907516448987870e+00 1.844541050798197190e+00 1.842499331011586250e+00 1.842566669923370481e+00 1.842673381111896935e+00 1.844555523586314694e+00 1.844212852894910659e+00 1.843871523222077702e+00 1.843634868712511032e+00 1.842567674547536338e+00 1.842839164492924731e+00 1.843822297796017917e+00 1.843452543760107032e+00 1.843063350576073622e+00 1.844056331447711639e+00 1.843389496446277143e+00 1.844298257604964020e+00 1.843260745466057671e+00 1.842525259949879812e+00 1.842634537258801997e+00 1.844020631383856079e+00 1.843133969507313230e+00 1.843177057542076724e+00 1.844052510995591199e+00 1.843931207626162916e+00 1.844016544400439939e+00 1.843812697029260539e+00 1.844177046771973139e+00 1.843328280011178766e+00 1.843164698757107534e+00 1.843016535694068203e+00 1.844103035248999545e+00 1.843016935041854154e+00 1.842585408243326839e+00 1.843109932739697809e+00 1.843418622212667835e+00 1.842941975477769390e+00 1.842786492222078465e+00 1.843709671897944880e+00 1.842870252194558800e+00 1.842834622159957192e+00 1.842548770104084355e+00 1.843702756248516206e+00 1.843412299277262800e+00 1.843997667635316029e+00 1.843089640091978731e+00 1.843278307068529687e+00 1.842514440471520354e+00 1.842839582177644209e+00 1.842667066569450895e+00 1.842639002994419073e+00 1.843327307828261707e+00 1.843440999421829263e+00 1.844081798312774634e+00 1.843381862315353947e+00 1.844179577185729002e+00 1.844335412025650101e+00 1.843103763484458035e+00 1.842536900333713312e+00 1.843836226612915130e+00 1.843702741936449119e+00 1.843857465259924666e+00 1.844282236965282484e+00 1.843661260922629941e+00 1.843300080691349319e+00 1.842871798434235764e+00 1.842878199109522441e+00 1.844761022399228789e+00 1.842817134202253460e+00 1.842772044159439737e+00 1.843439403742398230e+00 1.843265012583979567e+00 1.842582115878013127e+00 1.843810014487386351e+00 1.844184215666391013e+00 1.843078990208596224e+00 1.844026900996983631e+00 1.843203583830815617e+00 1.843802778048749369e+00 1.844533675261565087e+00 1.842975671391925196e+00 1.843425531219877289e+00 1.844441528913834727e+00 1.843893093818264051e+00 1.843406470682535048e+00 1.844627372258327291e+00 1.843708667389470479e+00 1.843418183410905131e+00 1.843062541386523590e+00 1.843080417550077676e+00 1.843121358927397369e+00 1.843688714063080214e+00 1.842646321351834482e+00 1.844374543536054123e+00 1.843013067479712497e+00 1.842757314481833442e+00 1.844276052824339374e+00 1.843386309278584045e+00 1.844223114804471431e+00 1.843650278642774198e+00 1.842798512484435269e+00 1.844473677510748200e+00 1.842659674268309011e+00 1.844092171394398960e+00 1.844397650152162615e+00 1.843558565040565700e+00 1.842444723144843755e+00 1.842787829308297987e+00 1.843199406190143108e+00 1.844017754210378612e+00 1.842517051431484809e+00 1.842929071824698006e+00 1.843221567351187362e+00 1.843179838570607743e+00 1.844076461646339204e+00 1.843143443516640945e+00 1.843470800582457603e+00 1.844260872882155233e+00 1.843250214104557916e+00 1.842431509428689829e+00 1.844188244138258437e+00 1.844164148954818616e+00 1.842344636250179857e+00 1.843579400987406025e+00 1.844217073191731338e+00 1.843687867658839519e+00 1.843674679951935680e+00 1.843710539746218569e+00 1.843634269546264193e+00 1.844238413817085087e+00 1.843776464758407396e+00 1.843056974504825529e+00 1.842761297597435011e+00 1.842688036547406316e+00 1.843187202818744597e+00 1.843047304204309622e+00 1.843551103461707141e+00 1.844395363418822154e+00 1.843127215094577664e+00 1.843532771775345136e+00 1.842524796771847884e+00 1.843000134903134635e+00 1.844194070240174010e+00 1.842458073196853618e+00 1.844623778679959525e+00 1.843822893354490233e+00 1.844084773321032378e+00 1.844558531613648578e+00 1.843755053892568663e+00 1.843679550213566998e+00 1.844036158253884228e+00 1.842476432611894532e+00 1.843156544462938751e+00 1.843932341025538824e+00 1.843068143553855620e+00 1.843828974148683075e+00 1.843362915010713809e+00 1.843071734389349015e+00 1.842724144327032576e+00 1.843351347578471966e+00 1.843183092010195034e+00 1.843065395408021612e+00 1.843740050891931714e+00 1.842490719254826770e+00 1.844167860196708864e+00 1.844199329919651964e+00 1.843620338342372822e+00 1.843289047868724273e+00 1.843792190996627722e+00 1.843099653304805408e+00 1.842774821005641828e+00 1.844359579700888707e+00 1.843463203922069082e+00 1.842619570722105804e+00 1.844454175510605198e+00 1.842474577587408957e+00 1.843507291385810820e+00 1.844270890679978514e+00 1.844459019253022802e+00 1.844336277238221911e+00 1.843600418787688211e+00 1.843351120476558913e+00 1.844400363523614139e+00 1.842979837114423036e+00 1.842259263537863845e+00 1.844254441732417371e+00 1.844457385051576193e+00 1.843929280798944692e+00 1.842644913495850689e+00 1.844236497663558350e+00 1.843323512477158310e+00 1.842898291893786844e+00 1.843956431004716956e+00 1.843415007863323130e+00 1.843842374184295085e+00 1.843557447086465295e+00 1.842756953652243901e+00 1.842935541886345341e+00 1.843430087851581245e+00 1.844529784771797409e+00 1.843324790861604390e+00 1.843528332002356329e+00 1.843304728186192287e+00 1.844544993283790735e+00 1.843728901761287009e+00 1.843469119655141597e+00 1.843883581683889439e+00 1.843649848711904848e+00 1.843499878586362328e+00 1.842999871516990407e+00 1.844159539918698520e+00 1.843422553789268337e+00 1.843155215004985470e+00 1.842107958127875644e+00 1.842049913629780544e+00 1.843121435781535311e+00 1.843677012226301759e+00 1.843631683161984114e+00
5.000000000000000000e+00 5.112337915146988543e+00 1.787505033658676884e-02 5.112000000000000099e+00 5.112786598306232833e+00 5.112536739252782958e+00 5.112217221020414648e+00 5.111166805139544245e+00 5.114966680766689144e+00 5.112807574627350249e+00 5.112820941750159776e+00 5.110970194750609430e+00 5.111499332743377089e+00 5.111385223381762266e+00 5.113572647474630806e+00 5.113868797092299801e+00 5.111589454068278471e+00 5.114136402056027819e+00 5.113643692927172246e+00 5.112987374509643246e+00 5.113425389324643966e+00 5.110780632980920224e+00 5.113507175124097692e+00 5.112481729278301579e+00 5.111402372476161027e+00 5.114156225067026718e+00 5.112306878973026159e+00 5.112826839954759173e+00 5.113497507780431661e+00 5.113457724681750527e+00 5.113760995910420881e+00 5.112057195029431789e+00 5.113145811173924749e+00 5.111717718150856626e+00 5.110602733615083437e+00 5.112264312367660324e+00 5.112045864953930874e+00 5.111480752285021190e+00 5.108949846799495376e+00 5.110137834824915792e+00 5.111683443299266827e+00 5.111272539880403976e+00 5.112285637848636100e+00 5.113272581168181397e+00 5.112075351720640093e+00 5.113079129370171394e+00 5.113935482902677521e+00 5.112613189300435401e+00 5.110634555978149862e+00 5.111195142484975307e+00 5.110866849090549557e+00 5.112315374178817429e+00 5.113522971103192205e+00 5.111175970684606717e+00 5.110370755913974605e+00 5.111993534138685291e+00 5.111475281686756134e+00 5.111998515373351815e+00 5.109880069724161977e+00 5.112780532766175057e+00 5.111850548409280215e+00 5.113773389417736404e+00 5.112134410105060311e+00 5.112449713147090513e+00 5.112226764086173603e+00 5.112285707093666254e+00 5.114498024798165510e+00 5.112929840713190899e+00 5.113513478300697912e+00 5.110394869831317521e+00 5.113545804174863818e+00 5.113175608602495537e+00 5.113604705715431464e+00 5.110782120874508117e+00 5.111060935920002102e+00 5.114058141440858130e+00 5.110871137306226331e+00 5.112436263544875459e+00 5.112108906974001776e+00 5.114267747036872258e+00 5.112593155054063310e+00 5.112445287819211259e+00 5.111961645528455556e+00 5.111766448045898414e+00 5.111928306688214185e+00 5.112510688984051477e+00 5.110992118341752821e+00 5.114074605042611132e+00 5.111337625519981387e+00 5.112999234675902116e+00 5.113479472850933405e+00 5.114707726468795457e+00 5.112406814890699813e+00 5.109682545430850098e+00 5.111703631018961858e+00 5.112353953942778695e+00 5.113739222876664492e+00 5.112738258971452510e+00 5.110387068110926023e+00 5.110946504561542980e+00 5.112997249555318646e+00 5.111109609881187232e+00 5.112682926945827155e+00 5.111792997887010692e+00 5.113038322427499338e+00 5.109263991841805463e+00 5.110100088150491437e+00 5.112765283100880076e+00 5.112298039940714744e+00 5.112618526507841210e+00 5.111230452536374536e+00 5.114216067220647588e+00 5.111362644123349064e+00 5.111830040994060020e+00 5.114255620667546687e+00 5.113102379380615403e+00 5.112775760096232247e+00 5.109686721346383464e+00 5.114186418796971445e+00 5.111326040618485500e+00 5.112049218830507336e+00 5.113212871818030969e+00 5.111029974680860732e+00 5.111841158044453159e+00 5.111725430829765493e+00 5.112211969596576644e+00 5.112071410739410737e+00 5.112078637011505222e+00 5.112267110171707429e+00 5.111466934661282657e+00 5.115198012604950328e+00 5.112521856851831359e+00 5.112910137784811404e+00 5.112956449788772950e+00 5.112833544820821530e+00 5.111058800893227172e+00 5.111134696026023327e+00 5.112644009334683659e+00 5.113197234415488346e+00 5.112985712830584006e+00 5.114661197538271864e+00 5.111380307941962187e+00 5.111384689597438857e+00 5.112111960218725493e+00 5.111908722452359832e+00 5.113293488818558608e+00 5.112905387884919328e+00 5.112755066758769118e+00 5.112946007859370035e+00 5.111579489150580358e+00 5.112704227147026437e+00 5.111907191043803422e+00 5.110773446843220214e+00 5.112538008171242154e+00 5.109723745297564790e+00 5.111728584086005611e+00 5.109509210976922233e+00 5.112235011506029103e+00 5.113548380482088263e+00 5.112866892119023454e+00 5.113111290559751332e+00 5.112100239150682235e+00 5.111773009350571328e+00 5.111660828841359638e+00 5.113812360089265319e+00 5.113414654241608126e+00 5.111525876273355529e+00 5.112233160176133495e+00 5.111425623463736301e+00 5.112008891156968993e+00 5.110201783525568864e+00 5.111734453655171428e+00 5.112955575751895410e+00 5.111279360173294428e+00 5.113361865814698426e+00 5.112465347790442038e+00 5.114552805427928561e+00 5.110947488940460914e+00 5.112028303037232213e+00 5.113423679369172525e+00 5.115051806565779735e+00 5.112149476296867334e+00 5.112996839170793173e+00 5.112057570919613880e+00 5.113719460114769078e+00 5.113259080916602528e+00 5.113317068744210658e+00 5.114181465245110303e+00 5.112750972427359208e+00 5.113272508905343017e+00 5.114932604010991035e+00 5.110892267268254407e+00 5.110201153945861385e+00 5.113109901481949215e+00 5.112718223482465518e+00 5.112719519655570366e+00 5.112705372091169487e+00 5.113267978516082835e+00 5.111803949807052661e+00 5.112240443299768344e+00 5.114655883433534278e+00 5.113671633419262008e+00 5.112492004113599720e+00 5.111879216538022241e+00 5.112377630267372020e+00 5.111563024311342573e+00 5.112772659653028740e+00 5.110552636104975122e+00 5.112595341497950585e+00 5.111965737647055974e+00 5.113468687501859122e+00 5.112127429753928531e+00 5.110692425811304673e+00 5.112071789557585788e+00 5.113510849060053154e+00 5.112794370356489537e+00 5.112073975677776438e+00 5.111677261154036422e+00 5.109486796321833779e+00 5.112613003845259740e+00 5.111226324803627818e+00 5.112442282030579044e+00 5.112398557526202758e+00 5.113656225577822845e+00 5.114299727397369821e+00 5.114138576711562578e+00 5.113111040631729054e+00 5.111104602223890403e+00 5.110978939438211910e+00
6.000000000000000000e+00 2.982423262011088712e-03 2.628904941441823447e-05 2.995678476508916409e-03 2.981628836591220834e-03 2.981500235768175591e-03 2.983750750171467771e-03 2.981878000685870937e-03 2.984157986111111039e-03 2.981800304355281157e-03 2.985235018004115271e-03 2.980597350823045288e-03 2.983418531378600677e-03 2.983204196673525273e-03 2.983306005658436198e-03 2.983592678326474606e-03 2.983110425240054729e-03 2.986129865397805193e-03 2.982188786008230490e-03 2.981778870884773617e-03 2.983228309327846418e-03 2.980436599794238518e-03 2.981995884773662626e-03 2.981414501886145429e-03 2.980985832475994621e-03 2.981979809670781863e-03 2.981435935356652970e-03 2.982545117455418296e-03 2.984372320816186443e-03 2.983155971364883415e-03 2.983399777091906742e-03 2.982282557441701034e-03 2.984361604080932890e-03 2.980715234910836977e-03 2.979145233196159315e-03 2.979260438100136965e-03 2.982598701131687364e-03 2.981835133744855856e-03 2.979364926268861496e-03 2.981505594135802368e-03 2.980696480624142608e-03 2.980709876543209767e-03 2.982772848079560859e-03 2.980565200617283760e-03 2.980439278978052123e-03 2.983863275891632250e-03 2.984859932270233097e-03 2.984053497942386942e-03 2.980294603052126116e-03 2.982006601508916180e-03 2.980313357338820485e-03 2.983616790980795751e-03 2.983523019547325208e-03 2.981880679869684542e-03 2.981318051268861281e-03 2.982421874999999830e-03 2.981130508401920627e-03 2.981101037379972705e-03 2.979991855281206945e-03 2.980463391632373268e-03 2.983450681584362205e-03 2.983370306069958820e-03 2.981042095336076860e-03 2.981583290466392148e-03 2.982320066015089338e-03 2.981291259430726964e-03 2.982743377057613370e-03 2.982713906035665448e-03 2.981101037379972705e-03 2.976519633058984961e-03 2.982263803155006665e-03 2.981703853737997442e-03 2.982220936213991584e-03 2.982871977880658613e-03 2.981473443930041274e-03 2.981288580246913792e-03 2.980514296124828731e-03 2.983970443244169952e-03 2.983517661179698431e-03 2.984216928155006884e-03 2.980120456104252188e-03 2.981393068415637889e-03 2.981058170438957624e-03 2.980128493655692570e-03 2.978837127057613367e-03 2.982746056241426542e-03 2.984112439986282787e-03 2.982547796639231901e-03 2.984286586934156282e-03 2.985264489026063194e-03 2.983356910150891661e-03 2.983731995884773835e-03 2.981575252914952200e-03 2.979815029149519845e-03 2.982204861111111254e-03 2.981604723936899688e-03 2.983364947702332043e-03 2.985224301268861284e-03 2.981157300240054944e-03 2.984310699588477427e-03 2.984048139574759732e-03 2.984179419581618579e-03 2.985269847393689970e-03 2.983362268518518438e-03 2.983003257887517027e-03 2.980806327160493915e-03 2.983616790980795751e-03 2.982740697873799765e-03 2.981430576989026193e-03 2.982703189300411461e-03 2.981923546810699623e-03 2.983528377914951984e-03 2.983324759945130134e-03 2.983314043209876580e-03 2.982470100308642121e-03 2.983030049725651778e-03 2.981677061899862691e-03 2.979871292009602084e-03 2.983785579561042470e-03 2.984010631001371861e-03 2.982496892146776438e-03 2.983022012174211396e-03 2.980707197359396595e-03 2.981143904320987786e-03 2.980964399005487080e-03 2.982400441529492290e-03 2.984136552640603499e-03 2.984720614711934301e-03 2.986073602537722953e-03 2.984514317558298845e-03 2.982963070130315551e-03 2.982649605624142827e-03 2.979453339334705263e-03 2.982960390946501946e-03 2.981805662722907934e-03 2.979418509945130130e-03 2.981955697016460717e-03 2.984951024519890469e-03 2.981869963134430555e-03 2.981727966392318154e-03 2.982863940329218231e-03 2.982073581104252406e-03 2.980602709190672064e-03 2.983512302812071221e-03 2.983523019547325208e-03 2.984015989368998638e-03 2.984139231824417104e-03 2.981551140260631054e-03 2.982906807270233312e-03 2.980742026748971294e-03 2.981776191700960012e-03 2.980088305898491094e-03 2.984123156721536340e-03 2.982633530521262063e-03 2.980088305898491094e-03 2.983131858710562270e-03 2.982373649691357972e-03 2.982569230109739442e-03 2.983011295438957409e-03 2.985312714334705051e-03 2.981955697016460717e-03 2.982212898662551636e-03 2.979624807098765586e-03 2.981151941872428168e-03 2.982293274176954587e-03 2.980725951646090530e-03 2.982011959876543390e-03 2.981248392489711883e-03 2.980846514917695391e-03 2.983860596707819078e-03 2.981133187585733799e-03 2.980642896947873974e-03 2.984589334705075453e-03 2.982121806412894264e-03 2.983113104423868334e-03 2.982646926440329221e-03 2.982665680727023157e-03 2.981813700274348316e-03 2.981296617798353740e-03 2.981947659465020769e-03 2.984050818758573337e-03 2.983927576303154871e-03 2.983051483196159318e-03 2.984913515946502165e-03 2.983332797496570515e-03 2.983091670953360794e-03 2.983239026063099972e-03 2.984661672668038456e-03 2.982625492969821681e-03 2.983142575445816257e-03 2.982770168895747687e-03 2.981744041495198918e-03 2.981687778635116678e-03 2.982837148491083480e-03 2.984246399176954806e-03 2.982389724794238736e-03 2.982620134602194904e-03 2.983102387688614347e-03 2.982052147633744866e-03 2.980184756515775243e-03 2.982751414609053318e-03 2.984589334705075453e-03 2.983831125685871156e-03 2.982389724794238736e-03 2.981449331275720128e-03 2.982188786008230490e-03 2.981687778635116678e-03 2.980235661008230272e-03 2.983949009773662411e-03 2.984597372256515835e-03 2.983841842421124709e-03 2.981379672496570730e-03 2.981556498628257831e-03 2.981165337791495326e-03 2.983115783607681940e-03 2.985267168209876365e-03 2.984892082475994624e-03 2.982266482338820270e-03 2.978325402949245568e-03 2.981489519032921604e-03 2.980656292866941132e-03 2.982654963991769603e-03 2.981267146776406252e-03 2.981181412894375656e-03 2.982287915809327811e-03 2.982255765603566717e-03 2.983983839163237110e-03 2.981979809670781863e-03 2.981760116598079682e-03
