# vvf statistics with RF=500
# gcat file: /disk2/salam/Abacus/AbacusCosmos_720box_products/GCAT_derivative/AbacusCosmos_720box_planck_rockstar_halos_z0.100_Mr21_hod-alpha-pos_real-6.gcat.rsd_zz.1pz0.100by100
# stats order in row: stdvvf,p2.5,p16,p50,p84,p97.5,rho
# columns: numbers, mean, sigma,All, jnrealizations
0.000000000000000000e+00 1.482181624787173524e+00 5.846164945041899819e-03 1.482181890951699499e+00 1.482547949159063183e+00 1.481867452480206016e+00 1.482063673384327318e+00 1.482130516315418589e+00 1.482720755137696189e+00 1.482342808768561504e+00 1.482630186688004947e+00 1.481086624541928298e+00 1.480721898139200965e+00 1.482120792233460049e+00 1.482769305364318502e+00 1.482390946385546693e+00 1.482280382844821665e+00 1.482241747339852145e+00 1.482563847211258334e+00 1.482277984140516924e+00 1.482276146202783584e+00 1.481907906437246680e+00 1.482405187510943412e+00 1.482492755199570578e+00 1.482293050917887767e+00 1.482870672417799573e+00 1.482202159536889052e+00 1.482150568083287823e+00 1.481937633829763845e+00 1.482518204908652715e+00 1.482590360436636390e+00 1.481749559097971014e+00 1.482796436779246552e+00 1.481967833414407965e+00 1.482053938133512716e+00 1.481141868437064746e+00 1.482240745851847397e+00 1.482245064599057027e+00 1.481402394137692591e+00 1.481484161106505049e+00 1.482536848562139298e+00 1.481998620801528332e+00 1.482120313056015881e+00 1.482550895323093920e+00 1.482147954688006974e+00 1.481885532119002091e+00 1.482536042025294432e+00 1.482248834477662980e+00 1.481657242417540488e+00 1.482199696637563013e+00 1.481925872882150497e+00 1.482839569341654506e+00 1.482126741289353511e+00 1.481948238700205200e+00 1.481664701505245096e+00 1.482331240683961271e+00 1.481749030159273284e+00 1.482135310110157089e+00 1.481559899961137683e+00 1.481840011376533317e+00 1.482134717189889761e+00 1.482051695276765058e+00 1.482201453552054238e+00 1.482140641301997519e+00 1.482302237831971015e+00 1.482589486897705200e+00 1.482570638031090571e+00 1.482311215299507712e+00 1.482185352258406530e+00 1.481193670550092101e+00 1.482983627789070447e+00 1.482705134975097039e+00 1.482699061740827551e+00 1.482040929336473578e+00 1.482388063558802482e+00 1.482768051369486750e+00 1.481686373380611377e+00 1.482450343891081657e+00 1.482083069085788019e+00 1.482392438919453825e+00 1.482130878722053069e+00 1.481863473803963771e+00 1.482351018272713317e+00 1.482061920159170487e+00 1.481621343073936004e+00 1.482204339326921527e+00 1.481420533758970093e+00 1.482614086238129181e+00 1.481661756527531182e+00 1.482904620183751021e+00 1.482262087130715722e+00 1.482347328535270625e+00 1.481899133713874273e+00 1.481811794007008798e+00 1.482375807489210384e+00 1.482093005385749285e+00 1.482420192347944532e+00 1.482565795588803192e+00 1.481866143617784237e+00 1.482237992401241655e+00 1.482781639380953864e+00 1.482290086451998556e+00 1.482215997032628074e+00 1.482002132082038237e+00 1.482326742299706179e+00 1.481589414376948355e+00 1.482027348117964438e+00 1.482188750840198299e+00 1.482070874403602634e+00 1.482365671559835008e+00 1.481847061813376110e+00 1.482188678235457413e+00 1.481946798309623059e+00 1.482167275416115038e+00 1.482517987181620311e+00 1.482363166926103260e+00 1.482297088414103126e+00 1.481395414216242212e+00 1.482756168787583428e+00 1.482567088919181542e+00 1.482307280867603438e+00 1.482290214739856893e+00 1.481191206845359876e+00 1.482251291167577145e+00 1.481964011847952234e+00 1.482073049351465555e+00 1.482476725922385441e+00 1.481724194004991002e+00 1.482351943194421207e+00 1.482302981761256744e+00 1.482680226017473402e+00 1.482577535383226230e+00 1.482003870260853118e+00 1.481791902940208683e+00 1.482189975401009052e+00 1.481982353510398198e+00 1.481993008557278557e+00 1.482276948344910306e+00 1.482425216243593580e+00 1.482501002517896849e+00 1.482449955134784725e+00 1.481913255768959381e+00 1.481416886076229789e+00 1.481607660461548237e+00 1.482295072328889018e+00 1.482707102405613542e+00 1.482426381030321760e+00 1.482360882934445456e+00 1.482515048039404926e+00 1.482006193352059631e+00 1.481854488031969508e+00 1.482209023866376318e+00 1.481680247655892346e+00 1.482088944506674943e+00 1.481509978850854115e+00 1.482216161733491244e+00 1.480993389883982658e+00 1.482564998735871331e+00 1.482341178689594141e+00 1.482688699083979822e+00 1.482366697235643516e+00 1.482465273287472796e+00 1.481509063928842407e+00 1.482168133167313551e+00 1.482692791144608613e+00 1.482325283592932585e+00 1.482544510128356308e+00 1.482213546819285632e+00 1.481992359996969322e+00 1.482060885949361362e+00 1.481587198946299200e+00 1.481950733272361376e+00 1.482433977450511531e+00 1.482065405650060397e+00 1.482239936013608039e+00 1.482044286109902798e+00 1.482724801243545221e+00 1.481832006536821567e+00 1.482023205185954540e+00 1.482337184877273728e+00 1.482695251066729725e+00 1.481709467599018337e+00 1.482064805025903320e+00 1.482685361528019108e+00 1.482649804252114345e+00 1.482390371284775687e+00 1.482091840840513930e+00 1.482856996934974081e+00 1.482557590965349892e+00 1.482475047251224254e+00 1.482658470970519504e+00 1.482158662730148402e+00 1.481126833547684374e+00 1.482536066304401823e+00 1.482275589360370738e+00 1.482505597934908881e+00 1.482643099592798164e+00 1.482173809853401636e+00 1.481698306039904933e+00 1.482154602285697287e+00 1.482488053462831079e+00 1.482132376351279701e+00 1.482604829525313361e+00 1.481826562980292916e+00 1.482270297317117347e+00 1.482191071427534812e+00 1.482175804868223645e+00 1.481928547687149322e+00 1.482294690563040751e+00 1.482474626543669682e+00 1.481849189041679837e+00 1.482122486803251427e+00 1.482084514481017967e+00 1.482089071384883994e+00 1.482300416109783026e+00 1.482276271813010249e+00 1.482128467060297439e+00 1.481738923041177269e+00 1.481353032009088633e+00 1.482234919956165298e+00 1.482436883792452198e+00 1.481842807654883298e+00 1.482402461681734174e+00 1.482360371804406940e+00 1.482992174197247603e+00 1.482739938509997080e+00 1.482575498154085736e+00 1.481766990644431736e+00 1.482315738150628448e+00
1.000000000000000000e+00 1.199999991511178921e-02 9.881581126288492209e-05 1.200000000000000025e-02 1.199826886301653614e-02 1.199639194485775141e-02 1.200539085789376591e-02 1.199792335948091961e-02 1.200872269553255461e-02 1.199733182410300976e-02 1.201239280855145690e-02 1.198953900068613389e-02 1.200308915976749415e-02 1.200442378532083632e-02 1.200405359281416472e-02 1.200462108047465649e-02 1.200399404352519087e-02 1.201383770787995547e-02 1.199909360717055923e-02 1.199399034422477667e-02 1.200337809920145292e-02 1.199214732415317293e-02 1.199831315885648529e-02 1.199545751702381195e-02 1.199489267560021298e-02 1.200126164800397605e-02 1.199531325025023770e-02 1.200114182003595917e-02 1.200817320901923814e-02 1.200506067739779206e-02 1.200359714758149517e-02 1.200057011414045784e-02 1.200887584859684429e-02 1.199414584743495847e-02 1.198602968329885547e-02 1.198244214781721620e-02 1.200092685253455888e-02 1.199862661282825177e-02 1.198466267718619783e-02 1.199367605739660135e-02 1.199583234490625080e-02 1.199201924833425900e-02 1.200039865264163758e-02 1.199558498355137760e-02 1.199152811475253169e-02 1.200675108379405283e-02 1.200838914570444803e-02 1.200531559512610195e-02 1.199265223275135760e-02 1.199890486095643236e-02 1.199174719241048563e-02 1.200625743048526831e-02 1.200489210361844680e-02 1.199716579124561651e-02 1.199592088727182218e-02 1.199970578249699889e-02 1.199273712984453080e-02 1.199564985494610582e-02 1.199143547078837004e-02 1.199018306227453423e-02 1.200399273230868397e-02 1.200314281963834120e-02 1.199786456809296721e-02 1.199783839365217708e-02 1.199879890871114602e-02 1.199823991760779786e-02 1.200224047798020138e-02 1.200198958858253451e-02 1.199437433087910745e-02 1.197494832593205827e-02 1.199984356272891517e-02 1.200120699918861243e-02 1.199967163937069523e-02 1.200317437154352178e-02 1.199846911774505795e-02 1.199737000822297464e-02 1.199138454498306118e-02 1.200660027030358949e-02 1.200600237637741534e-02 1.200535027520949725e-02 1.199252811716063072e-02 1.199517987558448504e-02 1.199600728342182024e-02 1.199122577770373940e-02 1.198361692804522649e-02 1.200226972131781047e-02 1.200534121748117293e-02 1.200234491600719357e-02 1.200914137256901132e-02 1.201332940668987589e-02 1.200348409498255137e-02 1.200678668173567332e-02 1.199657625439248115e-02 1.198997588597518552e-02 1.199883491176998232e-02 1.199717531657167394e-02 1.200323882478575646e-02 1.201278647056992777e-02 1.199595898130440853e-02 1.200769616112839361e-02 1.200819432897268571e-02 1.200756951015289481e-02 1.201109704782691960e-02 1.200554785918470958e-02 1.200385274225697005e-02 1.199346993561062509e-02 1.200280852706327173e-02 1.200144462789663399e-02 1.199491904145019196e-02 1.200123565047837154e-02 1.199541569733952005e-02 1.200614868979401478e-02 1.200464746330229607e-02 1.200641800249662404e-02 1.200202727038909498e-02 1.200263785114537990e-02 1.199656037886469295e-02 1.198774101041846785e-02 1.200554018603877671e-02 1.200824541034075689e-02 1.199785862838238099e-02 1.200407670035334370e-02 1.198739289164187788e-02 1.199663675308931983e-02 1.199399294419120979e-02 1.200024286976642679e-02 1.200871499156552086e-02 1.201058790013824831e-02 1.201297722481132861e-02 1.200782026920148293e-02 1.200282456095373707e-02 1.200242149098865348e-02 1.198684617790222312e-02 1.199777361264002355e-02 1.199606451105053248e-02 1.198974670321708777e-02 1.200004896912783107e-02 1.201239179157479083e-02 1.199917776999318703e-02 1.199933543616533288e-02 1.200374433307820413e-02 1.199638912135673682e-02 1.199426545420556600e-02 1.200516465147707934e-02 1.200312649056185267e-02 1.200835476956649793e-02 1.200676107011075348e-02 1.199441822267981184e-02 1.200151559892014171e-02 1.199279710254360677e-02 1.199449134122812510e-02 1.199005574688239394e-02 1.200516043456995550e-02 1.200241025601101429e-02 1.198816552440378110e-02 1.200483962565038892e-02 1.199626332252846754e-02 1.200223831964456964e-02 1.200487799938744493e-02 1.200969963964406383e-02 1.199934086069319970e-02 1.199849275774143159e-02 1.198875702807101346e-02 1.199527280581258459e-02 1.199938478621925299e-02 1.199600035903481549e-02 1.199971870051805105e-02 1.199446992010089544e-02 1.199459820055207709e-02 1.200648326428165047e-02 1.199323398799854827e-02 1.199363498111018222e-02 1.200746256633953603e-02 1.199822548981908411e-02 1.200478978229902599e-02 1.200137010340041402e-02 1.200226580055455128e-02 1.199828767771712358e-02 1.199463302065964347e-02 1.199716360730827130e-02 1.200703604054522040e-02 1.200431052602949147e-02 1.200205474395660797e-02 1.201094520980404770e-02 1.200711900223955589e-02 1.200399952593973231e-02 1.200006979048316193e-02 1.201045818735097491e-02 1.200294454816602623e-02 1.200269439938114746e-02 1.200389115817806704e-02 1.199548576231001216e-02 1.199220841517429498e-02 1.200390364116269218e-02 1.200726321306194722e-02 1.200218052826625484e-02 1.200165985554825683e-02 1.200618001779615515e-02 1.199811646581668001e-02 1.199037320339364082e-02 1.200209302132960662e-02 1.200914950658279329e-02 1.200658774837282984e-02 1.200028004718533409e-02 1.199585309818075596e-02 1.200004205192723231e-02 1.199737545536146317e-02 1.199308488674096992e-02 1.200872560810070828e-02 1.200848790247470085e-02 1.200162357772359065e-02 1.199477084026042209e-02 1.199548972767258866e-02 1.199634393242521649e-02 1.200435570206379379e-02 1.201203300574926747e-02 1.201136728580569531e-02 1.200000520482601314e-02 1.197910581304894966e-02 1.199674081174390006e-02 1.199490401714341237e-02 1.200113906287891656e-02 1.199605056784370724e-02 1.199484753912750772e-02 1.200234293322263376e-02 1.199987815652600077e-02 1.200911787729528647e-02 1.199655564552806405e-02 1.199712796124606864e-02
2.000000000000000000e+00 8.799999937748644030e-02 7.246492825944999454e-04 8.799999999999999489e-02 8.798730499545459605e-02 8.797354092895684485e-02 8.803953295788762012e-02 8.798477130286007364e-02 8.806396643390539125e-02 8.798043337675540143e-02 8.809088059604401610e-02 8.792328600503164504e-02 8.802265383829495360e-02 8.803244109235279502e-02 8.802972634730388268e-02 8.803388792348081082e-02 8.802928965251806404e-02 8.810147652445300681e-02 8.799335311925077230e-02 8.795592919098169093e-02 8.802477272747732950e-02 8.794241371045660727e-02 8.798762983161421969e-02 8.796668845817462445e-02 8.796254628773489403e-02 8.800925208536249100e-02 8.796563050183506260e-02 8.800837334693036029e-02 8.805993686614108085e-02 8.803711163425047281e-02 8.802637908226429442e-02 8.800418083703001604e-02 8.806508955637686042e-02 8.795706954785637022e-02 8.789755101085827693e-02 8.787124241732624519e-02 8.800679691858676046e-02 8.798992849407384631e-02 8.788752629936544269e-02 8.795362442090841337e-02 8.796943719597916100e-02 8.794147448778456833e-02 8.800292345270534222e-02 8.796762321271010820e-02 8.793787284151857730e-02 8.804950794782305523e-02 8.806152040183261309e-02 8.803898103092475114e-02 8.794611637350996380e-02 8.799196898034716829e-02 8.793947941101022681e-02 8.804588782355864118e-02 8.803587542653526499e-02 8.797921580246784168e-02 8.797008650666002239e-02 8.799784240497800225e-02 8.794673895219322357e-02 8.796809893627144383e-02 8.793719345244804808e-02 8.792800912334658436e-02 8.802928003693034908e-02 8.802304734401450448e-02 8.798434016601509866e-02 8.798414822011596526e-02 8.799119199721507079e-02 8.798709272912384749e-02 8.801643017185481477e-02 8.801459031627194285e-02 8.795874509311345235e-02 8.781628772350175138e-02 8.799885279334537791e-02 8.800885132738316130e-02 8.799759202205177655e-02 8.802327872465250114e-02 8.798877353013043190e-02 8.798071339363515431e-02 8.793681999654244519e-02 8.804840198222632641e-02 8.804401742676770670e-02 8.803923535153630742e-02 8.794520619251128268e-02 8.796465242095288795e-02 8.797072007842668406e-02 8.793565570316076718e-02 8.787985747233165168e-02 8.801664462299726988e-02 8.803916892819527162e-02 8.801719605071942065e-02 8.806703673217275430e-02 8.809774898239242091e-02 8.802555002987205723e-02 8.804976899939494228e-02 8.797489253221152383e-02 8.792648983048470535e-02 8.799145601964653007e-02 8.797928565485894914e-02 8.802375138176221636e-02 8.809376745084612770e-02 8.797036586289899707e-02 8.805643851494154850e-02 8.806009174579969290e-02 8.805550974112122398e-02 8.808137835073073796e-02 8.804068430068787143e-02 8.802825344321778267e-02 8.795211286114457128e-02 8.802059586513065470e-02 8.801059393790865160e-02 8.796273963730141809e-02 8.800906143684139593e-02 8.796638178048980794e-02 8.804509039182277508e-02 8.803408139755017348e-02 8.804706535164191772e-02 8.801486664952001826e-02 8.801934424173278593e-02 8.797477611167441036e-02 8.791010074306875033e-02 8.804062803095102918e-02 8.806046634249888039e-02 8.798429660813746056e-02 8.802989580259118485e-02 8.790754787204044240e-02 8.797533618932167065e-02 8.795594825740220279e-02 8.800178104495379183e-02 8.806390993814715296e-02 8.807764460101381865e-02 8.809516631528307995e-02 8.805734864081087021e-02 8.802071344699408106e-02 8.801775760058345999e-02 8.790353863794964084e-02 8.798367315936017619e-02 8.797113974770390254e-02 8.792480915692531263e-02 8.800035910693743135e-02 8.809087313821513388e-02 8.799397031328336227e-02 8.799512653187911704e-02 8.802745844257350849e-02 8.797352022328273902e-02 8.795794666417414143e-02 8.803787411083191516e-02 8.802292759745358741e-02 8.806126831015431700e-02 8.804958118081220031e-02 8.795906696631862476e-02 8.801111439208103571e-02 8.794717875198646007e-02 8.795960316900625076e-02 8.792707547713755900e-02 8.803784318684633459e-02 8.801767521074743694e-02 8.791321384562772456e-02 8.803549058810283823e-02 8.797259769854208489e-02 8.801641434406018427e-02 8.803577199550793875e-02 8.807113069072314282e-02 8.799516631175013925e-02 8.798894689010383630e-02 8.791755153918742738e-02 8.796533390929228702e-02 8.799548843227451844e-02 8.797066929958864689e-02 8.799793713713237320e-02 8.795944608073989757e-02 8.796038680404855148e-02 8.804754393806543677e-02 8.795038257865601949e-02 8.795332319480800298e-02 8.805472548648993203e-02 8.798698692533994670e-02 8.803512507019285727e-02 8.801004742493635791e-02 8.801661587073335291e-02 8.798744296992555558e-02 8.796064215150406485e-02 8.797919978692732290e-02 8.805159763066496004e-02 8.803161052421627775e-02 8.801506812234846655e-02 8.808026487189635212e-02 8.805220601642339828e-02 8.802932985689138068e-02 8.800051179687652658e-02 8.807669337390715281e-02 8.802159335321753375e-02 8.801975892879508601e-02 8.802853515997248468e-02 8.796689559027343064e-02 8.794286171127815854e-02 8.802862670185974958e-02 8.805326356245427033e-02 8.801599054061919059e-02 8.801217227402055587e-02 8.804532013050514472e-02 8.798618741598898674e-02 8.792940349155335678e-02 8.801534882308378882e-02 8.806709638160714615e-02 8.804831015473409128e-02 8.800205367935912126e-02 8.796958938665887240e-02 8.800030838079969664e-02 8.798075333931740238e-02 8.794928916943377251e-02 8.806398779273855171e-02 8.806224461814780857e-02 8.801190623663966706e-02 8.796165282857643097e-02 8.796692466959897538e-02 8.797318883778490473e-02 8.803194181513449013e-02 8.808824204216129938e-02 8.808336009590841953e-02 8.800003816872409290e-02 8.784677596235895836e-02 8.797609928612193375e-02 8.796262945905169994e-02 8.800835312777871566e-02 8.797103749752051283e-02 8.796221528693505542e-02 8.801718151029931658e-02 8.799910648119067813e-02 8.806686443349875937e-02 8.797474140053913871e-02 8.797893838247117237e-02
3.000000000000000000e+00 4.594067395765126793e-01 1.148824777912280104e-02 4.600000000000000200e-01 4.599336397489672268e-01 4.598616912195471751e-01 4.602066495525943823e-01 4.599203954467686040e-01 4.583329162128257916e-01 4.598977199239487335e-01 4.584729921930472685e-01 4.595989950263018042e-01 4.601184177910872530e-01 4.601695784372987208e-01 4.581547121257406041e-01 4.581763712381160536e-01 4.581524393278781360e-01 4.585281391840849707e-01 4.599652549415381153e-01 4.597696298619497468e-01 4.601294938027223891e-01 4.596989807592049559e-01 4.599353377561652967e-01 4.598258714859128071e-01 4.598042192313415155e-01 4.580481528988184503e-01 4.598203412595924799e-01 4.600437697680450633e-01 4.583119441442342623e-01 4.581931491873490470e-01 4.581372911326937469e-01 4.600218543753841760e-01 4.583387615547795946e-01 4.597755908183400742e-01 4.594644711931227810e-01 4.593269489996599231e-01 4.600355293471580787e-01 4.599473534917496442e-01 4.594120692921375704e-01 4.597575822002030743e-01 4.598402398880729325e-01 4.596940711861466355e-01 4.600152816845961001e-01 4.598307577028027948e-01 4.596752443988471049e-01 4.582576663648063597e-01 4.583201857277197644e-01 4.602037644798339100e-01 4.597183355888020406e-01 4.599580196699965540e-01 4.596836423757352796e-01 4.582388252635210546e-01 4.581867152881040073e-01 4.598913553310819413e-01 4.598436340120864996e-01 4.599887216623849695e-01 4.597215899773737235e-01 4.598332444396007190e-01 4.596716930468875417e-01 4.596236840538571733e-01 4.601530547384995451e-01 4.601204747528030436e-01 4.599181417768971047e-01 4.599171384233334825e-01 4.599539581672605904e-01 4.599325301749655481e-01 4.600858849892410785e-01 4.600762675623305542e-01 4.597843493503657730e-01 4.590396858273955716e-01 4.579940293108202831e-01 4.580460671356987312e-01 4.599874128425434083e-01 4.601216842425017162e-01 4.599413161802272665e-01 4.598991836485473717e-01 4.596697408910173643e-01 4.582519103165869634e-01 4.582290906984046730e-01 4.582042021704957890e-01 4.597135778244908488e-01 4.598152285640719206e-01 4.598469458645031427e-01 4.596636548119766852e-01 4.593719822417336451e-01 4.600870059838493842e-01 4.602047466701116307e-01 4.580894976276078667e-01 4.583488957197172642e-01 4.585087390219969583e-01 4.581329762918340820e-01 4.582590250195782144e-01 4.598687564183784326e-01 4.596157422957154459e-01 4.599553382845159577e-01 4.598917204685808446e-01 4.581236151459897044e-01 4.584880169600856203e-01 4.598450942833356425e-01 4.582937368164003433e-01 4.583127502224574878e-01 4.582889029708354656e-01 4.584235373253940926e-01 4.602126679354138772e-01 4.581470463294743389e-01 4.597496808650739508e-01 4.601076602040920505e-01 4.600553774027043019e-01 4.598052299222573636e-01 4.600473666016709484e-01 4.598242683980148793e-01 4.602356997754372125e-01 4.601781527599213550e-01 4.602460234290372543e-01 4.600777120315819313e-01 4.601011176272395420e-01 4.598681478564798919e-01 4.595300720660411842e-01 4.582114504338132832e-01 4.583146998280055451e-01 4.599179140879912642e-01 4.601562735135448223e-01 4.595167275129386497e-01 4.598710755350906010e-01 4.597697295273296958e-01 4.600093100077130015e-01 4.583326221780840148e-01 4.584041048552764952e-01 4.584952974136323745e-01 4.582984736078565824e-01 4.581078040764010040e-01 4.580924202394002775e-01 4.594957701529185368e-01 4.599146551512008907e-01 4.598491395902704060e-01 4.596069569566550439e-01 4.600018771499001513e-01 4.584729533784378530e-01 4.599684811830721531e-01 4.599745250530044571e-01 4.581429087124848087e-01 4.598615829853415771e-01 4.597801757445466597e-01 4.601979783066214025e-01 4.601198488048710011e-01 4.583188737051213102e-01 4.582580475092271066e-01 4.597860318693928194e-01 4.600580979586054164e-01 4.597238889308382648e-01 4.597888347470781567e-01 4.596188036304917346e-01 4.601978166585149466e-01 4.600923931470888850e-01 4.595463451021449264e-01 4.601855189832648740e-01 4.598567606969245491e-01 4.580854291997677463e-01 4.601869899765187455e-01 4.583702029130817812e-01 4.599747329932393214e-01 4.599422223800881948e-01 4.595690194093888237e-01 4.598187908894824649e-01 4.579765193407014934e-01 4.598466804296679755e-01 4.599892168531919401e-01 4.597880136038676735e-01 4.597929310211629206e-01 4.582474445867496526e-01 4.597406362066110419e-01 4.597560076092236381e-01 4.582848212819589651e-01 4.599319771097315490e-01 4.581828100244128010e-01 4.600525206303491266e-01 4.580864780544985915e-01 4.599343609791564091e-01 4.597942657919530385e-01 4.598912716134836987e-01 4.582685422141425935e-01 4.601652368311305308e-01 4.600787651850033466e-01 4.584177421741877922e-01 4.582717085854763339e-01 4.601533151610230354e-01 4.600026753018545689e-01 4.583991541505622047e-01 4.601128743463643866e-01 4.601032853096106989e-01 4.581485125371295708e-01 4.598269542218838546e-01 4.597013225816812820e-01 4.581489889710427810e-01 4.582772126318642725e-01 4.600835869168730663e-01 4.600636277960165055e-01 4.582358706792199476e-01 4.599277978563060532e-01 4.596309727967561876e-01 4.600802324843016322e-01 4.583492061679098617e-01 4.582514323962296743e-01 4.600107351421044988e-01 4.598410354302622793e-01 4.600016119905439016e-01 4.598993924555228041e-01 4.597349206584038228e-01 4.583330273758437490e-01 4.583239549444511063e-01 4.600622371460710291e-01 4.597995488766494776e-01 4.598271062274492116e-01 4.598598507429665916e-01 4.601669685791121012e-01 4.584592597194304120e-01 4.584338514082507143e-01 4.600001995183304881e-01 4.591990561668763959e-01 4.598750644501828355e-01 4.598046539904975250e-01 4.600436640770251273e-01 4.598486051006754338e-01 4.598024889998877929e-01 4.580894219513305110e-01 4.599953293334967386e-01 4.583479989834367552e-01 4.598679664119091348e-01 4.598899051810992900e-01
4.000000000000000000e+00 1.837750221330704203e+00 8.909773312761760239e-03 1.838000000000000078e+00 1.837734847518699421e+00 1.837447366220712475e+00 1.836824801257746387e+00 1.837681927893827449e+00 1.837334572416480682e+00 1.837591324391777636e+00 1.837896099708372866e+00 1.838395980105207217e+00 1.838473156304387679e+00 1.838677576451641427e+00 1.838620875299369573e+00 1.838707795492701358e+00 1.838611754333275172e+00 1.838117169305633292e+00 1.837861170831624147e+00 1.837079521057094933e+00 1.838517412194355938e+00 1.838795923036819602e+00 1.837741632164851424e+00 1.837304243024147299e+00 1.837217728146099294e+00 1.838193242419275730e+00 1.837282146163328189e+00 1.838174888768840720e+00 1.837250500979943357e+00 1.838775127088095207e+00 1.838550963104565561e+00 1.838087322482513386e+00 1.837358004835317304e+00 1.837103338965454302e+00 1.837857884772491124e+00 1.837307795998639692e+00 1.838141962913209859e+00 1.837789642864860351e+00 1.837648277168550059e+00 1.837031382791246115e+00 1.837361654161473901e+00 1.837657029614630400e+00 1.838061060296277471e+00 1.837323766647285694e+00 1.838700977595388419e+00 1.837032915820490109e+00 1.837283539292780432e+00 1.836813286054293615e+00 1.836874566983083046e+00 1.837832261203160122e+00 1.838734569502941341e+00 1.836957386864245922e+00 1.838749307204225580e+00 1.837565893692453489e+00 1.837375215900467040e+00 1.837954935685790492e+00 1.838886359909494894e+00 1.837333702782578460e+00 1.838686772187549945e+00 1.838494736215428693e+00 1.838611553498613382e+00 1.838481375207939195e+00 1.837672923012906079e+00 1.837668913961058470e+00 1.837816032850923875e+00 1.837730414046927718e+00 1.838343166543967566e+00 1.838304738651225234e+00 1.837138335012983292e+00 1.838154568030570868e+00 1.837976039024645569e+00 1.838184872042389228e+00 1.837949706096945190e+00 1.838486207908082815e+00 1.837765519867951447e+00 1.837597172926152433e+00 1.836680399473238801e+00 1.837009841356449069e+00 1.838919363981807331e+00 1.836818592107052783e+00 1.836855556611769913e+00 1.837261717610356726e+00 1.837388448910775685e+00 1.838654619247906741e+00 1.837487928966934581e+00 1.838347645648511275e+00 1.836817206274619529e+00 1.838359162968435045e+00 1.837398630003058697e+00 1.838039399223551085e+00 1.838533647214827704e+00 1.837038362305557948e+00 1.837475596297781566e+00 1.838462969182861784e+00 1.837821547319435700e+00 1.837567352654894570e+00 1.838496079996351451e+00 1.837956329997199045e+00 1.837381050636458291e+00 1.837177512652643951e+00 1.837253732332820855e+00 1.837158135053392982e+00 1.837697848317518590e+00 1.836848822455260599e+00 1.838590111689025974e+00 1.836999811804360672e+00 1.838430172728524603e+00 1.838221268839500988e+00 1.837221766515454435e+00 1.838189260464937469e+00 1.837297837642503096e+00 1.836940749538484408e+00 1.838711836462468607e+00 1.836981954381983639e+00 1.838310510247929574e+00 1.837043731910535271e+00 1.837473164696108885e+00 1.838120288264164737e+00 1.836847648463932670e+00 1.837261547782135684e+00 1.837672013247234837e+00 1.838624414604120405e+00 1.838066910051754599e+00 1.837484862681514119e+00 1.837079919285286689e+00 1.838037199552557732e+00 1.837333393709524643e+00 1.837619948721151975e+00 1.837985515396133307e+00 1.837196501187826847e+00 1.838432628586080808e+00 1.838370891703095200e+00 1.837983080611674147e+00 1.837658991669363751e+00 1.837397214275906521e+00 1.838427827826620176e+00 1.838007500438079145e+00 1.837895944110943036e+00 1.837874061770623069e+00 1.837898210972656932e+00 1.838573507016478370e+00 1.837446933754473655e+00 1.837121658735819008e+00 1.838791052451239416e+00 1.836478353055963408e+00 1.837278279743674192e+00 1.837034443726945243e+00 1.837145057773791335e+00 1.838232139234601714e+00 1.836896756206262804e+00 1.837156257098107925e+00 1.838475214521966938e+00 1.838790406561631396e+00 1.838369170879019965e+00 1.838185380408579483e+00 1.838741269328784345e+00 1.837427665567276769e+00 1.838342835958893362e+00 1.838747146906177132e+00 1.837484044865541843e+00 1.837899041829508473e+00 1.837769140727395722e+00 1.838276077637555295e+00 1.837275951423627651e+00 1.837905769755915575e+00 1.837387388325499415e+00 1.837956914296014821e+00 1.837152976095453916e+00 1.837172624384559638e+00 1.836991939435092425e+00 1.836963672495111055e+00 1.837025091273376098e+00 1.837141772649949267e+00 1.837728204190622883e+00 1.836732836691751025e+00 1.838209854170829827e+00 1.838347045118271739e+00 1.837737729303672740e+00 1.837177957664368755e+00 1.837565559186050468e+00 1.837076514203418887e+00 1.836819567956108790e+00 1.838314718282687110e+00 1.837674617100019336e+00 1.837089207342651909e+00 1.838612594056435512e+00 1.838010689575671375e+00 1.837600102664699087e+00 1.838451006627429773e+00 1.838412692171879081e+00 1.836595347201244177e+00 1.837308569260483582e+00 1.836806588924196015e+00 1.838597907704752510e+00 1.837111271598477646e+00 1.838333984246114605e+00 1.838254234541474741e+00 1.836945542722811853e+00 1.837711505347588092e+00 1.838523891187024750e+00 1.838320581100318485e+00 1.837399874507167130e+00 1.837007925501042971e+00 1.838042893893887086e+00 1.837364832871352327e+00 1.838006440953521059e+00 1.837598007246197485e+00 1.836940835152491847e+00 1.837335018039408574e+00 1.837298649078629387e+00 1.838248677987996738e+00 1.837199067033221223e+00 1.837309176621851448e+00 1.837440012316462035e+00 1.838667148366104565e+00 1.837841049879638033e+00 1.837739194728271519e+00 1.838000797205850967e+00 1.838792742303013483e+00 1.837500800998774109e+00 1.837219465292466047e+00 1.838174466464287393e+00 1.837395078641394397e+00 1.837210814743029719e+00 1.838358859271933543e+00 1.837981337641232615e+00 1.837395035226178752e+00 1.837472439706715033e+00 1.837560099397522517e+00
5.000000000000000000e+00 5.176121024814147376e+00 2.034397347125802349e-02 5.176000000000000156e+00 5.177253014391635766e+00 5.174443725548643513e+00 5.176324358228528766e+00 5.175104275722770097e+00 5.177760935557119026e+00 5.174849126796432053e+00 5.177341300485677422e+00 5.173486078796067034e+00 5.173331427859789500e+00 5.173906651473280327e+00 5.177748449700509958e+00 5.175992455864656172e+00 5.175722098433277907e+00 5.177863936781935905e+00 5.177608891494096532e+00 5.175406833532990802e+00 5.175456523772360207e+00 5.176610261592786699e+00 5.177272128046573663e+00 5.176039918595774836e+00 5.175796189521491897e+00 5.178544401113716056e+00 5.175977667482977829e+00 5.174492314738837528e+00 5.175522653087291758e+00 5.177082374955393362e+00 5.177551569656817954e+00 5.176245909232584097e+00 5.177826970053339473e+00 5.175473933168184715e+00 5.177964823185105203e+00 5.176415007857037232e+00 5.176399782393239946e+00 5.175407612333252416e+00 5.173379388985375193e+00 5.173272272757067469e+00 5.176201656827046804e+00 5.174556305656232702e+00 5.176171952172759383e+00 5.178094184566345071e+00 5.176342969534843519e+00 5.176910842295868953e+00 5.177617119989567307e+00 5.174291021499350052e+00 5.174829438432211326e+00 5.175527630025873904e+00 5.174438913525124306e+00 5.178699038349312112e+00 5.176109312010153118e+00 5.174777511290608700e+00 5.176239862857791252e+00 5.175873094183705447e+00 5.174866071527914890e+00 5.176122912409244492e+00 5.176302978223646711e+00 5.177760719058886352e+00 5.173720867625042352e+00 5.175355079067397668e+00 5.177078561132115730e+00 5.177067266860914785e+00 5.175481929290740801e+00 5.177240524447764614e+00 5.176966392835460340e+00 5.174857844277170216e+00 5.175572523774334854e+00 5.174375171634963522e+00 5.177932497317527805e+00 5.178520820149886461e+00 5.177858312388456064e+00 5.175368683197182129e+00 5.175339679454035391e+00 5.180864281884288047e+00 5.174282431160190932e+00 5.176845816545897705e+00 5.176588024614728667e+00 5.176306860327827941e+00 5.176774637241005728e+00 5.173920919668774765e+00 5.176277142796515740e+00 5.174213923079164168e+00 5.174925243427529686e+00 5.174978628174862649e+00 5.174952354050239123e+00 5.177011440437769174e+00 5.175939931577244302e+00 5.177744974283336354e+00 5.177502806302474170e+00 5.176926190941697925e+00 5.174523224394623533e+00 5.175672924112621587e+00 5.175497458610118784e+00 5.174781619881248851e+00 5.175396473286792087e+00 5.177510968815639103e+00 5.174256973935968063e+00 5.175317045446337971e+00 5.177533121508723468e+00 5.177263720460922869e+00 5.176782827613402027e+00 5.176392051951807183e+00 5.177661816160172847e+00 5.175182277215984783e+00 5.175210943252112727e+00 5.176623116166081395e+00 5.175807566385757674e+00 5.176532977239672206e+00 5.176021873402002704e+00 5.176651110082852725e+00 5.174003056683289969e+00 5.174766159076044758e+00 5.176874429294495705e+00 5.177137793127373655e+00 5.175216176105458921e+00 5.174708202830638371e+00 5.178389666911392020e+00 5.177555146091922467e+00 5.176976015991668234e+00 5.175757737302349781e+00 5.172560032743470870e+00 5.174549319499193167e+00 5.173408956594474972e+00 5.176104757825918945e+00 5.175756161364739150e+00 5.176563384959584901e+00 5.175591021022881044e+00 5.177371839404039555e+00 5.177218327291378763e+00 5.177044469779771951e+00 5.176319741157443310e+00 5.175039684918730565e+00 5.176301836518304889e+00 5.175573993555376617e+00 5.176021122017137266e+00 5.175338796870138758e+00 5.177645207752060053e+00 5.177713240705341669e+00 5.177615055667732058e+00 5.174442507678539194e+00 5.175525543489701619e+00 5.176226825561867528e+00 5.175348038513918780e+00 5.177602298144754478e+00 5.174914021217734472e+00 5.175591463086338884e+00 5.176653728334220439e+00 5.174891949747566500e+00 5.173623931849731683e+00 5.177705740028713421e+00 5.174224147299650411e+00 5.175039222050082266e+00 5.174891451367631845e+00 5.174085878655317217e+00 5.172388869230190700e+00 5.176965461873357377e+00 5.176103230735886740e+00 5.176180544686591389e+00 5.177715581389115584e+00 5.175349876172471220e+00 5.173148657612641976e+00 5.177959427842433016e+00 5.177734535253607717e+00 5.176274154923523163e+00 5.177878619273538874e+00 5.175613770523536772e+00 5.175669123538220617e+00 5.176795367449438245e+00 5.173081593490040930e+00 5.175253494349043137e+00 5.175216366092340259e+00 5.175234594608631333e+00 5.178065992764979697e+00 5.176590971266711527e+00 5.176977315305862248e+00 5.175261418321985829e+00 5.175684148414636532e+00 5.176776096553519224e+00 5.177033706148414183e+00 5.175858555139716266e+00 5.176886279559950843e+00 5.176717385425544826e+00 5.177069476465621101e+00 5.176624762232032495e+00 5.176030102961737711e+00 5.178509221779495242e+00 5.177270081775612987e+00 5.177162184266402178e+00 5.177678386227472451e+00 5.174052858809718991e+00 5.174637931147707093e+00 5.177683770554841303e+00 5.177131655365209362e+00 5.176940534525511062e+00 5.176715951026481299e+00 5.176664617673108815e+00 5.175187568922261505e+00 5.177842828332153147e+00 5.176902789866836940e+00 5.177944962254946937e+00 5.176840417506752168e+00 5.176120793685941024e+00 5.176210611864996203e+00 5.176018138397946444e+00 5.176867508988471478e+00 5.175016128628728396e+00 5.177762191359422062e+00 5.177659700617009086e+00 5.176700303191442032e+00 5.175093900818617421e+00 5.176053817490721798e+00 5.174423016186075586e+00 5.175878033539839329e+00 5.177186225477934833e+00 5.176899300182254748e+00 5.174002244147482443e+00 5.174973711237146112e+00 5.176593660267492680e+00 5.177700276533337309e+00 5.174741149675102569e+00 5.176295820024559902e+00 5.177775854390040955e+00 5.179010975685566898e+00 5.177947424540970012e+00 5.177931324760484344e+00 5.174514335104437812e+00 5.174761193950804028e+00
6.000000000000000000e+00 3.113218407728340301e-03 2.978035277461941183e-05 3.127054933984910884e-03 3.112766846707818759e-03 3.112204218106995931e-03 3.114701217421125042e-03 3.112517682613168656e-03 3.115298675411522569e-03 3.112466778120713193e-03 3.116517704046639203e-03 3.110401127400548495e-03 3.113975158607681839e-03 3.114200210048010797e-03 3.114224322702331942e-03 3.114559220679012207e-03 3.114082325960219541e-03 3.116970486111111157e-03 3.112868655692729684e-03 3.111732681755830041e-03 3.113910858196159218e-03 3.110958397633744980e-03 3.112689150377228979e-03 3.112147955246913691e-03 3.111941658093278669e-03 3.113243741426611859e-03 3.111861282578875284e-03 3.113388417352537865e-03 3.115437992969821799e-03 3.114344885973936803e-03 3.114093042695473094e-03 3.113243741426611859e-03 3.115550518689986278e-03 3.111478159293552728e-03 3.109407150205761253e-03 3.108705204046639196e-03 3.113375021433470707e-03 3.112863297325102908e-03 3.109048139574759843e-03 3.111558534807956113e-03 3.111853245027434902e-03 3.111113790294924540e-03 3.113567922668038571e-03 3.111711248285322501e-03 3.111162015603566398e-03 3.114658350480109528e-03 3.115384409293552731e-03 3.114634237825788816e-03 3.111030735596707984e-03 3.113163365912208474e-03 3.110950360082304599e-03 3.114722650891632583e-03 3.114476165980795651e-03 3.112182784636488390e-03 3.112121163408778941e-03 3.113128536522633775e-03 3.111566572359396494e-03 3.111705889917695290e-03 3.111245070301783388e-03 3.110537765775034120e-03 3.114379715363511502e-03 3.113886745541838072e-03 3.112431948731138494e-03 3.112895447530864002e-03 3.112801676097393892e-03 3.112560549554183736e-03 3.113865312071330532e-03 3.113881387174211295e-03 3.111853245027434902e-03 3.106398426783264777e-03 3.113511659807955897e-03 3.113211591220850331e-03 3.113297325102880493e-03 3.113964441872427852e-03 3.112595378943758435e-03 3.112249764231824617e-03 3.111076281721536236e-03 3.114971814986282686e-03 3.114639596193415592e-03 3.114966456618655909e-03 3.110966435185185362e-03 3.111649627057613051e-03 3.111805019718793044e-03 3.110923568244170281e-03 3.108852559156378807e-03 3.113535772462277043e-03 3.114465449245541664e-03 3.113600072873799664e-03 3.115598743998628135e-03 3.116788301611796846e-03 3.114202889231824402e-03 3.114749442729766900e-03 3.112279235253772106e-03 3.110513653120713408e-03 3.112871334876543290e-03 3.112689150377228979e-03 3.113910858196159218e-03 3.116844564471879086e-03 3.111850565843621297e-03 3.115496935013717210e-03 3.115360296639232019e-03 3.115095057441701152e-03 3.116356953017832433e-03 3.114374356995884725e-03 3.114178776577503256e-03 3.111242391117969783e-03 3.114157343106995716e-03 3.113672410836762668e-03 3.111285258058984864e-03 3.113632223079561192e-03 3.111732681755830041e-03 3.114711934156378596e-03 3.114615483539094447e-03 3.114462770061728492e-03 3.113779578189300370e-03 3.113945687585733917e-03 3.112319423010974015e-03 3.109924232681755829e-03 3.114679783950617068e-03 3.115223658264746395e-03 3.112683792009602202e-03 3.114170739026063308e-03 3.109934949417009816e-03 3.112354252400548714e-03 3.111400462962962948e-03 3.113289287551440545e-03 3.115362975823045191e-03 3.115831832990397909e-03 3.116801697530864005e-03 3.115105774176954705e-03 3.113720636145404525e-03 3.113613468792866823e-03 3.109739368998628347e-03 3.112713263031550125e-03 3.111957733196158999e-03 3.110454711076817563e-03 3.113326796124828415e-03 3.116295331790123416e-03 3.113026727537722849e-03 3.113139253257887328e-03 3.114232360253772324e-03 3.112244405864197407e-03 3.111336162551440326e-03 3.114411865569273030e-03 3.113750107167352447e-03 3.115424597050754640e-03 3.115237054183813553e-03 3.111636231138545892e-03 3.113551847565157807e-03 3.111081640089163446e-03 3.111947016460905446e-03 3.110602066186556741e-03 3.114711934156378596e-03 3.113688485939643431e-03 3.110076946159122217e-03 3.114101080246913476e-03 3.112595378943758435e-03 3.113792974108367528e-03 3.113969800240055062e-03 3.116204239540466478e-03 3.112715942215363296e-03 3.112665037722908267e-03 3.109956382887517357e-03 3.112107767489711782e-03 3.112989218964334545e-03 3.112185463820301996e-03 3.113005294067215309e-03 3.111730002572016436e-03 3.111582647462277258e-03 3.115081661522633560e-03 3.111202203360768307e-03 3.111065564986282683e-03 3.115746099108367747e-03 3.112828467935528209e-03 3.114087684327846318e-03 3.113621506344307205e-03 3.113784936556927146e-03 3.112581983024691277e-03 3.111888074417009601e-03 3.112233689128943853e-03 3.115049511316872466e-03 3.114385073731138712e-03 3.113717956961591354e-03 3.116271219135802271e-03 3.115172753772290932e-03 3.114237718621399101e-03 3.113208912037037160e-03 3.115705911351165838e-03 3.113621506344307205e-03 3.114009987997256538e-03 3.114090363511659923e-03 3.112078296467763860e-03 3.111630872770919116e-03 3.114087684327846318e-03 3.115020040294924544e-03 3.113308041838134480e-03 3.113616147976680428e-03 3.114722650891632583e-03 3.112434627914952099e-03 3.110564557613168871e-03 3.113597393689986493e-03 3.115588027263374582e-03 3.114883401920438919e-03 3.113525055727023490e-03 3.112024712791495226e-03 3.113200874485596778e-03 3.112611454046639199e-03 3.111215599279835466e-03 3.115277241941015029e-03 3.115550518689986278e-03 3.113980516975308616e-03 3.112070258916323912e-03 3.111751436042523977e-03 3.112252443415637788e-03 3.114200210048010797e-03 3.116547175068587125e-03 3.116182806069958938e-03 3.113208912037037160e-03 3.107542438271604802e-03 3.112247085048011012e-03 3.111933620541838287e-03 3.113415209190672182e-03 3.111855924211248074e-03 3.112062221364883530e-03 3.113517018175583108e-03 3.113045481824417218e-03 3.115137924382716233e-03 3.112501607510287892e-03 3.112431948731138494e-03
