# vvf statistics with RF=500
# gcat file: /disk2/salam/Abacus/AbacusCosmos_720box_products/GCAT_derivative/AbacusCosmos_720box_planck_rockstar_halos_z0.100_Mr21_hod-alpha-neg_real-5.gcat.rsd_zz.1pz0.100by100
# stats order in row: stdvvf,p2.5,p16,p50,p84,p97.5,rho
# columns: numbers, mean, sigma,All, jnrealizations
0.000000000000000000e+00 1.452539631186235303e+00 4.477119223252335779e-03 1.452539853608443288e+00 1.452923229985495057e+00 1.452422720419177304e+00 1.452476959268538259e+00 1.452329810123973886e+00 1.453030783745374421e+00 1.452384787892766482e+00 1.453004936783574230e+00 1.451937693523634332e+00 1.451445891216345929e+00 1.452264295541321193e+00 1.453071356492342536e+00 1.452770668923143882e+00 1.452495722426245583e+00 1.452287883046200712e+00 1.452743853140862074e+00 1.452627947643285289e+00 1.452620599254690559e+00 1.452572609417871474e+00 1.452918604737074126e+00 1.452842076776390323e+00 1.452628833174997469e+00 1.453315418360074496e+00 1.452470410220406905e+00 1.452553116009703826e+00 1.452417078088433344e+00 1.452960083524012180e+00 1.452911950594738322e+00 1.452302773624603693e+00 1.452937988467825958e+00 1.452588794979992937e+00 1.452547852246577120e+00 1.452007890583253635e+00 1.452567262516246904e+00 1.452678007227256041e+00 1.451930050343884782e+00 1.451791275899624756e+00 1.452645359189837393e+00 1.452568561176176276e+00 1.452647216903661498e+00 1.452828434617574604e+00 1.452412456786819073e+00 1.452506127028342142e+00 1.452695344228979613e+00 1.452393293078356296e+00 1.451927113062069452e+00 1.452588339124083250e+00 1.452051682986224002e+00 1.452932306971016940e+00 1.452513905491938706e+00 1.452304962492308560e+00 1.451872482404734654e+00 1.452508029946400825e+00 1.452102888671074954e+00 1.452376809966852145e+00 1.451953921827647154e+00 1.452464680636996519e+00 1.452291625697629485e+00 1.452699470933949799e+00 1.452449702872364856e+00 1.452119094495794238e+00 1.452755783136723267e+00 1.452720817261876407e+00 1.452802297656749175e+00 1.452739270150185336e+00 1.452646488622568066e+00 1.452039349950375868e+00 1.453172622587307172e+00 1.452607646566862254e+00 1.452850515582024604e+00 1.452563442718118880e+00 1.452450709606839085e+00 1.452910678200068251e+00 1.452138077895250845e+00 1.452361691239394847e+00 1.452348680376283285e+00 1.452532491035253503e+00 1.452640336290367484e+00 1.452154205971193379e+00 1.452408063455489451e+00 1.452349152633601648e+00 1.452283512611689309e+00 1.452536056338565418e+00 1.451743632250462435e+00 1.452749177068570985e+00 1.452188713849290380e+00 1.452905566143763538e+00 1.452639460238198676e+00 1.452560506921405592e+00 1.452313678161042176e+00 1.452245984987714067e+00 1.452555070785412017e+00 1.452421443243398613e+00 1.452786172660150310e+00 1.452756393974027782e+00 1.452349254557546487e+00 1.452399228061514780e+00 1.452922346377495399e+00 1.452691998133401441e+00 1.452773994404978009e+00 1.452350375452685638e+00 1.452609470271531755e+00 1.452123379780816625e+00 1.452375045573180756e+00 1.452174972890430960e+00 1.452635601026086354e+00 1.452776481350203763e+00 1.452596599748844142e+00 1.452732753523057863e+00 1.452361017109421892e+00 1.452494981079572645e+00 1.452848021088482433e+00 1.452738671091275302e+00 1.452708616302731848e+00 1.452026468610009724e+00 1.452948487365597785e+00 1.452885998668447254e+00 1.452561140267521367e+00 1.452719597925328898e+00 1.452065779814789348e+00 1.452625814228855949e+00 1.452608660922400929e+00 1.452419906179028164e+00 1.452508771321761483e+00 1.452571483258367824e+00 1.452071893951878856e+00 1.452534570511109902e+00 1.453000002047452943e+00 1.452921253262650980e+00 1.452405692555708061e+00 1.452454373749753280e+00 1.452632164593927744e+00 1.452345424348903125e+00 1.452185732892111059e+00 1.452460144101500150e+00 1.452867395937734951e+00 1.452825366478948776e+00 1.452817026029981307e+00 1.452330868683635812e+00 1.451977437181984021e+00 1.452076164970554029e+00 1.452674432390815396e+00 1.452764628566463490e+00 1.452655888043342891e+00 1.452685876014939259e+00 1.452824341890379456e+00 1.452483537636447553e+00 1.452534271635071095e+00 1.452631413466253463e+00 1.452326777949496162e+00 1.452277678648416614e+00 1.452137499963003453e+00 1.452528434661458423e+00 1.451788552756310136e+00 1.452742421186357547e+00 1.452760581923854932e+00 1.452883341941218376e+00 1.452718886351167527e+00 1.452888979099125066e+00 1.451992483465135209e+00 1.452700986061943755e+00 1.453046668207246039e+00 1.452663096693454614e+00 1.452708114731208644e+00 1.452607401557860500e+00 1.452566527801152363e+00 1.452507624513387219e+00 1.452264604062589948e+00 1.452414527316083115e+00 1.452691708751703059e+00 1.452434074445971390e+00 1.452609708980487691e+00 1.452325877012202948e+00 1.452975494924836131e+00 1.452242307388929676e+00 1.452568976878521045e+00 1.452695670630784530e+00 1.453003891452281149e+00 1.452496735745856027e+00 1.452561388645122076e+00 1.453001103249085713e+00 1.452801086833642952e+00 1.452687363925487141e+00 1.452778495868991993e+00 1.453052238722658096e+00 1.452981338845753756e+00 1.452983552034734949e+00 1.452863327866650733e+00 1.452715693334086788e+00 1.451787823848432080e+00 1.452559273435947373e+00 1.452501927974345186e+00 1.452825483534850637e+00 1.452724838912380134e+00 1.452387088985483965e+00 1.452286434590000175e+00 1.452449757878001790e+00 1.452598774444740837e+00 1.452653391154760554e+00 1.452752512412258001e+00 1.452347461657208516e+00 1.452650527434855565e+00 1.452627932454508608e+00 1.452467754101004704e+00 1.452169031200440719e+00 1.452578975732698563e+00 1.452780262568355685e+00 1.452312591136764253e+00 1.452467195841302239e+00 1.452420103907632543e+00 1.452441688136802966e+00 1.452817503547665812e+00 1.452471626164980822e+00 1.452477447683242051e+00 1.452171854184810318e+00 1.452182501609365239e+00 1.452586319578922369e+00 1.452747606055655893e+00 1.452432127637465431e+00 1.452688594283027435e+00 1.452431650525089379e+00 1.453001615739561103e+00 1.453084446838656341e+00 1.452709237971097966e+00 1.452022689005543654e+00 1.452527983576677562e+00
1.000000000000000000e+00 2.399999987949076943e-02 1.701226301933026072e-04 2.400000000000000050e-02 2.399422184159579960e-02 2.399417141071997009e-02 2.400867342191651335e-02 2.399860220115127354e-02 2.401495549893136600e-02 2.399179411964843384e-02 2.402311322038562860e-02 2.398723022189228060e-02 2.400827710999804340e-02 2.400572443243975326e-02 2.400500161922603307e-02 2.400866782135644556e-02 2.400502253926738161e-02 2.402950442998005517e-02 2.399620035389567543e-02 2.399023365790377282e-02 2.400783495109707830e-02 2.398736007180576890e-02 2.399819169129955090e-02 2.399316162794196128e-02 2.398984984417346436e-02 2.400124986974391111e-02 2.399132623691567143e-02 2.400143816733207869e-02 2.401476089235501238e-02 2.400513013251640709e-02 2.400517627912371332e-02 2.400230499388521233e-02 2.401235831383224592e-02 2.398749100820254596e-02 2.397670875211111580e-02 2.397442073723150477e-02 2.400122439953998599e-02 2.399752553200943522e-02 2.397855361259357623e-02 2.399686559625338958e-02 2.398976262104528592e-02 2.398768286941486971e-02 2.399921190556237108e-02 2.398847180622920572e-02 2.398553532628055693e-02 2.401406339985093577e-02 2.401580230500573176e-02 2.401307963228730205e-02 2.398543333625115931e-02 2.399710616225950513e-02 2.398312299219576560e-02 2.400749450648329703e-02 2.400730683028826778e-02 2.399688442033340308e-02 2.399221136062993504e-02 2.399802446813995016e-02 2.398571005049433477e-02 2.399050104791371901e-02 2.398093857002794871e-02 2.398270172573971001e-02 2.400647342239592072e-02 2.400865273899674412e-02 2.399080497596486894e-02 2.399354369265507131e-02 2.400141670795475843e-02 2.399097196239333846e-02 2.400253034842058861e-02 2.400395364034329376e-02 2.399186168935987101e-02 2.396276420101115662e-02 2.399947826855579336e-02 2.399894581332738877e-02 2.399641449509555199e-02 2.400250325711516738e-02 2.399332727289504169e-02 2.399137876897692451e-02 2.398517436153600052e-02 2.401257056045500576e-02 2.400764777403774711e-02 2.400756867805394976e-02 2.398441838827134256e-02 2.399457210271189328e-02 2.398887733015030860e-02 2.398278896004059357e-02 2.397624925617229674e-02 2.400510670737154850e-02 2.401277742113947997e-02 2.400047039753973668e-02 2.401253457975344868e-02 2.402265730289474682e-02 2.400781595066581176e-02 2.401038788086732462e-02 2.399272204571575168e-02 2.398168755376690192e-02 2.399999369341206112e-02 2.399195331810109397e-02 2.400593749728569676e-02 2.402064344171156787e-02 2.399514263209853032e-02 2.401180800951171340e-02 2.401189290949291497e-02 2.401429935528844387e-02 2.402185825580886031e-02 2.400977052088532765e-02 2.400790543118848722e-02 2.398830530702629471e-02 2.400871197949210056e-02 2.400177157434627354e-02 2.399170702406487610e-02 2.399997473308497151e-02 2.399947431981479945e-02 2.401005166277463132e-02 2.400762385834673968e-02 2.401032561206901256e-02 2.400690589577544193e-02 2.400526002670253650e-02 2.399477106548321068e-02 2.398000967626558524e-02 2.401092511608114363e-02 2.401942933992093007e-02 2.399925344241588682e-02 2.400308528059355226e-02 2.399001631723108457e-02 2.399212906205234336e-02 2.399016352402403435e-02 2.400087547666228741e-02 2.401300876323403388e-02 2.401998864247278931e-02 2.402770872686398398e-02 2.401591173296165060e-02 2.400154499459097868e-02 2.400074690113646741e-02 2.397507080169124574e-02 2.400742022077784199e-02 2.399703252374430287e-02 2.397685541033367854e-02 2.399287630191958634e-02 2.401951137654979168e-02 2.399727499628246871e-02 2.399678843777056786e-02 2.400623323014927299e-02 2.399522335308838794e-02 2.398816747189307444e-02 2.400813155017249984e-02 2.400800533125355823e-02 2.401712188760172714e-02 2.401431071915479526e-02 2.399480186831755985e-02 2.400494827542306100e-02 2.398994006402620921e-02 2.399541974837922365e-02 2.398115565885221984e-02 2.401085517589081342e-02 2.400243452021180030e-02 2.398404450955604963e-02 2.400653656102947481e-02 2.400051850065716003e-02 2.400189116205153628e-02 2.400878654420487285e-02 2.401781615915433987e-02 2.399662580987371729e-02 2.399819410362978578e-02 2.398018909211179633e-02 2.399113766095909220e-02 2.399743775315541991e-02 2.398898294210702331e-02 2.399853200933135811e-02 2.399508575114309150e-02 2.398844867167381628e-02 2.401264877540917539e-02 2.399089942087347799e-02 2.399108312473647101e-02 2.401099190196533117e-02 2.399710577718341953e-02 2.400321775092150584e-02 2.400250721417821267e-02 2.400218599595718011e-02 2.399443805814565830e-02 2.398951412998564375e-02 2.399452699123425653e-02 2.401176602770188975e-02 2.401157538720785634e-02 2.400533289274803597e-02 2.401906884171070913e-02 2.400767255514648854e-02 2.400433095013344495e-02 2.400874740502604437e-02 2.401683609107027606e-02 2.400367208919574474e-02 2.400592438890443783e-02 2.400439106765575592e-02 2.399596149621561689e-02 2.399536816060826930e-02 2.400217257266185067e-02 2.401248087681861348e-02 2.400259641171346298e-02 2.399884008573761537e-02 2.400716932445119342e-02 2.399971215481883080e-02 2.398129682570077775e-02 2.400154506892864664e-02 2.401393050681074198e-02 2.400969293385440961e-02 2.400038016599828974e-02 2.399162107998337526e-02 2.399713708850004582e-02 2.399324488405567279e-02 2.398363363700747874e-02 2.401307130523828298e-02 2.401967099522836144e-02 2.400872246102078028e-02 2.399303243446321635e-02 2.399233765940395058e-02 2.399122342557057780e-02 2.400744144702988275e-02 2.402465578281634886e-02 2.401996692307645578e-02 2.399677975567341207e-02 2.396926810242399133e-02 2.399443205260149564e-02 2.398918725659816148e-02 2.400261845600158012e-02 2.399350487572821100e-02 2.398730462509207628e-02 2.399749489095850258e-02 2.399912628392745009e-02 2.401167847873620503e-02 2.399623266275248412e-02 2.399589105191204941e-02
2.000000000000000000e+00 1.040265253413766439e-01 3.346313593722775436e-03 1.039999999999999952e-01 1.039749613135818040e-01 1.039747427797865359e-01 1.040375848283048854e-01 1.039939428716555175e-01 1.040648071620359078e-01 1.039644411851432110e-01 1.041001572883377274e-01 1.039446642948665539e-01 1.040358674766581892e-01 1.040248058739055986e-01 1.040216736833128042e-01 1.040375605592112618e-01 1.040217643368253203e-01 1.041278525299135643e-01 1.039835348668812637e-01 1.039576791842496822e-01 1.040339514547540117e-01 1.039452269778250032e-01 1.039921639956313815e-01 1.039703670544151470e-01 1.039560159914183490e-01 1.040054161022236218e-01 1.039624136933012394e-01 1.040062320584390076e-01 1.040639638668717226e-01 1.040222305742377618e-01 1.040224305428694290e-01 1.040099883068359155e-01 1.040535526932730576e-01 1.039457943688776864e-01 1.038990712591481569e-01 1.038891565280031792e-01 1.040053057313399532e-01 1.039892773053742170e-01 1.039070656545721671e-01 1.039864175837646870e-01 1.039556380245295897e-01 1.039466257674644400e-01 1.039965849241036022e-01 1.039500444936598961e-01 1.039373197472157478e-01 1.040609413993540400e-01 1.040684766550248330e-01 1.040566784065783124e-01 1.039368777904216973e-01 1.039874600364578544e-01 1.039268662995149750e-01 1.040324761947609561e-01 1.040316629312491581e-01 1.039864991547780754e-01 1.039662492293963875e-01 1.039914393619397748e-01 1.039380768854754472e-01 1.039588378742927893e-01 1.039174004701211018e-01 1.039250408115387492e-01 1.040280514970489956e-01 1.040374952023192245e-01 1.039601548958477562e-01 1.039720226681719872e-01 1.040061390678039543e-01 1.039608785037044597e-01 1.040109648431558620e-01 1.040171324414876086e-01 1.039647339872261100e-01 1.058355418877992837e-01 1.039977391637417758e-01 1.039954318577520215e-01 1.039844628120807357e-01 1.040108474474990552e-01 1.039710848492118450e-01 1.039626413322333465e-01 1.039357555666559907e-01 1.040544724286383560e-01 1.040331403541635696e-01 1.040327976049004594e-01 1.039324796825091546e-01 1.039764791117515352e-01 1.039518017639846775e-01 1.039254188268425583e-01 1.038970801100799479e-01 1.040221290652767194e-01 1.040553688249377384e-01 1.040020383893388578e-01 1.040543165122649466e-01 1.040981816458772385e-01 1.040338691195518417e-01 1.040450141504250664e-01 1.039684621981016022e-01 1.039206460663232440e-01 1.039999726714522649e-01 1.039651310451047417e-01 1.040257291549046836e-01 1.040894549140834596e-01 1.039789514057603004e-01 1.040511680412174317e-01 1.040515359411359614e-01 1.040619638729165797e-01 1.040947191085050683e-01 1.040423389238364221e-01 1.040342568684834434e-01 1.039493229971139437e-01 1.040377519111324311e-01 1.040076768221671888e-01 1.039640637709478010e-01 1.039998905100348731e-01 1.039977220525307999e-01 1.040435572053567265e-01 1.040330367195025363e-01 1.040447443189657234e-01 1.040299255483602414e-01 1.040227934490443318e-01 1.039773412837605715e-01 1.059117094035063322e-01 1.040473421696849615e-01 1.040841938063240407e-01 1.039967649171354980e-01 1.040133695492387322e-01 1.039567373746680262e-01 1.039658926022268282e-01 1.039573752707708132e-01 1.040037937322032396e-01 1.040563713073474755e-01 1.040866174507154157e-01 1.041200711497439202e-01 1.040689508428338239e-01 1.040066949765609122e-01 1.040032365715913565e-01 1.038919734739954109e-01 1.040321542900373153e-01 1.039871409362253113e-01 1.038997067781126105e-01 1.039691306416515443e-01 1.040845492983824283e-01 1.039881916505573656e-01 1.039860832303391297e-01 1.040270106639801795e-01 1.039793011967163477e-01 1.039487257115366547e-01 1.040352367174141868e-01 1.040346897687654121e-01 1.040741948462741567e-01 1.040620131163374484e-01 1.039774747627094376e-01 1.040214425268332632e-01 1.039564069441135941e-01 1.039801522429766312e-01 1.039183411883596170e-01 1.040470390955268581e-01 1.040105495875844749e-01 1.039308595414095426e-01 1.040283250977943885e-01 1.040022468361810337e-01 1.040081950355566665e-01 1.040380750248877800e-01 1.040772033563354682e-01 1.039853785094527749e-01 1.039921744490624050e-01 1.039141527324844438e-01 1.039615965308227086e-01 1.039888969303401633e-01 1.039522594157971103e-01 1.039936387071025425e-01 1.039787049216200632e-01 1.039499442439198729e-01 1.040548113601064140e-01 1.039605641571184069e-01 1.039613602071913778e-01 1.040476315751830971e-01 1.039874583677947995e-01 1.040139435873265045e-01 1.040108645947722676e-01 1.040094726491477828e-01 1.039758982519645159e-01 1.039545612299378058e-01 1.039762836286817760e-01 1.040509861200415165e-01 1.040501600112340719e-01 1.040231092019081593e-01 1.040826316474130764e-01 1.040332477389681320e-01 1.040187674505782672e-01 1.040379054217795279e-01 1.040729563946378583e-01 1.040159123865148916e-01 1.040256723519192295e-01 1.040190279598416090e-01 1.039824998169343317e-01 1.059795427093531972e-01 1.040094144815346816e-01 1.040540837995473367e-01 1.040112511174249993e-01 1.039949737048630057e-01 1.040310670726218301e-01 1.039987526708816001e-01 1.039189529113700439e-01 1.040066952986907906e-01 1.040603655295132129e-01 1.040420027133691083e-01 1.040016473859925877e-01 1.039636913465946250e-01 1.039875940501668594e-01 1.039707278309079108e-01 1.039290790936990699e-01 1.040566423226992193e-01 1.040852409793229100e-01 1.040377973310900456e-01 1.039698072160072650e-01 1.039667965240837766e-01 1.039619681774724969e-01 1.040322462704628137e-01 1.041068417255375245e-01 1.040865233333313211e-01 1.039860456079181317e-01 1.038668284438372946e-01 1.039758722279398168e-01 1.039531447785920215e-01 1.040113466426734884e-01 1.039718544614889190e-01 1.039449867087323259e-01 1.039891445274868376e-01 1.039962138970189492e-01 1.040506067411902102e-01 1.039836748719274312e-01 1.039821945582855428e-01
3.000000000000000000e+00 4.719822839524800417e-01 3.998006297534956004e-03 4.719999999999999751e-01 4.718863628847174141e-01 4.718853710774927879e-01 4.721705772976914073e-01 4.719725099559750614e-01 4.722941248123168068e-01 4.718386176864192150e-01 4.724545600009173452e-01 4.717488610305481944e-01 4.721627831632948524e-01 4.721125805046484936e-01 4.720983651781119894e-01 4.721704671533434317e-01 4.720987766055917967e-01 4.725802537896077182e-01 4.719252736266149606e-01 4.718079286054408517e-01 4.721540873715758813e-01 4.717514147455134643e-01 4.719644365955578125e-01 4.718655120161918681e-01 4.718003802687448234e-01 4.720245807716302866e-01 4.718294159926748610e-01 4.720282839575308809e-01 4.722902975496485745e-01 4.721008926061560085e-01 4.721018001560997046e-01 4.720453315464091526e-01 4.722430468387008307e-01 4.717539898279833888e-01 4.715419387915186222e-01 4.714969411655529075e-01 4.720240798576197383e-01 4.719513354628522284e-01 4.715782210476736624e-01 4.719383567263166768e-01 4.717986648805573280e-01 4.717577630984924331e-01 4.719845008093933036e-01 4.717732788558410273e-01 4.717155280835175768e-01 4.722765801970684185e-01 4.723107786651127293e-01 4.722572327683169924e-01 4.717135222796061123e-01 4.719430878577702826e-01 4.716680855131833994e-01 4.721473919608381586e-01 4.721437009956692132e-01 4.719387269332235846e-01 4.718468234257220395e-01 4.719611478734190291e-01 4.717189643263885457e-01 4.718131872756364809e-01 4.716251252105496117e-01 4.716598006062143189e-01 4.721273106404531572e-01 4.721701705336026067e-01 4.718191645273090984e-01 4.718730259555497519e-01 4.720278619231102479e-01 4.718224485937356771e-01 4.720497635189382368e-01 4.720777549267514139e-01 4.718399465574107943e-01 4.712676959532194343e-01 4.719897392815973203e-01 4.719792676621053507e-01 4.719294850702125399e-01 4.720492307232649898e-01 4.718687697002691417e-01 4.718304491232128695e-01 4.717084291102079940e-01 4.722472210222817823e-01 4.721504062227423471e-01 4.721488506683943487e-01 4.716935616360030670e-01 4.718932513533338757e-01 4.717812541596227427e-01 4.716615162141316597e-01 4.715329020380551461e-01 4.721004319116404724e-01 4.722512892824097253e-01 4.720092511516148504e-01 4.722465134018178357e-01 4.704437055150221259e-01 4.721537136964276127e-01 4.722042949903907383e-01 4.718568668990764658e-01 4.716398552240824160e-01 4.719998759704371882e-01 4.718417485893215413e-01 4.721167707799520108e-01 4.724059876869941554e-01 4.719044717646044274e-01 4.722322241870636761e-01 4.722338938866940117e-01 4.722812206540060176e-01 4.724298790309076068e-01 4.721921535774114553e-01 4.721554734800402775e-01 4.717700043715171709e-01 4.721713355966779546e-01 4.720348409621433761e-01 4.718369048066092253e-01 4.719995030840044570e-01 4.719896616230244146e-01 4.721976827012344113e-01 4.721499358808192159e-01 4.722030703706905919e-01 4.721358159502503371e-01 4.721034471918165720e-01 4.718971642878364570e-01 4.716068569665565202e-01 4.722148606162624995e-01 4.723821103517782949e-01 4.719853177008457301e-01 4.720606771850065497e-01 4.718036542388779897e-01 4.718452048870294124e-01 4.718065493058060111e-01 4.720172177076916720e-01 4.722558390102693515e-01 4.723931099686314861e-01 4.725449382949916677e-01 4.723129307482458183e-01 4.720303848936225899e-01 4.720146890556838337e-01 4.715097257665945563e-01 4.721459310086308925e-01 4.719416396336379438e-01 4.715448230698957022e-01 4.718599006044185695e-01 4.723837237388125443e-01 4.719464082602218835e-01 4.719368392761544850e-01 4.721225868596023445e-01 4.719060592774049767e-01 4.717672936138971318e-01 4.721599204867259481e-01 4.721574381813199439e-01 4.723367304561673086e-01 4.722814441433776378e-01 4.718977700769120265e-01 4.720973160833202287e-01 4.718021545925154547e-01 4.719099217181246808e-01 4.716293946240936452e-01 4.722134851258527055e-01 4.720478788974987738e-01 4.716862086879356486e-01 4.721285523669129791e-01 4.720101971795908069e-01 4.720371928536802320e-01 4.721728020360291822e-01 4.723503844633686888e-01 4.719336409275164401e-01 4.719644840380524675e-01 4.716103854781986127e-01 4.718257073321954764e-01 4.719496091453899700e-01 4.717833311947714492e-01 4.719711295168499965e-01 4.719033531058141051e-01 4.717728238762517456e-01 4.722487592497137676e-01 4.718210219438451203e-01 4.718246347864838985e-01 4.722161740719848511e-01 4.719430802846072415e-01 4.720632824347895662e-01 4.720493085455048643e-01 4.720429912538245398e-01 4.718906151435312557e-01 4.717937778897177137e-01 4.718923641609403807e-01 4.722313985448038376e-01 4.722276492817545912e-01 4.721048802240447317e-01 4.723750205536439428e-01 4.721508935845476485e-01 4.720851753526244532e-01 4.721720322988455232e-01 4.703297067834595335e-01 4.720722177541829545e-01 4.721165129817872508e-01 4.720863576638965053e-01 4.719205760922404180e-01 4.719089071586293205e-01 4.720427272623496928e-01 4.722454572440993870e-01 4.720510627636980705e-01 4.719771883528398049e-01 4.721409967142067843e-01 4.719943390447703391e-01 4.716321709054486222e-01 4.720303863555966872e-01 4.722739666339445530e-01 4.721906276991367224e-01 4.720074765979663245e-01 4.718352145730063674e-01 4.719436960738342401e-01 4.718671493864282085e-01 4.716781281944804061e-01 4.722570690030195584e-01 4.723868629061577784e-01 4.721715417334086951e-01 4.718629712111099272e-01 4.718493073016110095e-01 4.718273940362213148e-01 4.721463484582543169e-01 4.724848970620548760e-01 4.723926828205036732e-01 4.719366685282437857e-01 4.713956060143384419e-01 4.718904970344960925e-01 4.717873493797637985e-01 4.720514963013643372e-01 4.718722625559881867e-01 4.717503242934774632e-01 4.719507328555171966e-01 4.719828169172398669e-01 4.722296767484787106e-01 4.719259090341322294e-01 4.719191906876036291e-01
4.000000000000000000e+00 1.821694853877778630e+00 8.991949661215052278e-03 1.822000000000000064e+00 1.821561341474481122e+00 1.821557512930491063e+00 1.822658457280495359e+00 1.821893883770734357e+00 1.821134125335628573e+00 1.821377036916643544e+00 1.821752752545910070e+00 1.821030561011989235e+00 1.822628370600685166e+00 1.822434579829384615e+00 1.822379706259576349e+00 1.822658032104643500e+00 1.822381294439381794e+00 1.822237419273487369e+00 1.821711543533246713e+00 1.821258571862528042e+00 1.820594150458195060e+00 1.821040418784588333e+00 1.821862719231157612e+00 1.821480853587927218e+00 1.821229434003502234e+00 1.822094885944725240e+00 1.821341516819181328e+00 1.822109180869960543e+00 1.821119367670255063e+00 1.822389462560203732e+00 1.822392965856808544e+00 1.822174987452452433e+00 1.820937172132278459e+00 1.821050359039376509e+00 1.822229865160444717e+00 1.822055976029594238e+00 1.822092952331743954e+00 1.821812146638382979e+00 1.822370074557111863e+00 1.821762046515569722e+00 1.821222812314354789e+00 1.821064924503078775e+00 1.821940170497276412e+00 1.821124817956233821e+00 1.820901890186798822e+00 1.821066474488695963e+00 1.821198341462934467e+00 1.820991872115120591e+00 1.820894147443734123e+00 1.821780309484867466e+00 1.821837966230376527e+00 1.820568333408316697e+00 1.822554710199384198e+00 1.821763475576977598e+00 1.821408712461155766e+00 1.821850024206291163e+00 1.820915154666694846e+00 1.821278871220783246e+00 1.822551331322123991e+00 1.820686772679073195e+00 1.822491440650223726e+00 1.820656166040586443e+00 1.821301944425333108e+00 1.821509858667397674e+00 1.822107551745565379e+00 1.821314621478360873e+00 1.822192095617596319e+00 1.822300147196061593e+00 1.821382166583903395e+00 1.821170079276847709e+00 1.821960391887860853e+00 1.821919969661770944e+00 1.821727800419337351e+00 1.822190038935993073e+00 1.821493428800615266e+00 1.821345504878165045e+00 1.820874486946608029e+00 1.820953267501171258e+00 1.822580593512365565e+00 1.822574588808929086e+00 1.820817095976266176e+00 1.821587932130877885e+00 1.821155603980577631e+00 1.820693395216415045e+00 1.822194943469094497e+00 1.822387684201290048e+00 1.822970019221505478e+00 1.822035711013224812e+00 1.820950538964636545e+00 1.821718178802851584e+00 1.822593360921379357e+00 1.820787747632438780e+00 1.821447481970587479e+00 1.822608254086284685e+00 1.821999521224865637e+00 1.821389122732508081e+00 1.822450755002272382e+00 1.821565460996460439e+00 1.821631244820146822e+00 1.822896424722097564e+00 1.820901878969879650e+00 1.821084367776040214e+00 1.821657584398838736e+00 1.820740931167137422e+00 1.822600153984392790e+00 1.821112177891746509e+00 1.822661384443108545e+00 1.822134492019121588e+00 1.821370424910258690e+00 1.821998081820034088e+00 1.821960092112606899e+00 1.820762251093742901e+00 1.822578777912823300e+00 1.820783025581900194e+00 1.822524272587618954e+00 1.822399323693834283e+00 1.821603036721266999e+00 1.822480735396184492e+00 1.820828487969487153e+00 1.821473391610670678e+00 1.821943323836739292e+00 1.822234224218393983e+00 1.821242072083126384e+00 1.821402464627473794e+00 1.821253247532157893e+00 1.822066463269945258e+00 1.822987581942183688e+00 1.821515805387519782e+00 1.822101245120518520e+00 1.821206639749591849e+00 1.822117290839365245e+00 1.822056702244610138e+00 1.822105380928534801e+00 1.822563318427384615e+00 1.821774719094255035e+00 1.822241011185359527e+00 1.821459192587395304e+00 1.821479612721692343e+00 1.821793126801110718e+00 1.821756188900748974e+00 1.822473206055498895e+00 1.821637372888626816e+00 1.821101713907882669e+00 1.822617320183929301e+00 1.820607070953394802e+00 1.821298409809797736e+00 1.821085229535905237e+00 1.821605375169774943e+00 1.822375656575867531e+00 1.821236283193989669e+00 1.821652282564456105e+00 1.820569400434530971e+00 1.822824088769711137e+00 1.822184820659412896e+00 1.820788712350463356e+00 1.822496233924820963e+00 1.822039362841556098e+00 1.822143570719079175e+00 1.822667045147553289e+00 1.821351058735870776e+00 1.821743842732913343e+00 1.821862902367227921e+00 1.820496021909487006e+00 1.821327200761144294e+00 1.821805482760382455e+00 1.821163621688291601e+00 1.821888555041738744e+00 1.821626926607613051e+00 1.821123061657903719e+00 1.820959198801862300e+00 1.821309114367978044e+00 1.821323060552910489e+00 1.820833552565704228e+00 1.821780280251174666e+00 1.822244280924123938e+00 1.822190339343029652e+00 1.822165953526415860e+00 1.821577755914224550e+00 1.821203947701410364e+00 1.821584507417867371e+00 1.820892257100726663e+00 1.822878764812196906e+00 1.822404855441121851e+00 1.821446053829728795e+00 1.822582474811537789e+00 1.822328791297630701e+00 1.820663344881141787e+00 1.821276736906162652e+00 1.822278772771443567e+00 1.822449759857661888e+00 1.822333355219532880e+00 1.821693410254368706e+00 1.821648366192844426e+00 1.822164934474578724e+00 1.820946466492078031e+00 1.822197110922580299e+00 1.821911943175580806e+00 1.822544271214586065e+00 1.821978147753329669e+00 1.820580117351117355e+00 1.822117296482832938e+00 1.821056396766481233e+00 1.820735047483959423e+00 1.822028860935370087e+00 1.821363900322071183e+00 1.821782657301961983e+00 1.821487174114559959e+00 1.820757520276151009e+00 1.820991240647236165e+00 1.821491717138150834e+00 1.822662180165827595e+00 1.821471045649665887e+00 1.821418300643083077e+00 1.821333711724566262e+00 1.822564929853685234e+00 1.821869730196906456e+00 1.821514158333298106e+00 1.821755529784873318e+00 1.821664375784223244e+00 1.821577299993330401e+00 1.821179132563410352e+00 1.822198784451452891e+00 1.821506911815700125e+00 1.821036209454906629e+00 1.821809820471932850e+00 1.821933670388158788e+00 1.820885617970828818e+00 1.821713996313959472e+00 1.821688062357656346e+00
5.000000000000000000e+00 5.095345255086810354e+00 1.662830469677086670e-02 5.096000000000000085e+00 5.096772622852308032e+00 5.092762881925313678e+00 5.095840933801779826e+00 5.093703317194358426e+00 5.097174304648182108e+00 5.094257618072017380e+00 5.096903854925151300e+00 5.093288550448461294e+00 5.093756126837918785e+00 5.095215010785337562e+00 5.097062010482327210e+00 5.095839745082905381e+00 5.095216065350278711e+00 5.096257397858270366e+00 5.095193208477182267e+00 5.095925466166392859e+00 5.095662968370354484e+00 5.095315068586075746e+00 5.095616035785938358e+00 5.096547415802004544e+00 5.095843937733180340e+00 5.097315443690572323e+00 5.094158270971760771e+00 5.096305370863511541e+00 5.095131769327988280e+00 5.095088870626606870e+00 5.097099096600602230e+00 5.094489234952136236e+00 5.096623052110893504e+00 5.095342881659023604e+00 5.095050609823611687e+00 5.092566538266924958e+00 5.096259980835657011e+00 5.095474587963336965e+00 5.093444429875085611e+00 5.093334722804781833e+00 5.095825410087035934e+00 5.095383636178208775e+00 5.095832661281076703e+00 5.095551219506520013e+00 5.094927462224094761e+00 5.096984956618361373e+00 5.097354039237466772e+00 5.094775061983622955e+00 5.092907011730662958e+00 5.095385541786434658e+00 5.092416448676233998e+00 5.095590709001079688e+00 5.095550874728684398e+00 5.095338458584126151e+00 5.094346212240422389e+00 5.095580528735049519e+00 5.094964576559171121e+00 5.093983055840346275e+00 5.093951034583436233e+00 5.096324116719689101e+00 5.095373983903534132e+00 5.095836543852058753e+00 5.096046823644537760e+00 5.094629110740426903e+00 5.096300814322393791e+00 5.096082294345051444e+00 5.096537277314638459e+00 5.094839160162863756e+00 5.094271965374079336e+00 5.094084289731622306e+00 5.097889175545726737e+00 5.095776161029848872e+00 5.095238677791956050e+00 5.096531524927454093e+00 5.096582601550788461e+00 5.096168706843515750e+00 5.092852022766144238e+00 5.094667053909870624e+00 5.095623240039511614e+00 5.095606451916951052e+00 5.094690205975304309e+00 5.094847476475824699e+00 5.095637359546095091e+00 5.094344088261955505e+00 5.094952966936612704e+00 5.095083898639611419e+00 5.094710942851759405e+00 5.098099920277399555e+00 5.094659420004356676e+00 5.096807124430835501e+00 5.095658935528818212e+00 5.096204827714089447e+00 5.094454647706978534e+00 5.094110131212652881e+00 5.095998660901161159e+00 5.094291421210132675e+00 5.095260233798888372e+00 5.096379850216470331e+00 5.094968618882255385e+00 5.096406200818728749e+00 5.096524270039870963e+00 5.095033846547031509e+00 5.096237228969943800e+00 5.094072978847837163e+00 5.095677927769756366e+00 5.093516826858583535e+00 5.093848391648906571e+00 5.094376016654996953e+00 5.096238433695114090e+00 5.095994634991708239e+00 5.093888424380691227e+00 5.096133465423915432e+00 5.095618163934095612e+00 5.094190750693975644e+00 5.097466351869651469e+00 5.095116440667613489e+00 5.094889722904268226e+00 5.093753722066748146e+00 5.096318855888222643e+00 5.096122258286557738e+00 5.095841480939639290e+00 5.094654850805981461e+00 5.093880131358733188e+00 5.094328737509114191e+00 5.093911388267770235e+00 5.094185819921570157e+00 5.094760025932821179e+00 5.094239257924437325e+00 5.095876559155736452e+00 5.097377265321110684e+00 5.096328053851484796e+00 5.096158592007976829e+00 5.094702545359390378e+00 5.095574941860096629e+00 5.095369905875040573e+00 5.095081774695906951e+00 5.094487401440925822e+00 5.096139663724647662e+00 5.095421390877310941e+00 5.095318078286616981e+00 5.097323522535028850e+00 5.094985758639101192e+00 5.093487559865295999e+00 5.095725921524113744e+00 5.095699131558567352e+00 5.095632693819499792e+00 5.095036257580675354e+00 5.094896263372762135e+00 5.095200302385173075e+00 5.095463269599258993e+00 5.095027459905854705e+00 5.095995577506096552e+00 5.094303106484834309e+00 5.094516726914954496e+00 5.094610787904864324e+00 5.095387385078505638e+00 5.092110008556094414e+00 5.096401556742276462e+00 5.095864944007484354e+00 5.095779995100579107e+00 5.095283546963186083e+00 5.095616548004057833e+00 5.093791832982747181e+00 5.096117491482059947e+00 5.097455736066097032e+00 5.095659793285900463e+00 5.095688296648024362e+00 5.094956541159382901e+00 5.095546305341380311e+00 5.094683648515979435e+00 5.092068402080395906e+00 5.094106650152377291e+00 5.094332115200311151e+00 5.095385460021946145e+00 5.096683235778998622e+00 5.096532365143841226e+00 5.096464159808241412e+00 5.094819014346261277e+00 5.095772626444451170e+00 5.096837441721343787e+00 5.096497339379726377e+00 5.094455911319268004e+00 5.095131906485770301e+00 5.096045772582955102e+00 5.095628499829842895e+00 5.094919244165823535e+00 5.095856636716778354e+00 5.097573460329665629e+00 5.096779706939229548e+00 5.097257945244042077e+00 5.094932004109933743e+00 5.095142491029782228e+00 5.093016892089105241e+00 5.096461309595199829e+00 5.094648026031681987e+00 5.096551304753825562e+00 5.095753711538287156e+00 5.095521689114765884e+00 5.093938904860296546e+00 5.094027134059273543e+00 5.096328069635848834e+00 5.094955589195012458e+00 5.096057325210598066e+00 5.094080690233136366e+00 5.096220177739801294e+00 5.095392108458177027e+00 5.094565663714488046e+00 5.094523511727671483e+00 5.094773295261388668e+00 5.094171890238015088e+00 5.095851342351660485e+00 5.094520553584356293e+00 5.094373029680105525e+00 5.096135709314950191e+00 5.095579447132092099e+00 5.095229080605633953e+00 5.094234651602465469e+00 5.095316234787987675e+00 5.095466910773633451e+00 5.096817275173433970e+00 5.095703193089058836e+00 5.096355963670348821e+00 5.094620868612957487e+00 5.095303290779974681e+00 5.097467873087768275e+00 5.097814408144255793e+00 5.096478757111759350e+00 5.095200068724444087e+00 5.095127533355992000e+00
6.000000000000000000e+00 3.058818232410138917e-03 2.610815641797546680e-05 3.072412980109739521e-03 3.058023083847736471e-03 3.058049875685871222e-03 3.059989604766803848e-03 3.058441036522633726e-03 3.060603137860082139e-03 3.057977537722908219e-03 3.061744470164608992e-03 3.056929976851851909e-03 3.060011038237311388e-03 3.059598443930041343e-03 3.059394825960219493e-03 3.060021754972564942e-03 3.059408221879286651e-03 3.062540187757201594e-03 3.058165080589849306e-03 3.057704260973936970e-03 3.059534143518518722e-03 3.056908543381344368e-03 3.058566958161865364e-03 3.057961462620027455e-03 3.057471171982167196e-03 3.058502657750342742e-03 3.057717656893004128e-03 3.058792009602194755e-03 3.060662079903977983e-03 3.059268904320987855e-03 3.059335883916323648e-03 3.058992948388203001e-03 3.060611175411522521e-03 3.057018389917695676e-03 3.055673439643346971e-03 3.055617176783264732e-03 3.058995627572016606e-03 3.058443715706447331e-03 3.055957433127572207e-03 3.058502657750342742e-03 3.057213970336076711e-03 3.057128236454046549e-03 3.058861668381344153e-03 3.057077331961591087e-03 3.057120198902606167e-03 3.060252164780521110e-03 3.060940715020576009e-03 3.060437028463649026e-03 3.056710283779149728e-03 3.058671446330589894e-03 3.056439686213991650e-03 3.059831532921810683e-03 3.059861003943758605e-03 3.058082025891632316e-03 3.057698902606310193e-03 3.058647333676268749e-03 3.057305062585734083e-03 3.057227366255143870e-03 3.056562928669410116e-03 3.056525420096021812e-03 3.059668102709190741e-03 3.060045867626886087e-03 3.057575660150891727e-03 3.057902520576131610e-03 3.058824159807956283e-03 3.057522076474622659e-03 3.059025098593964528e-03 3.059263545953360645e-03 3.057816786694101448e-03 3.053830161179698060e-03 3.058856310013717376e-03 3.058291002229080943e-03 3.058556241426611810e-03 3.059193887174211247e-03 3.057731052812071287e-03 3.057672110768175442e-03 3.056796017661179889e-03 3.060364690500686023e-03 3.059807420267489537e-03 3.060278956618655861e-03 3.056482553155006731e-03 3.057923954046639151e-03 3.057460455246913643e-03 3.056595078875171644e-03 3.055660043724279813e-03 3.059445730452674955e-03 3.060439707647462197e-03 3.058719671639231752e-03 3.060450424382716184e-03 3.061709640775034293e-03 3.059710969650205822e-03 3.059812778635116748e-03 3.057964141803841060e-03 3.056257501714677773e-03 3.058725030006858529e-03 3.057851616083676147e-03 3.059410901063100256e-03 3.061468514231824572e-03 3.057926633230452756e-03 3.060814793381344372e-03 3.060190543552812094e-03 3.060474537037036896e-03 3.061688207304526753e-03 3.059952096193415544e-03 3.059783307613168826e-03 3.057430984224965721e-03 3.059815457818929919e-03 3.058931327160493985e-03 3.057706940157750141e-03 3.058901856138546062e-03 3.058384773662551487e-03 3.060233410493827175e-03 3.059751157407407298e-03 3.059828853737997078e-03 3.059413580246913428e-03 3.059325167181070095e-03 3.058049875685871222e-03 3.056378064986282634e-03 3.060187864368998489e-03 3.060916602366255297e-03 3.058869705932784535e-03 3.059105474108367480e-03 3.057538151577503423e-03 3.057763203017832814e-03 3.057535472393689818e-03 3.058850951646090600e-03 3.060335219478738100e-03 3.061331875857338947e-03 3.062371399176954875e-03 3.060704946844993064e-03 3.059076003086419557e-03 3.059030456961591305e-03 3.055603780864197573e-03 3.059595764746227738e-03 3.058374056927297500e-03 3.055598422496570796e-03 3.057931991598079532e-03 3.061157728909465019e-03 3.058366019375857552e-03 3.058441036522633726e-03 3.059598443930041343e-03 3.057985575274348600e-03 3.056983560528120543e-03 3.059855645576131829e-03 3.059713648834018994e-03 3.060651363168724430e-03 3.060761209705075304e-03 3.058143647119341765e-03 3.059408221879286651e-03 3.057187178497942394e-03 3.058347265089163183e-03 3.056378064986282634e-03 3.060351294581618864e-03 3.059183170438957260e-03 3.056766546639231967e-03 3.059306412894375726e-03 3.059199245541838023e-03 3.059059927983539227e-03 3.059568972908093421e-03 3.061385459533607582e-03 3.058183834876543241e-03 3.058451753257887713e-03 3.055957433127572207e-03 3.057789994855967131e-03 3.058692879801097435e-03 3.057299704218106873e-03 3.058569637345678969e-03 3.058159722222222095e-03 3.057216649519890316e-03 3.060493291323731265e-03 3.057677469135802652e-03 3.057088048696845074e-03 3.060763888888888909e-03 3.058486582647462412e-03 3.059172453703703706e-03 3.059239433299039933e-03 3.058877743484224917e-03 3.058020404663923299e-03 3.057465813614540420e-03 3.057873049554183688e-03 3.060292352537723019e-03 3.060372728052126404e-03 3.059453768004115337e-03 3.061339913408779329e-03 3.059836891289437460e-03 3.059362675754457965e-03 3.059826174554183906e-03 3.060844264403292294e-03 3.059076003086419557e-03 3.059295696159122172e-03 3.059284979423868185e-03 3.058293681412894548e-03 3.058282964677640561e-03 3.058891139403292075e-03 3.060570987654321045e-03 3.058821480624142677e-03 3.058671446330589894e-03 3.059587727194787356e-03 3.058556241426611810e-03 3.056249464163237391e-03 3.058845593278463823e-03 3.060600458676268967e-03 3.059986925582990243e-03 3.059073323902606386e-03 3.057631923010973966e-03 3.058569637345678969e-03 3.057977537722908219e-03 3.056528099279835417e-03 3.060672796639231971e-03 3.061299725651577420e-03 3.060225372942386793e-03 3.058001650377228930e-03 3.057546189128943805e-03 3.057639960562414348e-03 3.059601123113854515e-03 3.062248156721536409e-03 3.061326517489711737e-03 3.058419603052126186e-03 3.054727687757201587e-03 3.057907878943758387e-03 3.057331854423868400e-03 3.059105474108367480e-03 3.057773919753086368e-03 3.057157707475994472e-03 3.058296360596707720e-03 3.058462469993141267e-03 3.060153034979423790e-03 3.058457111625514490e-03 3.058205268347050781e-03
