# vvf statistics with RF=500
# gcat file: /disk2/salam/Abacus/AbacusCosmos_720box_products/GCAT_derivative/AbacusCosmos_720box_planck_rockstar_halos_z0.100_Mr21_hod-kappa-pos_real-7.gcat.rsd_zz.1pz0.100by100
# stats order in row: stdvvf,p2.5,p16,p50,p84,p97.5,rho
# columns: numbers, mean, sigma,All, jnrealizations
0.000000000000000000e+00 1.429777754376403864e+00 4.778450319575509343e-03 1.429777994152012344e+00 1.429976234565258464e+00 1.429269106836911218e+00 1.429685328508641495e+00 1.429741354832839040e+00 1.430119300772997759e+00 1.429841835841459741e+00 1.430033400757330764e+00 1.429162656467180881e+00 1.428586641421337289e+00 1.429675580391621459e+00 1.430433169987247455e+00 1.429920054556705011e+00 1.429808584236067937e+00 1.429693697129880814e+00 1.429986463386542006e+00 1.429845374788010215e+00 1.429817365685104091e+00 1.429824983845299657e+00 1.430164431564109773e+00 1.429977806589373346e+00 1.429841056835633450e+00 1.430314686213230990e+00 1.429851626999365743e+00 1.429815461886541517e+00 1.429831313154811490e+00 1.430134622798379329e+00 1.430125562046054455e+00 1.429578041131572386e+00 1.430369907444215993e+00 1.429541529242652320e+00 1.429685815133848514e+00 1.429147849701767115e+00 1.429860793557273579e+00 1.429867696092241847e+00 1.429181872379817086e+00 1.429447391718807525e+00 1.429905889256777307e+00 1.429740105903252401e+00 1.429665051280083032e+00 1.430080600397404478e+00 1.429701165900174376e+00 1.429815047642541082e+00 1.429951914391433876e+00 1.429756546525188909e+00 1.429149121305660408e+00 1.429913355982654899e+00 1.429498185361402829e+00 1.430064568175171802e+00 1.429783347315602970e+00 1.429663384320492225e+00 1.428943664280268644e+00 1.429758834228903375e+00 1.429606304822838680e+00 1.429841003920763853e+00 1.429186267928728826e+00 1.429499369666723529e+00 1.429745684450933085e+00 1.429896529378547498e+00 1.429756085047089398e+00 1.429200671541473566e+00 1.429890708855845238e+00 1.429973705053547706e+00 1.430207900829888246e+00 1.429900528158942086e+00 1.429852161061932581e+00 1.429173716476309641e+00 1.430507578333691132e+00 1.429955439359645197e+00 1.430282919731892033e+00 1.429465165499421930e+00 1.429897272981497380e+00 1.430158885630955279e+00 1.429299498043745231e+00 1.429856467645899132e+00 1.429433523936383121e+00 1.429833740242895113e+00 1.429771102052372012e+00 1.429477725550121869e+00 1.429918209793348050e+00 1.429615087669772633e+00 1.429377612325155367e+00 1.429790997439697842e+00 1.428287263715533939e+00 1.430006129205204646e+00 1.429501926012031410e+00 1.430337215995216127e+00 1.429838752170802252e+00 1.429982410233178625e+00 1.429544154631866792e+00 1.429395728528019438e+00 1.429719216261128079e+00 1.429838715436826169e+00 1.429926804568931953e+00 1.430057540084313850e+00 1.429458710899607743e+00 1.429604256906746418e+00 1.430180304948853287e+00 1.429983222976588975e+00 1.429745294791137766e+00 1.429778421199354499e+00 1.429816371848320111e+00 1.429354992298735638e+00 1.429778138629389739e+00 1.429603014070847333e+00 1.429857565673750885e+00 1.429977998210322676e+00 1.429657696246806831e+00 1.429829698977758801e+00 1.429474229672230257e+00 1.429769909717222509e+00 1.430215624204682179e+00 1.429986610013605830e+00 1.429837105519629503e+00 1.429275559481941293e+00 1.430159688072514701e+00 1.430161192482034771e+00 1.429855878489343146e+00 1.429791325534090385e+00 1.429287178703120942e+00 1.429967108303879408e+00 1.429718106246961939e+00 1.429481940402900442e+00 1.429977713766872327e+00 1.429632150450487860e+00 1.429281857180380033e+00 1.429899057109357940e+00 1.430332458432225673e+00 1.430106969174744114e+00 1.429690804603745979e+00 1.429870901038137632e+00 1.430069293114810236e+00 1.429561954030491799e+00 1.429699224928249857e+00 1.429701429739881124e+00 1.429967975835585436e+00 1.429933983862772040e+00 1.430060564784459309e+00 1.429468516833190650e+00 1.429061889449632972e+00 1.429416176651013837e+00 1.429741040622802384e+00 1.430260014749511921e+00 1.429857436800025416e+00 1.429934212014372319e+00 1.429917306313801317e+00 1.429751185624269727e+00 1.429568943401360315e+00 1.429842093764697397e+00 1.429478930789052082e+00 1.429544766470338457e+00 1.429445708237215840e+00 1.429665261381051655e+00 1.429112542884756198e+00 1.430203685668569813e+00 1.429958519335933653e+00 1.430290553956470534e+00 1.429907235213935923e+00 1.430077565286566044e+00 1.429162328762196843e+00 1.429981721862483290e+00 1.430152290040862084e+00 1.429952440192004293e+00 1.429912228620353609e+00 1.429785629206029807e+00 1.429752904195500163e+00 1.429586034810246264e+00 1.429457643075172202e+00 1.429676329857232142e+00 1.429826321267980260e+00 1.429715442529404745e+00 1.429695498864965497e+00 1.429818448969767619e+00 1.430200052905021835e+00 1.429627566034605834e+00 1.429885386057862862e+00 1.430077476251453650e+00 1.430121622781667323e+00 1.429881222767154680e+00 1.429593056062118395e+00 1.430301741122077974e+00 1.429963276763350333e+00 1.430163593271020828e+00 1.429965516745207665e+00 1.430158336947242370e+00 1.430218878326877219e+00 1.430179854236753645e+00 1.430180163321605358e+00 1.429749833641885237e+00 1.429015511578537678e+00 1.429965334748272587e+00 1.429561259602378787e+00 1.430177233376748402e+00 1.430069297120070582e+00 1.429626208228423678e+00 1.429523464949759459e+00 1.429653013936180272e+00 1.430055982314033303e+00 1.429792464637788640e+00 1.430005119031688476e+00 1.429746967641201350e+00 1.429888512806936740e+00 1.429746603311162989e+00 1.429845824787080000e+00 1.429462746919164085e+00 1.429678724526197264e+00 1.429890038752149373e+00 1.429634703658553940e+00 1.429813482157284765e+00 1.429722406477387908e+00 1.429467707076907734e+00 1.429831544373930896e+00 1.429767441290406671e+00 1.429511958091377544e+00 1.429545502276895252e+00 1.429334514758387797e+00 1.429973296151572315e+00 1.429991700250041742e+00 1.429733011675004661e+00 1.429737870823639900e+00 1.429635910843114699e+00 1.430404578318201780e+00 1.430174261357275434e+00 1.430088999059847543e+00 1.429150218641596304e+00 1.429774070812517284e+00
1.000000000000000000e+00 2.199999988852819124e-02 1.622967022739546798e-04 2.199999999999999872e-02 2.199529234406347872e-02 2.199417848712837548e-02 2.200790511974897584e-02 2.199675473786613655e-02 2.201205305889358810e-02 2.199637553969668521e-02 2.202081058238341757e-02 2.198770539826685327e-02 2.200525381151199888e-02 2.200635662243920904e-02 2.200419290271056483e-02 2.200926153758352155e-02 2.200714974704393381e-02 2.202712957590157242e-02 2.200091132313840986e-02 2.199189593070230084e-02 2.200517644088955879e-02 2.198851993883352285e-02 2.199677880071166519e-02 2.199261125774119516e-02 2.199075530620609592e-02 2.200087387164861852e-02 2.199049126824727945e-02 2.200208511215230589e-02 2.201536059932035841e-02 2.200674731604955123e-02 2.200545522103768831e-02 2.199990126242226673e-02 2.201276609921497263e-02 2.198981816718298746e-02 2.197760501719476373e-02 2.197445995693123738e-02 2.200221813415964567e-02 2.199589854683886223e-02 2.197929404815146884e-02 2.199328050712042598e-02 2.199031129692643333e-02 2.198877855783414048e-02 2.200109732140382787e-02 2.198836021996820184e-02 2.198405347651613551e-02 2.201145695217549686e-02 2.201491333551565746e-02 2.201161942727503443e-02 2.198585627084427563e-02 2.199756710231060008e-02 2.198390843314456528e-02 2.200775280619226421e-02 2.200906980240694213e-02 2.199515685315204735e-02 2.199531506431679634e-02 2.199895912424343694e-02 2.199022786420499684e-02 2.199289419581660493e-02 2.198239176829448055e-02 2.198304363363989128e-02 2.200748195741708199e-02 2.200923881837221069e-02 2.199424613299051645e-02 2.199457997895333181e-02 2.199946171794811903e-02 2.199228411035528477e-02 2.200298424049973445e-02 2.200300278324389402e-02 2.198875880615361322e-02 2.196031538485472903e-02 2.199757459641989155e-02 2.199845665463017949e-02 2.199840994999191848e-02 2.200402072589488847e-02 2.199637519222549104e-02 2.199428012293005649e-02 2.198721190286144142e-02 2.201022208878449654e-02 2.200942946777061440e-02 2.200913439235124142e-02 2.198568213490427470e-02 2.199288265286524977e-02 2.199061061240283402e-02 2.198635746637720226e-02 2.197254862551351745e-02 2.200333024266907730e-02 2.201350288401972277e-02 2.200371203482736140e-02 2.201210712185032448e-02 2.202154345263775473e-02 2.200904308760458575e-02 2.201254501613226361e-02 2.199434082491472445e-02 2.198187400910448994e-02 2.199725518094037408e-02 2.199391432017793954e-02 2.200563514979098426e-02 2.201996336414595301e-02 2.199253072340614720e-02 2.201216195021757707e-02 2.201302062522003666e-02 2.201094811203543194e-02 2.201942520803370357e-02 2.201085351237282509e-02 2.200469919160262522e-02 2.198707148756187321e-02 2.200474598739364518e-02 2.200019438998834787e-02 2.199261839444862157e-02 2.200184471979752324e-02 2.199589683804602583e-02 2.201085540741528832e-02 2.200828864738713433e-02 2.201107930810400001e-02 2.200470773771207728e-02 2.200445190891000061e-02 2.199336042144754352e-02 2.198086723311800175e-02 2.200944291019797661e-02 2.201558245679988146e-02 2.199946737319746423e-02 2.200406478450434369e-02 2.198822024120990551e-02 2.198941006711797180e-02 2.199097678976384695e-02 2.200028145101000712e-02 2.200958923195462519e-02 2.202014940496919981e-02 2.202829630494257049e-02 2.201479493139900379e-02 2.200513459635273714e-02 2.200206447613976476e-02 2.197754683042560386e-02 2.200555874635896914e-02 2.199727864617777306e-02 2.197923161192780889e-02 2.199832475167521825e-02 2.201758567642794762e-02 2.199607739676277818e-02 2.199579247045094568e-02 2.200432250646783619e-02 2.199745767161654514e-02 2.198882769900506462e-02 2.201029022897015019e-02 2.200925421851399402e-02 2.201450076830451311e-02 2.201358907115450597e-02 2.199444897898725215e-02 2.200217784919767869e-02 2.199079743686567501e-02 2.199369510177373588e-02 2.198153057163492602e-02 2.201020713220307526e-02 2.200408670308413861e-02 2.198523114332000608e-02 2.200629921067164332e-02 2.199871275207616189e-02 2.200097724185451006e-02 2.200611223536614799e-02 2.201828298367840969e-02 2.199642955329725660e-02 2.199978626942484736e-02 2.198119475877487183e-02 2.199337591266532083e-02 2.199881148627156821e-02 2.199132879703505697e-02 2.199856424468710908e-02 2.199101134759067280e-02 2.198789688784375668e-02 2.201085512551587478e-02 2.199176664823297017e-02 2.199211433601343593e-02 2.201322043620167895e-02 2.199505840540113763e-02 2.200502693349131594e-02 2.200151993374091508e-02 2.200172091787550716e-02 2.199587609710640032e-02 2.199316550729053105e-02 2.199594404593220240e-02 2.201117979018519730e-02 2.200874409878934151e-02 2.200499561364877010e-02 2.201608559570627024e-02 2.200879244522131392e-02 2.200493267613568352e-02 2.200402283961489999e-02 2.201511783334243050e-02 2.200481488160453691e-02 2.200339953154432926e-02 2.200591240732386461e-02 2.199534649745095091e-02 2.199286859655140772e-02 2.200452315421359134e-02 2.201135049667570648e-02 2.200152528299724117e-02 2.200110379644711414e-02 2.200530298599586224e-02 2.199770347310095464e-02 2.198124223571024799e-02 2.200304673206970527e-02 2.201253522581063035e-02 2.201083934511361903e-02 2.200260249961073777e-02 2.199349914671929959e-02 2.199898939951203114e-02 2.199359394557830888e-02 2.198662977143810149e-02 2.201258822814777458e-02 2.201550574101174967e-02 2.200784730863847988e-02 2.199413156420772925e-02 2.199329361813351369e-02 2.199354608782055215e-02 2.200524174109231082e-02 2.202266665454745073e-02 2.201923106400417371e-02 2.199676130818381883e-02 2.197002552016047092e-02 2.199379127097920300e-02 2.198945685191414437e-02 2.200153022790067581e-02 2.199355831337664047e-02 2.198797825669972922e-02 2.200091796619813370e-02 2.200082513288389649e-02 2.201218894094343279e-02 2.199384636999405715e-02 2.199400593645423410e-02
2.000000000000000000e+00 1.059999994629085285e-01 7.819750200472392254e-04 1.059999999999999831e-01 1.059773176577604031e-01 1.059719508925276305e-01 1.060380883042450761e-01 1.059843637369914104e-01 1.060580738292145747e-01 1.059825366912658523e-01 1.061002691696655564e-01 1.059407623734675702e-01 1.060253138191032535e-01 1.060306273626616391e-01 1.060202021676054374e-01 1.060446237719933210e-01 1.060344487812116682e-01 1.061307152293439471e-01 1.060043909205759666e-01 1.059609531206565369e-01 1.060249410333769515e-01 1.059446869780160672e-01 1.059844796761562069e-01 1.059643996963893914e-01 1.059554573844475461e-01 1.060042104724887996e-01 1.059541852015550983e-01 1.060100464494611178e-01 1.060740101603617203e-01 1.060325097955114731e-01 1.060262842468179811e-01 1.059995242643981955e-01 1.060615093871266901e-01 1.059509420782453054e-01 1.058920969010293256e-01 1.058769434288505118e-01 1.060106873736783029e-01 1.059802384529508756e-01 1.059002349592752523e-01 1.059676242615802400e-01 1.059533180670091806e-01 1.059459330513826680e-01 1.060052870940366293e-01 1.059439174234831638e-01 1.059231667504868385e-01 1.060552016786637797e-01 1.060718551620299793e-01 1.060559845132342527e-01 1.059318529413406096e-01 1.059882778565874317e-01 1.059224679051510853e-01 1.060373544298354592e-01 1.060436999570516514e-01 1.059766648379144305e-01 1.059774271280718300e-01 1.059949848713547388e-01 1.059529160729877073e-01 1.059657629434800075e-01 1.059151603381461304e-01 1.059183011439013000e-01 1.060360494311914092e-01 1.060445143067024754e-01 1.059722768225906664e-01 1.059738853531387859e-01 1.059974064592045795e-01 1.059628234408027114e-01 1.060143786133169036e-01 1.060144679556296737e-01 1.059458378841946907e-01 1.058087923088455035e-01 1.059883139645685785e-01 1.059925638813999510e-01 1.059923388499610653e-01 1.060193725884026467e-01 1.059825350170864600e-01 1.059724405922993634e-01 1.059383846228778431e-01 1.060492518823252933e-01 1.060454328901675042e-01 1.060440111631468924e-01 1.059310139227206127e-01 1.059657073274416633e-01 1.059547602233954638e-01 1.059342677925446952e-01 1.058677342865651239e-01 1.060160457146782781e-01 1.060650593502768524e-01 1.060178852587136678e-01 1.060583343143697288e-01 1.061038002718000944e-01 1.060435712402766351e-01 1.060604441686372745e-01 1.059727330654982314e-01 1.059126656802307220e-01 1.059867749627127070e-01 1.059706780881300714e-01 1.060271511762656549e-01 1.060961871181577698e-01 1.059640116673205290e-01 1.060585984874119481e-01 1.060627357396965176e-01 1.060527499943525465e-01 1.060935941841623931e-01 1.060522941959781695e-01 1.060226415595399291e-01 1.059377080764344892e-01 1.060228670301693876e-01 1.060009366063074943e-01 1.059644340823433506e-01 1.060088881953880763e-01 1.059802302196763135e-01 1.060523033266372872e-01 1.060399362101380194e-01 1.060533821208647226e-01 1.060226827362491103e-01 1.060214501065663700e-01 1.059680093033381759e-01 1.059078148504776357e-01 1.060454976582266284e-01 1.060750791100358026e-01 1.059974337072241563e-01 1.060195848707936594e-01 1.059432429803749964e-01 1.059489757779320529e-01 1.059565245324985139e-01 1.060013560821391199e-01 1.060462026630541038e-01 1.060970834966697834e-01 1.061363367419960180e-01 1.060712846694679273e-01 1.060247394187904535e-01 1.060099470214006800e-01 1.058918165465960876e-01 1.060267830506386733e-01 1.059868880224929255e-01 1.058999341301976177e-01 1.059919283489806074e-01 1.060847309864255683e-01 1.059811001844024742e-01 1.059797273576272847e-01 1.060208266220723089e-01 1.059877505996069946e-01 1.059461698224789528e-01 1.060495801941289257e-01 1.060445885073856009e-01 1.060698673381944707e-01 1.060654746155626077e-01 1.059732541714840243e-01 1.060104932734070027e-01 1.059556603776255213e-01 1.059696218540007173e-01 1.059110109360591884e-01 1.060491798187966211e-01 1.060196904784962979e-01 1.059288409632691136e-01 1.060303507423270147e-01 1.059937978054578678e-01 1.060047085289353708e-01 1.060294498613096187e-01 1.060880907395414241e-01 1.059827969386140517e-01 1.059989702072288154e-01 1.059093929286425706e-01 1.059680839428420035e-01 1.059942735247630108e-01 1.059582205675325406e-01 1.059930822698560704e-01 1.059566910383914207e-01 1.059416850050653724e-01 1.060523019683946716e-01 1.059603302142134024e-01 1.059620054371556430e-01 1.060636984653353376e-01 1.059761904987509273e-01 1.060242206795490721e-01 1.060073233171153206e-01 1.060082916952183457e-01 1.059801302860581135e-01 1.059670701714907487e-01 1.059804576758551498e-01 1.060538662618013966e-01 1.060421306578031991e-01 1.060240697748531663e-01 1.060775033247665644e-01 1.060423635997026909e-01 1.060237665304719218e-01 1.060193827726899768e-01 1.060728404697408034e-01 1.060231989750036741e-01 1.060163795610772203e-01 1.060284870534695251e-01 1.059775785786273017e-01 1.059656396015658808e-01 1.060217933793927564e-01 1.060546887567102164e-01 1.060073490908048782e-01 1.060053182919724613e-01 1.060255507507073397e-01 1.059889349158500554e-01 1.059096216811493685e-01 1.060146797090631282e-01 1.060603969970875804e-01 1.060522259355474450e-01 1.060125393163062757e-01 1.059686777069202557e-01 1.059951307431034329e-01 1.059691344650591088e-01 1.059355798078381317e-01 1.060606523719847261e-01 1.060747094794202428e-01 1.060378097598035779e-01 1.059717248093645370e-01 1.059676874328251001e-01 1.059689038776808478e-01 1.060252556616265857e-01 1.061092120628195357e-01 1.060926587629291984e-01 1.059843953939765826e-01 1.058555775062277188e-01 1.059700852147179712e-01 1.059492011955863316e-01 1.060073729162487044e-01 1.059689627826329028e-01 1.059420770550077717e-01 1.060044229280455580e-01 1.060039756402587630e-01 1.060587285336365426e-01 1.059703506917895471e-01 1.059711195120067451e-01
3.000000000000000000e+00 4.840088311419019629e-01 3.636813269336837146e-03 4.839999999999999858e-01 4.838964315693965457e-01 4.838719267168242744e-01 4.841739126344775102e-01 4.839286042330551152e-01 4.842651672956589937e-01 4.839202618733270955e-01 4.844578328124352073e-01 4.837295187618708137e-01 4.841155838532639200e-01 4.841398456936625849e-01 4.840922438596323985e-01 4.842037538268374464e-01 4.841572944349665231e-01 4.845968506698346001e-01 4.840200491090450030e-01 4.838217104754506392e-01 4.841138816995702587e-01 4.837474386543375027e-01 4.839291336156566481e-01 4.838374476703062865e-01 4.837966167365340686e-01 4.840192251762696074e-01 4.837908079014402452e-01 4.840458724673507573e-01 4.843379331850478642e-01 4.841484409530901201e-01 4.841200148628292399e-01 4.839978277732898682e-01 4.842808541827294255e-01 4.837759996780257588e-01 4.835073103782847603e-01 4.834381190524872363e-01 4.840487989515122047e-01 4.839097680304549343e-01 4.835444690593322936e-01 4.838521711566494132e-01 4.837868485323815193e-01 4.837531282723510628e-01 4.840241410708842063e-01 4.837439248393004543e-01 4.836491764833549811e-01 4.842520529478610003e-01 4.843280933813444711e-01 4.842556274000507921e-01 4.836888379585740916e-01 4.839464762508332019e-01 4.836459855291804777e-01 4.841705617362298542e-01 4.841995356529527617e-01 4.838934507693450349e-01 4.838969314149694778e-01 4.839771007333555919e-01 4.837850130125099235e-01 4.838436723079652668e-01 4.836126189024785860e-01 4.836269599400776498e-01 4.841646030631757691e-01 4.842032540041886768e-01 4.838734149257913342e-01 4.838807595369733483e-01 4.839881577948586533e-01 4.838302504278162441e-01 4.840656532909942134e-01 4.840660612313656408e-01 4.837526937353794909e-01 4.851233307745180801e-01 4.839466411212376418e-01 4.839660464018639141e-01 4.839650188998222413e-01 4.840884559696875256e-01 4.839202542289607889e-01 4.838741627044612081e-01 4.837186618629517043e-01 4.842248859532589100e-01 4.842074482909534683e-01 4.842009566317272973e-01 4.836850069678940711e-01 4.838434183630355157e-01 4.837934334728622998e-01 4.836998642602984289e-01 4.833960697612973978e-01 4.840732653387196938e-01 4.842970634484339287e-01 4.840816647662019578e-01 4.842663566807071107e-01 4.844739559580306110e-01 4.841989479273008934e-01 4.842759903549098133e-01 4.838754981481239725e-01 4.836012282002987717e-01 4.839396139806881880e-01 4.838661150439146907e-01 4.841239732954016328e-01 4.844391940112109385e-01 4.838356759149352593e-01 4.842675629047866748e-01 4.842864537548407511e-01 4.842408584647795444e-01 4.844273545767414646e-01 4.842387772722021588e-01 4.841033822152577826e-01 4.837155727263612315e-01 4.841044117226601662e-01 4.840042765797436530e-01 4.838376046778696815e-01 4.840405838355455459e-01 4.839097304370125752e-01 4.842388189631363082e-01 4.841823502425169901e-01 4.842437447782880211e-01 4.841035702296657139e-01 4.840979419960200203e-01 4.838539292718460061e-01 4.835790791285959900e-01 4.842077440243555131e-01 4.843428140495974477e-01 4.839882822103442339e-01 4.840894252590955960e-01 4.837408453066179281e-01 4.837670214765953935e-01 4.838014893748046052e-01 4.840061919222201636e-01 4.842109631030017680e-01 4.844432869093224237e-01 4.846225187087365716e-01 4.843254884907780555e-01 4.841129611197602101e-01 4.840454184750748179e-01 4.835060302693632850e-01 4.841222924198973487e-01 4.839401302159110352e-01 4.835430954624117539e-01 4.839631445368548501e-01 4.843868848814148476e-01 4.839137027287810922e-01 4.839074343499207842e-01 4.840950951422923754e-01 4.839440687755640069e-01 4.837542093781114771e-01 4.842263850373433876e-01 4.842035928073078477e-01 4.843190169026992953e-01 4.842989595653990897e-01 4.838778775377195474e-01 4.840479126823489797e-01 4.837975436110448224e-01 4.838612922390221893e-01 4.835936725759683585e-01 4.842245569084676071e-01 4.840899074678510217e-01 4.836750851530400852e-01 4.841385826347762156e-01 4.839716805456755755e-01 4.840214993207992422e-01 4.841344691780552489e-01 4.844022256409249994e-01 4.839214501725396245e-01 4.839952979273466349e-01 4.835862846930472081e-01 4.838542700786370721e-01 4.839738526979744937e-01 4.838092335347712325e-01 4.839684133831164137e-01 4.838022496469948086e-01 4.837337315325626608e-01 4.842388127613492244e-01 4.838188662611253577e-01 4.838265153922955975e-01 4.842908495964369231e-01 4.838912849188249932e-01 4.841105925368089924e-01 4.840334385423001318e-01 4.840378601932611158e-01 4.839092741363407724e-01 4.838496411603916969e-01 4.839107690105084458e-01 4.842459553840743336e-01 4.841923701733655272e-01 4.841099035002729423e-01 4.843538831055378968e-01 4.841934337948688993e-01 4.841085188749850166e-01 4.840885024715277929e-01 4.843325923335334848e-01 4.841059273952998399e-01 4.840747896939752160e-01 4.841300729611249798e-01 4.838976229439209131e-01 4.838431091241309767e-01 4.840995093926989679e-01 4.842497109268655286e-01 4.840335562259392987e-01 4.840242835218365736e-01 4.841166656919089761e-01 4.839494764082210576e-01 4.835873291856254141e-01 4.840670281055335367e-01 4.842757749678338608e-01 4.842384655924996673e-01 4.840572549914362588e-01 4.838569812278246118e-01 4.839777667892646851e-01 4.838590668027227260e-01 4.837058549716382605e-01 4.842769410192510060e-01 4.843411263022584512e-01 4.841726407900465712e-01 4.838708944125700850e-01 4.838524595989372457e-01 4.838580139320521889e-01 4.841153183040308727e-01 4.844986664000439092e-01 4.844230834080918147e-01 4.839287487800439935e-01 4.833405614435303255e-01 4.838634079615424799e-01 4.837680507421112108e-01 4.840336650138148400e-01 4.838582828942860625e-01 4.837355216473940844e-01 4.840201952563589760e-01 4.840181529234457436e-01 4.842681567007555143e-01 4.838646201398692503e-01 4.838681306019931294e-01
4.000000000000000000e+00 1.825486245091852533e+00 9.261793400930969783e-03 1.826000000000000068e+00 1.825609264557268796e+00 1.825516814431655366e+00 1.824655406291915138e+00 1.825730643242889695e+00 1.824999308155541344e+00 1.825699169794825050e+00 1.825725386466697797e+00 1.824979548056148815e+00 1.826436066355495935e+00 1.824527021787686998e+00 1.824347629752003153e+00 1.824767865661470090e+00 1.826593429004646385e+00 1.826249288474748544e+00 1.826075639820488039e+00 1.825327362248291063e+00 1.826429644593833057e+00 1.825047154923182369e+00 1.825732640459068357e+00 1.825386734392519195e+00 1.825232690415105941e+00 1.826072531346835337e+00 1.825210775264524798e+00 1.826173064308641347e+00 1.825273533325469710e+00 1.824559413839744515e+00 1.826452783346128594e+00 1.825991804781048167e+00 1.825058425680368801e+00 1.825154907876187949e+00 1.826139180519637861e+00 1.825877854603195516e+00 1.826184105135250757e+00 1.825659579387625353e+00 1.826279523637313051e+00 1.825442282090995461e+00 1.825195837644894237e+00 1.825068620300233535e+00 1.826091077676518015e+00 1.825033898257360843e+00 1.824676438550839386e+00 1.824949885489459689e+00 1.825236451090025636e+00 1.824963356152257798e+00 1.824826070480074947e+00 1.825798069491779918e+00 1.826662937081284799e+00 1.824642778113395147e+00 1.824751969072284874e+00 1.825598018811620094e+00 1.825611150338294131e+00 1.825913607312205311e+00 1.825188912729014845e+00 1.825410218252778050e+00 1.826536916020105039e+00 1.826591080104260190e+00 1.824620322287670682e+00 1.824765982032314326e+00 1.825522429038212824e+00 1.825550138253126731e+00 1.825955322589693841e+00 1.825359581159488487e+00 1.826247691961478070e+00 1.826249231009243079e+00 1.825066980910750036e+00 1.824702569250656436e+00 1.825798691502851234e+00 1.825871902334304853e+00 1.825868025849329390e+00 1.826333720249275760e+00 1.825699140954715860e+00 1.825525250203194672e+00 1.824938587937499523e+00 1.824847504088314532e+00 1.826782645824960749e+00 1.824757324165848349e+00 1.824811617197054758e+00 1.825409260187815796e+00 1.825220680829435116e+00 1.824867669709307805e+00 1.825719040338123378e+00 1.826276410141533413e+00 1.825119511838726005e+00 1.824307761432959474e+00 1.825003790466135811e+00 1.825786148073239357e+00 1.824749754172307448e+00 1.825040095882966007e+00 1.825530288467922313e+00 1.826493894938318485e+00 1.825772180018050861e+00 1.825494888574769048e+00 1.826467717432651572e+00 1.825655144372828165e+00 1.825380050042710200e+00 1.825008336236220607e+00 1.825079528200061141e+00 1.824907698016028590e+00 1.825610526338794282e+00 1.824899854844001634e+00 1.826390032903018046e+00 1.824926933467635681e+00 1.826393916953672480e+00 1.826016134369032873e+00 1.825387326739235538e+00 1.824152944041394608e+00 1.825659437557820342e+00 1.824900011960249202e+00 1.824687204219733516e+00 1.824918575362804329e+00 1.824390314253946821e+00 1.824369103720538288e+00 1.825448914980146276e+00 1.826410241006350077e+00 1.824782903100050646e+00 1.825291927327408414e+00 1.825955791975389708e+00 1.826337377113860683e+00 1.825022280020422105e+00 1.825121035570791639e+00 1.825251073550399061e+00 1.826023360433830511e+00 1.824795034503874369e+00 1.825670568848355657e+00 1.826346020918874880e+00 1.825226634312353990e+00 1.824425704715790575e+00 1.826171351519600083e+00 1.826134345728091191e+00 1.824460870607216512e+00 1.825774127632755262e+00 1.826274335754728861e+00 1.825860954389042945e+00 1.825458012445662526e+00 1.825674423931310297e+00 1.825650775047428453e+00 1.826358768036830504e+00 1.825788986744173448e+00 1.825072699017420419e+00 1.826854089004522619e+00 1.824767258844069318e+00 1.825202245517610677e+00 1.825126657535719010e+00 1.825539265255941901e+00 1.826180761483407355e+00 1.825236187259851039e+00 1.825476693447219967e+00 1.824467037445698825e+00 1.824846264051745770e+00 1.826339196355983407e+00 1.824774184895560314e+00 1.826522834485746483e+00 1.825893158422321472e+00 1.826081111073924346e+00 1.826507315535390141e+00 1.825515825555882543e+00 1.825703652923672093e+00 1.825982260362262410e+00 1.826437455410930166e+00 1.825450200751221663e+00 1.825901353360540158e+00 1.825280290153909579e+00 1.825880832309030088e+00 1.825253941850025763e+00 1.824995441691031672e+00 1.824899988588225108e+00 1.825316631803336698e+00 1.825345489889115269e+00 1.825096094346902786e+00 1.825589847648294350e+00 1.826417235479779411e+00 1.826126154500495868e+00 1.826142836183667129e+00 1.825657716059831293e+00 1.825432737105114001e+00 1.825663355812372934e+00 1.824926906240809110e+00 1.824724965281443678e+00 1.824414181786152556e+00 1.825333642116737876e+00 1.824728973640167062e+00 1.824408963694158281e+00 1.826333895688036613e+00 1.825253405818936248e+00 1.824399197456667121e+00 1.826282161118179204e+00 1.824490192316305714e+00 1.825613759288428728e+00 1.825408093513766872e+00 1.826375421799728116e+00 1.824941059360749573e+00 1.824126459826680202e+00 1.826091615105110311e+00 1.826440147837656625e+00 1.825809388267379374e+00 1.826441400312651453e+00 1.826252878761785547e+00 1.825039284176299237e+00 1.824898680249420257e+00 1.826216007467691194e+00 1.825460429177701904e+00 1.825916120159498668e+00 1.825468297482999436e+00 1.824890271029362410e+00 1.825043678551888204e+00 1.825285566891155842e+00 1.824650613225299312e+00 1.825512919829241687e+00 1.825443370305081192e+00 1.825464325289106071e+00 1.826435064510661954e+00 1.825879271722479658e+00 1.825594430033800508e+00 1.825731188579256870e+00 1.825509393220606347e+00 1.825484675491273912e+00 1.825124918708874056e+00 1.826127008915755967e+00 1.825465340010261173e+00 1.825002195306077546e+00 1.826076191194445197e+00 1.824068411017283120e+00 1.825010574012764675e+00 1.825489248709506684e+00 1.825502492725701309e+00
5.000000000000000000e+00 5.030543385536939027e+00 1.786014562076846182e-02 5.030000000000000249e+00 5.030923230696701332e+00 5.030668461237726596e+00 5.029806679186266116e+00 5.029258015066667475e+00 5.032755767556125193e+00 5.031170987079714330e+00 5.030754272139048133e+00 5.029187889276309775e+00 5.029200734740105538e+00 5.031453355039509745e+00 5.030958650028824586e+00 5.030116682316815080e+00 5.029634042188040333e+00 5.030195408605885987e+00 5.030208361608463186e+00 5.030146378331544987e+00 5.029183052036031221e+00 5.031373153276724963e+00 5.031263223871867751e+00 5.032309321430417093e+00 5.031434835070435874e+00 5.032199878278902361e+00 5.031824229288947237e+00 5.030476732460277489e+00 5.029509198735642173e+00 5.031542681805874828e+00 5.031247261900890777e+00 5.029977424999272806e+00 5.032918794502332815e+00 5.029671137148399751e+00 5.028875620752655706e+00 5.028155973781447408e+00 5.030507146128319285e+00 5.031061885804233746e+00 5.029262101745204383e+00 5.028463679582533707e+00 5.031783048578530426e+00 5.029433350137336056e+00 5.030250887575511420e+00 5.031336606696360292e+00 5.030351145490101317e+00 5.030618434342655654e+00 5.031408375044214232e+00 5.030655567288130570e+00 5.028764943404017806e+00 5.031443529946678872e+00 5.028319419799247569e+00 5.029771868615213748e+00 5.030072862113732057e+00 5.030892240230050660e+00 5.030928427438277950e+00 5.029762017952021935e+00 5.029764846030888137e+00 5.030374708788597715e+00 5.029970916436109718e+00 5.030120075079237196e+00 5.029709967358776623e+00 5.032112329836919251e+00 5.030683933691284970e+00 5.030760293367871228e+00 5.031876880214315229e+00 5.030235165604899805e+00 5.032682577190667139e+00 5.030686545441672486e+00 5.031427810462604455e+00 5.028912223131732695e+00 5.033445023562624243e+00 5.031646994822684071e+00 5.031636312198151550e+00 5.028918918627249823e+00 5.031170907603575770e+00 5.032691188128631588e+00 5.029075013418125906e+00 5.030336211927656009e+00 5.030155061997756860e+00 5.030087623851910550e+00 5.030723812141278728e+00 5.028372715632372980e+00 5.031851537401629493e+00 5.030878340261037529e+00 5.029716130822094122e+00 5.030761414573884593e+00 5.029084795231050897e+00 5.030848706144619875e+00 5.030767027666518842e+00 5.032923658175573856e+00 5.030066756567084241e+00 5.032868246870240370e+00 5.028706106787321772e+00 5.029852443719636135e+00 5.029372434551366844e+00 5.030608039051609026e+00 5.029287887870411922e+00 5.030560721281707615e+00 5.030291572735442251e+00 5.028778452808796651e+00 5.030975804709378885e+00 5.030502141241552927e+00 5.030437777071699479e+00 5.030480520918662712e+00 5.031074406080055184e+00 5.029042896609606572e+00 5.029084673846146991e+00 5.032044462291880293e+00 5.032310954438834472e+00 5.030421770026434203e+00 5.031061494956709623e+00 5.030480954022002571e+00 5.029894332684659908e+00 5.030532125506677943e+00 5.031076360031443429e+00 5.029017463545430999e+00 5.030481347305638451e+00 5.029622075068910014e+00 5.030158134203428943e+00 5.033062362112500132e+00 5.029878222144692934e+00 5.030929357548038716e+00 5.029305647898556941e+00 5.031576830812358736e+00 5.029936145731439545e+00 5.028064324349013958e+00 5.030191575375811297e+00 5.030603223153418568e+00 5.030461847092340122e+00 5.031381314321554221e+00 5.033174422220316302e+00 5.030472014317409979e+00 5.030860265364696993e+00 5.031270931553891934e+00 5.031377552162116018e+00 5.029247815202026572e+00 5.029616977314834259e+00 5.032019126412714094e+00 5.031102793659559147e+00 5.031037623241325640e+00 5.032988675115734445e+00 5.029418731283237243e+00 5.029444590063340215e+00 5.030351785057360026e+00 5.030115009576743290e+00 5.033315402935077287e+00 5.029104485073752073e+00 5.030730330102902492e+00 5.032498133507396609e+00 5.029895122832185095e+00 5.028558470996449259e+00 5.029773858982283130e+00 5.030332793668956803e+00 5.028933997413956192e+00 5.030620617066950295e+00 5.029439655966228884e+00 5.027705805338134049e+00 5.032223521864176874e+00 5.031397479267805117e+00 5.032178492815228665e+00 5.031183341463263403e+00 5.029951133418498976e+00 5.029697018894213834e+00 5.030484890569631773e+00 5.031728154496296845e+00 5.030016659394563661e+00 5.031671603602978493e+00 5.029944050048920978e+00 5.031230587882066452e+00 5.028479902765581322e+00 5.028117556391447529e+00 5.028197050461254314e+00 5.031021470601002576e+00 5.028870171780351228e+00 5.031149339793696385e+00 5.030347512123491072e+00 5.032393620852252170e+00 5.029057125838417797e+00 5.030436765122089149e+00 5.031072292687765568e+00 5.030555090229598569e+00 5.031999218950472752e+00 5.031142178938786458e+00 5.031676289782323508e+00 5.030009473389671193e+00 5.031127789134657746e+00 5.030919767421043076e+00 5.031455112092988458e+00 5.031100857021400863e+00 5.030777256530361896e+00 5.031351791310864741e+00 5.030935617053326148e+00 5.028369501847890000e+00 5.031034157531562023e+00 5.030594104422065449e+00 5.032348873820096102e+00 5.032252468350995045e+00 5.029211973344872355e+00 5.029474930440809288e+00 5.029707882480244585e+00 5.030696593741391887e+00 5.030864868880720486e+00 5.030477283055967419e+00 5.030595026047364193e+00 5.032512486572043642e+00 5.031768848106569436e+00 5.032534178274599590e+00 5.028941864085296309e+00 5.030876982323954749e+00 5.029542357014775256e+00 5.029793466719739925e+00 5.030657728686058761e+00 5.030466067565810384e+00 5.030523814268773819e+00 5.031198452622469119e+00 5.031178300261613501e+00 5.030393423985680457e+00 5.029259517280209479e+00 5.027141294022174023e+00 5.030579894343970793e+00 5.031587536024354712e+00 5.030349865742745230e+00 5.030526610586875336e+00 5.031249206555747477e+00 5.034210047356427964e+00 5.032188730394171472e+00 5.030785727048344924e+00 5.028593056412277384e+00 5.030628994192622550e+00
6.000000000000000000e+00 2.934595385392767524e-03 2.576154155609042769e-05 2.947638031550068802e-03 2.933968835733882178e-03 2.933794688786008249e-03 2.935704946844992953e-03 2.933899176954732346e-03 2.936205954218107199e-03 2.934177812071330806e-03 2.937390153463648700e-03 2.932776598936899862e-03 2.935455782750342850e-03 2.935495970507544759e-03 2.935134280692729743e-03 2.936023769718792888e-03 2.935332540294924384e-03 2.938322509430726925e-03 2.934536822702331783e-03 2.933457111625514379e-03 2.935198581104252365e-03 2.932945387517146580e-03 2.934084040637860262e-03 2.933631258573388308e-03 2.933304398148147991e-03 2.934161736968450042e-03 2.933296360596707609e-03 2.934670781893004236e-03 2.936511381172839542e-03 2.935144997427983730e-03 2.935198581104252365e-03 2.934625235768175550e-03 2.936334555041152442e-03 2.932998971193415648e-03 2.931420931927297604e-03 2.931311085390946296e-03 2.934836891289437782e-03 2.933899176954732346e-03 2.931605795610425086e-03 2.933867026748971252e-03 2.933149005486968431e-03 2.932977537722908108e-03 2.934890474965706417e-03 2.932905199759945104e-03 2.932503322187928613e-03 2.935935356652949121e-03 2.936559606481481399e-03 2.936176483196159277e-03 2.932503322187928613e-03 2.934351959019204301e-03 2.932171103395061519e-03 2.935680834190672241e-03 2.935573666838134539e-03 2.933904535322359557e-03 2.933810763888889013e-03 2.934630594135802326e-03 2.933368698559670612e-03 2.933494620198902683e-03 2.932302383401920367e-03 2.932283629115226432e-03 2.935796039094650325e-03 2.935798718278463497e-03 2.933516053669410224e-03 2.933861668381344476e-03 2.934317129629629602e-03 2.933357981824417059e-03 2.935056584362139964e-03 2.934917266803840734e-03 2.933250814471879356e-03 2.929052533436214169e-03 2.934526105967078229e-03 2.934092078189300210e-03 2.934416259430726922e-03 2.934997642318244119e-03 2.933896497770919175e-03 2.933727709190672023e-03 2.932929312414266250e-03 2.936112182784636655e-03 2.935774605624142785e-03 2.936179162379972448e-03 2.932425625857338833e-03 2.933454432441700774e-03 2.933173118141289577e-03 2.932629243827160684e-03 2.930818115569272866e-03 2.935048546810699582e-03 2.936243462791495069e-03 2.934898512517146799e-03 2.936409572187928616e-03 2.937333890603566460e-03 2.935726380315500494e-03 2.935897848079561251e-03 2.933778613683127486e-03 2.932101444615912121e-03 2.934346600651577524e-03 2.933912572873799939e-03 2.935161072530864061e-03 2.937500000000000007e-03 2.933339227537723123e-03 2.936717678326474564e-03 2.936130937071330591e-03 2.936128257887516985e-03 2.937427662037037004e-03 2.935854981138546170e-03 2.935241448045267446e-03 2.932923954046639040e-03 2.935348615397805148e-03 2.934544860253772165e-03 2.933371377743484217e-03 2.934823495370370190e-03 2.933797367969821854e-03 2.936168445644718895e-03 2.935632608882030384e-03 2.935857660322359342e-03 2.935048546810699582e-03 2.935072659465020727e-03 2.933708954903978088e-03 2.932029106652949118e-03 2.935980902777777807e-03 2.936414930555555393e-03 2.934488597393689925e-03 2.935011038237311277e-03 2.932931991598079421e-03 2.933296360596707609e-03 2.933379415294924599e-03 2.934459126371742003e-03 2.935967506858710649e-03 2.937116876714677451e-03 2.938271604938271463e-03 2.936428326474622985e-03 2.935069980281207122e-03 2.934820816186557019e-03 2.931573645404663992e-03 2.935169110082304442e-03 2.934140303497942501e-03 2.931715642146776393e-03 2.934338563100137142e-03 2.936980238340192260e-03 2.933864347565157647e-03 2.934038494513031576e-03 2.935115526406035808e-03 2.934094757373113815e-03 2.932902520576131499e-03 2.935876414609053710e-03 2.935745134602194863e-03 2.936409572187928616e-03 2.936398855452675063e-03 2.933778613683127486e-03 2.934930662722907892e-03 2.933076667524005428e-03 2.933875064300411634e-03 2.932066615226337422e-03 2.935975544410151031e-03 2.935053905178326358e-03 2.932613168724279920e-03 2.935118205589848980e-03 2.934732403120713252e-03 2.934681498628257789e-03 2.935190543552811983e-03 2.937312457133058920e-03 2.933942043895747427e-03 2.934242112482853427e-03 2.931887109910836717e-03 2.933722350823045246e-03 2.934560935356652928e-03 2.933328510802469136e-03 2.934193887174211136e-03 2.933518732853223395e-03 2.932856974451303247e-03 2.936353309327846377e-03 2.933349944272976677e-03 2.932990933641975266e-03 2.936623906893004021e-03 2.934303733710562443e-03 2.934984246399176960e-03 2.934791345164609096e-03 2.934662744341563854e-03 2.934043852880658353e-03 2.933593750000000003e-03 2.933864347565157647e-03 2.936069315843621574e-03 2.936021090534979283e-03 2.935206618655692747e-03 2.936819487311385490e-03 2.935562950102880552e-03 2.935335219478737989e-03 2.935155714163237284e-03 2.936503343621399160e-03 2.934767232510287951e-03 2.935096772119341439e-03 2.935166430898491271e-03 2.934003665123456877e-03 2.934049211248285129e-03 2.934938700274348274e-03 2.936211312585733976e-03 2.934547539437585770e-03 2.934443051268861239e-03 2.935257523148148209e-03 2.934108153292180974e-03 2.932149669924553979e-03 2.934767232510287951e-03 2.936345271776405995e-03 2.936045203189300429e-03 2.934925304355281116e-03 2.933789330418381473e-03 2.934368034122085064e-03 2.933727709190672023e-03 2.932642639746227842e-03 2.936329196673525231e-03 2.936591756687242927e-03 2.935895168895747646e-03 2.933907214506172728e-03 2.933489261831275906e-03 2.933532128772290987e-03 2.935262881515774986e-03 2.937641996742112408e-03 2.937250835905349904e-03 2.934247470850480204e-03 2.930271562071330802e-03 2.933738425925926010e-03 2.933098100994512968e-03 2.934772590877915161e-03 2.933411565500685693e-03 2.933127572016460891e-03 2.934491276577503530e-03 2.934451088820301621e-03 2.936005015432098953e-03 2.933738425925926010e-03 2.933920610425239887e-03
