# vvf statistics with RF=500
# gcat file: /disk2/salam/Abacus/AbacusCosmos_720box_products/GCAT_derivative/AbacusCosmos_720box_23_rockstar_halos_z0.100_Mr21_hod-default_real-9.gcat.rsd_zz.1pz0.100by100
# stats order in row: stdvvf,p2.5,p16,p50,p84,p97.5,rho
# columns: numbers, mean, sigma,All, jnrealizations
0.000000000000000000e+00 1.377576840586294926e+00 4.538809384060336904e-03 1.377577043968404302e+00 1.378022249330207893e+00 1.377256823816000786e+00 1.377561069198816934e+00 1.377708254057553594e+00 1.377931472210834896e+00 1.377746669613327146e+00 1.378003050494278847e+00 1.376997150186785479e+00 1.376640566641482488e+00 1.377360472608465169e+00 1.378113013283763566e+00 1.377955433810319930e+00 1.377538806859610609e+00 1.377444846503928177e+00 1.377728201032448530e+00 1.377737112479070047e+00 1.377855636888670299e+00 1.377422724930500664e+00 1.377871636072549366e+00 1.377862791108650953e+00 1.377645494169532636e+00 1.378246131976881950e+00 1.377460125005685487e+00 1.377568119116371115e+00 1.377464503772726001e+00 1.377859538282078189e+00 1.378090230085699419e+00 1.377461240854178870e+00 1.378152234574048673e+00 1.377432059702477618e+00 1.377648269336910758e+00 1.377065901352642951e+00 1.377539075744241392e+00 1.377653796591173485e+00 1.377231323224997306e+00 1.376908184032610949e+00 1.377719973589230262e+00 1.377557800961981771e+00 1.377604151206845762e+00 1.377794375832114282e+00 1.377579687318681190e+00 1.377566608409832805e+00 1.377963090231686838e+00 1.377493727308295446e+00 1.376988734328584929e+00 1.377549484286407777e+00 1.377288078877690447e+00 1.377966736335840992e+00 1.377732484067809571e+00 1.377668658038177618e+00 1.377154302577235478e+00 1.377714054227015872e+00 1.377350092963821160e+00 1.377601303129804666e+00 1.376979748212870280e+00 1.377370934473507003e+00 1.377279297913608147e+00 1.377473630752191980e+00 1.377792570165862651e+00 1.377261759484760928e+00 1.377465697168529513e+00 1.377846564280334585e+00 1.377696930769712003e+00 1.377799268576225034e+00 1.377672643031241817e+00 1.377033914355525024e+00 1.378031633504043230e+00 1.377908493979187243e+00 1.377936287740322285e+00 1.377344560137034213e+00 1.377650483304534657e+00 1.377985168722250187e+00 1.377348073894574254e+00 1.377593927569351617e+00 1.377317075194713469e+00 1.377710022701430503e+00 1.377711932360649483e+00 1.377378793996845374e+00 1.377299634989273214e+00 1.377446652065649424e+00 1.376981083885181034e+00 1.377704377996233021e+00 1.376638878662884480e+00 1.377718640654017834e+00 1.377389023782280786e+00 1.377881569416819163e+00 1.377782346427358640e+00 1.377699004329348220e+00 1.377458030899668895e+00 1.377231216911641187e+00 1.377727849479479350e+00 1.377592823230551211e+00 1.377953794542359223e+00 1.377839997049694398e+00 1.377123424882553238e+00 1.377397998622707842e+00 1.377780957306432796e+00 1.377647074458140830e+00 1.377765210629491976e+00 1.377345906106583140e+00 1.377487358780464133e+00 1.377374751944862252e+00 1.377339572237554544e+00 1.377408337307038710e+00 1.377805901805553956e+00 1.377509421497262077e+00 1.377392552141346149e+00 1.377475820753274238e+00 1.377232096139599182e+00 1.377373382738640517e+00 1.378090527731316239e+00 1.377535655379602764e+00 1.377760791269031726e+00 1.376957114346922584e+00 1.378068410799391463e+00 1.378083996446060722e+00 1.377748059660921287e+00 1.377647085303094654e+00 1.376987977824851495e+00 1.377648048238234280e+00 1.377448730289322132e+00 1.377516916265472346e+00 1.377637531151021166e+00 1.377247120485594278e+00 1.377396018561422020e+00 1.377704294888899339e+00 1.378158277742388416e+00 1.377885796437209986e+00 1.377493183078154715e+00 1.377563172339320019e+00 1.377665684269478996e+00 1.377143325096515492e+00 1.377589956463864285e+00 1.377681332932303881e+00 1.377684135287342793e+00 1.377747889736863351e+00 1.377783515525236702e+00 1.377240884411348176e+00 1.376925889141806136e+00 1.377153541387964752e+00 1.377551029247037873e+00 1.377892549686056789e+00 1.377596849653596633e+00 1.377896128278389254e+00 1.377778784345188745e+00 1.377607349302549133e+00 1.377547950932344722e+00 1.377704908551151464e+00 1.377415331175547264e+00 1.377389236484833912e+00 1.377212180777202644e+00 1.377447001693280937e+00 1.376875050753252339e+00 1.377872412656403034e+00 1.377707812718171665e+00 1.378092181440267128e+00 1.377939562015168651e+00 1.377930120920522583e+00 1.376863117912502599e+00 1.377781356626242015e+00 1.377939601962913985e+00 1.377816575640543828e+00 1.377797557741710310e+00 1.377434628914319337e+00 1.377615815858526549e+00 1.377437685478280605e+00 1.377312004298989701e+00 1.377423274911644402e+00 1.377751486926693802e+00 1.377360415070136401e+00 1.377692204645007967e+00 1.377120891124298696e+00 1.378012892988155880e+00 1.377498828529450048e+00 1.377455944803041232e+00 1.377787999058719848e+00 1.377882601612158364e+00 1.377430673249848470e+00 1.377454728158793440e+00 1.377981702993657409e+00 1.377921858467580973e+00 1.377829895331144971e+00 1.377626342751203437e+00 1.377973099793628586e+00 1.377950817256643923e+00 1.377939765491975832e+00 1.377918581699294487e+00 1.377557954037920140e+00 1.376953990589633969e+00 1.377753092785317879e+00 1.377557214688131637e+00 1.377865418826594190e+00 1.377848455815713136e+00 1.377516850162960438e+00 1.377062706026550343e+00 1.377347374415616610e+00 1.377856462903215951e+00 1.377709912306884998e+00 1.377827296691239267e+00 1.377182607983972629e+00 1.377620071309775041e+00 1.377550944782271802e+00 1.377621153012156041e+00 1.377412816363162040e+00 1.377356161131842116e+00 1.377744675174813693e+00 1.377366204541689676e+00 1.377563714437477715e+00 1.377366935746184406e+00 1.377404041290215320e+00 1.377738845446209393e+00 1.377568552979280714e+00 1.377097623052534470e+00 1.377139807113615388e+00 1.377212321232637038e+00 1.377585623408600579e+00 1.377793822844905369e+00 1.377216555952933907e+00 1.377718895458948545e+00 1.377466545630690042e+00 1.378211711181094978e+00 1.377929996126846968e+00 1.377792413010105577e+00 1.377089232520425144e+00 1.377645618529207416e+00
1.000000000000000000e+00 2.799999986746051425e-02 1.916621820370109218e-04 2.800000000000000058e-02 2.799537275042011247e-02 2.799312218757225162e-02 2.800894066563307250e-02 2.799326850248868778e-02 2.801533744319916613e-02 2.799507517959270997e-02 2.802667409401462043e-02 2.798771080891487850e-02 2.801117611935686688e-02 2.800745459757838021e-02 2.800507769507469547e-02 2.801072410540078605e-02 2.800535853471726108e-02 2.803029596862157552e-02 2.799648915686624856e-02 2.799200769112759543e-02 2.800797837038365365e-02 2.798348269233839544e-02 2.799815487557281296e-02 2.799123331261288775e-02 2.798707300309289867e-02 2.799900553699961187e-02 2.798937626553672092e-02 2.800326965072743104e-02 2.801518349694601812e-02 2.800983114668216881e-02 2.801017711500843402e-02 2.800093777000421322e-02 2.801454250237201543e-02 2.798706679449524878e-02 2.797502416119848623e-02 2.796843440001702333e-02 2.800253768816762454e-02 2.799607575696635639e-02 2.798050302274312368e-02 2.799197679981581949e-02 2.798797085028558243e-02 2.798743386327179686e-02 2.800284686461618211e-02 2.798715317116908310e-02 2.798140940418398365e-02 2.801434804492159911e-02 2.802080791442489519e-02 2.801561600876960323e-02 2.798254179579607107e-02 2.799701600853709074e-02 2.798465964560203911e-02 2.801209592996726713e-02 2.801003789847589590e-02 2.799782463502010349e-02 2.799355199267094044e-02 2.799436087835232428e-02 2.798680050144864914e-02 2.799166883456045973e-02 2.798129311316225470e-02 2.798224172377742139e-02 2.800770891750997693e-02 2.800922081615552645e-02 2.799420743108795365e-02 2.799230000052094214e-02 2.799788036401738844e-02 2.799224213072504241e-02 2.800042072597374102e-02 2.800235981725099702e-02 2.798640925165372939e-02 2.795577512928524092e-02 2.799910721410678316e-02 2.799952096129431495e-02 2.799877311386855805e-02 2.800516538562028770e-02 2.799141830714579546e-02 2.799406285219095680e-02 2.798320979442410483e-02 2.801413415391323242e-02 2.800953907242915292e-02 2.801002531524302008e-02 2.798450223307602167e-02 2.799299655869724734e-02 2.798826551639241669e-02 2.798048300848656258e-02 2.796665426437404400e-02 2.800314231602780632e-02 2.801356155741772588e-02 2.799861507108914946e-02 2.801294492511578749e-02 2.802643391377045504e-02 2.800703012850785933e-02 2.801137394277282769e-02 2.799205027319914135e-02 2.797959269299213000e-02 2.799943781985982441e-02 2.799236672038094009e-02 2.800824375469461100e-02 2.802373056990643818e-02 2.799281715826792277e-02 2.801259665070989294e-02 2.801628584473170314e-02 2.801427522075820159e-02 2.802487694565355958e-02 2.800788708671651805e-02 2.800342960122075009e-02 2.798966191786467911e-02 2.800484659330426326e-02 2.799990909801506472e-02 2.799245997797225258e-02 2.800127579742820935e-02 2.799860314322610497e-02 2.800850615583941328e-02 2.800928386755920790e-02 2.800940120085013835e-02 2.800330067347125279e-02 2.800526652888805229e-02 2.799525365582068021e-02 2.797470500322448914e-02 2.801162503312578517e-02 2.801544185630789469e-02 2.800133009592618502e-02 2.800397564086018129e-02 2.798118585676326667e-02 2.799005449390506994e-02 2.798643067740331364e-02 2.799953782418209899e-02 2.801396203234984145e-02 2.802235221277747310e-02 2.803332762518847068e-02 2.801989486259112705e-02 2.800697033925293386e-02 2.800070392739956171e-02 2.797511234924703050e-02 2.800457451193381214e-02 2.799228730834462178e-02 2.797328302754197374e-02 2.799968366021605634e-02 2.802324279931039594e-02 2.799279841229840304e-02 2.799618296270225959e-02 2.800701252161582472e-02 2.799348381472802766e-02 2.798444405368105681e-02 2.800985914074774832e-02 2.801092069709833557e-02 2.801499574033534945e-02 2.801494848478597310e-02 2.799324984076180176e-02 2.800288468900005712e-02 2.798873971685325937e-02 2.799169144372230800e-02 2.797768251990238875e-02 2.801080166034979058e-02 2.800368989379439788e-02 2.797752279709656356e-02 2.800467051033619231e-02 2.799955995644316450e-02 2.800728980996678233e-02 2.801016538785755863e-02 2.802061711224098500e-02 2.799891964863763377e-02 2.799822456150287756e-02 2.797559026896227069e-02 2.799025954314248582e-02 2.799748293760544876e-02 2.798655374285326236e-02 2.800095593245810477e-02 2.798760746592736728e-02 2.798581722045542092e-02 2.801385119740234381e-02 2.799393561700242936e-02 2.798969020504157162e-02 2.801646088353755559e-02 2.799907383633824451e-02 2.800691072501624093e-02 2.799979660888147689e-02 2.800073528385048360e-02 2.799439123454364881e-02 2.799270004544053558e-02 2.799598676445284526e-02 2.801117182759438329e-02 2.801053435187501189e-02 2.800875062071089827e-02 2.802380000559626799e-02 2.800776477669828998e-02 2.800695756174973600e-02 2.800701914870673201e-02 2.801676006711080816e-02 2.800282307210172697e-02 2.800773740092903086e-02 2.800676617724589049e-02 2.799965158380079630e-02 2.798985566414517040e-02 2.800616644489298951e-02 2.801581321308389827e-02 2.800299128286309891e-02 2.800198414314809120e-02 2.800726494365878699e-02 2.799849436222329180e-02 2.797961760146046653e-02 2.800255478621148028e-02 2.801568937154717484e-02 2.801171884314429192e-02 2.799890446436929456e-02 2.798997991215845110e-02 2.799880001147308020e-02 2.799683254830908838e-02 2.798236183100781538e-02 2.801495487796944531e-02 2.801758579385026093e-02 2.800833106125472094e-02 2.799246820104898600e-02 2.799205010252949627e-02 2.799199031457346581e-02 2.800777022011439674e-02 2.802523013960016990e-02 2.802267484894802041e-02 2.799513330786120371e-02 2.796709768844674732e-02 2.799046758271996060e-02 2.798998586374306166e-02 2.800350880352221392e-02 2.799242145473109997e-02 2.798799391780591381e-02 2.799812739299326753e-02 2.800466951951600600e-02 2.801564394800002203e-02 2.799454892321635163e-02 2.799824195784459888e-02
2.000000000000000000e+00 1.199999994319736335e-01 8.214093515871995080e-04 1.199999999999999956e-01 1.199801689303719165e-01 1.199705236610239256e-01 1.200383171384274555e-01 1.199711507249515141e-01 1.200657318994249878e-01 1.199788936268258999e-01 1.201143175457769496e-01 1.199473320382066083e-01 1.200478976543865733e-01 1.200319482753359063e-01 1.200217615503201274e-01 1.200459604517176704e-01 1.200229651487882687e-01 1.201298398655210320e-01 1.199849535294267855e-01 1.199657472476896858e-01 1.200341930159299353e-01 1.199292115385931223e-01 1.199920923238834702e-01 1.199624284826266707e-01 1.199445985846838425e-01 1.199957380157126163e-01 1.199544697094430956e-01 1.200140127888318503e-01 1.200650721297686629e-01 1.200421334857807304e-01 1.200436162071790158e-01 1.200040190143037699e-01 1.200623250101657824e-01 1.199445719764082180e-01 1.198929606908506612e-01 1.198647188572158351e-01 1.200108758064326736e-01 1.199831818155700780e-01 1.199164415260419586e-01 1.199656148563535280e-01 1.199484465012239237e-01 1.199461451283077018e-01 1.200122008483550662e-01 1.199449421621532064e-01 1.199203260179313585e-01 1.200614916210925587e-01 1.200891767761066847e-01 1.200669257518697242e-01 1.199251791248402976e-01 1.199872114651589633e-01 1.199342556240087232e-01 1.200518396998597193e-01 1.200430195648966858e-01 1.199906770072290130e-01 1.199723656828754481e-01 1.199758323357956735e-01 1.199434307204942096e-01 1.199642950052591112e-01 1.199198276278382186e-01 1.199238931019032395e-01 1.200330382178999011e-01 1.200395177835236749e-01 1.199751747046626515e-01 1.199670000022326072e-01 1.199909158457888037e-01 1.199667519888216183e-01 1.200018031113160299e-01 1.200101135025042759e-01 1.199417539356588402e-01 1.198104648397938787e-01 1.199961737747433643e-01 1.199979469769756335e-01 1.199947419165795365e-01 1.200221373669440872e-01 1.199632213163391165e-01 1.199745550808183903e-01 1.199280419761033084e-01 1.200605749453424187e-01 1.200408817389820859e-01 1.200429656367558162e-01 1.199335809988972268e-01 1.199699852515596354e-01 1.199497093559674932e-01 1.199163557506566918e-01 1.198570897044601846e-01 1.200134670686905936e-01 1.200581209603616833e-01 1.199940645903820741e-01 1.200554782504962281e-01 1.201132882018733777e-01 1.200301291221765321e-01 1.200487454690263994e-01 1.199659297422820403e-01 1.199125401128234153e-01 1.199975906565420858e-01 1.199672859444897433e-01 1.200353303772626196e-01 1.201017024424561597e-01 1.199692163925768079e-01 1.200539856458995303e-01 1.200697964774215809e-01 1.200611795175351437e-01 1.201066154813724002e-01 1.200338018002136686e-01 1.200146982909460480e-01 1.199556939337057676e-01 1.200207711141611372e-01 1.199996104200645591e-01 1.199676856198810815e-01 1.200054677032637573e-01 1.199940134709690243e-01 1.200364549535974795e-01 1.200397880038251847e-01 1.200402908607863112e-01 1.200141457434482362e-01 1.200225708380916467e-01 1.199796585249457703e-01 1.198915928709620993e-01 1.200498215705390892e-01 1.200661793841766856e-01 1.200057004111122344e-01 1.200170384608293395e-01 1.199193679575568383e-01 1.199573764024502998e-01 1.199418457602999116e-01 1.199980192464947110e-01 1.200598372814993264e-01 1.200957951976177329e-01 1.201428326793791690e-01 1.200852636968191278e-01 1.200298728825125727e-01 1.200030168317124252e-01 1.198933386396301426e-01 1.200196050511449092e-01 1.199669456071912471e-01 1.198854986894656027e-01 1.199986442580688317e-01 1.200996119970445530e-01 1.199691360527074396e-01 1.199836412687239895e-01 1.200300536640678123e-01 1.199720734916915471e-01 1.199333316586330966e-01 1.200422534603474839e-01 1.200468029875643022e-01 1.200642674585800929e-01 1.200640649347970434e-01 1.199710707461219966e-01 1.200123629528573876e-01 1.199517416436568229e-01 1.199643919016670224e-01 1.199043536567245272e-01 1.200462928300705390e-01 1.200158138305474215e-01 1.199036691304138369e-01 1.200200164728694036e-01 1.199981140990421247e-01 1.200312420427147864e-01 1.200435659479609507e-01 1.200883590524613603e-01 1.199953699227327419e-01 1.199923909778694703e-01 1.198953868669811601e-01 1.199582551848963619e-01 1.199892125897376316e-01 1.199423731836568446e-01 1.200040968533918617e-01 1.199468891396887060e-01 1.199392166590946551e-01 1.200593622745814715e-01 1.199740097871532657e-01 1.199558151644638804e-01 1.200705466437323871e-01 1.199960307271639021e-01 1.200296173929267518e-01 1.199991283237777651e-01 1.200031512165020686e-01 1.199759624337584929e-01 1.199687144804594402e-01 1.199828004190836156e-01 1.200478792611187895e-01 1.200451472223214577e-01 1.200375026601895462e-01 1.201020000239839958e-01 1.200332776144212438e-01 1.200298181217845928e-01 1.200300820658859874e-01 1.200718288590463256e-01 1.200120988804359856e-01 1.200331602896958505e-01 1.200289979024823928e-01 1.199985067877177014e-01 1.199565242749078692e-01 1.200264276209699471e-01 1.200677709132167009e-01 1.200128197836990013e-01 1.200085034706346726e-01 1.200311354728233748e-01 1.199935472666712327e-01 1.199126468634019865e-01 1.200109490837634879e-01 1.200672401637735975e-01 1.200502236134755318e-01 1.199953048472969797e-01 1.199570567663933579e-01 1.199948571920274876e-01 1.199864252070389492e-01 1.199244078471763675e-01 1.200640923341547706e-01 1.200753676879296739e-01 1.200357045482345342e-01 1.199677208616385105e-01 1.199659290108406884e-01 1.199656727767434150e-01 1.200333009433474096e-01 1.201081291697150277e-01 1.200971779240629644e-01 1.199791427479766082e-01 1.198589900933432068e-01 1.199591467830855573e-01 1.199570822731845510e-01 1.200150377293809079e-01 1.199675205202761497e-01 1.199485453620253439e-01 1.199919745413997180e-01 1.200200122264971636e-01 1.200670454914286728e-01 1.199766382423557848e-01 1.199924655336197105e-01
3.000000000000000000e+00 5.067784302181800316e-01 1.226567931317525291e-02 5.060000000000000053e-01 5.059163789897349606e-01 5.078752168316679194e-01 5.061615706003691484e-01 5.078778714022947893e-01 5.062771695092420643e-01 5.059110014597825167e-01 5.064820389846927950e-01 5.077770389617413116e-01 5.062019684426634081e-01 5.061347152276663985e-01 5.060917612038499103e-01 5.061937999047427805e-01 5.060968363773905576e-01 5.065474914329470835e-01 5.059365540490829982e-01 5.058555675610915126e-01 5.061441805505045854e-01 5.077003288467109021e-01 5.059666559657086671e-01 5.078409472431195670e-01 5.077654673418283693e-01 5.059820286329215211e-01 5.078072551033090409e-01 5.080593208060547594e-01 5.062743874805244459e-01 5.061776628650420662e-01 5.061839150069381565e-01 5.060169468436476192e-01 5.062628037928657010e-01 5.077653547001280687e-01 5.075468669246011588e-01 5.074273098288802908e-01 5.060458596504577855e-01 5.059290833223205608e-01 5.076462691269109095e-01 5.078544362252299660e-01 5.077817568551812322e-01 5.077720143765025451e-01 5.060514469105638069e-01 5.077669218197818912e-01 5.076627134759094107e-01 5.062592896689404043e-01 5.063760287392499171e-01 5.062822035870506721e-01 5.076832582951572581e-01 5.079458618691728988e-01 5.077216821416370429e-01 5.062185907344084468e-01 5.061813991653144607e-01 5.079605326639361484e-01 5.078830147241727433e-01 5.078976902215349698e-01 5.077605233834254772e-01 5.058494439388425690e-01 5.076606036245151499e-01 5.076778141313903481e-01 5.081398617891096370e-01 5.061666333205248058e-01 5.058953200046608645e-01 5.078603000094513709e-01 5.079615437471726169e-01 5.058598042195311395e-01 5.060076031193825319e-01 5.060426452688929766e-01 5.077534249942891043e-01 5.071976344884607801e-01 5.059838660835012103e-01 5.059913430862472694e-01 5.059778284149103467e-01 5.060933458972808330e-01 5.078443035725023202e-01 5.058927072574508355e-01 5.076953776988373246e-01 5.062554243528605280e-01 5.061723846660410864e-01 5.061811717683203371e-01 5.077188262286649323e-01 5.078729375649357891e-01 5.077871029402624137e-01 5.076459060111133681e-01 5.073950130822147964e-01 5.060567861396453315e-01 5.062450767161917886e-01 5.059749723561111079e-01 5.062339332895924304e-01 5.064776985845660384e-01 5.061270444651777556e-01 5.062055433943947191e-01 5.078557692423273373e-01 5.076297531442858224e-01 5.059898406017525607e-01 5.078615104983399409e-01 5.061489764241240419e-01 5.064288452990235445e-01 5.078696827285751336e-01 5.062276394735431007e-01 5.062943084797943971e-01 5.062579736322732060e-01 5.064495619464536302e-01 5.061425309242343351e-01 5.060619777934892705e-01 5.078124376526877981e-01 5.060875848647128361e-01 5.059983572712722921e-01 5.058637410304985815e-01 5.080231466104832005e-01 5.079746570271022055e-01 5.061537183876694268e-01 5.061677727494628964e-01 5.061698931296489956e-01 5.060596478848733426e-01 5.060951737006198492e-01 5.059142267801879367e-01 5.075410764870729174e-01 5.062100809557731340e-01 5.062790564032784157e-01 5.060240367335232525e-01 5.060718455098304203e-01 5.076586576869906997e-01 5.078195601037062135e-01 5.077538137186029532e-01 5.079916148101609741e-01 5.062523138703222125e-01 5.064039364166215140e-01 5.066022777980487835e-01 5.063595285882539487e-01 5.061259639879279737e-01 5.060127209737207421e-01 5.075484669077675592e-01 5.060826679656610372e-01 5.078600697371096206e-01 5.075152777854043951e-01 5.059942832881901831e-01 5.064200305875379282e-01 5.078693426231282171e-01 5.059310206831194590e-01 5.061267262834859837e-01 5.078817777814942369e-01 5.077177706882134434e-01 5.061781687577985300e-01 5.061973525975628219e-01 5.062709944503459569e-01 5.062701404750609147e-01 5.058780149794811498e-01 5.060521304512153318e-01 5.077957062914805197e-01 5.078492590503904669e-01 5.075950971468005113e-01 5.061952014334640815e-01 5.060666816521416367e-01 5.075921993187518799e-01 5.060844027939326306e-01 5.079920163526117083e-01 5.061317372801139580e-01 5.061837030805687032e-01 5.063725806712120470e-01 5.059804765075230915e-01 5.059679152900162791e-01 5.075571377368869319e-01 5.078232802827279402e-01 5.059545130867270091e-01 5.077560464774806270e-01 5.060172750651357187e-01 5.077751640246822573e-01 5.077426838568340761e-01 5.062503109244852473e-01 5.078899747656154817e-01 5.078129508628971278e-01 5.062974716810715314e-01 5.079831967449938146e-01 5.061248866735077456e-01 5.059963244319295450e-01 5.060132876295837523e-01 5.078982409695775857e-01 5.078675579672783380e-01 5.059274751004693149e-01 5.062018908843841647e-01 5.061903707874555458e-01 5.061581362171325704e-01 5.064301001011325409e-01 5.061403206074762684e-01 5.061257330801917087e-01 5.061268460444858786e-01 5.063028783556453583e-01 5.060510169458384278e-01 5.061398258882174872e-01 5.061222744888007607e-01 5.059937036215429451e-01 5.078159527637766679e-01 5.061114364684232703e-01 5.062857673507304979e-01 5.060540567545974699e-01 5.060358563011762012e-01 5.061312879104051810e-01 5.079726834289082227e-01 5.076302050550683953e-01 5.060461686365360645e-01 5.062835293572452988e-01 5.062117762368217866e-01 5.079801238535571750e-01 5.078182069777318342e-01 5.059783144930491972e-01 5.059427596230142710e-01 5.076799932197132437e-01 5.062702560090192039e-01 5.063178004174369029e-01 5.061505541783889450e-01 5.078633516476029897e-01 5.078557661458922290e-01 5.078546814215471050e-01 5.061404189777816143e-01 5.064559446656317077e-01 5.064097669131321089e-01 5.079117042997675080e-01 5.074030580618196229e-01 5.078270547150621761e-01 5.078183149564812204e-01 5.080636597210458349e-01 5.078625035358357298e-01 5.077821753659073067e-01 5.059661593162354531e-01 5.060843848883963547e-01 5.062827084888575913e-01 5.079011018926394838e-01 5.059682296667631363e-01
4.000000000000000000e+00 1.819751802569626653e+00 9.161716963684635867e-03 1.820000000000000062e+00 1.819699228777307276e+00 1.819552942192196321e+00 1.818580504647175911e+00 1.819562452661764640e+00 1.818995838276288524e+00 1.819679886673526203e+00 1.819731910818520815e+00 1.819201202579466825e+00 1.820726447758196365e+00 1.820484548842594696e+00 1.820330050179855164e+00 1.818696300843522629e+00 1.820348304756622237e+00 1.819967073962643678e+00 1.819771795196306163e+00 1.819480499923293415e+00 1.820518594074937324e+00 1.820925195194305735e+00 1.819880066912232586e+00 1.819430165319837478e+00 1.819159745201038625e+00 1.819935359904974792e+00 1.819309457259886909e+00 1.820212527297282890e+00 1.818985842765995287e+00 1.818638322309577893e+00 1.818660785538761981e+00 1.820060955050273988e+00 1.818944223904011670e+00 1.819159341642191174e+00 1.820374786489415753e+00 1.819945981315393535e+00 1.820164949730895376e+00 1.819744924202812975e+00 1.820731303837070048e+00 1.819478491988028468e+00 1.819218105268562757e+00 1.819183201112666737e+00 1.820185046200051726e+00 1.819164956125990384e+00 1.818791611271959097e+00 1.818931598059552623e+00 1.819351028158016303e+00 1.819013925140826382e+00 1.820863969712158470e+00 1.819806040554910798e+00 1.819002876964132653e+00 1.818785371452874777e+00 1.818651746408185055e+00 1.819858601276306720e+00 1.819580879523611028e+00 1.819633457092900919e+00 1.819142032594162073e+00 1.819458474246430146e+00 1.820782716149343505e+00 1.818845712045532359e+00 1.820501079638148445e+00 1.818598694420383799e+00 1.819623483020716970e+00 1.819499500033861183e+00 1.819862223661130152e+00 1.819495738497127979e+00 1.820027347188293065e+00 1.820153388121314997e+00 1.819116601357492424e+00 1.819122224484204242e+00 1.819941968916940933e+00 1.819968862484130367e+00 1.819920252401456384e+00 1.820335750065318559e+00 1.819442189964476597e+00 1.819614085392412095e+00 1.818908636637566856e+00 1.818917710421937617e+00 1.820620039707894877e+00 1.820651645490796389e+00 1.818992645149941190e+00 1.819544776315320966e+00 1.819237258565507220e+00 1.820730001480804106e+00 1.819830145346053474e+00 1.820204250541807234e+00 1.818880532549479456e+00 1.819909979620794704e+00 1.820841420132526256e+00 1.819716316258381594e+00 1.820456958353010801e+00 1.820739306280233727e+00 1.819483267757944445e+00 1.820672067379702330e+00 1.819963458290888791e+00 1.819503836824761134e+00 1.820535844055149788e+00 1.819540792003210949e+00 1.819533115287415015e+00 1.820818782296143024e+00 1.819057416632936963e+00 1.818926869690657533e+00 1.819615224542791898e+00 1.820512660636574021e+00 1.820222924079348381e+00 1.819328024661204024e+00 1.820315028564777116e+00 1.819994091370979117e+00 1.819509898568196338e+00 1.820082926832833348e+00 1.819909204309696715e+00 1.820552900129561724e+00 1.820603451391348493e+00 1.820611078055259124e+00 1.820214543775631633e+00 1.820342324377723475e+00 1.819691487628344095e+00 1.820354018424107823e+00 1.818754796793667028e+00 1.819002617670276711e+00 1.820086456235202155e+00 1.820258416655911704e+00 1.818777080689612191e+00 1.819353542103829380e+00 1.819117994031215435e+00 1.819969958571836521e+00 1.818906534814714870e+00 1.819451297243908972e+00 1.820163915092594120e+00 1.819291745006809791e+00 1.820453072051440468e+00 1.820045755280971900e+00 1.820380525011717543e+00 1.820297343275697699e+00 1.819498675042400482e+00 1.820261488435052755e+00 1.819979437914043707e+00 1.819509121755225056e+00 1.819531896799396087e+00 1.819751892575646846e+00 1.820455813905028641e+00 1.819576447957321763e+00 1.820987752350245792e+00 1.820640844148603499e+00 1.818709065261599145e+00 1.818973651997488172e+00 1.818970583762175242e+00 1.819561239649517104e+00 1.820187504785003574e+00 1.819268081595461828e+00 1.819459943841949645e+00 1.820547769687934192e+00 1.820702107922736568e+00 1.820239843096636001e+00 1.820537376296783805e+00 1.820303583171852591e+00 1.819971397168805849e+00 1.820473837647840876e+00 1.820660750210741252e+00 1.819338639644789257e+00 1.819929777161446438e+00 1.819884596497687079e+00 1.820411623930330514e+00 1.819366870304261585e+00 1.819836390944354010e+00 1.819125993285461984e+00 1.820062135609776810e+00 1.819194485285278828e+00 1.819078119329602394e+00 1.818899338459909254e+00 1.819605815105157953e+00 1.819329863327702190e+00 1.819068781652545708e+00 1.819939799361985910e+00 1.820449197126055685e+00 1.819986779577295932e+00 1.820047793450281448e+00 1.819635430245337027e+00 1.819525502953634799e+00 1.819739139689434904e+00 1.820726168793634914e+00 1.818683980418170254e+00 1.820568790346208221e+00 1.819545300363357487e+00 1.820504710485388866e+00 1.820452241513732972e+00 1.820456244665937362e+00 1.819088207214551556e+00 1.820183499686612194e+00 1.820502931060386853e+00 1.818439318222608181e+00 1.819977352947051763e+00 1.819340618169436041e+00 1.820400818918044061e+00 1.819026729335233128e+00 1.820194433386101540e+00 1.820128969304625866e+00 1.820472221337821050e+00 1.819902133544513800e+00 1.820673688209320407e+00 1.820166061103746014e+00 1.819018688481170098e+00 1.818760887744154342e+00 1.819928790184003997e+00 1.819348694290299218e+00 1.819922000745750168e+00 1.819794115640090748e+00 1.820852259146294339e+00 1.818970998862444732e+00 1.819141820472134796e+00 1.820541518981557028e+00 1.819510433068184163e+00 1.819483256664417237e+00 1.819479370447274924e+00 1.820505064307436083e+00 1.819638156921182581e+00 1.819472245549553779e+00 1.819683665010978224e+00 1.819858999583927606e+00 1.819380392876797536e+00 1.819349081143299074e+00 1.820228072228943894e+00 1.819507394557521529e+00 1.819219604657384304e+00 1.819878280544562577e+00 1.818303185231431973e+00 1.819015739195144254e+00 1.819645680009062572e+00 1.819885727259898944e+00
5.000000000000000000e+00 4.853938926200364712e+00 1.630102171196761915e-02 4.854000000000000092e+00 4.855197502715716595e+00 4.852807682088418062e+00 4.853549289630416652e+00 4.852833046824288843e+00 4.856658855331740909e+00 4.853146247205107677e+00 4.854620334141818816e+00 4.851869580945456839e+00 4.853936661825697385e+00 4.853291775266082020e+00 4.854880254710448817e+00 4.853858334264450569e+00 4.854928940268485427e+00 4.853245530567050103e+00 4.853391370265313753e+00 4.854613905289842712e+00 4.855383107494366079e+00 4.855134247120711954e+00 4.855680002706484366e+00 4.854479605930292152e+00 4.853758089393539699e+00 4.855827531702503919e+00 4.854157540908797586e+00 4.852566583761767305e+00 4.854631083113646106e+00 4.853703597275067061e+00 4.855764275580391143e+00 4.852162502145016099e+00 4.854520007911036217e+00 4.853757012645319335e+00 4.853666691967937652e+00 4.852523368402954063e+00 4.854439926370202052e+00 4.853319704439810423e+00 4.852618667087164717e+00 4.850609694025227903e+00 4.853913801749528467e+00 4.853820672858851104e+00 4.852493320968489954e+00 4.853771992828466608e+00 4.854774531625920986e+00 4.854486311212842686e+00 4.855605714313913523e+00 4.852704915804734398e+00 4.852972248585204262e+00 4.853482703765680029e+00 4.853339544251554116e+00 4.854096051864328132e+00 4.853739424407323533e+00 4.853622884942413229e+00 4.852882191872311957e+00 4.853022417982934655e+00 4.853710829822665218e+00 4.854555137879485116e+00 4.854754355133650279e+00 4.854918939075382411e+00 4.851685391001682390e+00 4.853947950974102810e+00 4.854995403048682157e+00 4.854664600090345949e+00 4.853632545962157430e+00 4.854654563814315260e+00 4.854072935852733472e+00 4.854409091176298041e+00 4.853642975929660430e+00 4.852323826011653018e+00 4.855845165417948195e+00 4.855916921001614206e+00 4.853787310525642162e+00 4.852895087536772678e+00 4.854511689267856589e+00 4.856969904855130693e+00 4.853088098632980518e+00 4.854449246956678898e+00 4.853652984979508922e+00 4.853737243912826571e+00 4.855311137438689251e+00 4.852785903425586689e+00 4.853964905271484831e+00 4.854613801972418763e+00 4.852214514868895989e+00 4.854544742928534440e+00 4.854350024163957222e+00 4.855759813757461352e+00 4.852242245957556044e+00 4.854578731492382282e+00 4.855218722992041158e+00 4.853970941797633998e+00 4.852621858075308658e+00 4.854459332234134727e+00 4.853902542057127789e+00 4.854676171220352110e+00 4.853428524920651910e+00 4.854110473715937069e+00 4.852754803079732504e+00 4.852181919855106607e+00 4.854822104237079827e+00 4.854473691825671011e+00 4.854309042372134897e+00 4.853366719455306288e+00 4.854594545868768485e+00 4.852207819618397977e+00 4.852839845382582062e+00 4.853984241491611229e+00 4.854692344751187605e+00 4.852221077468631627e+00 4.853757844900696838e+00 4.854024162375475626e+00 4.853608761621331702e+00 4.853629093804459949e+00 4.854572195322480965e+00 4.854912990400807260e+00 4.855176848309471715e+00 4.851613124844933012e+00 4.856015282528305832e+00 4.854675853100210325e+00 4.854230581629489727e+00 4.854689205740546853e+00 4.852737090015800447e+00 4.854275165085821797e+00 4.853646691766803301e+00 4.852969894201489609e+00 4.854419420748622649e+00 4.853871722570383795e+00 4.855772820791574240e+00 4.855447495474719766e+00 4.855208358097633514e+00 4.854122030842767721e+00 4.853681992594359507e+00 4.853692844605749457e+00 4.852662949810885529e+00 4.853364605278532196e+00 4.853945160238883894e+00 4.854025984880550482e+00 4.854751038932894502e+00 4.855338016674362933e+00 4.855215670711543474e+00 4.850870838180727951e+00 4.853302154452685535e+00 4.853708448246717211e+00 4.853892400797183093e+00 4.856599618699563692e+00 4.852589291114713710e+00 4.854829329526404003e+00 4.854500081443081427e+00 4.854047145179979594e+00 4.852559652422431036e+00 4.854127917203064690e+00 4.853871773429185410e+00 4.852639405881800982e+00 4.852101810810746763e+00 4.852809332719685287e+00 4.851923746737937471e+00 4.853263219927100636e+00 4.853761516495888273e+00 4.855572651021187625e+00 4.855812636206584543e+00 4.853692215054819847e+00 4.851766655217170765e+00 4.854310726482139238e+00 4.855563469464716064e+00 4.855667074385040749e+00 4.854165717719701512e+00 4.851851665700408489e+00 4.853540300804697338e+00 4.854400214635577804e+00 4.852948695890349384e+00 4.852212723402564265e+00 4.852851260184183779e+00 4.853839442913780111e+00 4.855198023543887409e+00 4.853964740696810054e+00 4.854127466707509164e+00 4.853027680445531011e+00 4.852734500734584344e+00 4.855303990292250127e+00 4.853935918124569149e+00 4.853825452689198627e+00 4.853516357560330619e+00 4.854122500969353382e+00 4.855346079503338963e+00 4.855206143026186361e+00 4.855216819565088215e+00 4.854904280200773137e+00 4.854489399713635578e+00 4.855341333718197205e+00 4.855172965155412967e+00 4.853939599563180884e+00 4.852241406920023259e+00 4.853818721980515782e+00 4.852739074409175402e+00 4.854518560250624226e+00 4.854343965387172055e+00 4.853258910951158356e+00 4.852889032643619593e+00 4.854463653853390959e+00 4.856443072922962401e+00 4.854718743955245941e+00 4.854030708104860814e+00 4.853810081073162586e+00 4.854262230480051343e+00 4.853791973417512118e+00 4.853450899624725423e+00 4.852941037549070025e+00 4.854591466710990844e+00 4.853046110720491413e+00 4.853443653900282762e+00 4.852694308853277683e+00 4.852621828488506317e+00 4.853911091940833700e+00 4.853346468142680337e+00 4.854370220609315112e+00 4.853927607764211061e+00 4.853156324155652790e+00 4.852291448945511121e+00 4.854346806488861965e+00 4.854263262654868072e+00 4.852608025524634883e+00 4.854685663720507804e+00 4.853917802316625618e+00 4.855675236441975073e+00 4.854809494561810546e+00 4.854710872703432045e+00 4.853055016903291552e+00 4.853695230834917496e+00
6.000000000000000000e+00 3.218481880087129508e-03 2.677443335969656880e-05 3.232786243998628239e-03 3.217881944444444652e-03 3.217705118312757118e-03 3.219459983710562263e-03 3.217514896262002860e-03 3.220290530692729563e-03 3.218053412208504976e-03 3.221485446673525484e-03 3.216906721536351346e-03 3.219885973936899900e-03 3.219210819615912159e-03 3.219127764917695603e-03 3.219733260459533512e-03 3.219087577160493693e-03 3.222037358539094759e-03 3.217849794238683125e-03 3.217504179526748873e-03 3.219189386145404619e-03 3.216461977023319773e-03 3.218192729766803772e-03 3.217305919924554232e-03 3.216992455418381507e-03 3.217935528120713286e-03 3.217238940329218005e-03 3.218565136316872341e-03 3.220119062928669239e-03 3.219425154320987564e-03 3.219551075960219635e-03 3.218476723251029008e-03 3.220199438443072625e-03 3.216850458676268672e-03 3.215588563100136958e-03 3.214849108367627030e-03 3.218680341220850425e-03 3.217860510973937112e-03 3.216177983539094537e-03 3.217563121570644717e-03 3.216912079903978122e-03 3.217070151748971287e-03 3.218918788580246975e-03 3.216858496227709054e-03 3.216394997427983547e-03 3.220025291495198696e-03 3.220729916838134359e-03 3.220295889060356773e-03 3.216370884773662401e-03 3.218163258744855849e-03 3.216486089677640485e-03 3.219741298010973894e-03 3.219749335562414275e-03 3.218152542009602296e-03 3.217756022805212581e-03 3.217769418724279740e-03 3.216965663580246756e-03 3.217413087277091934e-03 3.216376243141289611e-03 3.216244963134430764e-03 3.219505529835390949e-03 3.219612697187928651e-03 3.217605988511659798e-03 3.217584555041152258e-03 3.217978395061728367e-03 3.217512217078189254e-03 3.218436535493827098e-03 3.218819658779149655e-03 3.216976380315500744e-03 3.213174618484224837e-03 3.218425818758573545e-03 3.218061449759944924e-03 3.218374914266118082e-03 3.218988447359396373e-03 3.217383616255144012e-03 3.217734589334705041e-03 3.216547710905349935e-03 3.220140496399176780e-03 3.219283157578875162e-03 3.220151213134430767e-03 3.216298546810699398e-03 3.217520254629629636e-03 3.216954946844993203e-03 3.216242283950617158e-03 3.214366855281207153e-03 3.218755358367627033e-03 3.220033329046639078e-03 3.218431177126200322e-03 3.220191400891632243e-03 3.221504200960219420e-03 3.219401041666666852e-03 3.219291195130315544e-03 3.217555084019204335e-03 3.216127079046639074e-03 3.218500835905349720e-03 3.217734589334705041e-03 3.219173311042523855e-03 3.221477409122085103e-03 3.217431841563785869e-03 3.220408414780521252e-03 3.220242305384087705e-03 3.220081554355281369e-03 3.221327374828532319e-03 3.219275120027434781e-03 3.218763395919067415e-03 3.217005851337448666e-03 3.219058106138545771e-03 3.218476723251029008e-03 3.217498821159122096e-03 3.218516911008230483e-03 3.218120391803840769e-03 3.219494813100136962e-03 3.219529642489712094e-03 3.219224215534979318e-03 3.218640153463648949e-03 3.218953617969821674e-03 3.217750664437585804e-03 3.215454603909464939e-03 3.219636809842249797e-03 3.220381622942386935e-03 3.218776791838134574e-03 3.218862525720164736e-03 3.216309263545953385e-03 3.217121056241426750e-03 3.216941550925926045e-03 3.218289180384087921e-03 3.220178004972565084e-03 3.220804933984910967e-03 3.222117734053498144e-03 3.220772783779149440e-03 3.219149198388203143e-03 3.218691057956104412e-03 3.215615354938271709e-03 3.219047389403292218e-03 3.217539008916323572e-03 3.215181327160493690e-03 3.218441893861453875e-03 3.221016589506172766e-03 3.217739947702331817e-03 3.218093599965706451e-03 3.219264403292181227e-03 3.217367541152263248e-03 3.216794195816186433e-03 3.219634130658436191e-03 3.219518925754458107e-03 3.220293209876543168e-03 3.220204796810699401e-03 3.217528292181070018e-03 3.218849129801097577e-03 3.216740612139917799e-03 3.217614026063100180e-03 3.215939536179698421e-03 3.219676997599451272e-03 3.218894675925925829e-03 3.215792181069958809e-03 3.218790187757201732e-03 3.218889317558299053e-03 3.219291195130315544e-03 3.219454625342935486e-03 3.221078210733882216e-03 3.217898019547324982e-03 3.218187371399176995e-03 3.215149176954732596e-03 3.217319315843621391e-03 3.218364197530864095e-03 3.216944230109739216e-03 3.218227559156378471e-03 3.217163923182441831e-03 3.216620048868312938e-03 3.220194080075445848e-03 3.217463991769547397e-03 3.216874571330589818e-03 3.220729916838134359e-03 3.218257030178326393e-03 3.219224215534979318e-03 3.218404385288066005e-03 3.218557098765431959e-03 3.217884623628257824e-03 3.217622063614540562e-03 3.217927490569272905e-03 3.219738618827160288e-03 3.219818994341563673e-03 3.219347457990397784e-03 3.221241640946502158e-03 3.219409079218106800e-03 3.219084897976680522e-03 3.219261724108367622e-03 3.220274455589849233e-03 3.218618719993141409e-03 3.219352816358024560e-03 3.218913430212620198e-03 3.218399026920438794e-03 3.217646176268861274e-03 3.218841092249657195e-03 3.220400377229080870e-03 3.218578532235939500e-03 3.218549061213991577e-03 3.219379608196159311e-03 3.218069487311385306e-03 3.216073495370370440e-03 3.218519590192044089e-03 3.220306605795610327e-03 3.219746656378600670e-03 3.218350801611796937e-03 3.217295203189300245e-03 3.218503515089163325e-03 3.218021262002743448e-03 3.216397676611797152e-03 3.220153892318244372e-03 3.220595957647462339e-03 3.219620734739369033e-03 3.217587234224965863e-03 3.217391653806584394e-03 3.217525612997256413e-03 3.219240290637860082e-03 3.221608689128943950e-03 3.221070173182441834e-03 3.218090920781892846e-03 3.214428476508916169e-03 3.217134452160493908e-03 3.217305919924554232e-03 3.218816979595336050e-03 3.217348786865569313e-03 3.217174639917695384e-03 3.218066808127572134e-03 3.218766075102880587e-03 3.220065479252400605e-03 3.217895340363511811e-03 3.218289180384087921e-03
