# vvf statistics with RF=500
# gcat file: /disk2/salam/Abacus/AbacusCosmos_720box_products/GCAT_derivative/AbacusCosmos_720box_planck_rockstar_halos_z0.100_Mr21_hod-default_real-9.gcat.rsd_zz.1pz0.100by100
# stats order in row: stdvvf,p2.5,p16,p50,p84,p97.5,rho
# columns: numbers, mean, sigma,All, jnrealizations
0.000000000000000000e+00 1.439229894907206431e+00 4.962095562789202094e-03 1.439230131226559628e+00 1.439669969962456664e+00 1.438871220971423615e+00 1.439243618394202118e+00 1.439143077185568220e+00 1.439632270225534194e+00 1.439461577506352841e+00 1.439525946618453567e+00 1.438309411351709421e+00 1.437847317914668910e+00 1.439129813296667004e+00 1.439868414534639429e+00 1.439309883441385995e+00 1.439352832807010651e+00 1.438875594197609908e+00 1.439505358381846456e+00 1.439394415139888750e+00 1.439496480446492033e+00 1.439316018327818636e+00 1.439443000410911555e+00 1.439466655875224044e+00 1.439208174252193162e+00 1.439908841604729428e+00 1.439339637724863064e+00 1.439295628989674780e+00 1.439225920503327316e+00 1.439603781524382509e+00 1.439659115419450020e+00 1.438955451954130327e+00 1.439513420587464676e+00 1.438951818864366183e+00 1.439050893446639723e+00 1.438565598961447867e+00 1.439345391076427783e+00 1.439316104315348177e+00 1.438711056997540538e+00 1.438557423540073987e+00 1.439360003575320013e+00 1.439188223925986554e+00 1.439117760815534108e+00 1.439546312725969779e+00 1.439218884758955319e+00 1.439299725655658779e+00 1.439395322351312290e+00 1.439235913045357584e+00 1.438593223181676706e+00 1.439357298588274103e+00 1.438924678063669305e+00 1.439562214967205156e+00 1.439186129942242376e+00 1.439116475843453369e+00 1.438439035560703294e+00 1.439117067962547569e+00 1.438893560712303454e+00 1.439151144782947922e+00 1.438644011242368848e+00 1.438974681988944848e+00 1.439115847536065251e+00 1.439371768402638807e+00 1.439376949647303894e+00 1.438717426417851941e+00 1.439345747274199061e+00 1.439519154551453406e+00 1.439656061126850295e+00 1.439418459204427680e+00 1.439316967708335060e+00 1.438491840502937880e+00 1.439770721333332837e+00 1.439521459541821979e+00 1.439590718612371534e+00 1.439183353587672354e+00 1.439362373977989717e+00 1.439838478466569871e+00 1.438763407533588223e+00 1.439275701418071929e+00 1.439050615636636721e+00 1.439384782311445177e+00 1.439343864626334124e+00 1.439002004067434948e+00 1.439089213169359338e+00 1.438806156604361952e+00 1.438865878620255723e+00 1.439355791037941090e+00 1.438408904583716730e+00 1.439255298968583618e+00 1.438947840897030206e+00 1.439710471864259933e+00 1.439218081230691171e+00 1.439678857447941773e+00 1.439219626690901643e+00 1.438863786717517579e+00 1.439329381721744738e+00 1.439375821992930238e+00 1.439575359015320188e+00 1.439485360250441603e+00 1.438964569833971696e+00 1.438918770657602098e+00 1.439838035693621121e+00 1.439208954701635790e+00 1.439397619292324126e+00 1.439072814870053563e+00 1.439302724618974683e+00 1.438726315511891451e+00 1.438961391050919802e+00 1.438962871617652128e+00 1.439434151629558345e+00 1.439460430402426994e+00 1.439258850097036690e+00 1.439246041426029965e+00 1.438936931046850054e+00 1.439369164474609830e+00 1.439604967358479870e+00 1.439300135783107004e+00 1.439442728677279515e+00 1.438791046343498969e+00 1.439657429406733469e+00 1.439498336805596024e+00 1.439421952593747500e+00 1.439280622885598548e+00 1.438502409411512861e+00 1.439280908082534394e+00 1.439152385626965680e+00 1.439142407207292251e+00 1.439373781689681886e+00 1.439105078561097706e+00 1.438913607338707878e+00 1.439628728497057919e+00 1.439776824781809683e+00 1.439472134512295165e+00 1.439087552483878651e+00 1.439182282792190071e+00 1.439291449365263098e+00 1.438991631449738851e+00 1.439222945902500994e+00 1.439243630691304787e+00 1.439318274960095900e+00 1.439300033483992047e+00 1.439498009563521919e+00 1.439071629777507688e+00 1.438552963264743134e+00 1.438710576185278311e+00 1.439186011910864815e+00 1.439612842020706829e+00 1.439408684251924919e+00 1.439495845596997947e+00 1.439537570120201559e+00 1.439106755237682167e+00 1.439190763027622832e+00 1.439399311356938105e+00 1.439038643380600169e+00 1.438971911326754505e+00 1.438796804860653866e+00 1.439188792613696588e+00 1.438325201705602074e+00 1.439564573835810712e+00 1.439331043705695645e+00 1.439887958709716642e+00 1.439308313648952620e+00 1.439601811365298412e+00 1.438882773829266437e+00 1.439321709796917315e+00 1.439660471523687368e+00 1.439417613263908713e+00 1.439302149067737568e+00 1.439253225811585768e+00 1.439034756262059567e+00 1.438706253524664636e+00 1.438786618808190365e+00 1.439047827702163884e+00 1.439239884270137937e+00 1.439146918269001985e+00 1.439511881337518950e+00 1.439038082613268044e+00 1.439711075588006928e+00 1.439199047379035479e+00 1.439204486648560932e+00 1.439434876019807241e+00 1.439763637674895458e+00 1.439211175856010438e+00 1.439002484280996752e+00 1.439606352994546645e+00 1.439537423893477941e+00 1.439296183949190899e+00 1.439403684610015555e+00 1.439490317064571645e+00 1.439623999688082856e+00 1.439506181034816867e+00 1.439603665112374475e+00 1.439311342826997686e+00 1.438528349334679435e+00 1.439468511050399746e+00 1.439230067796041013e+00 1.439620530338885374e+00 1.439693234265297939e+00 1.439231339416928046e+00 1.438645477331047307e+00 1.439098840677142999e+00 1.439450767632272532e+00 1.439271534116623563e+00 1.439408578040242803e+00 1.439236561365484945e+00 1.439311273326629115e+00 1.439041462871409660e+00 1.439152578766096147e+00 1.439071620482068159e+00 1.439305782440921666e+00 1.439329841064320492e+00 1.439219391851292329e+00 1.439170727133717742e+00 1.438970199962869012e+00 1.439064025431064486e+00 1.439541383781972606e+00 1.439330596597506284e+00 1.438862932467935618e+00 1.438529358108655343e+00 1.438737610768997532e+00 1.439120144973906612e+00 1.439356745123544723e+00 1.439115778087812103e+00 1.439265684431910275e+00 1.439166936425938959e+00 1.439783040899956346e+00 1.439685094221293316e+00 1.439557627495313019e+00 1.438667811769756222e+00 1.439403295426046281e+00
1.000000000000000000e+00 2.199999984796699101e-02 1.630328805485040870e-04 2.199999999999999872e-02 2.199587851824879453e-02 2.199309415507700802e-02 2.200857626549719559e-02 2.199596860886732230e-02 2.201453103184618926e-02 2.199696033437855899e-02 2.202267986035211927e-02 2.198630333247371046e-02 2.200921643780665710e-02 2.200547021939603526e-02 2.200568525947184384e-02 2.200824997422883358e-02 2.200611709619016559e-02 2.202501177622675707e-02 2.199872076081303349e-02 2.199254930126376406e-02 2.200676148490054648e-02 2.198850838953343365e-02 2.199661889629356964e-02 2.199233890608589745e-02 2.198897694758689819e-02 2.200006110644995433e-02 2.199270410670462264e-02 2.200198564881696017e-02 2.201577703786433693e-02 2.200571595310140890e-02 2.200795317521950581e-02 2.200034693332096267e-02 2.201267834886999619e-02 2.198862695114853216e-02 2.197467501498427331e-02 2.197548463423921669e-02 2.200182101696727260e-02 2.199860750247160240e-02 2.197952321876177686e-02 2.199575867148236344e-02 2.199041635490867758e-02 2.198968561205417310e-02 2.199993262118906182e-02 2.199023281236349436e-02 2.198529932095835346e-02 2.201137246471046582e-02 2.201597256675621658e-02 2.200928314439700578e-02 2.198554383645663635e-02 2.199544087514115898e-02 2.198498930048992106e-02 2.200946901023529897e-02 2.200760913960862070e-02 2.199711415036749093e-02 2.199211262391380720e-02 2.199678031513286475e-02 2.198919842646568021e-02 2.199087459176598744e-02 2.198265053415448048e-02 2.198269384062951845e-02 2.200649868935602993e-02 2.200684212163754247e-02 2.199340922039177623e-02 2.199373699773526231e-02 2.199785728098742690e-02 2.199401385611231621e-02 2.200314046047995714e-02 2.200310947375949677e-02 2.198904671576240935e-02 2.196060128396454605e-02 2.200038070627806375e-02 2.199803608090463922e-02 2.199774596196425042e-02 2.200420487735357464e-02 2.199698394068049997e-02 2.199174050752359874e-02 2.198803907650213538e-02 2.201189385649100771e-02 2.200874317985546114e-02 2.200901476454638489e-02 2.198693081643506367e-02 2.199232524201121669e-02 2.198800098314112120e-02 2.198398125945023873e-02 2.197335844753190576e-02 2.200533048292239655e-02 2.201097755879998299e-02 2.200071568828914151e-02 2.201297012443061141e-02 2.202215033164501082e-02 2.200709334823905752e-02 2.200691212719530637e-02 2.199501391234886041e-02 2.198024896120321162e-02 2.199720407765725846e-02 2.199576820997429030e-02 2.200717426138741953e-02 2.202226164823393312e-02 2.199589560457047496e-02 2.201300189207161181e-02 2.201281331568599384e-02 2.201277580995989608e-02 2.201840948325863023e-02 2.200990945926303843e-02 2.200502429539482122e-02 2.198848273146435800e-02 2.200549867724378023e-02 2.200059419835376576e-02 2.199243153839913062e-02 2.200401333993793479e-02 2.199606625547802924e-02 2.200829626937907124e-02 2.200554992387600273e-02 2.201077894820624783e-02 2.200301741303262171e-02 2.200509349152549032e-02 2.199331504654915975e-02 2.198086450880344656e-02 2.201100057017379291e-02 2.201579909244546357e-02 2.199961859555563809e-02 2.200391649345478234e-02 2.198917309979934662e-02 2.199243478865620799e-02 2.199031498458875120e-02 2.199973682000814709e-02 2.201342965102418697e-02 2.201822347035962968e-02 2.202796423701837425e-02 2.201459133356990783e-02 2.200678615788060830e-02 2.200268380982246114e-02 2.197993596525029542e-02 2.200512918682896377e-02 2.199538734077949656e-02 2.197835671222873183e-02 2.199761952166481502e-02 2.201941948765443954e-02 2.199686826673292322e-02 2.199767522592559199e-02 2.200406623185737626e-02 2.199698994694967991e-02 2.198822450900210501e-02 2.200852109875695364e-02 2.200635431685104421e-02 2.201475318994686875e-02 2.201125840528571354e-02 2.199406786175845188e-02 2.200457505078349391e-02 2.198758369928532214e-02 2.199550202258050702e-02 2.198277948157818448e-02 2.200851232253329265e-02 2.200115669298867080e-02 2.198191646939684149e-02 2.200720292143102524e-02 2.199705140054881644e-02 2.200337853537676774e-02 2.200531902733294382e-02 2.201958393595395205e-02 2.199830108608501894e-02 2.199905451383375038e-02 2.198137309102838471e-02 2.199193213255804663e-02 2.199547220210009910e-02 2.198769413946197529e-02 2.199879241179372030e-02 2.199049714975856787e-02 2.198904909765541510e-02 2.201186478327951321e-02 2.199227758119181794e-02 2.199226556826911622e-02 2.201150010124436687e-02 2.199878469884319551e-02 2.200647307680001982e-02 2.200076301876539853e-02 2.200219283461135600e-02 2.199545171353050818e-02 2.199306592454056131e-02 2.199600746618206315e-02 2.201199442707139561e-02 2.201138545966223325e-02 2.200481956772347425e-02 2.201841556377223674e-02 2.201011053935067116e-02 2.200513718003962310e-02 2.200664434371756017e-02 2.201643014638613588e-02 2.200404524400921547e-02 2.200545943456745646e-02 2.200399336042286116e-02 2.199478575398620961e-02 2.199352169865111811e-02 2.200506907869076781e-02 2.201361022433443587e-02 2.200328735553818554e-02 2.200098185324706260e-02 2.200552776201589872e-02 2.199450900577161472e-02 2.198364663771092478e-02 2.200139275910379874e-02 2.201405295089257919e-02 2.200955688423867837e-02 2.199959123132123190e-02 2.199450414060891493e-02 2.199709961925674570e-02 2.199504661266327155e-02 2.198728659934225463e-02 2.201255746593733589e-02 2.201366239746384984e-02 2.200804962621847119e-02 2.199521854072193291e-02 2.199248833497995451e-02 2.199262841653233658e-02 2.200729929472472479e-02 2.202117560795885040e-02 2.201762615471130474e-02 2.199678473008448779e-02 2.196849904095497449e-02 2.199317355453784747e-02 2.198891726666766036e-02 2.200164686298685529e-02 2.199212297787594278e-02 2.199099970120988595e-02 2.200032720867503913e-02 2.199996861802690218e-02 2.201232420120686692e-02 2.199511499813583751e-02 2.199790352940279164e-02
2.000000000000000000e+00 1.039999992812984941e-01 7.707008898656590550e-04 1.039999999999999952e-01 1.039805166317215868e-01 1.039673541876367652e-01 1.040405423459867390e-01 1.039809425146455274e-01 1.040686921505456219e-01 1.039856306716077372e-01 1.041072138853009199e-01 1.039352521171484356e-01 1.040435686150860267e-01 1.040258592189630821e-01 1.040268757720487214e-01 1.040389998781726666e-01 1.040289171819898939e-01 1.041182374876173933e-01 1.039939526874797959e-01 1.039647785150650539e-01 1.040319633831662122e-01 1.039456760232489591e-01 1.039840166006605060e-01 1.039637839196787816e-01 1.039478910249562599e-01 1.040002888668543346e-01 1.039655103226036770e-01 1.040093867034983521e-01 1.040745823608132253e-01 1.040270208692066767e-01 1.040375968283103886e-01 1.040016400484263664e-01 1.040599340128399858e-01 1.039462364963385232e-01 1.038802818890165736e-01 1.038841091800399574e-01 1.040086084438452824e-01 1.039934172844112353e-01 1.039032006705102179e-01 1.039799500833711726e-01 1.039546954959319341e-01 1.039512410751651933e-01 1.039996814819846571e-01 1.039538278402637739e-01 1.039305058808940307e-01 1.040537607422676591e-01 1.040755066792111994e-01 1.040438839553312900e-01 1.039316617723404501e-01 1.039784477733945584e-01 1.039290403295887039e-01 1.040447625938395876e-01 1.040359704781498446e-01 1.039863578017372198e-01 1.039627142221379863e-01 1.039847796715371864e-01 1.039489380160195792e-01 1.039568617065301237e-01 1.039179843432757322e-01 1.039181890647940948e-01 1.040307210769557816e-01 1.040323445750138409e-01 1.039688435873065836e-01 1.039703930802030607e-01 1.039898707828496582e-01 1.039717018652582259e-01 1.040148458131779918e-01 1.040146993304994216e-01 1.039482208381495854e-01 1.038137515241960296e-01 1.040017997024054175e-01 1.039907160188219271e-01 1.039893445474673606e-01 1.040198776020350713e-01 1.039857422650350832e-01 1.039609551264751852e-01 1.039434574525555516e-01 1.040562255034120365e-01 1.040413313956803643e-01 1.040426152505829066e-01 1.039382184049657543e-01 1.039637193258712011e-01 1.039432773748489441e-01 1.039242750446738583e-01 1.038740581156053638e-01 1.040251986465422496e-01 1.040518939143272037e-01 1.040033832537304859e-01 1.040613133154901643e-01 1.041047106586855120e-01 1.040335321916755484e-01 1.040326755103778145e-01 1.039764294038309778e-01 1.039066314529606405e-01 1.039867829125615956e-01 1.039799951744239115e-01 1.040339146901950729e-01 1.041052368825604035e-01 1.039805974034240521e-01 1.040614634897930740e-01 1.040605720377883320e-01 1.040603947379922511e-01 1.040870266481317419e-01 1.040468447165161792e-01 1.040237512145936877e-01 1.039455547305587896e-01 1.040259937469705936e-01 1.040028089376723586e-01 1.039642218178867955e-01 1.040189721524338862e-01 1.039814041168052178e-01 1.040392187279737951e-01 1.040262360037774725e-01 1.040509550278840845e-01 1.040142641343360375e-01 1.040240783235750338e-01 1.039683984018687640e-01 1.039095413143435731e-01 1.040520026953670185e-01 1.040746866188330955e-01 1.039981969971720960e-01 1.040185143326953221e-01 1.039488182899605540e-01 1.039642371827384365e-01 1.039542162907831913e-01 1.039987558764021436e-01 1.040634856230234495e-01 1.040861473144273353e-01 1.041321945749959510e-01 1.040689772132395718e-01 1.040320800190719791e-01 1.040126871009789122e-01 1.039051518357286819e-01 1.040242470650096507e-01 1.039781947018666997e-01 1.038976862759903724e-01 1.039887468296882139e-01 1.040918012143664528e-01 1.039851954427374464e-01 1.039890101589209803e-01 1.040192221869621486e-01 1.039857706583075664e-01 1.039443340425554030e-01 1.040402815577601420e-01 1.040300385887503870e-01 1.040697423524761245e-01 1.040532215522597254e-01 1.039719571646763041e-01 1.040216275127947010e-01 1.039413047602578966e-01 1.039787368340169410e-01 1.039185939129150665e-01 1.040402400701573860e-01 1.040054680032191786e-01 1.039145142189668858e-01 1.040340501740375789e-01 1.039860611662307560e-01 1.040159712581447127e-01 1.040251444928466523e-01 1.040925786063277708e-01 1.039919687705837259e-01 1.039955304290322707e-01 1.039119455212250825e-01 1.039618609902744073e-01 1.039785958644731945e-01 1.039418268410929741e-01 1.039942914012066677e-01 1.039550774352223234e-01 1.039482320980074093e-01 1.040560880664122417e-01 1.039634940201795005e-01 1.039634372318176403e-01 1.040543641149733745e-01 1.039942549399860139e-01 1.040305999994182856e-01 1.040036069978000632e-01 1.040103661272536728e-01 1.039784990094169553e-01 1.039672207341917481e-01 1.039811262037697442e-01 1.040567009279738664e-01 1.040538221729487567e-01 1.040227834110564326e-01 1.040870553923778502e-01 1.040477952769304493e-01 1.040242848510963963e-01 1.040314096248466519e-01 1.040776697829162711e-01 1.040191229716799226e-01 1.040258082361370656e-01 1.040188777038171669e-01 1.039753508370257207e-01 1.039693753027143702e-01 1.040239629174472547e-01 1.040643392423082347e-01 1.040155402261805223e-01 1.040046414880770181e-01 1.040261312386206172e-01 1.039740425727385537e-01 1.039226931964516432e-01 1.040065839521270574e-01 1.040664321314921925e-01 1.040451779982192182e-01 1.039980676389730962e-01 1.039740195737876016e-01 1.039862891092137170e-01 1.039765839871354541e-01 1.039399002877997580e-01 1.040593625662492167e-01 1.040645858789200073e-01 1.040380527784873083e-01 1.039773967379582220e-01 1.039644903108143253e-01 1.039651525145164901e-01 1.040345057568805298e-01 1.041001028739872991e-01 1.040833236404534456e-01 1.039848005422175647e-01 1.038510863754235208e-01 1.039677295305425631e-01 1.039476088969743944e-01 1.040077851704832856e-01 1.039627631681408204e-01 1.039574531329921919e-01 1.040015468046456282e-01 1.039998516488544605e-01 1.040582598602506348e-01 1.039769072639148695e-01 1.039900894117222752e-01
3.000000000000000000e+00 4.780176672922018533e-01 3.779421144187633443e-03 4.779999999999999805e-01 4.779104514419511007e-01 4.778499548239459327e-01 4.781863388594390640e-01 4.779124088653899927e-01 4.783157196919308185e-01 4.779339563560432436e-01 4.784927715112869406e-01 4.777024087692015031e-01 4.782002480577992043e-01 4.781188529486956607e-01 4.781235251830700528e-01 4.781792494400628479e-01 4.781329078172226743e-01 4.785434376834722392e-01 4.779722056213013825e-01 4.778381166365490151e-01 4.781469086264754642e-01 4.777503186453173067e-01 4.779265378376511553e-01 4.778335453231390417e-01 4.777604991339335916e-01 4.780013276765035513e-01 4.778414801365822306e-01 4.780431427333866612e-01 4.783427920045069670e-01 4.781241920719306315e-01 4.781728008070419422e-01 4.780075379148827075e-01 4.782754659436299627e-01 4.777528946658636255e-01 4.774497571437492094e-01 4.774673479621066585e-01 4.780395657322889513e-01 4.779697448264285664e-01 4.775550953894604489e-01 4.779078474985713476e-01 4.777917735293794599e-01 4.777758964800861707e-01 4.779985360421986629e-01 4.777877856504431642e-01 4.776805943371860153e-01 4.782470926423455504e-01 4.783470403140668847e-01 4.782016974100803952e-01 4.776859069921032264e-01 4.779009426507942471e-01 4.776738584379173203e-01 4.782057357678396459e-01 4.781653258514964033e-01 4.779372983579845413e-01 4.778286288286727190e-01 4.779300450287958801e-01 4.777653112659361323e-01 4.778017297665518859e-01 4.776230434239018829e-01 4.776239843554959119e-01 4.781411987960083043e-01 4.781486606428520525e-01 4.778568003339667691e-01 4.778639220417025268e-01 4.779534445596358982e-01 4.778699374191676119e-01 4.780682336413372702e-01 4.780675603844108390e-01 4.777620150061105408e-01 4.791403916501354998e-01 4.780082717091325706e-01 4.779573293942008250e-01 4.779510259008595829e-01 4.780913605170458713e-01 4.779344692566036001e-01 4.778205437543763812e-01 4.777401217530918287e-01 4.782584210637591537e-01 4.781899654532232313e-01 4.781958662478714706e-01 4.777160422843618193e-01 4.778332484400618640e-01 4.777392940882480010e-01 4.776519564553279307e-01 4.774211517236477409e-01 4.781158168562230082e-01 4.782385124139269528e-01 4.780155499546459019e-01 4.782818054308105582e-01 4.784812662966506647e-01 4.781541191117395506e-01 4.781501816726980714e-01 4.778916659137616429e-01 4.775708637934152345e-01 4.779392522327349790e-01 4.779080547439868432e-01 4.781558771337812153e-01 4.784836849025372318e-01 4.779108226811221161e-01 4.782824956550104645e-01 4.782783984044502446e-01 4.782775835073105331e-01 4.783999878635284975e-01 4.782153055239878325e-01 4.781091642363056171e-01 4.777497611654528686e-01 4.781194712601148922e-01 4.780129103096863452e-01 4.778355579706720091e-01 4.780871989313787984e-01 4.779145304599317079e-01 4.781802553074180340e-01 4.781205847096695050e-01 4.782341971473903497e-01 4.780655601558906342e-01 4.781106676795083277e-01 4.778547541932045561e-01 4.775842379640021784e-01 4.782390123883215050e-01 4.783432711904059831e-01 4.779917131216179227e-01 4.780850947214266289e-01 4.777647609865494638e-01 4.778356285898939793e-01 4.777895710287919373e-01 4.779942818165406337e-01 4.782917896904346211e-01 4.783959463105410537e-01 4.786075866043083549e-01 4.783170298839279910e-01 4.781474447030423236e-01 4.780583118679607169e-01 4.775640632449836831e-01 4.781114432411020521e-01 4.778997794951181377e-01 4.775297503838788482e-01 4.779482786979900588e-01 4.784219325044919424e-01 4.779319559771971204e-01 4.779494889996560580e-01 4.780883481285375658e-01 4.779345997564521387e-01 4.777441506955911743e-01 4.781851402366283366e-01 4.781380619752181316e-01 4.783205465815729140e-01 4.782446144421168555e-01 4.778711108145700104e-01 4.780994033761140627e-01 4.777302276481084076e-01 4.779022712178855326e-01 4.776258450997442062e-01 4.781849495532233263e-01 4.780251317840266134e-01 4.776070941987131668e-01 4.781564998383650011e-01 4.779359349755606390e-01 4.780734063595497574e-01 4.781155679575067041e-01 4.784255055175449245e-01 4.779630872340290271e-01 4.779794571642059786e-01 4.775952880687076019e-01 4.778247072437612486e-01 4.779016233001748826e-01 4.777326272119465922e-01 4.779737624016999198e-01 4.777935289811179875e-01 4.777620667581494729e-01 4.782577893821639559e-01 4.778322129004404228e-01 4.778319518923925813e-01 4.782498658361276078e-01 4.779735948203203133e-01 4.781406423050186261e-01 4.780165783168118243e-01 4.780476443156467248e-01 4.779011781394356118e-01 4.778493414513813042e-01 4.779132531288647900e-01 4.782606061881875537e-01 4.782473749872067637e-01 4.781047160623554948e-01 4.784001199765058887e-01 4.782196744458918070e-01 4.781116169117700099e-01 4.781443634680451749e-01 4.783569822714806019e-01 4.780878921198365439e-01 4.781186186237837976e-01 4.780867648310058171e-01 4.778867086547912701e-01 4.778592441797833712e-01 4.781101372551903039e-01 4.782957130559936099e-01 4.780714252703296974e-01 4.780213329932770372e-01 4.781201031928908884e-01 4.778806956708560039e-01 4.776446860375373471e-01 4.780302608568916534e-01 4.783053322966659970e-01 4.782076450302767956e-01 4.779911185714340593e-01 4.778805899641391242e-01 4.779369826365784113e-01 4.778923764024110565e-01 4.777237724766181248e-01 4.782728394871839095e-01 4.782968466358054616e-01 4.781748964242013011e-01 4.778961119302310712e-01 4.778367920054735762e-01 4.778398355955661980e-01 4.781585937672008235e-01 4.784600882092877594e-01 4.783829682705456054e-01 4.779301409536538259e-01 4.793127063481085748e-01 4.778516799576859597e-01 4.777592024303246032e-01 4.780357818412597770e-01 4.778288537920318824e-01 4.778044480535602601e-01 4.780071093521212622e-01 4.779993181553118808e-01 4.782677712807673620e-01 4.778938622322241314e-01 4.779544494115697262e-01
4.000000000000000000e+00 1.826484857138331863e+00 9.031867811780993835e-03 1.826000000000000068e+00 1.825657917014650078e+00 1.827426187067307861e+00 1.826711830036267248e+00 1.825665394535987751e+00 1.827206075643233341e+00 1.825747707753420546e+00 1.825880366603739313e+00 1.826861931443724441e+00 1.826764964337952657e+00 1.826454028209870906e+00 1.826471876536162942e+00 1.826684747860993108e+00 1.826507718983783723e+00 1.826073703628982026e+00 1.825893823147481942e+00 1.827380914668643497e+00 1.826561203246745091e+00 1.827045151639414389e+00 1.825719368392365816e+00 1.827363432742046268e+00 1.827084084554038812e+00 1.826005071835346216e+00 1.825394440856483724e+00 1.826164808851807653e+00 1.827309494142739910e+00 1.826474424107417116e+00 1.826660113543218777e+00 1.826028795465639787e+00 1.827052302956210017e+00 1.827055003031796465e+00 1.825895723972329687e+00 1.825962995972240321e+00 1.826151144408283855e+00 1.825884422705143395e+00 1.826298565631660376e+00 1.825647969733036113e+00 1.827203686216957390e+00 1.827142968128865119e+00 1.825994407558692245e+00 1.827188435500021191e+00 1.826778507214176006e+00 1.826943914570968719e+00 1.825324270989242326e+00 1.826770500984951084e+00 1.826798824229214802e+00 1.825621592636716084e+00 1.826752747331616966e+00 1.826785927849529756e+00 1.826631558587515469e+00 1.825760474480501605e+00 1.827344630750656229e+00 1.825732766156027864e+00 1.827102487435421363e+00 1.827241761534010189e+00 1.826558417110654142e+00 1.826562015485034607e+00 1.826539391216550623e+00 1.826567896095915966e+00 1.825452965292517549e+00 1.827479601448184665e+00 1.825822154321956159e+00 1.825503150057321999e+00 1.826260658219836630e+00 1.826258086322037899e+00 1.827089881655167503e+00 1.826722743166141694e+00 1.826031598621079555e+00 1.825836994715085204e+00 1.825812914843032875e+00 1.826349004820346789e+00 1.825749667076481231e+00 1.825634341986218878e+00 1.827006155992995318e+00 1.826987190088753543e+00 1.826725683928003718e+00 1.826748225457349939e+00 1.826914069656513373e+00 1.825362995086931228e+00 1.827002990780998815e+00 1.826668988285228945e+00 1.825786329185832724e+00 1.826442430082559021e+00 1.826911137380398786e+00 1.826059402127998776e+00 1.827076520327740816e+00 1.825836463860022629e+00 1.826588747903841847e+00 1.826573706557210297e+00 1.825586154724955446e+00 1.826358868230884891e+00 1.825767938445552518e+00 1.825648761427866029e+00 1.826595463695155797e+00 1.825845693017213112e+00 1.825659335179349307e+00 1.827079157041943791e+00 1.827063505201937499e+00 1.827060392226671937e+00 1.825526313521079746e+00 1.826822485118832162e+00 1.826417016517769998e+00 1.827043019687129455e+00 1.826456390211233849e+00 1.826049318463362381e+00 1.825371817687127862e+00 1.826333107214848761e+00 1.825673499204676364e+00 1.826688590358463093e+00 1.826460643681708351e+00 1.826894652701118726e+00 1.826250445281707657e+00 1.826422759796615614e+00 1.827444541140539558e+00 1.826410014640577284e+00 1.826913047324424832e+00 1.827311324672973525e+00 1.825968343431117802e+00 1.826325068956746733e+00 1.827100383019691243e+00 1.827371399711979594e+00 1.827195263264919989e+00 1.825978156060676261e+00 1.827114661035007526e+00 1.827512548039849083e+00 1.826318489469159978e+00 1.827211080686302447e+00 1.826563251104090568e+00 1.826222756215264198e+00 1.826332861112615280e+00 1.826425722506803906e+00 1.825617149284698204e+00 1.826201639543369337e+00 1.825802420298179518e+00 1.827611817475318645e+00 1.825740066138832551e+00 1.825807043751824343e+00 1.826337497244162389e+00 1.825750165596823349e+00 1.827021563747992960e+00 1.826707251196826975e+00 1.826527408298636690e+00 1.827224514765590335e+00 1.826934447638714154e+00 1.825507632525951607e+00 1.826379729215029890e+00 1.826968318286071424e+00 1.825626667874181930e+00 1.826569131469314655e+00 1.826706522770263241e+00 1.826096005518059506e+00 1.826497423002610310e+00 1.826597842478775213e+00 1.825755266245551622e+00 1.826280418436271535e+00 1.826441479268634094e+00 1.825623686326363959e+00 1.825858990145056593e+00 1.825921524648201455e+00 1.826452273199994814e+00 1.827329633559823252e+00 1.825624192774308430e+00 1.826977494860749562e+00 1.825899770178878612e+00 1.827210399534484608e+00 1.827090079568822745e+00 1.826984777012199412e+00 1.827358337200847505e+00 1.827357339036179251e+00 1.826954508403282329e+00 1.825899130003985071e+00 1.826537265374402086e+00 1.826063330557528008e+00 1.826182005272742437e+00 1.825622492223032189e+00 1.827423841366370372e+00 1.825668619693111117e+00 1.826995537446925777e+00 1.826944993151965679e+00 1.826400024121048515e+00 1.825526817650934497e+00 1.826839174766105689e+00 1.826426385943288766e+00 1.826551480528557425e+00 1.827363702150049285e+00 1.826335755252764592e+00 1.826453133069098733e+00 1.826331448915097466e+00 1.825567217580855273e+00 1.825462300988042852e+00 1.826420733531333607e+00 1.827129648619758129e+00 1.826272850509669476e+00 1.826081493819506019e+00 1.826458804247319767e+00 1.827543748297750570e+00 1.826641184260707540e+00 1.826115599005615486e+00 1.827166394924083725e+00 1.826793221391810329e+00 1.825966072199662449e+00 1.825543843670539790e+00 1.825759268398309931e+00 1.826948562641522056e+00 1.826943631981711169e+00 1.827042269672798813e+00 1.827133978989499585e+00 1.826668118976132682e+00 1.825603138879920317e+00 1.827375848924698065e+00 1.827387488428232176e+00 1.826605841462152213e+00 1.825755650405315622e+00 1.827462970841038370e+00 1.827732840299747252e+00 1.827379692952163737e+00 1.827432784440690128e+00 1.827079125612203647e+00 1.826136689627908760e+00 1.827345491070782924e+00 1.827252156991439724e+00 1.826027158320028487e+00 1.825997395296233172e+00 1.827022908700169923e+00 1.827594100754196038e+00 1.825825992940431686e+00
5.000000000000000000e+00 5.048642658940315719e+00 1.628368576412045007e-02 5.048000000000000043e+00 5.049053932598019045e+00 5.048414794688131479e+00 5.047967083440856761e+00 5.049074612489999225e+00 5.049332890304357058e+00 5.049302258573260538e+00 5.049199873437094865e+00 5.046855992226919163e+00 5.046113077831671845e+00 5.047254669412381212e+00 5.049304508627902699e+00 5.049892994086688347e+00 5.049403595525816080e+00 5.049734518149443296e+00 5.049706356459355838e+00 5.048289725971908837e+00 5.047550838764006897e+00 5.049361108360131745e+00 5.049223883012841974e+00 5.050240734252088970e+00 5.049468706327682632e+00 5.052014032262962751e+00 5.048325260857197350e+00 5.048455616146727998e+00 5.049618678775611436e+00 5.049311551420723632e+00 5.049824892204911819e+00 5.048079605427464145e+00 5.048907952199909843e+00 5.049388334418290825e+00 5.048182160260478391e+00 5.046370380553478086e+00 5.048417840620490260e+00 5.049680358521891677e+00 5.047297786417477283e+00 5.047026807892862621e+00 5.049799246590847446e+00 5.048531957178290064e+00 5.047984539625562483e+00 5.049757098548198542e+00 5.048624189521890848e+00 5.048608429860409252e+00 5.049663525993266511e+00 5.048129215755785992e+00 5.048680339171768949e+00 5.049303401080509346e+00 5.048552997548866550e+00 5.048171846620332026e+00 5.049745951670196575e+00 5.047337828684321792e+00 5.048189488671123826e+00 5.049260935973680198e+00 5.047520547893258325e+00 5.047905304019010941e+00 5.048015931752201979e+00 5.048025876493651865e+00 5.047490563022297039e+00 5.049569955910286900e+00 5.048487116499021710e+00 5.046562925662164467e+00 5.049508148590295953e+00 5.048625907880326835e+00 5.048720592931946527e+00 5.048713482888087967e+00 5.049484727637804760e+00 5.046945458714761301e+00 5.050087389395647719e+00 5.051549012760465196e+00 5.051482390901972153e+00 5.046964445960279377e+00 5.049307677292569352e+00 5.051902644405393161e+00 5.047254424378898818e+00 5.048728018175164145e+00 5.048005367525029818e+00 5.048067659177321254e+00 5.048998840210451533e+00 5.048088346516927061e+00 5.049244589401316041e+00 5.048321514670118582e+00 5.047879708810284249e+00 5.049223103536012225e+00 5.048517852804760508e+00 5.049064247209136269e+00 5.046973695801272974e+00 5.049078466946246735e+00 5.049627600995943766e+00 5.049586019003723614e+00 5.048855466243716172e+00 5.047464443272664525e+00 5.047358462909720345e+00 5.049028611835007396e+00 5.049646166885622733e+00 5.049103988804179544e+00 5.047058227812351916e+00 5.046980979254963806e+00 5.048938908679614812e+00 5.048930306229893361e+00 5.048220792434388926e+00 5.048272869610967994e+00 5.049152847416047862e+00 5.047356263358864226e+00 5.047261196607823130e+00 5.048136341513172809e+00 5.050262005999655024e+00 5.048920879091213898e+00 5.049097026825638324e+00 5.049903616719343624e+00 5.049273455260276044e+00 5.048472298756760956e+00 5.048692359135849017e+00 5.049168724782757245e+00 5.050464891598471340e+00 5.047605795385227800e+00 5.048523130777134327e+00 5.049623737294536951e+00 5.049912450343453152e+00 5.048898657225442399e+00 5.047514734272122716e+00 5.048263440123356816e+00 5.047776848735145094e+00 5.047939612154596745e+00 5.049080273594002577e+00 5.048178144749726037e+00 5.048408894683938719e+00 5.049346721326989140e+00 5.049557114771878297e+00 5.048615812362899469e+00 5.049390744017045130e+00 5.047176448942679805e+00 5.048941185042566282e+00 5.049027946527455235e+00 5.049453572018514080e+00 5.048452358896772907e+00 5.047281409566718224e+00 5.049466358678374789e+00 5.050933385039988899e+00 5.047309329645544906e+00 5.047296989566392611e+00 5.047954430196708309e+00 5.047457449219561632e+00 5.049383845294177497e+00 5.048582268775986925e+00 5.048638304630917339e+00 5.049049766197957645e+00 5.049148765854066134e+00 5.048967509728706560e+00 5.048045542769681759e+00 5.047952417250136214e+00 5.048265408463946002e+00 5.047847363790583408e+00 5.047652088251862068e+00 5.045323698507695909e+00 5.048775220299178024e+00 5.049220474998941555e+00 5.050491842764710526e+00 5.047610176479871313e+00 5.049782967948201140e+00 5.047722584357972941e+00 5.048148057700824864e+00 5.050960252954986629e+00 5.049174126934631524e+00 5.048972844784064939e+00 5.047818663921852966e+00 5.049485274607052432e+00 5.048721349837655303e+00 5.046228055902559184e+00 5.046225299482840931e+00 5.048637705039958234e+00 5.047721143625475193e+00 5.049485276894841057e+00 5.048175078123987802e+00 5.050503355217606405e+00 5.046956374995546390e+00 5.048408314496811045e+00 5.049083532009973396e+00 5.050752175811654254e+00 5.048611410429801438e+00 5.049105871721277339e+00 5.048222186530325395e+00 5.048318990071066992e+00 5.049178749310909708e+00 5.049524574867556126e+00 5.049768478121110959e+00 5.048928199625386526e+00 5.049252692077114801e+00 5.048916294700664054e+00 5.048803093528652752e+00 5.046513524308674725e+00 5.049163123146863441e+00 5.048921566815572248e+00 5.050754597521265765e+00 5.050225379949893956e+00 5.049268370120739036e+00 5.046740066415232207e+00 5.048244673350708034e+00 5.048319574907090157e+00 5.049223235918361752e+00 5.050192870528947608e+00 5.047906206168617516e+00 5.048738450457955551e+00 5.049334230783935062e+00 5.048862972452250908e+00 5.049080540903503334e+00 5.048880226050899367e+00 5.047132415127620675e+00 5.047846291540836638e+00 5.046902872434741560e+00 5.046276414317218517e+00 5.048307886522195531e+00 5.049674856353201235e+00 5.048854989388384062e+00 5.048041196561992017e+00 5.047262241703021957e+00 5.046763370590293007e+00 5.048433020473460431e+00 5.047456008939621874e+00 5.048377880198073875e+00 5.048191865376068677e+00 5.048583756405166767e+00 5.050075109264042794e+00 5.049992796410721851e+00 5.048826723604084243e+00 5.046879114117714060e+00 5.049518764703821994e+00
6.000000000000000000e+00 2.982874040615098900e-03 2.640541598029316531e-05 2.996131258573388363e-03 2.982266482338820270e-03 2.981840492112483067e-03 2.984214248971193278e-03 2.982207540294924426e-03 2.984720614711934301e-03 2.982577267661179823e-03 2.985961076817558475e-03 2.980819723079561074e-03 2.984115119170095958e-03 2.983498906893004062e-03 2.983651620370370450e-03 2.984109760802469181e-03 2.983614111796982146e-03 2.986405821330590047e-03 2.982593342764060153e-03 2.981936942729766782e-03 2.983496227709190457e-03 2.981178733710562485e-03 2.982290594993141416e-03 2.981802983539094763e-03 2.981312692901234504e-03 2.982488854595336056e-03 2.981912830075445636e-03 2.982979145233196315e-03 2.984897440843621401e-03 2.983539094650205972e-03 2.983718599965706243e-03 2.982713906035665448e-03 2.984602730624142611e-03 2.981079603909465164e-03 2.979303305041152480e-03 2.979654278120713509e-03 2.983249742798353959e-03 2.982601380315500535e-03 2.979975780178326615e-03 2.982320066015089338e-03 2.981226959019204342e-03 2.981457368827160510e-03 2.983011295438957409e-03 2.981277863511659805e-03 2.981017982681755715e-03 2.984171382030178198e-03 2.985039437585733802e-03 2.984265153463648741e-03 2.980760781035665229e-03 2.982344178669410050e-03 2.980583954903978129e-03 2.983975801611797162e-03 2.983975801611797162e-03 2.982403120713305895e-03 2.981687778635116678e-03 2.982652284807955998e-03 2.981430576989026193e-03 2.981310013717421332e-03 2.980533050411522666e-03 2.980503579389574744e-03 2.983823088134430774e-03 2.983986518347050716e-03 2.981543102709190672e-03 2.982108410493827105e-03 2.982408479080932671e-03 2.981824417009602303e-03 2.983469435871056140e-03 2.983204196673525273e-03 2.981411822702331824e-03 2.977336784122085103e-03 2.982869298696845008e-03 2.982312028463648956e-03 2.982780885631001241e-03 2.983531057098765590e-03 2.982046789266118089e-03 2.981730645576131759e-03 2.981068887174211177e-03 2.984629522462276929e-03 2.983983839163237110e-03 2.984519675925926055e-03 2.980728630829904136e-03 2.981620799039780452e-03 2.981143904320987786e-03 2.980758101851852058e-03 2.979150591563786091e-03 2.983450681584362205e-03 2.984468771433470592e-03 2.982743377057613370e-03 2.984851894718792715e-03 2.985942322530864106e-03 2.983699845679012308e-03 2.983782900377228865e-03 2.982263803155006665e-03 2.980026684670782078e-03 2.982432591735253817e-03 2.982387045610425131e-03 2.983788258744856075e-03 2.985741383744855860e-03 2.982019997427983338e-03 2.984975137174211181e-03 2.984527713477366437e-03 2.984624164094650152e-03 2.985687800068587226e-03 2.983807013031550010e-03 2.983555169753086302e-03 2.981224279835390737e-03 2.983437285665295046e-03 2.982901448902606101e-03 2.981736003943758536e-03 2.983496227709190457e-03 2.982121806412894264e-03 2.984024026920439020e-03 2.983898105281206949e-03 2.984077610596707654e-03 2.983011295438957409e-03 2.983589999142661001e-03 2.981749399862825695e-03 2.980372299382715896e-03 2.984393754286693984e-03 2.984795631858710475e-03 2.982869298696845008e-03 2.983501586076817667e-03 2.981200167181070025e-03 2.981786908436213999e-03 2.981618119855967280e-03 2.982676397462277144e-03 2.984602730624142611e-03 2.985178755144033032e-03 2.986443329903977918e-03 2.984859932270233097e-03 2.983651620370370450e-03 2.983209555041152049e-03 2.980128493655692570e-03 2.983474794238682917e-03 2.982218257030178413e-03 2.979798954046639081e-03 2.982585305212620205e-03 2.985427919238683135e-03 2.982349537037036827e-03 2.982467421124828516e-03 2.983579282407407447e-03 2.982320066015089338e-03 2.981001907578875385e-03 2.984192815500685738e-03 2.983584640775034224e-03 2.984669710219478838e-03 2.984583976337448676e-03 2.982038751714677707e-03 2.983402456275720347e-03 2.981055491255144019e-03 2.982228973765431966e-03 2.980474108367626822e-03 2.984275870198902728e-03 2.982896090534979325e-03 2.980267811213991799e-03 2.983592678326474606e-03 2.982724622770919001e-03 2.983381022805212807e-03 2.983268497085047894e-03 2.985805684156378481e-03 2.982547796639231901e-03 2.982488854595336056e-03 2.980032043038408855e-03 2.981679741083676297e-03 2.982496892146776438e-03 2.981141225137174181e-03 2.982403120713305895e-03 2.981599365569272912e-03 2.981275184327846200e-03 2.984841177983539161e-03 2.981524348422496737e-03 2.981462727194787287e-03 2.984841177983539161e-03 2.982679076646090749e-03 2.983493548525377285e-03 2.982976466049382710e-03 2.983048804012345713e-03 2.982196823559670872e-03 2.981899434156378478e-03 2.982218257030178413e-03 2.984358924897119285e-03 2.984444658779149447e-03 2.983437285665295046e-03 2.985548482510287996e-03 2.984332133058984968e-03 2.983378343621399201e-03 2.983742712620027389e-03 2.984969778806584404e-03 2.983083633401920412e-03 2.983667695473251214e-03 2.983214913408779260e-03 2.982135202331961422e-03 2.982370970507544367e-03 2.983394418724279965e-03 2.984731331447187854e-03 2.983088991769547189e-03 2.983094350137174399e-03 2.983592678326474606e-03 2.981869963134430555e-03 2.980466070816186440e-03 2.983011295438957409e-03 2.984870649005487084e-03 2.984192815500685738e-03 2.983032728909464949e-03 2.981888717421124924e-03 2.982617455418381299e-03 2.982207540294924426e-03 2.980873306755829708e-03 2.984490204903978133e-03 2.984849215534979543e-03 2.984166023662551421e-03 2.982215577846364808e-03 2.981792266803840775e-03 2.981770833333333235e-03 2.983777542009602088e-03 2.985845871913580390e-03 2.985240376371742048e-03 2.982459383573388134e-03 2.978255744170096170e-03 2.981886038237311319e-03 2.981165337791495326e-03 2.983003257887517027e-03 2.981703853737997442e-03 2.981685099451303073e-03 2.982735339506172988e-03 2.982598701131687364e-03 2.984192815500685738e-03 2.982298632544581798e-03 2.982537079903977914e-03
