# vvf statistics with RF=500
# gcat file: /disk2/salam/Abacus/AbacusCosmos_720box_products/GCAT_derivative/AbacusCosmos_720box_37_rockstar_halos_z0.100_Mr21_hod-default_real-8.gcat.rsd_zz.1pz0.100by100
# stats order in row: stdvvf,p2.5,p16,p50,p84,p97.5,rho
# columns: numbers, mean, sigma,All, jnrealizations
0.000000000000000000e+00 1.404878867933251785e+00 5.250516694141684447e-03 1.404879122907718214e+00 1.405116504882485406e+00 1.404530279605230136e+00 1.404909289886007606e+00 1.404879875100595976e+00 1.405484546976661253e+00 1.404923355267516438e+00 1.405123764938148501e+00 1.403942534507355289e+00 1.403525364126542163e+00 1.404597484913386207e+00 1.405623518240600944e+00 1.405125901097795671e+00 1.405091745261634939e+00 1.404807600429924586e+00 1.404972768655193827e+00 1.405041022775868509e+00 1.405302236392627302e+00 1.404787663605931325e+00 1.405079957517101352e+00 1.405136476995406225e+00 1.405009364578041042e+00 1.405590301513240048e+00 1.404906507467631460e+00 1.404950971909247448e+00 1.404809273045080076e+00 1.405232495179359109e+00 1.405314137773007843e+00 1.404557494494173664e+00 1.405413635105581260e+00 1.404507475889797963e+00 1.404822320589647955e+00 1.404054073452109419e+00 1.405059436236566706e+00 1.405250671242752603e+00 1.404288586604865996e+00 1.404146246856865510e+00 1.405174931447077835e+00 1.404866851698466368e+00 1.404891367391632784e+00 1.405176143849966364e+00 1.404899606219447206e+00 1.405091086966674174e+00 1.405231141822207430e+00 1.404809751329661349e+00 1.404223193245167201e+00 1.405176261056935383e+00 1.404613370248554816e+00 1.405281059971160929e+00 1.404879359657715376e+00 1.404771539301246097e+00 1.404197878919035247e+00 1.404955269851448030e+00 1.404623133072122609e+00 1.405011050521489224e+00 1.404342412649906446e+00 1.404647292910025325e+00 1.404696844863733807e+00 1.405015577173450270e+00 1.405008689994545090e+00 1.404321006092297708e+00 1.405113434027621455e+00 1.405093832533804044e+00 1.405164259859307485e+00 1.404933985682790487e+00 1.404699461491375034e+00 1.404172357244428460e+00 1.405415551970572441e+00 1.405054921540411783e+00 1.405258634184521460e+00 1.404745278547673726e+00 1.404914984724360050e+00 1.405402898853143734e+00 1.404617408114337440e+00 1.405000531946691833e+00 1.404754172682390445e+00 1.405013639208329668e+00 1.404883679838048627e+00 1.404666470468582729e+00 1.404744560886521443e+00 1.404692366503193623e+00 1.404678903081831631e+00 1.404737941059217343e+00 1.403805461502317886e+00 1.405145129620376521e+00 1.404564163124908616e+00 1.405345606113073575e+00 1.404785566849021450e+00 1.405041734351921701e+00 1.404367633918914837e+00 1.404434374816386111e+00 1.405112202649913877e+00 1.404879942779321933e+00 1.404890363954779842e+00 1.405106172419799737e+00 1.404537165331577242e+00 1.404544236527281553e+00 1.405390200458338512e+00 1.405189876770805313e+00 1.404875975208810468e+00 1.404593009744030674e+00 1.405089614676908294e+00 1.404338031490601546e+00 1.404719712268116094e+00 1.404718391500306529e+00 1.404862930641329832e+00 1.405106002266788945e+00 1.404895989623005104e+00 1.404625522214482114e+00 1.404628426757237314e+00 1.404824609551582393e+00 1.405239182237469908e+00 1.404943525387800207e+00 1.405072304187731325e+00 1.404322352840845056e+00 1.405095140012131427e+00 1.405175824096867920e+00 1.404960688984328021e+00 1.405026861391212245e+00 1.404311759545345595e+00 1.404871532836107217e+00 1.404687091342863736e+00 1.404897126580714861e+00 1.405241513962129929e+00 1.404710833237365231e+00 1.404709830055389075e+00 1.405288124096341740e+00 1.405366196814687552e+00 1.405212292183093847e+00 1.404659974112490772e+00 1.404714516727123108e+00 1.405250173186728846e+00 1.404589152175098388e+00 1.404890781129218835e+00 1.404899997121820121e+00 1.405227184578071720e+00 1.405010728166195433e+00 1.405329558776008181e+00 1.404492393379043191e+00 1.403795124587119192e+00 1.404330193519555126e+00 1.404925983133344269e+00 1.405048369975115508e+00 1.405026892014607620e+00 1.405209270303949154e+00 1.404977997027178738e+00 1.404918235056939801e+00 1.404793594865983763e+00 1.404957776864797836e+00 1.404725628870822085e+00 1.404820288903283476e+00 1.404332322612128925e+00 1.404767606797907353e+00 1.403939523785183052e+00 1.405013792536850215e+00 1.405068880021248967e+00 1.405212767542105778e+00 1.405137998243943143e+00 1.405283194989582096e+00 1.404377592765607030e+00 1.404848500203489170e+00 1.405320904589897335e+00 1.405123112196006385e+00 1.405054853605965492e+00 1.404863716935498941e+00 1.404762806024634658e+00 1.404588696740371567e+00 1.404399311434207265e+00 1.404588621698511286e+00 1.405090714676662023e+00 1.404804655552738035e+00 1.405089077867684999e+00 1.404948818511142949e+00 1.405263072041648353e+00 1.404725822668920321e+00 1.404761130979425232e+00 1.405206926574932957e+00 1.405457685634867060e+00 1.404754805353196634e+00 1.404661201190645192e+00 1.405322184393049900e+00 1.405078224686488131e+00 1.404871322663409750e+00 1.405106009029324587e+00 1.405292384642017556e+00 1.405364654492872623e+00 1.405155303619210816e+00 1.405370779628100308e+00 1.405026736366916884e+00 1.404018056080903243e+00 1.404998569211500570e+00 1.404712127437889091e+00 1.405255747146549439e+00 1.405512198481741137e+00 1.404653403505743858e+00 1.404423753883794257e+00 1.404519062507614491e+00 1.405378296690970474e+00 1.404925971764021009e+00 1.405150129156522487e+00 1.404731920178358795e+00 1.405114102265835996e+00 1.404961156558768742e+00 1.404890939981519260e+00 1.404728158354763279e+00 1.404652770400130368e+00 1.405198950764391608e+00 1.404738979643902042e+00 1.404940459906630412e+00 1.404684475373404462e+00 1.404677116972417705e+00 1.405111616966743693e+00 1.404720805506867398e+00 1.404579785592017904e+00 1.404531494078258946e+00 1.404283013506191002e+00 1.404881540499182346e+00 1.405131024884362700e+00 1.404747147297582321e+00 1.404911009532345822e+00 1.404891421782368255e+00 1.405652543335477622e+00 1.405285444475613987e+00 1.405164595597050203e+00 1.404359596644023878e+00 1.404868911529390640e+00
1.000000000000000000e+00 2.399999987951888930e-02 1.848311877422263532e-04 2.400000000000000050e-02 2.399376455196796515e-02 2.399536542572536929e-02 2.400919749375177853e-02 2.399830464549556133e-02 2.401630181657632770e-02 2.399141831729139154e-02 2.402462513301002051e-02 2.398313252438766252e-02 2.400716279925810617e-02 2.400745659717069824e-02 2.400475586814102003e-02 2.401035787941967897e-02 2.400714860786645408e-02 2.402997689912032137e-02 2.400075402670169902e-02 2.399099457854421066e-02 2.400644858836888454e-02 2.398396191560308102e-02 2.399701499411180383e-02 2.399057974137020280e-02 2.398798512506244290e-02 2.400095538798142913e-02 2.399114848941830830e-02 2.400484319284579282e-02 2.401412280788114972e-02 2.400758368501127241e-02 2.400616715416597352e-02 2.399899027287847458e-02 2.401211644828209202e-02 2.399013283478759057e-02 2.397308570175489539e-02 2.396985477313224797e-02 2.399982765075949626e-02 2.399685316632507032e-02 2.397594660032108596e-02 2.399333082390487509e-02 2.398921944012032820e-02 2.398590675528041588e-02 2.399659254513229062e-02 2.398588361896433416e-02 2.398205271544717743e-02 2.401075583397168506e-02 2.402132812125534408e-02 2.401286685670473570e-02 2.398486918453326608e-02 2.399762201798842642e-02 2.398403170065591811e-02 2.401187023631687345e-02 2.400613682075060026e-02 2.399685439599752793e-02 2.399187974701988760e-02 2.399691290545349909e-02 2.398785112563189478e-02 2.398881854500314187e-02 2.398131332340312435e-02 2.398209995612127221e-02 2.400607972479757227e-02 2.401030468341369337e-02 2.399198048614218856e-02 2.399271328444894935e-02 2.399843535028682237e-02 2.399541782652769503e-02 2.400392511363529796e-02 2.400156911104666183e-02 2.398571266776772931e-02 2.395754324506522981e-02 2.399879659403094875e-02 2.399898468496610565e-02 2.400060543724465839e-02 2.400325349024505853e-02 2.399404829420849483e-02 2.399064722677804809e-02 2.398629861849766592e-02 2.401099642079058613e-02 2.400825212406506107e-02 2.400975382946378064e-02 2.398468544046094067e-02 2.399415858455518705e-02 2.399169895382086137e-02 2.397994012373887499e-02 2.397355600623097063e-02 2.400559992390005268e-02 2.401320638855866663e-02 2.400030646514635796e-02 2.401433196769841780e-02 2.402486591253678860e-02 2.401115260982749841e-02 2.400815977292732398e-02 2.399595697874746733e-02 2.397780189660279893e-02 2.399943283723512955e-02 2.398957419482807690e-02 2.400729131748752937e-02 2.402541014239369110e-02 2.399498749128024105e-02 2.401310388797146117e-02 2.401363784281749375e-02 2.401583260157782312e-02 2.402183388027058844e-02 2.401259062298986141e-02 2.400468904680969767e-02 2.398826287959883105e-02 2.400924065234909949e-02 2.400150247899434860e-02 2.398998504984401273e-02 2.400208636119723418e-02 2.399654805612965944e-02 2.401140612966829249e-02 2.400666246066801568e-02 2.401093051408253673e-02 2.400472037561435928e-02 2.400431065136907072e-02 2.399657747033602170e-02 2.397773794834909961e-02 2.400801063639461733e-02 2.401825533480724320e-02 2.399651310659457054e-02 2.400537674384328746e-02 2.398603606010270284e-02 2.399145197114817968e-02 2.398819774966193946e-02 2.400220144631797642e-02 2.401761652695697316e-02 2.402078490707284034e-02 2.403228623085054000e-02 2.401695191328753060e-02 2.400654944676826677e-02 2.400242385033308015e-02 2.397381910834846599e-02 2.400408710255296299e-02 2.399786844083736520e-02 2.397593433703173668e-02 2.400046286396118056e-02 2.402190046185850858e-02 2.399791480569325036e-02 2.399513604906481148e-02 2.400411151599981044e-02 2.399457572175779652e-02 2.398790334949119085e-02 2.401030323445818224e-02 2.400913273602633957e-02 2.401814343792248868e-02 2.401342163867384999e-02 2.398989272342225490e-02 2.400342924043125103e-02 2.398918554518236421e-02 2.399275809577569585e-02 2.397883567240388300e-02 2.401230917448574434e-02 2.400148840932321906e-02 2.397959624132571521e-02 2.400651468031643476e-02 2.399662603519152337e-02 2.400197517453915921e-02 2.401020511568808385e-02 2.402076263039938306e-02 2.399747922894446273e-02 2.399765683974705230e-02 2.397849358904167311e-02 2.399209201755505422e-02 2.399553725925179445e-02 2.398901350303863506e-02 2.399859061837846322e-02 2.398911679106016312e-02 2.398596295696722377e-02 2.401304157919459045e-02 2.399038806806690072e-02 2.399222727539272737e-02 2.401460986725104108e-02 2.399684111870559536e-02 2.401069487284817477e-02 2.400076615527986512e-02 2.399900343398038427e-02 2.399456663019308017e-02 2.399229738987416691e-02 2.399744823821521253e-02 2.401238549460132932e-02 2.400926585434357344e-02 2.400647950872258213e-02 2.402124283425857362e-02 2.400822634572509495e-02 2.400733141367011880e-02 2.400844238050512877e-02 2.401933187480235002e-02 2.400432308365339079e-02 2.400496677543173182e-02 2.400349963853673496e-02 2.399622048478899927e-02 2.398988333982418272e-02 2.400349308803548590e-02 2.401328851596209665e-02 2.400432321365934471e-02 2.400279189945519337e-02 2.400677065957839557e-02 2.400009665071530657e-02 2.397981444544441260e-02 2.400385343905678259e-02 2.401497138262947278e-02 2.401372676388091251e-02 2.399960205997430859e-02 2.399465113831405691e-02 2.399749114882195750e-02 2.399415127216034463e-02 2.398430216332578940e-02 2.401335091165375871e-02 2.401700513209443708e-02 2.400770324913899592e-02 2.399154936224845783e-02 2.399305276035283013e-02 2.399123867836029655e-02 2.400707410623634935e-02 2.402373885793601324e-02 2.402275541945672957e-02 2.399766818883568645e-02 2.396897784061155154e-02 2.399022324214838270e-02 2.398853348439029115e-02 2.400387400997626430e-02 2.399221475961487229e-02 2.398720486338857052e-02 2.400290491363815323e-02 2.400039037640315162e-02 2.401358580297355619e-02 2.399418289280676880e-02 2.399541365365469303e-02
2.000000000000000000e+00 1.080088333602114981e-01 1.966922022188133130e-03 1.079999999999999988e-01 1.079719404838558328e-01 1.079791444157641722e-01 1.080413887218829999e-01 1.079923709047300173e-01 1.080733581745934729e-01 1.079613824278112671e-01 1.081108130985450888e-01 1.079240963597444813e-01 1.080322325966614760e-01 1.080335546872681490e-01 1.080214014066345762e-01 1.080466104573885588e-01 1.080321687353990451e-01 1.081348960460414427e-01 1.080033931201576508e-01 1.079594756034489567e-01 1.080290186476599856e-01 1.079278286202138559e-01 1.079865674735031172e-01 1.079576088361659109e-01 1.079459330627809965e-01 1.080042992459164242e-01 1.079601682023823978e-01 1.080217943678060677e-01 1.080635526354651876e-01 1.080341265825507380e-01 1.080277521937468704e-01 1.079954562279531460e-01 1.080545240172694210e-01 1.079555977565441610e-01 1.078788856578970223e-01 1.078643464790951106e-01 1.079992244284177366e-01 1.079858392484628060e-01 1.078917597014448920e-01 1.079699887075719206e-01 1.079514874805414804e-01 1.079365803987618749e-01 1.079846664530953043e-01 1.079364762853395054e-01 1.079192372195122984e-01 1.080484012528725862e-01 1.080959765456490501e-01 1.080579008551713349e-01 1.079319113303996991e-01 1.079892990809479258e-01 1.079281426529516419e-01 1.080534160634259305e-01 1.080276156933776960e-01 1.079858447819888739e-01 1.079634588615894925e-01 1.079861080745407459e-01 1.079453300653435283e-01 1.079496834525141280e-01 1.079159099553140683e-01 1.079194498025457249e-01 1.080273587615890873e-01 1.080463710753616219e-01 1.079639121876398433e-01 1.079672097800202790e-01 1.079929590762907093e-01 1.079793802193746294e-01 1.080176630113588443e-01 1.080070609997099695e-01 1.079357070049547784e-01 1.098054065398822998e-01 1.079945846731392711e-01 1.079954310823474650e-01 1.080027244676009662e-01 1.080146407061027686e-01 1.079732173239382198e-01 1.079579125205012147e-01 1.079383437832394932e-01 1.080494838935576463e-01 1.080371345582927800e-01 1.080438922325870216e-01 1.079310844820742382e-01 1.079737136304983469e-01 1.079626452921938901e-01 1.079097305568249288e-01 1.078810020280393661e-01 1.080251996575502388e-01 1.080594287485139998e-01 1.080013790931586004e-01 1.080644938546428818e-01 1.081118966064155279e-01 1.080501867442237307e-01 1.080367189781729492e-01 1.079818064043636117e-01 1.079001085347126021e-01 1.079974477675580968e-01 1.079530838767263495e-01 1.080328109286938787e-01 1.081143456407716030e-01 1.079774437107610813e-01 1.080589674958715718e-01 1.080613702926787184e-01 1.080712467071002075e-01 1.080982524612176532e-01 1.080566578034543729e-01 1.080211007106436361e-01 1.079471829581947484e-01 1.080415829355709512e-01 1.080067611554745705e-01 1.079549327242980417e-01 1.080093886253875590e-01 1.079844662525834692e-01 1.080513275835073284e-01 1.080299810730060706e-01 1.080491873133714170e-01 1.080212416902646133e-01 1.080193979311608182e-01 1.079845986165120925e-01 1.078998207675709448e-01 1.080360478637757832e-01 1.080821490066325857e-01 1.079843089796755640e-01 1.080241953472947936e-01 1.079371622704621697e-01 1.079615338701668259e-01 1.079468898734787241e-01 1.080099065084308974e-01 1.080792743713063775e-01 1.080935320818277867e-01 1.081452880388274057e-01 1.080762836097938911e-01 1.080294725104572057e-01 1.080109073264988451e-01 1.078821859875681022e-01 1.080183919614883387e-01 1.079904079837681469e-01 1.078917045166428168e-01 1.080020828878253125e-01 1.080985520783632747e-01 1.079906166256196232e-01 1.079781122207916499e-01 1.080185018219991522e-01 1.079755907479100913e-01 1.079455650727103588e-01 1.080463645550618079e-01 1.080410973121185420e-01 1.080816454706511887e-01 1.080603973740323215e-01 1.079545172554001453e-01 1.080154315819406297e-01 1.079513349533206407e-01 1.079674114309906313e-01 1.079047605258174752e-01 1.080553912851858617e-01 1.080066978419544910e-01 1.079081830859657115e-01 1.080293160614239634e-01 1.079848171583618482e-01 1.080088882854262217e-01 1.080459230205963739e-01 1.080934318367972186e-01 1.079886565302500684e-01 1.079894557788617371e-01 1.079032211506875533e-01 1.079644140789977474e-01 1.079799176666330768e-01 1.079505607636738751e-01 1.079936577827030897e-01 1.079510255597707358e-01 1.079368333063525087e-01 1.080586871063756588e-01 1.079567463063010602e-01 1.079650227392672801e-01 1.080657444026296848e-01 1.079857850341751774e-01 1.080481269278167900e-01 1.080034476987594139e-01 1.079955154529117223e-01 1.079755498358688504e-01 1.079653382544337459e-01 1.079885170719684512e-01 1.080557347257059819e-01 1.080416963445460787e-01 1.080291577892516369e-01 1.080955927541635830e-01 1.080370185557629342e-01 1.080329913615155346e-01 1.080379907122730743e-01 1.080869934366105733e-01 1.080194538764402551e-01 1.080223504894428088e-01 1.080157483734153073e-01 1.079829921815504967e-01 1.079544750292088240e-01 1.080157188961596848e-01 1.080597983218294367e-01 1.080194544614670460e-01 1.080125635475483598e-01 1.080304679681027835e-01 1.080004349282188830e-01 1.079091650044998740e-01 1.080173404757555355e-01 1.080673712218326310e-01 1.080617704374641080e-01 1.079982092698843904e-01 1.079759301224132440e-01 1.079887101696988122e-01 1.079736807247215491e-01 1.079293597349660627e-01 1.080600791024419194e-01 1.080765230944249755e-01 1.080346646211254868e-01 1.079619721301180585e-01 1.079687374215877460e-01 1.079605740526213137e-01 1.080318334780635686e-01 1.081068248607120613e-01 1.081023993875552813e-01 1.079895068497605942e-01 1.078604002827519698e-01 1.079560045896677256e-01 1.079484006797563067e-01 1.080174330448931824e-01 1.079649664182669166e-01 1.079424218852485656e-01 1.080130721113716913e-01 1.080017566938141910e-01 1.080611361133810011e-01 1.079738230176304492e-01 1.079793614414461256e-01
3.000000000000000000e+00 4.940176695411464536e-01 4.040045099769025427e-03 4.939999999999999947e-01 4.938716536946738955e-01 4.939046050128472198e-01 4.941893150797241341e-01 4.939651039531169907e-01 4.943355457245293683e-01 4.938233603642477876e-01 4.945068673211229227e-01 4.936528111269793406e-01 4.941474342847293477e-01 4.941534816250968687e-01 4.940978916192359516e-01 4.942131996847217157e-01 4.941471421785845197e-01 4.946170245068932658e-01 4.940155203829433295e-01 4.938146384083683671e-01 4.941327334439262198e-01 4.936698827628300812e-01 4.939385586288013164e-01 4.938060996765367139e-01 4.937526938242019492e-01 4.940196650692844083e-01 4.938178064071935269e-01 4.940996890527425967e-01 4.942906944622203480e-01 4.941560975164820402e-01 4.941269405899162415e-01 4.939792164500819704e-01 4.942493968938064253e-01 4.937969008493779399e-01 4.934460140277882600e-01 4.933795107469721164e-01 4.939964524781330080e-01 4.939352276735243241e-01 4.935049008566090301e-01 4.938627261253752398e-01 4.937781001424767502e-01 4.937099140461885804e-01 4.939298632206395867e-01 4.937094378236825398e-01 4.936305850596210965e-01 4.942213909159171581e-01 4.944390038291724965e-01 4.942648428005058658e-01 4.936885573816430783e-01 4.939510532035951140e-01 4.936713191718343219e-01 4.942443290308556336e-01 4.941263162271165021e-01 4.939352529842824246e-01 4.938328581261593464e-01 4.939364573039178863e-01 4.937499356692565122e-01 4.937698483846479358e-01 4.936153659067143429e-01 4.936315574301628484e-01 4.941251410020833790e-01 4.942121047335985562e-01 4.938349316730933913e-01 4.938500151049075582e-01 4.939677942934038168e-01 4.939056835960283776e-01 4.940807919223265676e-01 4.940322975357104851e-01 4.937059190782190909e-01 4.951225603980147216e-01 4.939752298938036579e-01 4.939791014322189588e-01 4.940124619166192388e-01 4.940669676742108218e-01 4.938774940557915660e-01 4.938074887511815225e-01 4.937179798974102862e-01 4.942263429946062714e-01 4.941698562203391543e-01 4.942007663231294812e-01 4.936847753161544006e-01 4.938797641987609510e-01 4.938291367994794290e-01 4.935871008802918403e-01 4.934556944615874352e-01 4.941152651002760909e-01 4.942718314978325478e-01 4.940063080742625456e-01 4.942949996684591341e-01 4.945118233663821083e-01 4.942295578856159555e-01 4.941679553260873714e-01 4.939167811458853863e-01 4.935430890384076563e-01 4.939883258997563864e-01 4.937854021768779411e-01 4.941500796182849986e-01 4.945230254309367912e-01 4.938968258621849738e-01 4.942697216940792337e-01 4.942807122646600826e-01 4.943258877158102083e-01 4.944494140355695788e-01 4.942591569898746040e-01 4.940965162134995925e-01 4.937584109384093312e-01 4.941902034275189592e-01 4.940309260259670432e-01 4.937938589426226210e-01 4.940429442679764027e-01 4.939289474886688347e-01 4.942347761690056851e-01 4.941371356487499478e-01 4.942249864148655636e-01 4.940971610647288959e-01 4.940887275740133422e-01 4.939295529310830934e-01 4.935417727701856272e-01 4.941648855991225275e-01 4.943757556414490884e-01 4.939282281107382211e-01 4.941106713107743520e-01 4.937125755704473429e-01 4.938240530728000843e-01 4.937570703472082267e-01 4.940453131033784029e-01 4.943626068465309942e-01 4.944278226705826063e-01 4.946645582516734918e-01 4.943489268818350157e-01 4.941348094459801499e-01 4.940498909193559163e-01 4.934611099801726186e-01 4.940841261942151563e-01 4.939561254072357688e-01 4.935046484372365705e-01 4.940095272832010220e-01 4.944507845065876372e-01 4.939570797505193900e-01 4.938998836765840506e-01 4.940846287043294538e-01 4.938883502728479979e-01 4.937510106103603635e-01 4.942120749092642207e-01 4.941879821498755265e-01 4.943734524305711808e-01 4.942762620627033643e-01 4.937919585571081127e-01 4.940705851988765884e-01 4.937774024716703458e-01 4.938509374713830336e-01 4.935643675903132466e-01 4.942533638414982611e-01 4.940306364252362581e-01 4.935800226339542851e-01 4.941340938365132995e-01 4.939305525576921929e-01 4.940406556759310286e-01 4.942100552979130090e-01 4.944273641423873045e-01 4.939481141291068300e-01 4.939517699514601179e-01 4.935573263744412187e-01 4.938372273613415020e-01 4.939081419195994749e-01 4.937738612708785779e-01 4.939709902282900522e-01 4.937759872826550378e-01 4.937110708642420409e-01 4.942684391717553360e-01 4.938021544010436914e-01 4.938400114185003131e-01 4.943007197675838849e-01 4.939349796933568681e-01 4.942201361327916431e-01 4.940157700295106369e-01 4.939794873494295357e-01 4.938881631381408788e-01 4.938414546082432466e-01 4.939474762365964611e-01 4.942549347638773294e-01 4.941907221685718499e-01 4.941333698878732084e-01 4.944372483384890105e-01 4.941693256161748815e-01 4.941509049313766444e-01 4.941737723320638875e-01 4.943979144230150058e-01 4.940889834718656393e-01 4.941022327943031534e-01 4.940720342265477738e-01 4.939222049785735313e-01 4.937917654113811450e-01 4.940718993953970295e-01 4.942735219535531743e-01 4.940889861478215406e-01 4.940574665971193546e-01 4.941393627429886415e-01 4.940019893938900619e-01 4.935845140020642119e-01 4.940793166205855180e-01 4.943081609591232772e-01 4.942825425565487985e-01 4.939918090678045437e-01 4.938899025969643586e-01 4.939483594799186084e-01 4.938796136853004226e-01 4.936768861951224552e-01 4.942748062648732454e-01 4.943500223022772033e-01 4.941585585447776929e-01 4.938260577062807410e-01 4.938570026505957888e-01 4.938196627962493923e-01 4.941456086866982123e-01 4.944886248258496542e-01 4.944683823838176839e-01 4.939520035535345799e-01 4.953588753726386740e-01 4.937987617342209368e-01 4.937639808870334934e-01 4.940797400386780502e-01 4.938397538020727895e-01 4.937366334380813848e-01 4.940597928057186561e-01 4.940080352476315384e-01 4.942796411112057031e-01 4.938802645436059513e-01 4.939055977043924628e-01
4.000000000000000000e+00 1.828907072650477694e+00 9.019723165826486547e-03 1.828000000000000069e+00 1.829524547087557185e+00 1.829646613711559233e+00 1.828700542440760524e+00 1.827870870498578659e+00 1.829241655029230085e+00 1.829345646693468552e+00 1.827873562203178981e+00 1.828713854984559184e+00 1.828545566543492429e+00 1.828567944151168190e+00 1.828362238623407521e+00 1.828788925149132272e+00 1.828544485632494832e+00 1.828280742408070925e+00 1.830057494536004636e+00 1.829313336613996199e+00 1.828491167480763346e+00 1.828777096064734931e+00 1.829772393301025257e+00 1.829281705279478309e+00 1.829083865786011343e+00 1.830072848333583968e+00 1.829325072318146006e+00 1.828368889855087831e+00 1.829075687200281131e+00 1.828577624008358660e+00 1.828469731575641521e+00 1.829923008306983512e+00 1.828922869477486168e+00 1.829247628652553859e+00 1.829945541900623640e+00 1.829698914349094929e+00 1.827986872732848322e+00 1.829760053932286468e+00 1.830163923824509764e+00 1.829491475322746474e+00 1.829177982309175166e+00 1.828925390090131886e+00 1.829740181566336998e+00 1.828923625946030418e+00 1.828631519552847084e+00 1.828819236020843286e+00 1.829624491902282157e+00 1.828980025585677627e+00 1.828846275320661574e+00 1.827818877036785139e+00 1.828782417175013775e+00 1.828904116332801699e+00 1.828467421180504093e+00 1.827760409828478316e+00 1.829380830710266359e+00 1.829764609040829271e+00 1.829073648329432089e+00 1.829147414056489396e+00 1.828575140909488361e+00 1.828635121654247131e+00 1.828463072372081832e+00 1.828784873386676502e+00 1.829388512068341965e+00 1.829444387939232586e+00 1.827880825846846413e+00 1.829650609272736705e+00 1.828298962821888640e+00 1.828119513958053943e+00 1.828910590917289358e+00 1.828759134373312278e+00 1.827908340578690449e+00 1.829922582228665329e+00 1.828046114136801403e+00 1.828247807506998779e+00 1.829546182433397838e+00 1.829286851041826090e+00 1.828955269660446969e+00 1.828837560716882971e+00 1.828628536782955560e+00 1.828742916677491337e+00 1.828832264835146715e+00 1.829554592072333064e+00 1.829367045228840638e+00 1.828470434435089054e+00 1.829981441808963716e+00 1.828426527537053925e+00 1.829005886595218344e+00 1.828023342428647613e+00 1.829091618206362790e+00 1.827891881512173633e+00 1.828849457115194310e+00 1.828621502704631085e+00 1.829691719629494395e+00 1.828307394615963588e+00 1.827956801102742279e+00 1.829205032355641025e+00 1.828555355348633560e+00 1.827933288333786432e+00 1.829617796210118108e+00 1.828998079467159643e+00 1.829038749027932287e+00 1.829205916486844163e+00 1.829663013880610034e+00 1.828958985784394420e+00 1.828357149065338527e+00 1.829105044569411032e+00 1.828703829687256421e+00 1.828114438816736520e+00 1.829236360050605859e+00 1.828158911177856005e+00 1.828856915851040821e+00 1.828868766876401653e+00 1.828507457420880389e+00 1.828832540822619812e+00 1.828359535275960290e+00 1.828328327945944132e+00 1.829739032113121500e+00 1.828302518561618850e+00 1.828610143472056748e+00 1.829390448001151581e+00 1.827734414952286723e+00 1.828409528656063765e+00 1.828935249582831268e+00 1.829348212800048668e+00 1.829100078411722841e+00 1.828167676827886057e+00 1.829341792136556011e+00 1.829583117088714683e+00 1.828456444063878195e+00 1.829291170728733595e+00 1.828498849528849668e+00 1.828184616600369683e+00 1.830001525270599672e+00 1.828311300977784049e+00 1.827837646243779313e+00 1.828164993198670096e+00 1.828035254805043364e+00 1.829668085178222992e+00 1.827841177700302744e+00 1.829629123741191910e+00 1.828313160468652221e+00 1.829586398784031953e+00 1.829077630398703302e+00 1.828784763024564830e+00 1.828695610060672827e+00 1.829381925188429570e+00 1.829022281478991818e+00 1.829229320160946859e+00 1.828261193812847019e+00 1.829175397820155258e+00 1.829447804802896815e+00 1.828386220020796094e+00 1.828937548789997702e+00 1.828113367176785298e+00 1.828444213401085650e+00 1.828496201484101746e+00 1.827743016347087579e+00 1.828150442460732661e+00 1.828777289644909043e+00 1.829581420348753040e+00 1.829807791207015200e+00 1.827821529294067160e+00 1.828360136164427718e+00 1.829397016338572879e+00 1.829659716017949300e+00 1.829162279606695973e+00 1.827892652099826432e+00 1.829170155318337487e+00 1.828929675468750737e+00 1.828993333615321237e+00 1.829267090190101142e+00 1.829407329748695687e+00 1.829112784888954124e+00 1.829759135301301853e+00 1.828814592815269480e+00 1.828058355493816789e+00 1.827924094888172535e+00 1.829585705552222219e+00 1.829412675977905245e+00 1.829805428163910008e+00 1.828943361838800907e+00 1.828705749239168732e+00 1.828493522581037034e+00 1.829617995876028136e+00 1.828626573332728045e+00 1.828558409341207280e+00 1.828643027981807334e+00 1.829472444464112169e+00 1.828329274871600019e+00 1.828378302728717042e+00 1.828266555801881355e+00 1.829711811965161194e+00 1.829228604661593760e+00 1.828266056872036138e+00 1.829012141965779659e+00 1.828329284773720032e+00 1.828212649675170276e+00 1.828515698571221204e+00 1.830007369617042245e+00 1.828460851465136372e+00 1.828293503608158455e+00 1.829140320310278067e+00 1.829045521848929434e+00 1.829969657073041045e+00 1.829592149296446646e+00 1.829808700097674157e+00 1.829554034502226312e+00 1.828803039953591281e+00 1.829016894437628160e+00 1.829295224227859729e+00 1.828586730809420358e+00 1.829355638871444922e+00 1.829470272976903455e+00 1.829331949224972442e+00 1.828538811091668492e+00 1.829808109679459838e+00 1.829733204448620754e+00 1.829822199398721150e+00 1.829631975166681634e+00 1.829254522213814127e+00 1.829125678184759796e+00 1.828295070426525282e+00 1.829406375420634001e+00 1.829024370833378432e+00 1.828221257588772630e+00 1.828029733669373380e+00 1.829034785326485890e+00 1.829556445576516310e+00 1.829650291091170500e+00
5.000000000000000000e+00 4.941708208817891190e+00 1.834493454683321090e-02 4.942000000000000171e+00 4.942265614620097836e+00 4.941045663913949504e+00 4.941893150797240786e+00 4.941650898251627844e+00 4.943355457245293572e+00 4.940232888502252173e+00 4.941064569022394437e+00 4.938526705646825832e+00 4.939473745947355887e+00 4.941534816250968909e+00 4.942979312514705015e+00 4.942131996847217046e+00 4.941471421785845308e+00 4.942165248919079268e+00 4.942155266664991942e+00 4.942144883180107584e+00 4.943327871821626474e+00 4.940696154614234281e+00 4.941385337537522737e+00 4.942059426722262394e+00 4.941524935762863002e+00 4.944196809924174651e+00 4.942176588820172967e+00 4.940996890527425300e+00 4.940905767721546660e+00 4.941560975164819958e+00 4.943269919828676251e+00 4.939792164500819815e+00 4.942493968938063809e+00 4.941967363966243809e+00 4.940453411703320974e+00 4.939787571163003932e+00 4.941064516881850111e+00 4.941352014499103440e+00 4.939044999666143632e+00 4.938627261253752287e+00 4.943778306284797530e+00 4.942495969481731422e+00 4.943198078494886794e+00 4.943090849141566601e+00 4.940302859382118328e+00 4.942213909159171692e+00 4.942388260948287204e+00 4.940647355767000093e+00 4.938884312915141628e+00 4.941510333870783533e+00 4.940710530335119088e+00 4.944444279494915939e+00 4.942863571392408062e+00 4.941352267709156365e+00 4.940327904573845075e+00 4.941364315781299865e+00 4.941497331880170485e+00 4.943695688482730333e+00 4.942148987397994020e+00 4.942311099290659371e+00 4.941251410020833568e+00 4.942121047335985118e+00 4.942347980145290975e+00 4.942498936596483539e+00 4.941677812546561910e+00 4.941056454112494833e+00 4.942808246316068299e+00 4.942323106116358389e+00 4.941056809560151919e+00 4.939246832357614636e+00 4.943752098370374881e+00 4.943790845103016807e+00 4.942124669619295751e+00 4.940669676742108329e+00 4.940774444582433311e+00 4.944072549318509147e+00 4.939178657192311306e+00 4.942263429946062381e+00 4.941698562203391987e+00 4.942007663231295034e+00 4.941095041208291683e+00 4.940797155202989011e+00 4.940290676240945977e+00 4.941865993833853388e+00 4.940550333617432344e+00 4.941152651002759910e+00 4.940717214445945693e+00 4.942063106281387341e+00 4.940948802353950065e+00 4.943116161504443440e+00 4.942295578856159999e+00 4.941679553260874158e+00 4.941167474540415938e+00 4.941425340858226711e+00 4.941883211733999914e+00 4.941852284134584217e+00 4.941500796182849875e+00 4.943228136797501726e+00 4.940967840912789732e+00 4.940696124950127555e+00 4.942807122646600604e+00 4.943258877158101861e+00 4.944494140355695677e+00 4.940590520680163245e+00 4.942965552888896497e+00 4.941582153197359162e+00 4.939901264220827315e+00 4.942309385466253424e+00 4.943936085688687143e+00 4.942429616543197568e+00 4.941289187224699120e+00 4.942347761690056629e+00 4.941371356487499256e+00 4.940248953272481813e+00 4.942972004011923381e+00 4.942487563116751303e+00 4.943294958889220325e+00 4.939414017359914588e+00 4.943649523544258351e+00 4.943757556414491106e+00 4.943281699958481212e+00 4.941106713107743076e+00 4.939124592042815287e+00 4.940239818392263338e+00 4.941568736430359543e+00 4.940853167724462480e+00 4.943626068465309942e+00 4.940274762554647481e+00 4.942640201478259776e+00 4.943489268818350268e+00 4.943348640247032577e+00 4.942499111181087201e+00 4.940604554578812646e+00 4.940841261942151341e+00 4.941561076442427591e+00 4.941040467956623772e+00 4.942095311404006708e+00 4.940504194988899478e+00 4.941720610706444639e+00 4.942998026107351173e+00 4.942846629669627845e+00 4.938883502728479868e+00 4.939509098049394531e+00 4.942120749092642207e+00 4.941879821498755376e+00 4.941733012352552024e+00 4.942762620627034309e+00 4.941917901024984516e+00 4.942706137758802853e+00 4.941772222307567297e+00 4.942508167729792845e+00 4.941638384821233743e+00 4.940532612650442523e+00 4.940306364252363025e+00 4.939796825713097306e+00 4.941340938365133439e+00 4.939305525576921596e+00 4.942406721357189170e+00 4.942100552979129979e+00 4.942271911204672463e+00 4.941480931226813311e+00 4.941517504251247139e+00 4.939569679342585395e+00 4.941671186265875093e+00 4.943080675405870039e+00 4.942786300966764301e+00 4.941709784834432462e+00 4.941758058958393818e+00 4.941108369135248424e+00 4.942684391717553360e+00 4.940020743016109606e+00 4.940399466457952471e+00 4.941005980186901070e+00 4.939349796933568904e+00 4.942201361327915876e+00 4.942157764141379417e+00 4.943794707399959520e+00 4.940881178600591284e+00 4.942413262314078182e+00 4.943474337072333746e+00 4.942549347638773405e+00 4.941907221685718277e+00 4.941333698878731973e+00 4.942370713148701356e+00 4.941693256161748593e+00 4.943509660264905570e+00 4.941737723320638764e+00 4.943979144230150169e+00 4.942890194975626983e+00 4.943022741840984224e+00 4.942720633902022875e+00 4.941221734826134693e+00 4.939916811058796320e+00 4.942719285044639754e+00 4.940734112159200997e+00 4.942890221746019996e+00 4.942574898629481517e+00 4.941393627429886415e+00 4.940019893938901063e+00 4.941840093632003494e+00 4.942793487325776169e+00 4.943081609591232883e+00 4.942825425565487762e+00 4.941918057516376805e+00 4.942898134492695661e+00 4.941483385728254518e+00 4.940795649459017724e+00 4.940766245645112242e+00 4.942748062648732343e+00 4.941498805928430826e+00 4.941585585447777262e+00 4.940259872842994504e+00 4.940569447569320261e+00 4.940195897852357021e+00 4.943456676375834746e+00 4.942884270020335258e+00 4.940680031268267491e+00 4.941519841217749232e+00 4.939606849986030390e+00 4.939986802612388317e+00 4.941637897784399769e+00 4.940797400386780502e+00 4.942396240480664282e+00 4.941364201858045035e+00 4.942598170133322810e+00 4.942080385007682430e+00 4.942796411112056809e+00 4.940802160677127297e+00 4.941055594848395849e+00
6.000000000000000000e+00 2.461728629786681839e-03 2.229808917532578351e-05 2.472669645919067186e-03 2.461017875514403402e-03 2.461173268175582962e-03 2.462684327846364780e-03 2.461315264917695363e-03 2.463346086248285362e-03 2.460908028978052095e-03 2.464112332818930041e-03 2.459975673010973869e-03 2.462478030692729757e-03 2.462662894375857239e-03 2.462223508230452877e-03 2.462906700102880566e-03 2.462290487825788670e-03 2.464816958161865704e-03 2.461655521262002839e-03 2.460999121227709033e-03 2.462261016803840748e-03 2.459999785665295015e-03 2.461371527777777603e-03 2.460798182441700788e-03 2.460565093449931448e-03 2.461366169410150826e-03 2.460905349794238490e-03 2.462003815157750262e-03 2.463163901748971051e-03 2.462252979252400366e-03 2.462191358024691350e-03 2.461548353909465137e-03 2.463110318072702417e-03 2.460557055898491066e-03 2.458689664780521443e-03 2.458772719478738000e-03 2.461577824931413059e-03 2.461325981652949350e-03 2.459032600308642090e-03 2.461082175925926024e-03 2.460482038751714891e-03 2.460168574245541733e-03 2.461534957990397978e-03 2.460039973422496491e-03 2.460101594650205940e-03 2.462778099279835323e-03 2.463847093621399174e-03 2.463112997256515588e-03 2.460098915466392335e-03 2.461631408607681693e-03 2.459812242798353928e-03 2.462850437242798327e-03 2.462515539266118061e-03 2.461307227366254981e-03 2.460814257544581551e-03 2.461561749828532295e-03 2.460613318758573306e-03 2.460479359567901286e-03 2.459895297496570484e-03 2.459836355452675073e-03 2.462510180898491285e-03 2.462743269890260624e-03 2.460637431412894451e-03 2.460924104080932859e-03 2.461473336762688528e-03 2.461151834705075422e-03 2.462226187414266049e-03 2.461926118827160483e-03 2.460219478737997196e-03 2.457125021433470557e-03 2.461596579218106994e-03 2.461299189814814600e-03 2.461679633916323551e-03 2.462156528635116651e-03 2.460816936728395157e-03 2.460610639574760134e-03 2.460273062414266264e-03 2.462962962962962805e-03 2.462520897633744838e-03 2.463088884602194877e-03 2.459801526063099941e-03 2.460937500000000017e-03 2.460645468964334833e-03 2.459804205246913546e-03 2.458984374999999799e-03 2.462073473936899660e-03 2.463268389917695582e-03 2.461559070644718690e-03 2.463348765432098967e-03 2.464179312414266267e-03 2.462898662551440184e-03 2.462397655178326372e-03 2.461277756344307059e-03 2.459364819101508750e-03 2.461476015946502133e-03 2.460918745713306082e-03 2.462311921296296210e-03 2.464511531207132927e-03 2.461023233882030179e-03 2.463319294410151045e-03 2.463051376028806572e-03 2.463263031550068372e-03 2.464074824245541737e-03 2.462869191529492262e-03 2.462137774348422282e-03 2.460495434670782050e-03 2.462700402949245543e-03 2.461877893518518625e-03 2.460570451817558225e-03 2.462068115569272884e-03 2.461058063271604878e-03 2.462946887860082475e-03 2.462518218449931233e-03 2.462622706618655764e-03 2.462094907407407201e-03 2.462194037208504955e-03 2.461173268175582962e-03 2.459455911351166122e-03 2.462681648662551608e-03 2.463396990740740825e-03 2.461462620027434975e-03 2.462285129458161893e-03 2.460219478737997196e-03 2.460704411008230244e-03 2.460557055898491066e-03 2.461722500857338632e-03 2.463450574417009459e-03 2.463841735253772397e-03 2.464988425925926027e-03 2.463343407064471757e-03 2.462338713134430528e-03 2.461907364540466547e-03 2.459091542352537935e-03 2.462054719650205725e-03 2.461379565329217985e-03 2.459086183984910724e-03 2.461684992283950761e-03 2.463948902606310099e-03 2.461414394718792684e-03 2.461237568587105583e-03 2.462266375171467958e-03 2.461202739197530884e-03 2.460297175068586976e-03 2.462839720507544773e-03 2.462587877229081065e-03 2.463327331961591427e-03 2.463321973593964216e-03 2.460570451817558225e-03 2.462046682098765343e-03 2.460409700788751888e-03 2.461173268175582962e-03 2.459605945644718905e-03 2.462979038065843569e-03 2.461904685356652942e-03 2.459541645233196284e-03 2.462167245370370204e-03 2.461542995541837926e-03 2.461958269032922010e-03 2.462341392318244133e-03 2.464096257716049277e-03 2.461285793895747441e-03 2.461229531035665202e-03 2.459257651748971048e-03 2.460709769375857454e-03 2.461398319615912354e-03 2.460508830589849209e-03 2.461497449417009674e-03 2.460768711419753299e-03 2.460163215877914956e-03 2.463252314814814818e-03 2.460709769375857454e-03 2.460358796296296426e-03 2.463571137688614753e-03 2.461462620027434975e-03 2.462518218449931233e-03 2.461966306584361958e-03 2.461540316358024755e-03 2.461106288580246736e-03 2.460964291838134334e-03 2.461323302469135745e-03 2.462914737654320948e-03 2.462641460905349699e-03 2.462207433127572113e-03 2.463981052812071193e-03 2.462681648662551608e-03 2.462360146604938068e-03 2.462587877229081065e-03 2.463541666666666831e-03 2.462017211076817421e-03 2.462185999657064573e-03 2.461885931069959007e-03 2.461409036351165907e-03 2.460942858367626794e-03 2.461899326989026165e-03 2.463206768689986132e-03 2.462121699245541952e-03 2.462030606995884580e-03 2.462486068244170139e-03 2.461569787379972677e-03 2.459683641975308685e-03 2.461987740054869499e-03 2.463313936042523834e-03 2.463209447873799737e-03 2.461840384945130321e-03 2.461154513888889027e-03 2.461500128600822845e-03 2.460937500000000017e-03 2.460058727709190859e-03 2.462987075617283951e-03 2.463434499314129129e-03 2.462657536008230463e-03 2.460991083676268652e-03 2.460685656721536309e-03 2.460701731824417073e-03 2.462319958847736592e-03 2.464251650377229270e-03 2.464077503429355342e-03 2.461518882887517214e-03 2.458167223936899657e-03 2.460704411008230244e-03 2.460388267318244348e-03 2.462097586591220806e-03 2.460926783264746030e-03 2.460490076303154840e-03 2.461848422496570703e-03 2.461524241255143991e-03 2.462914737654320948e-03 2.461277756344307059e-03 2.461267039609053506e-03
