# vvf statistics with RF=500
# gcat file: /disk2/salam/Abacus/AbacusCosmos_720box_products/GCAT_derivative/AbacusCosmos_720box_planck_rockstar_halos_z0.100_Mr21_hod-LM1-neg_real-0.gcat.rsd_zz.1pz0.100by100
# stats order in row: stdvvf,p2.5,p16,p50,p84,p97.5,rho
# columns: numbers, mean, sigma,All, jnrealizations
0.000000000000000000e+00 1.497667732584384348e+00 5.378007310353659191e-03 1.497667984945750819e+00 1.498104208327853515e+00 1.497337909173932058e+00 1.497375746668709651e+00 1.497631688738895184e+00 1.498132872498359802e+00 1.497543213772024151e+00 1.497824568932035083e+00 1.496996376262281991e+00 1.496269863046317372e+00 1.497477285294861460e+00 1.498332641664569254e+00 1.498051101862933221e+00 1.497663435655972597e+00 1.497563214180584357e+00 1.497892813302164283e+00 1.497673632865315296e+00 1.497908748744076535e+00 1.497777201439251193e+00 1.498040940153527956e+00 1.497905612008162413e+00 1.497616847402369222e+00 1.498415112670195670e+00 1.497542604292376511e+00 1.497457055694340955e+00 1.497629505364129310e+00 1.498113426283885774e+00 1.497993228593847315e+00 1.497607786112702399e+00 1.498165580740584923e+00 1.497250251569888446e+00 1.497325796478069071e+00 1.496878420650685770e+00 1.497750109301841936e+00 1.497759259416296285e+00 1.497135383058595837e+00 1.497099719101079085e+00 1.497740402679654803e+00 1.497607026769481431e+00 1.497596388998780004e+00 1.498125982470710715e+00 1.497508682648735823e+00 1.497587118082428503e+00 1.498079059571296279e+00 1.497429955868943008e+00 1.497120281853215218e+00 1.497950406095642117e+00 1.497430607570205519e+00 1.498114262063725111e+00 1.497732468810652362e+00 1.497448587542666187e+00 1.496737640132506098e+00 1.497667398780845760e+00 1.497402422551635803e+00 1.497670874352612147e+00 1.497037330843583369e+00 1.497243753288530099e+00 1.497509168791635314e+00 1.497564318991476684e+00 1.497939112998402544e+00 1.497294753184426952e+00 1.497718430277853896e+00 1.497802540476962596e+00 1.498072666786770535e+00 1.497675867118330562e+00 1.497750169350245741e+00 1.496961807106947706e+00 1.498298474492628873e+00 1.498272399930101750e+00 1.498155316185109553e+00 1.497660410427796407e+00 1.497794215391314410e+00 1.498148321181314246e+00 1.497329922053218354e+00 1.497732124113118735e+00 1.497648640358672179e+00 1.497901033244064539e+00 1.497704823438061217e+00 1.497437671889146449e+00 1.497696703556886000e+00 1.497378043797226832e+00 1.497277817534972799e+00 1.497782164442886144e+00 1.496623626646902405e+00 1.497937498797813571e+00 1.497471225476842971e+00 1.498148488272887491e+00 1.497929856838560614e+00 1.498111521314200223e+00 1.497609192812082934e+00 1.497193023740545526e+00 1.497810759171070760e+00 1.497641327197704930e+00 1.497754164621973860e+00 1.498019187674274111e+00 1.497242613156817503e+00 1.497398543670820814e+00 1.498286368060966822e+00 1.497675643975536319e+00 1.497686997593412617e+00 1.497684165884782592e+00 1.497688028042440500e+00 1.497118096506036222e+00 1.497592935323025731e+00 1.497224318804971199e+00 1.497709376718762142e+00 1.497758339408561179e+00 1.497594910143457803e+00 1.497692823642486903e+00 1.497161827938218170e+00 1.497723900469039027e+00 1.498054464063193425e+00 1.497703854731487816e+00 1.497699097982640337e+00 1.497043517735975326e+00 1.497879690540599551e+00 1.498149756193619231e+00 1.497850868540340663e+00 1.497911832172379443e+00 1.497120571494973795e+00 1.497809930101519527e+00 1.497451271632163294e+00 1.497516249206783279e+00 1.497687355181179791e+00 1.497503261428325461e+00 1.497495875213901151e+00 1.497967836867278191e+00 1.498218553482265181e+00 1.498018627007411174e+00 1.497426397830337930e+00 1.497842519164345632e+00 1.497719518352875756e+00 1.497162537867549936e+00 1.497755044635425969e+00 1.497723619238686021e+00 1.497942813894292069e+00 1.497691928612112200e+00 1.497691464535400474e+00 1.497112699050433982e+00 1.496801906311964414e+00 1.496936875987990412e+00 1.497854606629192675e+00 1.498092313917966711e+00 1.497764601033166221e+00 1.497828729963122107e+00 1.497819256867611637e+00 1.497819745038371453e+00 1.497501491471930235e+00 1.497909967216929150e+00 1.497316388783668017e+00 1.497536556718441769e+00 1.497292526577076899e+00 1.497584708617002658e+00 1.497054230042039746e+00 1.498103913573534340e+00 1.497692173173730934e+00 1.498391888400332217e+00 1.497794106303764083e+00 1.498177364067832862e+00 1.497051551189714225e+00 1.497891469994665492e+00 1.498174614818118755e+00 1.497794559235542611e+00 1.497663934443626887e+00 1.497740783353960659e+00 1.497518187972739723e+00 1.497502716527319588e+00 1.497102057715456347e+00 1.497429065786602509e+00 1.497887843021655563e+00 1.497639486395264896e+00 1.497775931863674082e+00 1.497738845632835991e+00 1.498271474926619051e+00 1.497465337260858842e+00 1.497646392522825831e+00 1.497831990891445697e+00 1.498348066053311500e+00 1.497440337638950014e+00 1.497539884571231328e+00 1.498149192113887862e+00 1.497970963917957476e+00 1.497841605004826215e+00 1.497773703657236055e+00 1.498006289732601193e+00 1.498154454179856154e+00 1.498133529350897719e+00 1.497998647480046408e+00 1.497636873409846192e+00 1.496760076697314590e+00 1.497908411008285645e+00 1.497469915631424620e+00 1.498044103183859610e+00 1.498007589286838526e+00 1.497553923794583186e+00 1.497039310803550904e+00 1.497566648458068750e+00 1.498084179942604788e+00 1.497630693397790758e+00 1.497916479172532345e+00 1.497449599132068210e+00 1.497880749117699528e+00 1.497845188369008484e+00 1.497647268134742360e+00 1.497297917375496334e+00 1.497885932972475187e+00 1.497893218507001301e+00 1.497536619519218792e+00 1.497753613935218997e+00 1.497591454747460249e+00 1.497389020176084218e+00 1.497802580783951676e+00 1.497607169276971906e+00 1.497543430913163442e+00 1.497284677641861350e+00 1.497004603533881095e+00 1.497716775083917540e+00 1.497986083144090097e+00 1.497508746631092125e+00 1.497800678258079277e+00 1.497350403516142903e+00 1.498434021447827558e+00 1.498105352538944945e+00 1.498085765927392954e+00 1.497081794183924730e+00 1.497761793441445333e+00
1.000000000000000000e+00 1.599999989607618286e-02 1.227209423264313945e-04 1.600000000000000033e-02 1.599555021186194192e-02 1.599425919066497712e-02 1.600559491489534150e-02 1.599846016363568046e-02 1.600988330879786481e-02 1.599727816356353444e-02 1.601611528032791457e-02 1.598908101276990540e-02 1.600522038521488138e-02 1.600543567203413509e-02 1.600395125038049302e-02 1.600503065542220951e-02 1.600558861414136738e-02 1.601924251836060742e-02 1.599841977255561307e-02 1.599467845272897412e-02 1.600375415685953776e-02 1.599059434308020347e-02 1.599797919669096805e-02 1.599440047134864998e-02 1.599323064498750155e-02 1.600133376790216500e-02 1.599384674180259064e-02 1.600286379701956405e-02 1.601091628357158639e-02 1.600592661102830452e-02 1.600541768353492059e-02 1.600026343375033494e-02 1.600923567297586614e-02 1.599073529211861647e-02 1.598109173071400602e-02 1.597959071249885343e-02 1.600159141077279676e-02 1.599711128094551821e-02 1.598423115681122872e-02 1.599421658593885853e-02 1.599195829961183590e-02 1.598972437796679705e-02 1.600025390536212802e-02 1.599067112151853279e-02 1.598828245656173930e-02 1.600860143976997815e-02 1.601237588016579325e-02 1.600726589314128978e-02 1.599027929730900341e-02 1.600026003975854941e-02 1.598979764798690376e-02 1.600758623123120158e-02 1.600488003538948212e-02 1.599658606717065112e-02 1.599509758238889384e-02 1.599850727396960950e-02 1.599000033681942379e-02 1.599218619115178389e-02 1.598835892360568958e-02 1.598819962398982317e-02 1.600549748585376394e-02 1.600613706990836396e-02 1.599514773061639847e-02 1.599633730275142052e-02 1.599859479569478923e-02 1.599619118097738227e-02 1.600228301162207739e-02 1.600263963945642437e-02 1.599361133729814213e-02 1.597059685113580776e-02 1.599888169456332304e-02 1.599943846163803113e-02 1.599938616459077589e-02 1.600293874418379225e-02 1.599804491856932076e-02 1.599456409961312608e-02 1.598907365700508523e-02 1.600903182114573470e-02 1.600636606990020819e-02 1.600585292128135079e-02 1.598958162359312429e-02 1.599490361965112684e-02 1.599333281445006888e-02 1.598854830331896890e-02 1.597936322150210475e-02 1.600206256433973212e-02 1.600937453040651715e-02 1.600078891502942566e-02 1.601005729127434954e-02 1.601692533963311113e-02 1.600535684441313500e-02 1.600779086225771058e-02 1.599594704709214610e-02 1.598552148899207506e-02 1.600020568299247853e-02 1.599563440980372037e-02 1.600402486173400571e-02 1.601643500974601897e-02 1.599850665401695085e-02 1.600858312339736855e-02 1.600989359091313860e-02 1.601005032433548692e-02 1.601428804557165908e-02 1.600723236758515994e-02 1.600294027115639617e-02 1.599187147692239519e-02 1.600634575004871926e-02 1.600211758371293189e-02 1.599369181911904081e-02 1.600047677324412110e-02 1.599773742484578501e-02 1.600691564647105034e-02 1.600597177269388535e-02 1.600584926461208132e-02 1.600109308824790647e-02 1.600429125638099317e-02 1.599557792318286389e-02 1.598494976033124418e-02 1.600897751153309082e-02 1.601061241025194745e-02 1.599858284869266206e-02 1.600389803025787858e-02 1.599041701608489366e-02 1.599504849685486410e-02 1.599175200486618875e-02 1.599928376607889086e-02 1.601151239864356465e-02 1.601339845471442050e-02 1.601989079883971503e-02 1.601071817745865905e-02 1.600442802384743207e-02 1.600143413424431199e-02 1.598297636942406716e-02 1.600377774920288404e-02 1.599743249972574582e-02 1.598354720436532400e-02 1.599812518152158095e-02 1.601422042041037927e-02 1.599784600248850899e-02 1.599696158696063686e-02 1.600177418254370917e-02 1.599621207867269260e-02 1.599128688007708798e-02 1.600819198594853957e-02 1.600657149257877707e-02 1.601105823761578978e-02 1.600853672254980847e-02 1.599573133465742938e-02 1.600236360863162288e-02 1.599182942511902586e-02 1.599509172017608491e-02 1.598677491902785949e-02 1.600717402807986037e-02 1.600365930597145298e-02 1.598794536484728426e-02 1.600448715404348063e-02 1.599773602414744297e-02 1.600246585526950149e-02 1.600512758392104440e-02 1.601383805447257128e-02 1.599764291033630575e-02 1.599910207298599688e-02 1.598554369072097484e-02 1.599477184038340660e-02 1.599893519564521069e-02 1.599214127279688369e-02 1.599884787088225527e-02 1.599557528425545397e-02 1.599241991834115736e-02 1.600760191009632100e-02 1.599429192452552287e-02 1.599223683977856608e-02 1.600836494337734214e-02 1.599783541430785036e-02 1.600498160511211812e-02 1.600156973783174036e-02 1.600125148567765540e-02 1.599690334259697838e-02 1.599369484141310860e-02 1.599618790143432501e-02 1.600960537649060919e-02 1.600745975265420798e-02 1.600457468847904866e-02 1.601359062621079618e-02 1.600712350708743958e-02 1.600437436186136902e-02 1.600407800698637473e-02 1.601309609120344507e-02 1.600262550166749176e-02 1.600299817111709710e-02 1.600380980615579221e-02 1.599671021712566893e-02 1.599334026691350691e-02 1.600445178832890156e-02 1.600913842228118139e-02 1.600108181510231237e-02 1.600192795606964619e-02 1.600554482022762889e-02 1.599944358589925480e-02 1.598781214194512287e-02 1.600271472430716407e-02 1.601087023891314964e-02 1.600738106840074795e-02 1.600028889541045898e-02 1.599514533798168311e-02 1.599853362138592763e-02 1.599673160377342723e-02 1.598864916212709014e-02 1.600906491302036411e-02 1.601130496002516057e-02 1.600302843459630239e-02 1.599507184100980306e-02 1.599437191047265935e-02 1.599406971764709071e-02 1.600431048121973149e-02 1.601560827213487428e-02 1.601321711448800561e-02 1.599786508403041804e-02 1.597744390721382232e-02 1.599583426960923122e-02 1.599360143141997578e-02 1.600174090944346886e-02 1.599547322403263236e-02 1.599143181971135821e-02 1.599970161911078506e-02 1.600043777064306255e-02 1.600904451286149291e-02 1.599704989968131486e-02 1.599675934602039912e-02
2.000000000000000000e+00 9.199999940243806795e-02 7.056454183769802742e-04 9.199999999999999845e-02 9.197441371820616607e-02 9.196699034632362102e-02 9.203217076064820756e-02 9.199114594090515573e-02 9.205682902558773306e-02 9.198434944049033168e-02 9.209266286188551309e-02 9.193721582342695431e-02 9.203001721498557663e-02 9.203125511419628368e-02 9.202271968968785132e-02 9.202892626867771597e-02 9.203213453131284250e-02 9.211064448057350307e-02 9.199091369219476733e-02 9.196940110319160033e-02 9.202158640194234296e-02 9.194591747271116389e-02 9.198838038097308101e-02 9.196780271025473130e-02 9.196107620867813304e-02 9.200766916543744178e-02 9.196461876536489444e-02 9.201646683286249240e-02 9.206276863053662607e-02 9.203407801341274841e-02 9.203115168032578730e-02 9.200151474406442764e-02 9.205310511961123376e-02 9.194672792968204555e-02 9.189127745160552418e-02 9.188264659686841418e-02 9.200915061194357703e-02 9.198338986543672102e-02 9.190932915166455386e-02 9.196674536914845044e-02 9.195376022276804950e-02 9.194091517330908736e-02 9.200145995583224046e-02 9.194635894873155746e-02 9.193262412523001137e-02 9.204945827867737351e-02 9.207116131095331724e-02 9.204177888556241971e-02 9.194410595952676180e-02 9.200149522861165996e-02 9.194133647592467318e-02 9.204362082957939784e-02 9.202806020348952565e-02 9.198036988623124743e-02 9.197181109873614480e-02 9.199141682532524511e-02 9.194250193671169025e-02 9.195507059912275127e-02 9.193306381073272637e-02 9.193214783794147194e-02 9.203161054365913141e-02 9.203528815197309365e-02 9.197209945104430073e-02 9.197893949082067144e-02 9.199192007524503722e-02 9.197809929061993850e-02 9.201312731682693979e-02 9.201517792687444186e-02 9.196326518946432160e-02 9.183093189403090939e-02 9.199356974373910922e-02 9.199677115441869113e-02 9.199647044639695792e-02 9.201689777905681933e-02 9.198875828177360825e-02 9.196874357277547152e-02 9.193717352777923402e-02 9.205193297158797971e-02 9.203660490192619448e-02 9.203365429736776182e-02 9.194009433566047163e-02 9.197069581299396890e-02 9.196166368308789085e-02 9.193415274408406335e-02 9.188133852363709886e-02 9.201185974495346143e-02 9.205390354983747359e-02 9.200453626141918972e-02 9.205782942482751419e-02 9.209732070289039507e-02 9.203080185537551583e-02 9.204479745798184454e-02 9.197669552077983313e-02 9.191674856170443941e-02 9.200118267720674980e-02 9.197489785637139037e-02 9.202314295497053542e-02 9.209450130603960560e-02 9.199141326059746826e-02 9.204935295953486918e-02 9.205688814775053741e-02 9.205778936492906017e-02 9.208215626203702930e-02 9.204158611361466791e-02 9.201690655914927797e-02 9.195326099230377581e-02 9.203648806278014183e-02 9.201217610634934707e-02 9.196372795993448812e-02 9.200274144615369631e-02 9.198699019286327161e-02 9.203976496720854550e-02 9.203433769298982603e-02 9.203363327151947715e-02 9.200628525742549080e-02 9.202467472419070815e-02 9.197457305830146479e-02 9.191346112190464102e-02 9.205162069131525571e-02 9.206102135894871086e-02 9.199185137998280859e-02 9.202241367398281136e-02 9.194489784248814634e-02 9.197152885691547985e-02 9.195257402798058533e-02 9.199588165495362069e-02 9.206619629220050283e-02 9.207704111460791874e-02 9.211437209332837273e-02 9.206162952038729475e-02 9.202546113712271880e-02 9.200824627190480609e-02 9.190211412418837489e-02 9.202172205791658843e-02 9.198523687342304023e-02 9.190539642510060780e-02 9.198921979374907743e-02 9.208176741735968340e-02 9.198761451430892411e-02 9.198252912502366541e-02 9.201020154962631648e-02 9.197821945236797636e-02 9.194989956044326285e-02 9.204710391920409296e-02 9.203778608232796032e-02 9.206358486629077909e-02 9.204908615466138311e-02 9.197545517428021289e-02 9.201359074963183504e-02 9.195301919443440997e-02 9.197177739101249083e-02 9.192395578441020509e-02 9.204125066145919798e-02 9.202104100933584940e-02 9.193068584787189579e-02 9.202580113575001275e-02 9.198698213884778929e-02 9.201417866779962318e-02 9.202948360754599488e-02 9.207956881321727183e-02 9.198644673443374942e-02 9.199483691966948984e-02 9.191687622164561311e-02 9.196993808220459143e-02 9.199387737495996753e-02 9.195481231858208815e-02 9.199337525757296519e-02 9.197455788446885772e-02 9.195641453046166092e-02 9.204371098305384746e-02 9.196717856602175389e-02 9.195536182872675324e-02 9.204809842441971646e-02 9.198755363227013870e-02 9.202864422939467659e-02 9.200902599253250880e-02 9.200719604264651075e-02 9.198219421993261702e-02 9.196374533812538832e-02 9.197808043324735838e-02 9.205523091482101239e-02 9.204289357776170022e-02 9.202630445875452370e-02 9.207814610071209105e-02 9.204096016575276373e-02 9.202515258070287363e-02 9.202344854017165121e-02 9.207530252441981089e-02 9.201509663458806720e-02 9.201723948392330488e-02 9.202190638539581302e-02 9.198108374847259461e-02 9.196170653475266299e-02 9.202559778289118309e-02 9.205254592811677739e-02 9.200622043683830131e-02 9.201108574740045343e-02 9.203188271630885486e-02 9.199680061892070992e-02 9.192991981618445219e-02 9.201560966476618475e-02 9.206250387375060351e-02 9.204244114330430160e-02 9.200166114861013655e-02 9.197208569339467010e-02 9.199156832296909170e-02 9.198120672169721179e-02 9.193473268223077699e-02 9.205212324986708494e-02 9.206500352014468369e-02 9.201741349892873789e-02 9.197166308580637106e-02 9.196763848521780083e-02 9.196590087647077416e-02 9.202478526701346473e-02 9.208974756477553147e-02 9.207599840830604787e-02 9.198772423317490288e-02 9.187030246647948095e-02 9.197604705025308469e-02 9.196320823066486683e-02 9.201001022929994333e-02 9.197397103818763520e-02 9.195073296334031754e-02 9.199828430988701844e-02 9.200251718119760447e-02 9.205200594895358857e-02 9.198303692316756042e-02 9.198136623961729319e-02
3.000000000000000000e+00 4.522829642985790044e-01 8.748131482279455223e-03 4.520000000000000129e-01 4.518742934850998871e-01 4.518378221362855940e-01 4.521580563457933688e-01 4.519564996227079523e-01 4.522792034735397260e-01 4.519231081206698808e-01 4.524552566692636169e-01 4.536901737373460475e-01 4.521474758823204598e-01 4.521535577349643509e-01 4.521116228232489598e-01 4.521421160156774421e-01 4.521578783494936138e-01 4.525436011436871908e-01 4.519553585746960422e-01 4.518496662895934990e-01 4.521060549312819199e-01 4.517342901920157749e-01 4.519429123065198950e-01 4.518418133155993610e-01 4.518087657208968988e-01 4.520376789432360987e-01 4.518261704559232150e-01 4.520809022658026644e-01 4.523083850108973736e-01 4.521674267615495846e-01 4.521530495598614641e-01 4.520074420034470020e-01 4.522609077615682427e-01 4.517382720023508935e-01 4.534634778590099780e-01 4.534208864671549488e-01 4.520449573543314781e-01 4.519183936867108287e-01 4.535525590745185798e-01 4.538358956260151733e-01 4.517728219640343434e-01 4.517097136775620747e-01 4.520071728264801747e-01 4.517364591828985643e-01 4.536675147049393786e-01 4.522429906735018768e-01 4.523496186146837017e-01 4.522052614812414606e-01 4.537241750611429869e-01 4.520073461231790546e-01 4.537105082616283425e-01 4.522143110322814352e-01 4.521378609997528386e-01 4.519035563975709047e-01 4.538608939002848897e-01 4.519578304896414434e-01 4.517175095151487185e-01 4.517792599000379217e-01 4.536696844573114840e-01 4.536651643307111903e-01 4.521553039753688497e-01 4.521733722249112741e-01 4.518629233899132958e-01 4.518965288027276261e-01 4.519603029783778037e-01 4.518924008626110100e-01 4.520644950783236915e-01 4.520745698146440006e-01 4.518195202786725595e-01 4.531656856509785891e-01 4.519684078714139019e-01 4.519841365412743950e-01 4.519826591496894364e-01 4.520830195231921866e-01 4.519447689495833531e-01 4.518464358140707460e-01 4.536899650175192367e-01 4.522551489473670694e-01 4.521798414746808215e-01 4.521653450261981511e-01 4.517056808665058099e-01 4.538553902076006841e-01 4.518116520082143817e-01 4.536750581066757992e-01 4.534144314101222206e-01 4.520582674425974168e-01 4.522648304839841371e-01 4.520222868495812341e-01 4.522841184785003632e-01 4.524781408446353903e-01 4.521513308546710186e-01 4.522200918587803709e-01 4.518855040803531065e-01 4.535891722501501633e-01 4.520058105445375340e-01 4.518766720769551437e-01 4.521137023439856795e-01 4.524642890253250394e-01 4.519578129759788676e-01 4.522424732359756616e-01 4.522794939432961403e-01 4.522839216624775505e-01 4.524036372873993517e-01 4.522043143842807145e-01 4.520830626601681779e-01 4.537693531576729722e-01 4.521792674388762645e-01 4.520598217398902885e-01 4.518217938901129549e-01 4.520134688441464488e-01 4.519360822518934118e-01 4.521953670128072145e-01 4.521687025786021996e-01 4.521652417252913225e-01 4.520308797430033776e-01 4.521212279927630528e-01 4.518750763299159146e-01 4.535729494493990210e-01 4.522536147008097696e-01 4.522998005896175511e-01 4.519599654755677154e-01 4.521101193547850672e-01 4.537280828314088632e-01 4.518601200361499481e-01 4.537659631380780989e-01 4.519797663917286545e-01 4.523252252616807301e-01 4.523785063456823852e-01 4.525619150672219870e-01 4.523027885132070991e-01 4.521250916736899161e-01 4.520405142924018294e-01 4.535169544824078636e-01 4.521067214149815383e-01 4.519274681172523178e-01 4.535331519238660070e-01 4.519470363779846123e-01 4.524017268765932465e-01 4.519391495703003470e-01 4.519141648316380433e-01 4.520501206568597330e-01 4.518929912225035372e-01 4.537527652221873820e-01 4.522314236030461898e-01 4.521856446653504391e-01 4.523123952126460456e-01 4.522411624120320495e-01 4.518794102040723515e-01 4.520667719438433152e-01 4.517691812596125178e-01 4.518613410949744447e-01 4.536247383274155665e-01 4.522026662932560059e-01 4.521033753936934962e-01 4.536579497275416428e-01 4.521267621017283078e-01 4.539357596851836818e-01 4.520696604113633721e-01 4.521448542457695008e-01 4.523909250388500891e-01 4.519334122170006185e-01 4.519746335618544664e-01 4.535898022242076943e-01 4.518523044908312469e-01 4.519699192769772167e-01 4.517779909565119434e-01 4.519674523524236931e-01 4.518750017802165564e-01 4.517858626931376964e-01 4.522147539602210387e-01 4.538380333584117188e-01 4.517806907237444936e-01 4.522363096504099511e-01 4.519388504541967388e-01 4.521407303444172632e-01 4.520443450937466912e-01 4.520353544703937798e-01 4.519125194283646341e-01 4.518218792699203457e-01 4.518923082155196780e-01 4.522713518858597626e-01 4.522107380124814058e-01 4.521292349495330543e-01 4.523839351904549999e-01 4.522012390752201405e-01 4.521235757225837149e-01 4.521152036973650756e-01 4.523699645764973631e-01 4.520741704221066248e-01 4.520846983340579550e-01 4.521076270239011707e-01 4.519070636338001767e-01 4.538110300736707403e-01 4.521257630202915045e-01 4.522581604294433344e-01 4.520305612766403747e-01 4.520544647589674891e-01 4.521566411714305067e-01 4.519842813016539118e-01 4.516556930099496769e-01 4.520766909616773521e-01 4.523070842492964427e-01 4.522085151823211358e-01 4.520081612953454342e-01 4.518628557979825211e-01 4.519585748041524687e-01 4.519076678065993002e-01 4.536779199753562253e-01 4.522560837928252808e-01 4.523193651207108035e-01 4.520855532773455088e-01 4.518607795085269330e-01 4.518410064708526797e-01 4.518324695235302890e-01 4.521217710944574475e-01 4.524409336878102428e-01 4.523733834842861845e-01 4.519396886238593036e-01 4.533599708671922079e-01 4.518823181164607905e-01 4.518192404376143445e-01 4.520491806917779631e-01 4.518721185789218442e-01 4.517579489068458964e-01 4.519915707398796667e-01 4.520123670206664945e-01 4.522555074883372050e-01 4.519166596659971447e-01 4.519084515250763046e-01
4.000000000000000000e+00 1.831380034454064498e+00 8.859916177775954346e-03 1.831999999999999851e+00 1.831490499258192406e+00 1.831342677331139868e+00 1.830639918391154586e+00 1.831823688736285316e+00 1.831130403443755883e+00 1.831688349728024745e+00 1.831843185187505441e+00 1.830749775962154047e+00 1.832597734107103804e+00 1.830621704988904197e+00 1.830451924262268992e+00 1.830575381213915387e+00 1.830639197742418789e+00 1.832200863037494631e+00 1.831819063957617733e+00 1.831390682837467532e+00 1.832429850960417106e+00 1.830923052282683372e+00 1.831768618021116124e+00 1.831358853969420331e+00 1.831224908851068811e+00 1.832152716424797712e+00 1.831295451936396645e+00 1.832327904758739967e+00 1.831248549933500280e+00 1.830677856136362358e+00 1.830619647554306617e+00 1.832030163164413361e+00 1.831056330096614726e+00 1.830939190947581396e+00 1.831832639633093063e+00 1.831660585420181064e+00 1.832182216533485120e+00 1.831669241668261616e+00 1.832192496349486888e+00 1.831337799089999496e+00 1.831079225305555225e+00 1.830823441277198427e+00 1.832029072163963823e+00 1.830931843413871940e+00 1.830658341276319323e+00 1.830983789673691353e+00 1.831415491293962861e+00 1.830831036528035138e+00 1.830886979541880955e+00 1.832029774552353940e+00 1.830831830694500617e+00 1.830867675197068500e+00 1.830558154047671859e+00 1.831609104691039658e+00 1.831438673183528598e+00 1.831829082869520287e+00 1.830855038565823989e+00 1.831105318886879330e+00 1.830667096752851553e+00 1.830648856946834879e+00 1.830628774944524251e+00 1.830701927370769422e+00 1.831444415155577765e+00 1.831580621165037615e+00 1.831839104107053418e+00 1.831563890221910240e+00 1.832261404830727525e+00 1.832302238717760767e+00 1.831268498120637300e+00 1.830629664061442119e+00 1.831871954027500582e+00 1.831935703857554776e+00 1.831929715845643791e+00 1.832336486209044324e+00 1.831776143176187421e+00 1.831377589405702722e+00 1.830748933727082139e+00 1.831033014543543613e+00 1.830728119244836138e+00 1.830669427871554511e+00 1.830807095901412884e+00 1.831416464450053905e+00 1.831236607254532744e+00 1.830688780730022058e+00 1.831634509264678634e+00 1.830235905796357088e+00 1.831072211915245607e+00 1.832090330770869135e+00 1.831150302689503739e+00 1.831935835720537309e+00 1.830612689079752275e+00 1.830891079870725857e+00 1.831535936892050520e+00 1.832340400675716685e+00 1.832023550702639003e+00 1.831500139922526138e+00 1.832460846668543475e+00 1.831879754239700953e+00 1.831829011884940517e+00 1.830981694738573973e+00 1.831131579460690162e+00 1.831149505845871328e+00 1.831634195212258120e+00 1.830827202042552670e+00 1.832336661047407445e+00 1.831069284107614159e+00 1.830725795161822322e+00 1.832242463335130633e+00 1.831277713289130249e+00 1.832054590536451810e+00 1.831740935144842375e+00 1.830790977065126501e+00 1.830683021501863017e+00 1.830669009640006895e+00 1.832125158604385629e+00 1.830490812448575921e+00 1.831493672204437928e+00 1.832274866277968650e+00 1.831026802881597026e+00 1.831213794422566599e+00 1.831837736175309983e+00 1.830445837210744831e+00 1.830902748341720176e+00 1.831433052889882340e+00 1.831055604557178640e+00 1.831917991216033048e+00 1.831316730594857667e+00 1.831532448257962020e+00 1.832275010117292435e+00 1.831225891546834017e+00 1.830506455227549845e+00 1.832164208370973935e+00 1.832048666345233556e+00 1.830432080065079958e+00 1.831706021218598046e+00 1.832114098300374971e+00 1.831785333284220885e+00 1.831626460584437233e+00 1.831753367284934209e+00 1.831652101706993108e+00 1.832203143901254494e+00 1.831566283008023266e+00 1.831002347768826644e+00 1.830936958392864078e+00 1.830751614463697496e+00 1.831264785927305905e+00 1.830976387641634062e+00 1.831511237818275628e+00 1.832270633188320730e+00 1.831064469176128640e+00 1.831438001960161710e+00 1.830485728228690157e+00 1.830820529461633983e+00 1.832418990533731140e+00 1.830619744275013838e+00 1.832513779137978638e+00 1.831740774764882174e+00 1.832282340428357692e+00 1.830586467410969309e+00 1.831582727480300044e+00 1.831730113233506874e+00 1.831897187356896772e+00 1.832342945548891766e+00 1.831401375723900049e+00 1.831878079901376744e+00 1.831100175735243196e+00 1.831868081216018185e+00 1.831493370047249325e+00 1.831132080650062610e+00 1.830869468467266614e+00 1.831346425358172381e+00 1.831111118154646000e+00 1.830956740398783644e+00 1.831752154938248722e+00 1.830569771084698427e+00 1.832179734981734587e+00 1.832143295110091552e+00 1.831645432727353917e+00 1.831278059341800990e+00 1.831563514714230179e+00 1.831098614936113700e+00 1.830853209209825083e+00 1.832523801830850951e+00 1.831554427872859936e+00 1.830814751123125639e+00 1.830500317637894225e+00 1.830466422049066733e+00 1.831497865431394034e+00 1.830300291753219177e+00 1.830342915821517868e+00 1.832436222804838311e+00 1.831623319860889110e+00 1.831237460561596642e+00 1.830509173290117975e+00 1.831045207048410006e+00 1.830123732602327191e+00 1.832220750969974388e+00 1.830634188813535124e+00 1.831936290585464810e+00 1.830604490252716321e+00 1.830310496592631786e+00 1.831243283575691105e+00 1.830844209698335723e+00 1.832033078524497594e+00 1.831444141198902642e+00 1.831832099648688761e+00 1.831625768632057394e+00 1.830700329063552179e+00 1.831036799426704054e+00 1.831293004802878155e+00 1.832346755761276702e+00 1.831435725795622416e+00 1.831355583749119997e+00 1.831320982670591846e+00 1.832493550099659307e+00 1.831785196125426340e+00 1.831511707469565708e+00 1.831755552121482999e+00 1.831414507864384200e+00 1.831523023870256894e+00 1.831267363897587153e+00 1.832199334131277002e+00 1.831481684151736511e+00 1.831018943356950590e+00 1.831965835388185138e+00 1.830050070017300134e+00 1.831034466158533380e+00 1.831662213513510551e+00 1.831628945119335716e+00
5.000000000000000000e+00 5.206701362577568659e+00 1.695868984560466863e-02 5.206000000000000405e+00 5.208551037737545464e+00 5.206131366561449703e+00 5.207820445434071743e+00 5.205498975742958834e+00 5.208465318320006254e+00 5.207114042239930463e+00 5.207239480516613561e+00 5.204445869656604273e+00 5.205697930291140807e+00 5.205767952329102499e+00 5.207285638092553626e+00 5.207636849508001653e+00 5.207818395326246907e+00 5.208256223781993377e+00 5.207485635966851767e+00 5.206267836363281276e+00 5.207221508788172137e+00 5.206937282965491853e+00 5.207342228522910510e+00 5.206177353423985465e+00 5.205796574943430954e+00 5.208434141452154442e+00 5.205997114456743624e+00 5.206931807955240465e+00 5.207550521231659069e+00 5.207928371063334616e+00 5.207762778780174351e+00 5.206085714756515159e+00 5.209005057094522328e+00 5.204984337584609655e+00 5.205840631280088004e+00 5.205351674596501610e+00 5.206517805280197919e+00 5.207059721947765674e+00 5.204865270436656033e+00 5.204118221649856935e+00 5.207381421311104042e+00 5.206654000575438701e+00 5.206082614457202773e+00 5.208961117834662424e+00 5.206184474917916916e+00 5.208798693465157115e+00 5.208025255023924771e+00 5.206363231744204789e+00 5.204835911274080296e+00 5.206084610436437998e+00 5.204679134419736286e+00 5.206467421707948517e+00 5.205587231510429014e+00 5.206488850212460662e+00 5.206404263067585525e+00 5.205514304267861547e+00 5.206743859676825181e+00 5.205456605219906052e+00 5.204210829633652224e+00 5.206157502561685746e+00 5.205788057273936786e+00 5.207996849121434124e+00 5.206420586315637422e+00 5.206807792045587746e+00 5.207542605998654039e+00 5.206510288920934926e+00 5.206742834906533446e+00 5.206858872688134632e+00 5.205920490290545821e+00 5.204418248863881935e+00 5.207635991580361612e+00 5.207817219263179531e+00 5.207950190819498282e+00 5.206956193888801820e+00 5.205363865379492694e+00 5.208229934936523975e+00 5.204443475355155613e+00 5.206937599827650587e+00 5.208071359993780014e+00 5.207904394261919201e+00 5.206607516182511830e+00 5.206341128196441126e+00 5.205829831103496730e+00 5.206271041268239586e+00 5.205277569404310967e+00 5.205820997298216568e+00 5.207049066014720395e+00 5.208256791842077682e+00 5.206020348261100494e+00 5.209504966715670093e+00 5.207742983250923885e+00 5.207634513571194113e+00 5.206680763828493319e+00 5.205285434853045068e+00 5.206066924103677884e+00 5.206579000391111656e+00 5.207309589386701631e+00 5.207343432543674488e+00 5.205514102550765188e+00 5.206041258551085349e+00 5.209219127143362549e+00 5.207268867990117123e+00 5.206645400816484859e+00 5.206352327557072890e+00 5.206956690727512438e+00 5.205354165738239836e+00 5.206063955203345195e+00 5.206689008800594820e+00 5.205946687123248040e+00 5.206155130094305861e+00 5.205263814609197404e+00 5.208250178470518854e+00 5.205942319068685542e+00 5.205902473315079604e+00 5.206355663588663418e+00 5.207396267544964985e+00 5.206560613996022546e+00 5.205099265707860745e+00 5.206919935626137530e+00 5.209453012985727938e+00 5.207538717249462046e+00 5.207268321595156735e+00 5.204880738735632839e+00 5.206388285726259113e+00 5.205315277583943967e+00 5.205766955387919559e+00 5.207744407658819519e+00 5.206356172589026166e+00 5.206464509622907855e+00 5.207486087218429205e+00 5.207440768259356645e+00 5.206466631429742975e+00 5.206454552339889297e+00 5.207229185146888817e+00 5.207164278660730616e+00 5.206640501822003664e+00 5.205389980937583871e+00 5.206623414185925114e+00 5.207298873810009887e+00 5.207010996555687221e+00 5.208327468696374751e+00 5.204767505098127245e+00 5.205163879465092513e+00 5.206664443429762201e+00 5.206137377961247203e+00 5.207596691784535103e+00 5.206776569009324618e+00 5.206610549430993551e+00 5.206769059158514068e+00 5.205340477876243099e+00 5.206402354917315733e+00 5.207691929873325520e+00 5.206333352632974254e+00 5.205190189267214329e+00 5.204076216257790932e+00 5.205459446852643168e+00 5.205263358856973888e+00 5.206802327658313523e+00 5.205667746670319396e+00 5.208500827217203089e+00 5.207232767314467381e+00 5.207707724756942547e+00 5.205292664291017779e+00 5.206298234044799855e+00 5.207653406182516598e+00 5.207441001954485671e+00 5.207624981972173828e+00 5.206559755025149450e+00 5.207531735909840087e+00 5.206472521258827868e+00 5.204142734942491799e+00 5.205473091347923464e+00 5.206720697833480571e+00 5.205295697930417020e+00 5.207620889763354910e+00 5.206510753447003204e+00 5.208407358588076796e+00 5.204992425097491271e+00 5.205947670879967681e+00 5.206759161916872714e+00 5.209125349375632652e+00 5.208427217019862887e+00 5.207488489263869980e+00 5.208420351175061747e+00 5.208317811118575058e+00 5.207423307990643124e+00 5.207326881523191453e+00 5.208259503663920320e+00 5.206854272605060174e+00 5.206975529927224677e+00 5.207239615677941025e+00 5.206929175674405386e+00 5.205832256880346343e+00 5.207448500627516630e+00 5.206972271846953326e+00 5.208352130815803172e+00 5.206627308706160306e+00 5.207804145881564928e+00 5.205818956761969929e+00 5.206031328720880147e+00 5.206883303421443010e+00 5.207535545206501304e+00 5.208401615130894058e+00 5.206093999344178158e+00 5.206419807513037235e+00 5.205522877058446518e+00 5.206936137028250755e+00 5.204305302272367761e+00 5.208949496074001040e+00 5.207676938248184229e+00 5.206985376906771990e+00 5.206395884248690820e+00 5.206168056858850868e+00 5.206069693094128148e+00 5.207402522826869884e+00 5.207074639477851541e+00 5.208298866487224288e+00 5.207305084851901356e+00 5.204652352774902013e+00 5.206644054757805229e+00 5.205917265927203275e+00 5.206566448410168135e+00 5.206526534422621921e+00 5.205211057316047274e+00 5.207902877020560872e+00 5.208142494344317086e+00 5.208942858372308748e+00 5.205040111108807821e+00 5.206945167129640062e+00
6.000000000000000000e+00 3.192390067634928719e-03 2.893766827334709498e-05 3.206578467935528292e-03 3.191454475308642090e-03 3.191199952846364776e-03 3.193621935013717279e-03 3.191837598593964213e-03 3.194272976680383874e-03 3.191802769204389514e-03 3.195593814300411433e-03 3.190055941358024751e-03 3.193654085219478807e-03 3.193429033779149415e-03 3.192919988854595222e-03 3.193638010116598043e-03 3.193354016632373241e-03 3.196242176783264857e-03 3.191998349622770983e-03 3.191483946330590012e-03 3.192775312928669215e-03 3.190409593621399385e-03 3.191829561042523831e-03 3.191253536522633844e-03 3.191052597736625598e-03 3.192319851680384089e-03 3.191149048353909314e-03 3.192708333333333422e-03 3.194417652606309881e-03 3.193463863168724114e-03 3.193343299897119254e-03 3.192368076989025947e-03 3.194224751371742017e-03 3.190291709533607696e-03 3.188485939643347089e-03 3.188426997599451244e-03 3.192662787208504736e-03 3.191770618998628420e-03 3.189166452331961606e-03 3.191392854080932640e-03 3.190358689128943923e-03 3.190294388717421301e-03 3.192633316186556814e-03 3.190377443415637858e-03 3.190184542181069994e-03 3.193841628086419894e-03 3.194937414266118061e-03 3.193838948902606289e-03 3.190270276063100156e-03 3.192491319444444413e-03 3.190109525034293386e-03 3.194037208504800929e-03 3.193378129286693953e-03 3.191575038580246951e-03 3.191296403463648925e-03 3.192252872085047863e-03 3.190567665466392117e-03 3.190575703017832498e-03 3.190026470336076829e-03 3.190077374828532292e-03 3.193493334190672037e-03 3.193458504801097338e-03 3.191328553669410019e-03 3.191698281035665417e-03 3.191850994513031371e-03 3.191352666323731165e-03 3.192984289266117843e-03 3.192861046810699377e-03 3.191108860596707838e-03 3.186195237482853434e-03 3.192223401063099941e-03 3.191901899005486834e-03 3.192295739026062944e-03 3.192970893347050684e-03 3.191540209190672252e-03 3.191173161008230459e-03 3.190353330761316712e-03 3.194189921982167318e-03 3.193562992969821868e-03 3.194179205246913764e-03 3.190055941358024751e-03 3.191154406721536524e-03 3.190731095679012492e-03 3.190211334019204311e-03 3.188140324931412837e-03 3.192563657407407416e-03 3.194321201989026165e-03 3.192322530864197695e-03 3.194621270576131732e-03 3.195601851851851815e-03 3.193576388888889027e-03 3.193638010116598043e-03 3.191604509602194873e-03 3.189268261316872532e-03 3.192089441872427921e-03 3.191631301440329190e-03 3.193067343964334833e-03 3.195963541666666831e-03 3.191558963477366187e-03 3.194487311385459712e-03 3.194267618312757098e-03 3.194307806069959007e-03 3.195642039609053291e-03 3.193528163580246736e-03 3.192887838648834128e-03 3.190589098936899657e-03 3.193702310528120664e-03 3.192633316186556814e-03 3.191108860596707838e-03 3.192638674554184024e-03 3.191660772462277113e-03 3.193865740740740606e-03 3.193694272976680282e-03 3.193506730109739195e-03 3.192429698216735397e-03 3.193198623971193247e-03 3.191379458161865482e-03 3.189487954389574713e-03 3.194047925240054916e-03 3.194409615054869499e-03 3.192161779835390924e-03 3.193075381515775215e-03 3.190385480967078240e-03 3.191240140603566686e-03 3.190602494855967249e-03 3.192161779835390924e-03 3.194626628943758508e-03 3.195157107338820242e-03 3.196175197187928630e-03 3.194548932613168728e-03 3.193059306412894451e-03 3.192767275377229267e-03 3.188965513545953361e-03 3.193179869684499312e-03 3.191692922668038206e-03 3.188842271090534895e-03 3.192161779835390924e-03 3.195274991426611932e-03 3.191907257373114044e-03 3.191714356138545747e-03 3.192960176611797131e-03 3.191245498971193462e-03 3.190414951989026162e-03 3.193897890946502133e-03 3.193383487654321163e-03 3.194364068930041246e-03 3.194216713820301635e-03 3.191293724279835320e-03 3.192810142318244348e-03 3.190562307098765340e-03 3.191534850823045475e-03 3.189812135631001425e-03 3.193745177469135745e-03 3.193048589677640464e-03 3.189921982167352732e-03 3.192925347222222432e-03 3.192298418209876549e-03 3.192893197016460904e-03 3.193163794581618548e-03 3.195483967764060559e-03 3.191676847565157876e-03 3.192092121056241526e-03 3.189134302126200079e-03 3.191462512860082472e-03 3.192089441872427921e-03 3.190899884259259210e-03 3.191883144718792899e-03 3.191548246742112634e-03 3.190626607510287961e-03 3.194211355452674858e-03 3.190964184670781831e-03 3.190219371570644693e-03 3.194640024862825667e-03 3.191974236968449837e-03 3.193190586419753299e-03 3.192877121913580141e-03 3.192614561899862879e-03 3.191599151234568096e-03 3.190940072016461120e-03 3.191529492455418265e-03 3.194197959533607700e-03 3.194066679526748852e-03 3.193203982338820458e-03 3.195328575102880566e-03 3.193616576646090503e-03 3.193284357853223409e-03 3.193249528463648710e-03 3.194658779149520036e-03 3.192676183127571895e-03 3.192930705589849209e-03 3.192968214163237513e-03 3.191773298182441591e-03 3.191510738168724329e-03 3.192970893347050684e-03 3.194122942386831091e-03 3.192327889231824471e-03 3.192799425582990361e-03 3.193587105624142580e-03 3.191869748799725740e-03 3.189975565843621366e-03 3.192850330075445824e-03 3.194538215877914741e-03 3.193830911351165907e-03 3.192649391289437578e-03 3.191379458161865482e-03 3.192148383916323766e-03 3.191682205932784653e-03 3.189927340534979509e-03 3.194128300754458302e-03 3.194752550582990579e-03 3.193308470507544555e-03 3.191317836934156466e-03 3.191149048353909314e-03 3.191189236111111223e-03 3.193225415809327998e-03 3.195486646947873731e-03 3.195033864883401777e-03 3.192092121056241526e-03 3.187462491426611925e-03 3.191470550411522420e-03 3.190921317729766751e-03 3.192660108024691565e-03 3.191293724279835320e-03 3.190709662208504951e-03 3.192180534122084860e-03 3.192116233710562238e-03 3.194101508916323551e-03 3.191800090020576342e-03 3.191687564300411430e-03
