# vvf statistics with RF=500
# gcat file: /disk2/salam/Abacus/AbacusCosmos_720box_products/GCAT_derivative/AbacusCosmos_720box_planck_rockstar_halos_z0.100_Mr21_hod-gammaHV-pos_real-8.gcat.rsd_zz.1pz0.100by100
# stats order in row: stdvvf,p2.5,p16,p50,p84,p97.5,rho
# columns: numbers, mean, sigma,All, jnrealizations
0.000000000000000000e+00 1.439945825378911026e+00 5.104375390572382133e-03 1.439946064613275567e+00 1.440404557127843654e+00 1.439828511924996723e+00 1.439703582146022232e+00 1.440024085113110530e+00 1.440324909215118243e+00 1.439937668538758597e+00 1.440265369230900427e+00 1.438914930413716764e+00 1.439062811078918758e+00 1.439701945572028130e+00 1.440478855283815918e+00 1.440221930162942421e+00 1.439929786432103231e+00 1.439673036250444182e+00 1.440215399295939225e+00 1.440164618160458154e+00 1.440164086711095193e+00 1.439959537807507184e+00 1.440211570050939915e+00 1.440128744261568006e+00 1.440079154098333092e+00 1.440517966007827333e+00 1.439911343132235899e+00 1.439985111675157636e+00 1.440012014669313611e+00 1.440543092108467649e+00 1.440309784209941935e+00 1.439728103287282401e+00 1.440401442173639301e+00 1.439793522093069766e+00 1.439995151646874749e+00 1.439365599584776945e+00 1.439817150932571677e+00 1.439898369227740060e+00 1.439513108373984052e+00 1.439303433359498063e+00 1.440007229008674283e+00 1.439932668604654964e+00 1.439877818581984048e+00 1.440205571439343579e+00 1.439965293816849901e+00 1.440007480208104651e+00 1.440090376244118842e+00 1.439889537601889646e+00 1.439361330592115573e+00 1.440243492341011011e+00 1.439656591307954203e+00 1.440182069107508900e+00 1.440045863803905979e+00 1.439721005207782900e+00 1.438939082068693587e+00 1.439923094187777197e+00 1.439770433019057938e+00 1.440061148334703445e+00 1.439073571580415711e+00 1.439820852535429907e+00 1.439795620422251732e+00 1.439970672019424969e+00 1.440080432042712077e+00 1.439609253861892757e+00 1.440136571572908197e+00 1.439982831614583070e+00 1.440368706492945572e+00 1.439978643417511250e+00 1.439713361066903952e+00 1.439281647790456864e+00 1.440703072676113861e+00 1.440381988902796673e+00 1.440414075793393867e+00 1.439748647615497479e+00 1.440207955723349587e+00 1.440453314760593129e+00 1.439545190517498074e+00 1.439995006868925564e+00 1.439773666586506851e+00 1.440015200353986335e+00 1.439993142303329199e+00 1.439747202268279791e+00 1.439889632860652302e+00 1.439645826370726800e+00 1.439444309872532690e+00 1.439991644735296950e+00 1.439278383975216347e+00 1.440073260785325937e+00 1.439566566421019322e+00 1.440392284710243054e+00 1.439960194230785584e+00 1.440233103892520905e+00 1.439654096053780696e+00 1.439688800374494315e+00 1.440121426779141567e+00 1.440061443830757737e+00 1.440232521397814658e+00 1.440211993947716040e+00 1.439591404167703148e+00 1.439557596092582825e+00 1.440410238957442912e+00 1.439841628766586945e+00 1.440082533846418933e+00 1.439968356933861049e+00 1.440164220455198540e+00 1.439347613552302230e+00 1.439719150277718240e+00 1.439325200805331884e+00 1.440187898015455881e+00 1.440147964958148119e+00 1.439602303125319560e+00 1.440103001941708261e+00 1.439659553574485384e+00 1.440014411410136530e+00 1.440341708524270015e+00 1.439921275513875276e+00 1.440026163133558690e+00 1.439368548489121880e+00 1.440436194692617855e+00 1.440394391888896397e+00 1.440238361617423690e+00 1.439959109075336086e+00 1.439330213301681871e+00 1.440026986181505375e+00 1.439840167254726078e+00 1.439752091453182281e+00 1.439835732448188965e+00 1.439861741004446305e+00 1.439463020992089337e+00 1.440332849704883289e+00 1.440478574794957778e+00 1.440265759127101308e+00 1.439856442145861726e+00 1.440039717824037169e+00 1.440080472477228701e+00 1.439787320260312198e+00 1.439798808489280546e+00 1.439872483225600241e+00 1.440079465167105832e+00 1.440151877398250901e+00 1.440316982499733500e+00 1.439775037726833462e+00 1.439019172790183099e+00 1.439106769722892087e+00 1.439862395335736789e+00 1.440231229874204599e+00 1.440253207716530204e+00 1.440232891715104602e+00 1.440346404422106374e+00 1.439839544442859554e+00 1.439882123212597120e+00 1.440030309835816480e+00 1.439394303873723580e+00 1.439753985281470250e+00 1.439509885798875732e+00 1.439856905872697546e+00 1.439065661227414861e+00 1.440210214209692641e+00 1.439887942347124472e+00 1.440465454040568138e+00 1.440129951815457554e+00 1.440347919992314374e+00 1.439623658396887995e+00 1.440165550333294853e+00 1.440418129794214019e+00 1.440190425051305345e+00 1.440135766480016732e+00 1.440073072430476442e+00 1.439853028321557593e+00 1.439861694496804123e+00 1.439278690978643471e+00 1.439810241902607535e+00 1.439868706735533355e+00 1.439916949722445105e+00 1.439924745029514952e+00 1.439791594187054713e+00 1.440474526311589454e+00 1.439588444466225692e+00 1.439958874605173911e+00 1.440106775598319011e+00 1.440562029800817045e+00 1.439828754543511335e+00 1.439912961309903761e+00 1.440277725018532351e+00 1.440235142989947592e+00 1.440228533550929280e+00 1.440111521491641788e+00 1.440417729900062893e+00 1.440221454303959536e+00 1.440260413359528480e+00 1.440298864950954272e+00 1.440062800530905296e+00 1.439108981472119186e+00 1.440154157779214517e+00 1.439923399569195128e+00 1.440296302131333750e+00 1.440340443038379270e+00 1.439883627107468644e+00 1.439676185951756393e+00 1.439735861699475095e+00 1.440245613857686902e+00 1.440078443004472852e+00 1.440222562833012310e+00 1.439738222377258792e+00 1.440315133434471262e+00 1.440034356740181209e+00 1.439667153297671698e+00 1.439659685611856643e+00 1.440191278848350853e+00 1.440310173136503336e+00 1.439723672448924185e+00 1.439973122575119557e+00 1.439747804381395380e+00 1.439664268515877366e+00 1.440006574119161664e+00 1.439910621386586653e+00 1.439684976673556660e+00 1.439719260598535389e+00 1.439405612229992970e+00 1.440104798591314461e+00 1.440138795470798705e+00 1.439854304340700830e+00 1.440076991242516424e+00 1.439819212484287680e+00 1.440672244664944479e+00 1.440488549713748512e+00 1.440133128233860083e+00 1.439448724290056880e+00 1.439810087895716739e+00
1.000000000000000000e+00 2.399999987414502128e-02 1.766093017891562085e-04 2.400000000000000050e-02 2.399735996250398559e-02 2.399403925430738591e-02 2.400968710673103204e-02 2.399607416124165116e-02 2.401593875689738214e-02 2.399585619616496565e-02 2.402388278212708519e-02 2.398772697411439767e-02 2.400809531270986508e-02 2.400814087432121338e-02 2.400490389153957932e-02 2.400933371591420021e-02 2.400725399661242376e-02 2.402792012446066175e-02 2.399752071168450782e-02 2.399179706273975657e-02 2.400621591114728351e-02 2.398494828691884878e-02 2.399715864224161513e-02 2.398943465073390124e-02 2.398951398240364852e-02 2.400011696429339703e-02 2.399147434365522108e-02 2.400433625802686835e-02 2.401518766107313754e-02 2.400799888398047130e-02 2.400714520283724410e-02 2.400089940534314015e-02 2.401447588656276805e-02 2.399011897612420702e-02 2.397768700070686612e-02 2.397252181731889323e-02 2.400102100122707832e-02 2.399635269822178452e-02 2.397500413932884475e-02 2.399148331288673830e-02 2.398867925726743539e-02 2.398833942869438990e-02 2.399956490377795973e-02 2.398887421260026409e-02 2.398261285164140708e-02 2.401303452084329465e-02 2.401912996956710733e-02 2.401223446471367068e-02 2.398531046565594363e-02 2.399488275475964577e-02 2.398320444700231813e-02 2.400955505228926853e-02 2.400835973072012325e-02 2.399617758783484031e-02 2.399040462182706890e-02 2.399935301376112870e-02 2.398759254362878984e-02 2.399212569267008405e-02 2.398071480074240314e-02 2.398189542004655964e-02 2.400452517803614363e-02 2.401079370200303459e-02 2.399117033812219954e-02 2.399415343755871566e-02 2.399859501303481385e-02 2.399125979714937865e-02 2.400505533216794329e-02 2.400588196350362039e-02 2.398645386547624755e-02 2.395754881935581448e-02 2.399823402965732197e-02 2.399906370513265469e-02 2.399868565000927434e-02 2.400259901727292214e-02 2.399512834390219590e-02 2.399066870468704454e-02 2.398360991713290730e-02 2.401152814453921813e-02 2.400860474264017094e-02 2.400921305559168203e-02 2.398634161492836300e-02 2.399150343263985186e-02 2.398924428236925629e-02 2.398379908701094715e-02 2.397288824069378904e-02 2.400380862729787831e-02 2.401271252893214664e-02 2.400180596222567173e-02 2.401519994327335275e-02 2.402441437188649817e-02 2.400766371335525881e-02 2.401082755666525750e-02 2.399425700700986985e-02 2.398144666544319362e-02 2.399712586479275933e-02 2.399251823149318660e-02 2.400373074649182759e-02 2.402403236413714477e-02 2.399067529285903513e-02 2.401299990654355565e-02 2.401318178842899373e-02 2.401281472046407420e-02 2.402235038380881593e-02 2.400836333694859187e-02 2.400632209133980038e-02 2.398790747962160907e-02 2.400630449944578249e-02 2.399945807237795908e-02 2.399239588137871970e-02 2.400357264559513371e-02 2.399588227892985107e-02 2.401120513002027307e-02 2.400604852029545808e-02 2.400997532941952228e-02 2.400173481302478318e-02 2.400405978540121749e-02 2.399427732996772464e-02 2.398010057881230089e-02 2.401041224206176827e-02 2.401850201306852256e-02 2.399888396108847133e-02 2.400552048279303713e-02 2.398932601567839093e-02 2.399265162377403268e-02 2.399035362391598730e-02 2.400067405334855436e-02 2.401437366636012885e-02 2.402117495275014197e-02 2.402889862393213158e-02 2.401747421777978425e-02 2.400639874363134224e-02 2.400216212923936623e-02 2.397478357690350365e-02 2.400469268910562781e-02 2.399723727363784267e-02 2.397902545257441648e-02 2.399724458896505472e-02 2.402165963544530825e-02 2.399311081521975086e-02 2.399501728480969015e-02 2.400444481625751275e-02 2.399707914103786990e-02 2.398883655017250080e-02 2.400745797137720031e-02 2.400978783700713493e-02 2.401631446901635394e-02 2.401281465085615408e-02 2.399242724697311230e-02 2.400619376050117451e-02 2.398818775878337056e-02 2.399557341198038651e-02 2.398013276350264081e-02 2.401176661583947700e-02 2.400503133120803281e-02 2.398120720129660183e-02 2.400815254140963723e-02 2.399970773334847429e-02 2.400043751655360491e-02 2.400682923944955777e-02 2.402019417486596017e-02 2.399618917744372748e-02 2.399867039226388429e-02 2.397943749728320001e-02 2.398992724319242570e-02 2.399906309265658483e-02 2.398840479805773238e-02 2.399727119156219030e-02 2.398998664514988971e-02 2.398757561616709708e-02 2.401038977270916405e-02 2.399104634111896145e-02 2.398917616550387544e-02 2.401296555526228824e-02 2.399860671017050098e-02 2.400555615926417904e-02 2.400146545896028605e-02 2.399993708766270592e-02 2.399473197103122249e-02 2.399182992448295124e-02 2.399725393651678043e-02 2.401214214907319844e-02 2.400890101795886966e-02 2.400533936184032907e-02 2.402074498529910285e-02 2.400944143523175284e-02 2.400750421820538327e-02 2.400618794755013732e-02 2.401507294415641813e-02 2.400350229788012976e-02 2.400616604443190846e-02 2.400345491879595644e-02 2.399410107194496766e-02 2.399238076803503206e-02 2.400481889094996032e-02 2.401250792553846769e-02 2.400237759603835591e-02 2.400505080530648816e-02 2.400726505001593222e-02 2.399807267691120641e-02 2.398003212061158504e-02 2.400363083314530424e-02 2.401808888768913047e-02 2.401116372927049672e-02 2.399965034788209897e-02 2.399382790342344599e-02 2.400136047073062398e-02 2.399610484328563997e-02 2.398257423920228254e-02 2.401497445044730936e-02 2.401540391547581088e-02 2.400712454585775257e-02 2.399546564454049097e-02 2.399282186663067098e-02 2.399195304938607151e-02 2.400661515694211753e-02 2.402314753110323942e-02 2.401960073964024694e-02 2.399702996311636402e-02 2.397012163288141096e-02 2.399301568469618812e-02 2.398725152945121314e-02 2.400218963098462235e-02 2.399273587474305691e-02 2.398939321978911174e-02 2.399828077584161695e-02 2.400011764837435557e-02 2.401269736558401049e-02 2.399482622579594826e-02 2.399570597966144830e-02
2.000000000000000000e+00 1.119999994126767706e-01 8.241767416827216726e-04 1.119999999999999885e-01 1.119876798250186017e-01 1.119721831867677986e-01 1.120452064980781565e-01 1.119816794191277054e-01 1.120743808655211143e-01 1.119806622487698466e-01 1.121114529832597240e-01 1.119427258792005109e-01 1.120377781259793704e-01 1.120379907468323222e-01 1.120228848271846989e-01 1.120435573409329366e-01 1.120338519841913155e-01 1.121302939141497479e-01 1.119884299878610295e-01 1.119617196261188663e-01 1.120290075853540013e-01 1.119297586722879656e-01 1.119867403304608683e-01 1.119506950367582243e-01 1.119510652512170218e-01 1.120005458333691861e-01 1.119602136037243650e-01 1.120202358707920454e-01 1.120708757516746396e-01 1.120373281252421971e-01 1.120333442799071322e-01 1.120041972249346540e-01 1.120675541372929407e-01 1.119538885552462948e-01 1.118958726699653683e-01 1.118717684808215040e-01 1.120047646723930368e-01 1.119829792583683370e-01 1.118833526502012732e-01 1.119602554601381306e-01 1.119471698672480503e-01 1.119455840005738056e-01 1.119979695509638190e-01 1.119480796588012417e-01 1.119188599743265594e-01 1.120608277639353612e-01 1.120892731913131768e-01 1.120570941686638011e-01 1.119314488397277485e-01 1.119761195222117034e-01 1.119216207526774753e-01 1.120445902440165842e-01 1.120390120766939085e-01 1.119821620765625858e-01 1.119552215685263308e-01 1.119969807308852650e-01 1.119420985369343480e-01 1.119632532324603830e-01 1.119100024034645480e-01 1.119155119602172621e-01 1.120211174975020152e-01 1.120503706093474994e-01 1.119587949112369196e-01 1.119727160419406731e-01 1.119934433941624508e-01 1.119592123866971073e-01 1.120235915501170548e-01 1.120274491630169067e-01 1.119367847055558196e-01 1.118018944903271528e-01 1.119917588050674956e-01 1.119956306239524024e-01 1.119938663667099515e-01 1.120121287472736343e-01 1.119772656048769188e-01 1.119564539552062032e-01 1.119235129466202433e-01 1.120537980078496892e-01 1.120401554656541288e-01 1.120429942594278472e-01 1.119362608696657102e-01 1.119603493523193133e-01 1.119498066510565271e-01 1.119243957393844247e-01 1.118734784565710294e-01 1.120177735940567632e-01 1.120593251350166797e-01 1.120084278237197944e-01 1.120709330686089772e-01 1.121139337354703225e-01 1.120357639956578721e-01 1.120505285977712040e-01 1.119731993660460639e-01 1.119134177720682299e-01 1.119865873690328723e-01 1.119650850803015490e-01 1.120174101502952047e-01 1.121121510326399950e-01 1.119564847000088237e-01 1.120606662305365930e-01 1.120615150126686166e-01 1.120598020288323393e-01 1.121043017911078077e-01 1.120390289057601046e-01 1.120295030929190638e-01 1.119435682382341618e-01 1.120294209974136562e-01 1.119974710044304711e-01 1.119645141131006966e-01 1.120166723461106240e-01 1.119807839683392980e-01 1.120522906067612651e-01 1.120282264280454687e-01 1.120465515372910947e-01 1.120080957941156641e-01 1.120189456652057047e-01 1.119732942065160552e-01 1.119071360344574134e-01 1.120485904629549279e-01 1.120863427276530960e-01 1.119947918184128893e-01 1.120257622530341779e-01 1.119501880731658128e-01 1.119657075776121780e-01 1.119549835782746028e-01 1.120031455822932398e-01 1.120670771096805990e-01 1.120988164461673292e-01 1.121348602450166210e-01 1.120815463496389885e-01 1.120298608036129212e-01 1.120100899364503827e-01 1.118823233588830124e-01 1.120218992158262400e-01 1.119871072769766107e-01 1.119021187786806149e-01 1.119871414151702438e-01 1.121010782987447718e-01 1.119678504710255040e-01 1.119767473291118920e-01 1.120207424758683790e-01 1.119863693248433906e-01 1.119479039008050014e-01 1.120348038664269186e-01 1.120456765726999676e-01 1.120761341887429735e-01 1.120598017039953764e-01 1.119646604858745564e-01 1.120289042156721454e-01 1.119448762076557108e-01 1.119793425892418037e-01 1.119072862296789928e-01 1.120549108739175709e-01 1.120234795456374888e-01 1.119123002727174798e-01 1.120380451932449506e-01 1.119986360889595467e-01 1.120020417439168414e-01 1.120318697840979316e-01 1.120942394827078303e-01 1.119822161614040662e-01 1.119937951638981383e-01 1.119040416539882621e-01 1.119529938015646486e-01 1.119956277657307292e-01 1.119458890576027488e-01 1.119872655606235501e-01 1.119532710106994899e-01 1.119420195421131220e-01 1.120484856059761058e-01 1.119582162585551627e-01 1.119494887723514048e-01 1.120605059245573382e-01 1.119934979807956643e-01 1.120259287432328332e-01 1.120068388084813349e-01 1.119997064090926253e-01 1.119754158648123554e-01 1.119618729809204322e-01 1.119871850370783017e-01 1.120566633623416020e-01 1.120415380838080538e-01 1.120249170219215495e-01 1.120968099313958410e-01 1.120440600310815132e-01 1.120350196849584368e-01 1.120288770885673052e-01 1.120703404060632846e-01 1.120163440567739366e-01 1.120287748740155659e-01 1.120161229543811393e-01 1.119724716690765065e-01 1.119644435841634922e-01 1.120224881577664838e-01 1.120583703191795066e-01 1.120110954481789989e-01 1.120235704247636022e-01 1.120339035667410194e-01 1.119910058255856322e-01 1.119068165628540612e-01 1.120169438880114221e-01 1.120844148092159376e-01 1.120520974032623018e-01 1.119983682901164596e-01 1.119711968826427595e-01 1.120063488634095716e-01 1.119818226019996532e-01 1.119186797829439806e-01 1.120698807687541126e-01 1.120718849388871174e-01 1.120332478806695120e-01 1.119788396745222681e-01 1.119665020442764530e-01 1.119624475638016647e-01 1.120308707323965508e-01 1.121080218118151173e-01 1.120914701183211570e-01 1.119861398278763631e-01 1.118605676201132326e-01 1.119674065285821973e-01 1.119405071374389993e-01 1.120102182779282446e-01 1.119661007488009230e-01 1.119505016923491858e-01 1.119919769539275411e-01 1.120005490257470065e-01 1.120592543727253754e-01 1.119758557203811011e-01 1.119799612384200921e-01
3.000000000000000000e+00 4.822299020611144904e-01 7.998762263979913856e-03 4.819999999999999840e-01 4.819469792469550096e-01 4.818802883573399809e-01 4.821945493935149152e-01 4.819211560716031850e-01 4.823201033676891014e-01 4.819167786063130454e-01 4.824796458743855765e-01 4.837524939779736521e-01 4.821625808635898180e-01 4.821634958926176995e-01 4.820984864884198529e-01 4.821874521279435610e-01 4.821456844319662038e-01 4.825607291662515896e-01 4.819502076263305068e-01 4.818352576766901096e-01 4.821248362155412526e-01 4.816977114289535677e-01 4.819429360650191452e-01 4.817878125689059599e-01 4.817894058132732860e-01 4.820023490328924076e-01 4.818287764017423203e-01 4.820870865153729090e-01 4.823050188598855259e-01 4.821606442532744841e-01 4.821434994903145976e-01 4.820180630573080438e-01 4.822907240551356223e-01 4.818015561038278549e-01 4.835500211809218296e-01 4.834458566492643161e-01 4.820205051079771708e-01 4.819267500226208645e-01 4.834959168097983651e-01 4.818289565338086944e-01 4.817726417501210778e-01 4.817658168596122836e-01 4.819912618175407060e-01 4.817765571030553362e-01 4.816508081037982336e-01 4.822617766269361450e-01 4.823841935554727400e-01 4.822457088329994979e-01 4.837037610573948765e-01 4.818972286580895936e-01 4.836612896812134132e-01 4.821918973001427799e-01 4.821678912586291332e-01 4.819232332223497006e-01 4.818072928216936557e-01 4.819870063597026522e-01 4.817508169178781885e-01 4.818418576611241400e-01 4.836110818149717550e-01 4.836348909709389243e-01 4.820908806588926065e-01 4.822167735152275703e-01 4.818226709572874800e-01 4.818825815376375776e-01 4.819717831784491313e-01 4.818244675927500498e-01 4.821015279210394966e-01 4.821181294336977508e-01 4.817279484649813481e-01 4.831439011903423397e-01 4.819645334289511807e-01 4.819811960780808757e-01 4.819736034710196404e-01 4.820521969302311582e-01 4.819021609067024592e-01 4.818125964857981058e-01 4.836694666621803029e-01 4.822315235694960012e-01 4.821728119146900804e-01 4.821850288664662476e-01 4.817256940998113079e-01 4.818293606055170653e-01 4.817839893375825966e-01 4.836732815880541159e-01 4.834532461873247700e-01 4.820764899315657104e-01 4.822553099560539236e-01 4.820362697413655972e-01 4.823052655274064904e-01 4.824903219687204925e-01 4.821539129098847964e-01 4.822174534296939652e-01 4.818846615574482461e-01 4.836258410864377466e-01 4.819422777845879247e-01 4.818497411491548532e-01 4.820749258253775316e-01 4.824826499797543744e-01 4.818127287982522655e-01 4.822610814564164405e-01 4.822647342509489565e-01 4.822573623026534806e-01 4.824488702081603519e-01 4.821679636837175598e-01 4.821269686677409627e-01 4.837561341723690678e-01 4.821266153638694707e-01 4.819891162869239798e-01 4.818472839510226091e-01 4.820717506323689561e-01 4.819173024351744994e-01 4.822250363612404778e-01 4.821214744492671178e-01 4.822003378658420436e-01 4.820348408282477681e-01 4.820815340234744784e-01 4.818850697101851321e-01 4.835986950060480738e-01 4.822091125280738577e-01 4.823715820957928391e-01 4.819775862185268767e-01 4.821108696960934581e-01 4.837847413161808219e-01 4.818524201107952099e-01 4.818062686136460604e-01 4.820135372380834893e-01 4.822886711327326048e-01 4.824252636343986933e-01 4.825803806973036347e-01 4.823509405404106665e-01 4.821285081012627871e-01 4.820434227622239498e-01 4.834914688008873362e-01 4.820942448395379443e-01 4.819445152455600345e-01 4.815787611725362294e-01 4.819446621617148319e-01 4.824349976785266003e-01 4.818616422056632986e-01 4.818999304699279618e-01 4.820892667265050391e-01 4.819413394158438835e-01 4.837748704284787760e-01 4.821497809251587552e-01 4.821965723932266634e-01 4.823276489194117667e-01 4.822573609046943988e-01 4.818479138767100545e-01 4.821243913567319073e-01 4.817627708222326222e-01 4.819110993572727764e-01 4.835993440639699270e-01 4.822363128681095290e-01 4.821010459017613381e-01 4.836210118928148116e-01 4.821637302066434372e-01 4.819941303114151920e-01 4.820087867907849044e-01 4.821371538922785693e-01 4.824055663452246900e-01 4.819234659803282028e-01 4.819732970446330422e-01 4.835853228618778310e-01 4.817977054674478787e-01 4.819811837775197505e-01 4.817671296943261128e-01 4.819451964305406233e-01 4.817988984567603272e-01 4.817504769580225332e-01 4.822086612685757556e-01 4.838194345458990964e-01 4.817826213238694533e-01 4.822603915681842879e-01 4.819720180959242151e-01 4.821115861985555973e-01 4.820294313007857379e-01 4.819987365105593558e-01 4.818942004182104055e-01 4.818359176500325858e-01 4.819448498917119905e-01 4.822438548272200420e-01 4.821787621106739530e-01 4.821072321836266106e-01 4.824166284547570238e-01 4.821896154909043886e-01 4.821507097156247923e-01 4.821242746132985979e-01 4.823027149618080989e-01 4.820703378157593089e-01 4.821238347256741608e-01 4.820693862858188017e-01 4.818815298615614084e-01 4.838463454887064752e-01 4.820967793932450229e-01 4.822512008378975201e-01 4.820477500537703186e-01 4.821014370065719867e-01 4.821459064211533474e-01 4.819612929279666891e-01 4.835973144323336137e-01 4.820729192323348622e-01 4.823632851610900052e-01 4.822242048961824512e-01 4.819929778199654735e-01 4.818760437270875885e-01 4.820273227871733068e-01 4.819217722693199257e-01 4.836485804905793495e-01 4.823007368798168382e-01 4.823093619691392053e-01 4.821430846293098260e-01 4.819089350278548678e-01 4.818558391548325992e-01 4.818383904085035696e-01 4.821328544019208295e-01 4.824648795829900583e-01 4.823936481877749705e-01 4.819403517592536490e-01 4.833974529297750400e-01 4.818597316676484499e-01 4.817439682164785797e-01 4.820439750889412012e-01 4.818541121510896974e-01 4.817869804974313497e-01 4.819654722481525044e-01 4.820023627715183667e-01 4.822550054254788332e-01 4.818960933680686565e-01 4.819137617582007760e-01
4.000000000000000000e+00 1.812292031349079791e+00 9.264977045810692674e-03 1.812000000000000055e+00 1.811800677169050910e+00 1.811549963700207710e+00 1.812731376558192942e+00 1.811703599173744683e+00 1.813203376145752221e+00 1.811687142810454842e+00 1.811801159818750895e+00 1.813072363793479802e+00 1.812611196109594758e+00 1.812614636011251612e+00 1.812370243811237902e+00 1.812704695551522249e+00 1.812547676744238112e+00 1.812105642719741505e+00 1.811812813732180283e+00 1.811380678236851560e+00 1.812469301291619761e+00 1.812862341352949658e+00 1.811785477489241902e+00 1.811202316130409828e+00 1.811208305671475394e+00 1.812008830804151538e+00 1.811356312945969105e+00 1.812327387481028618e+00 1.813146668411022011e+00 1.812603915740525595e+00 1.812539462814211744e+00 1.812067905103406762e+00 1.813092929435489165e+00 1.813253159278721327e+00 1.812313509136760814e+00 1.811923107359019625e+00 1.812077085592644465e+00 1.811724628715744689e+00 1.812110729530938436e+00 1.811356990122948929e+00 1.813144340528463960e+00 1.813118655152150760e+00 1.811967150235235913e+00 1.813159075902369910e+00 1.812685821369896422e+00 1.812984106323668687e+00 1.813444312702316541e+00 1.812923702085881938e+00 1.812889716029161935e+00 1.811613647984353204e+00 1.812730536119258495e+00 1.812721406447839634e+00 1.812631159669369163e+00 1.811711407881530400e+00 1.813274749333096070e+00 1.811951152538965104e+00 1.813062203089276014e+00 1.811405489796591217e+00 1.812542360356113269e+00 1.812631595498519044e+00 1.812341650941728943e+00 1.812814924501228830e+00 1.813332624723069442e+00 1.811558584535683192e+00 1.811893923484128255e+00 1.811340114684778069e+00 1.812381677578679628e+00 1.812444088244523410e+00 1.812976137998913106e+00 1.810791398262977303e+00 1.811866669239127647e+00 1.811929309737515537e+00 1.811900766575700317e+00 1.812196225804105554e+00 1.811632189964615947e+00 1.811295487203871790e+00 1.812761182903295687e+00 1.812870374912711080e+00 1.812649658069332981e+00 1.812695585697172040e+00 1.812967653728335460e+00 1.811358509164308961e+00 1.813187047009076291e+00 1.812775480993244148e+00 1.811950802859105591e+00 1.812287551360989735e+00 1.812959795934377061e+00 1.812136350148038311e+00 1.813147595717138127e+00 1.811841250546440074e+00 1.812578610358322129e+00 1.812817480528226888e+00 1.811566404029245181e+00 1.812597677129748064e+00 1.811783002791853336e+00 1.811435126477735746e+00 1.812281671360133295e+00 1.811812440795343093e+00 1.811295984610857168e+00 1.812981492944038431e+00 1.812995225026388990e+00 1.812967511395037645e+00 1.811685591445581611e+00 1.812631431939618842e+00 1.812477317896155071e+00 1.813086007001399880e+00 1.812475989708156598e+00 1.811959084464535907e+00 1.811425889044093296e+00 1.812269734742432581e+00 1.811689112059203799e+00 1.812845987316530572e+00 1.812456663282307368e+00 1.812753137371173828e+00 1.812130978383371227e+00 1.812306513797792062e+00 1.811567938412563139e+00 1.812495935415229908e+00 1.812786124275663546e+00 1.813396901986673360e+00 1.811915739062179842e+00 1.812416796450874168e+00 1.813193224685024862e+00 1.811445197594939494e+00 1.811271698605656955e+00 1.812050891027816135e+00 1.813085211810189445e+00 1.813598708932635750e+00 1.812179437888214784e+00 1.811317847257558622e+00 1.812483105144166329e+00 1.812163240757572291e+00 1.812094058687623077e+00 1.812354298027474497e+00 1.811791414159657165e+00 1.812414673790416320e+00 1.811791966466861581e+00 1.813635302476120703e+00 1.811479866549090989e+00 1.811623805003131693e+00 1.812335583627442182e+00 1.811779475148359131e+00 1.813156229250538098e+00 1.812563076838978660e+00 1.812738981694038687e+00 1.813231742410734704e+00 1.812967506139639529e+00 1.811428257146470155e+00 1.812467628917838747e+00 1.811108175788144425e+00 1.811665792604519432e+00 1.812498368041408181e+00 1.812888379495880553e+00 1.812379865506206666e+00 1.812579577631334926e+00 1.812615516876427302e+00 1.811977933867809920e+00 1.812033032499797081e+00 1.812515607578441434e+00 1.811522977354474540e+00 1.811712282897001369e+00 1.811899614615923415e+00 1.812445817502988499e+00 1.811319473285013970e+00 1.811929263495572151e+00 1.813123595986530168e+00 1.811793974962945253e+00 1.811243991708817003e+00 1.813060923655296364e+00 1.812784427839541967e+00 1.811323998754481579e+00 1.813181898509334422e+00 1.812978899422302836e+00 1.811894806617872611e+00 1.812419490024445468e+00 1.812110642151501638e+00 1.811995250118534351e+00 1.811602263812857494e+00 1.811383159298462608e+00 1.811792672207016786e+00 1.812916732255026364e+00 1.812672026855894680e+00 1.812403121818944918e+00 1.811564517641307548e+00 1.812712828359997363e+00 1.812566568474506479e+00 1.812467190040035314e+00 1.813138007283809694e+00 1.812264423489949872e+00 1.812465536354608719e+00 1.812260846369094791e+00 1.811554630931844878e+00 1.811424747986645212e+00 1.812363826266721656e+00 1.812944348378154213e+00 1.812179508500895819e+00 1.812381335800639981e+00 1.812548511276203200e+00 1.811854487106796086e+00 1.812490761116225757e+00 1.812274127902470555e+00 1.813365711020529236e+00 1.812842861559922358e+00 1.811973601265098432e+00 1.811534006708470201e+00 1.812102715540161890e+00 1.811705915668065714e+00 1.812682902913039129e+00 1.813130571008771952e+00 1.813162995618423867e+00 1.812537903212260382e+00 1.811657656162807051e+00 1.811458050930615293e+00 1.811392455228648446e+00 1.812499444349129796e+00 1.811745709637369250e+00 1.813479855842838440e+00 1.811775762215285468e+00 1.811741693418619681e+00 1.811472684194562088e+00 1.813036428101020725e+00 1.812165317139339038e+00 1.811451558543100804e+00 1.813198304195726918e+00 1.811870198576042146e+00 1.812008882452264213e+00 1.812958651101592711e+00 1.813608948899743778e+00 1.811675801464439406e+00
5.000000000000000000e+00 5.038957468664711392e+00 1.777340442320628905e-02 5.040000000000000036e+00 5.041445372122712598e+00 5.038748243404550742e+00 5.038032677895728284e+00 5.039175573860746660e+00 5.039344482488966825e+00 5.039129801194643932e+00 5.039009413551156058e+00 5.037422664564023655e+00 5.037698666450286744e+00 5.037708226795067468e+00 5.041029817223311227e+00 5.037958524722663256e+00 5.039522734788891789e+00 5.039856246105623327e+00 5.039479349453745982e+00 5.040276699597243670e+00 5.041305341340929225e+00 5.038837885943535433e+00 5.039403314870739337e+00 5.039780396208348279e+00 5.039797062469966171e+00 5.040024562501613126e+00 5.038209612167595886e+00 5.036909891475970902e+00 5.039186877548513799e+00 5.039679099062235323e+00 5.039499897162251330e+00 5.038188800171614190e+00 5.039037523530421225e+00 5.037924984986084098e+00 5.039310551315226760e+00 5.038225001939855119e+00 5.038214325174251051e+00 5.039234066626574915e+00 5.036748786270668354e+00 5.036212205430141253e+00 5.039621700630934953e+00 5.039550308311546267e+00 5.039908629793371730e+00 5.039662657497105513e+00 5.038347249915665849e+00 5.038735076956950998e+00 5.040014105280831380e+00 5.038567198512418521e+00 5.036915197787748433e+00 5.038925378499525820e+00 5.038471534241070415e+00 5.040005764726388726e+00 5.037754150162772504e+00 5.037197611979663314e+00 5.037984970583684330e+00 5.039864132889836590e+00 5.039393400207348606e+00 5.040345739268439651e+00 5.037948501055966588e+00 5.038196529494781473e+00 5.038949910289420409e+00 5.038264878470303465e+00 5.040145035200505497e+00 5.038772221887330538e+00 5.039704952737310784e+00 5.040163829051132360e+00 5.039061198477587489e+00 5.039234722172134973e+00 5.039154182905468460e+00 5.037074639269561338e+00 5.041628999063841654e+00 5.041803300053285142e+00 5.041723876972781682e+00 5.038545577042540913e+00 5.038976952219461403e+00 5.040039650376336056e+00 5.036558082597911046e+00 5.040419949674523892e+00 5.037805561830662526e+00 5.037933206164987965e+00 5.039130600936200466e+00 5.038215720854369195e+00 5.039740402987741064e+00 5.036597808272298415e+00 5.038302011919144618e+00 5.038799494346945629e+00 5.038667512320929021e+00 5.040379252067390681e+00 5.037188188101585418e+00 5.041122949034183343e+00 5.037608102519045339e+00 5.038271982306926411e+00 5.036794450054822292e+00 5.038102253631857153e+00 5.039396431606479432e+00 5.038428828613569443e+00 5.038783145867743229e+00 5.039040788377766589e+00 5.038041811500397316e+00 5.036826784563881887e+00 5.038765978605350249e+00 5.038688955510711054e+00 5.040689855535883446e+00 5.037754906869713167e+00 5.039327112340412640e+00 5.037460570720537767e+00 5.037322894133707152e+00 5.039886195199371421e+00 5.040402501412979852e+00 5.038749957854512296e+00 5.039135278575268551e+00 5.038351209782587325e+00 5.037269181175330068e+00 5.038093156623196123e+00 5.040364310735204967e+00 5.038852216618805890e+00 5.038798239293221570e+00 5.037819463265484465e+00 5.038184835459294852e+00 5.039882339075544948e+00 5.039765631828579728e+00 5.039158841346305095e+00 5.035759352791155052e+00 5.040456228627861357e+00 5.037974261022357680e+00 5.038141495032084194e+00 5.039016074324567107e+00 5.036439681759946829e+00 5.038059078151103876e+00 5.039666673364124883e+00 5.041343736162581912e+00 5.038453866962830041e+00 5.038700348412553431e+00 5.036984682597330121e+00 5.039419827463947676e+00 5.039591849282722968e+00 5.037421593300247302e+00 5.038543108534653925e+00 5.038553271196147598e+00 5.038953629810034585e+00 5.040933411414076915e+00 5.037386863022866201e+00 5.037655675536225175e+00 5.037564930993982060e+00 5.038053814465330404e+00 5.039423319415264224e+00 5.038688940904649805e+00 5.040409090801602154e+00 5.041300689705246363e+00 5.039518444991072599e+00 5.039070416515881057e+00 5.039824569129471854e+00 5.038469028223650170e+00 5.037055740998486186e+00 5.038051946205728271e+00 5.037710674939121169e+00 5.035938672714288522e+00 5.040091878476257392e+00 5.039433571181119120e+00 5.040237411026041059e+00 5.039199727263182993e+00 5.039720782375415986e+00 5.037680160887578751e+00 5.039883881674009025e+00 5.041803171382270854e+00 5.039564041325294674e+00 5.039426950228059532e+00 5.039896361035239636e+00 5.039389844029771304e+00 5.038180120640140203e+00 5.036270421812760745e+00 5.037726994755813870e+00 5.038720605679203324e+00 5.039707409135805172e+00 5.039166330432204965e+00 5.040307746381659904e+00 5.039986788409168028e+00 5.038893713916556827e+00 5.040283603301793036e+00 5.039423326668523551e+00 5.040548839459614960e+00 5.039868472019866097e+00 5.037120376092828700e+00 5.040352989415262108e+00 5.039981914612399194e+00 5.039575260471613305e+00 5.039298953323233299e+00 5.039162806115488280e+00 5.038735190696670863e+00 5.039294355493664668e+00 5.038725245037251277e+00 5.038761225108443043e+00 5.038399961287356454e+00 5.039011565525245651e+00 5.038624579708821827e+00 5.040499295168054950e+00 5.041060669114362902e+00 5.039274979404906318e+00 5.039595262151353339e+00 5.037805081338484037e+00 5.040762474960514439e+00 5.039795651600102566e+00 5.038342522525258715e+00 5.037926602192916548e+00 5.040703345377542277e+00 5.040285698853431029e+00 5.039182017089984811e+00 5.038339138085746072e+00 5.037140890981323338e+00 5.039232254930674948e+00 5.037494967205818241e+00 5.039047785353503173e+00 5.038492591992440595e+00 5.038310140371074830e+00 5.039388631694766474e+00 5.039555869784948072e+00 5.039112071837027251e+00 5.039376292254436507e+00 5.037720563177241928e+00 5.038533293786199074e+00 5.039321758812209673e+00 5.038459640037522114e+00 5.040473928352270150e+00 5.039771692257362545e+00 5.041638819658059489e+00 5.040024706158615864e+00 5.038664330545044479e+00 5.037863733769491148e+00 5.039098255728904796e+00
6.000000000000000000e+00 2.986616303227084598e-03 2.619012687213769902e-05 2.999890153463648755e-03 2.986237032750342895e-03 2.985768175582990611e-03 2.987865976508916402e-03 2.985918209876543394e-03 2.988458076131687152e-03 2.986119148662551639e-03 2.989669067215363404e-03 2.984859932270233097e-03 2.987576624657064389e-03 2.987659679355281379e-03 2.987236368312757347e-03 2.987935635288065800e-03 2.987212255658436202e-03 2.990081661522633882e-03 2.986317408264746280e-03 2.985698516803840779e-03 2.987185463820301885e-03 2.984573259602194689e-03 2.986376350308642125e-03 2.985387731481481659e-03 2.985366298010974119e-03 2.986223636831275736e-03 2.985521690672153679e-03 2.986920224622771017e-03 2.988530414094650155e-03 2.987378365054869749e-03 2.987421231995884829e-03 2.986767511145404629e-03 2.988471472050754311e-03 2.985084983710562488e-03 2.983485510973936904e-03 2.983335476680384121e-03 2.986786265432098565e-03 2.985856588648833944e-03 2.983531057098765590e-03 2.985572595164609142e-03 2.984956382887517246e-03 2.984985853909465168e-03 2.986963091563786098e-03 2.984867969821673479e-03 2.984645597565157692e-03 2.987796317729767004e-03 2.988996592078189268e-03 2.988208912037037049e-03 2.984782235939643317e-03 2.986242391117969672e-03 2.984275870198902728e-03 2.987740054869684331e-03 2.987844543038408861e-03 2.985722629458161925e-03 2.985417202503429148e-03 2.986622835219478623e-03 2.985208226165980954e-03 2.985336826989026197e-03 2.984262474279835570e-03 2.984388395919067207e-03 2.987196180555555438e-03 2.987766846707819082e-03 2.985307355967078274e-03 2.985907493141289407e-03 2.986137902949245575e-03 2.985457390260631057e-03 2.987126521776406040e-03 2.987297989540466363e-03 2.984983174725651563e-03 2.981154621056241339e-03 2.986486196844992998e-03 2.986301333161865516e-03 2.986416538065843600e-03 2.987019354423868338e-03 2.985719950274348319e-03 2.985409164951989200e-03 2.984677747770919220e-03 2.988131215706447269e-03 2.987568587105624007e-03 2.988107103052126123e-03 2.984602730624142611e-03 2.985382373113854449e-03 2.985098379629629647e-03 2.984506280006858896e-03 2.983164008916323797e-03 2.986810378086419710e-03 2.988270533264746065e-03 2.986660343792866927e-03 2.988699202674897307e-03 2.989540466392318161e-03 2.987611454046639088e-03 2.987721300582990396e-03 2.985904813957475801e-03 2.984021347736625415e-03 2.986405821330590047e-03 2.985821759259259245e-03 2.987129200960219645e-03 2.989661029663923022e-03 2.985285922496570734e-03 2.988680448388202938e-03 2.988042802640603502e-03 2.988058877743484266e-03 2.989502957818929857e-03 2.987525720164608926e-03 2.987244405864197729e-03 2.984975137174211181e-03 2.987477494855967069e-03 2.986622835219478623e-03 2.985543124142661219e-03 2.986957733196159322e-03 2.985958397633744869e-03 2.987871334876543179e-03 2.987466778120713515e-03 2.987595378943758758e-03 2.986671060528120914e-03 2.987147955246913580e-03 2.985861947016460721e-03 2.984064214677640495e-03 2.988082990397805411e-03 2.988602752057613159e-03 2.986614797668038241e-03 2.987249764231824506e-03 2.985205546982167349e-03 2.985594028635116682e-03 2.985299318415637893e-03 2.986668381344307309e-03 2.988190157750343114e-03 2.989162701474622815e-03 2.990076303155006672e-03 2.988798332475994628e-03 2.987172067901234726e-03 2.986877357681755937e-03 2.983659657921810832e-03 2.986989883401920415e-03 2.986255787037036830e-03 2.983801654663923233e-03 2.986204882544581801e-03 2.989312735768175598e-03 2.985778892318244164e-03 2.985990547839505963e-03 2.987311385459533522e-03 2.986172732338820274e-03 2.985018004115226262e-03 2.987520361796982150e-03 2.987702546296296460e-03 2.988385738168724149e-03 2.988316079389574751e-03 2.985553840877914773e-03 2.987273876886145218e-03 2.984910836762688559e-03 2.985985189471879186e-03 2.984187457133058961e-03 2.988091027949245360e-03 2.987158671982167567e-03 2.984061535493827324e-03 2.987488211591221056e-03 2.986764831961591024e-03 2.986713927469135995e-03 2.987225651577503360e-03 2.989543145576131766e-03 2.985896776406035853e-03 2.986381708676268901e-03 2.983638224451303292e-03 2.985567236796982365e-03 2.986545138888888843e-03 2.985138567386831122e-03 2.986057527434842190e-03 2.985326110253772210e-03 2.984956382887517246e-03 2.988251778978052130e-03 2.985141246570644728e-03 2.984830461248285174e-03 2.988675090020576162e-03 2.986381708676268901e-03 2.986987204218106810e-03 2.986823774005486869e-03 2.986462084190672286e-03 2.985977151920438805e-03 2.985548482510287996e-03 2.985928926611796947e-03 2.988112461419752900e-03 2.988091027949245360e-03 2.987137238511659593e-03 2.989197530864197514e-03 2.987788280178326622e-03 2.987439986282578765e-03 2.987418552812071224e-03 2.988458076131687152e-03 2.986754115226337471e-03 2.987263160150891664e-03 2.987054183813443037e-03 2.985832475994513232e-03 2.985912851508916183e-03 2.986933620541838176e-03 2.988356267146776227e-03 2.986743398491083484e-03 2.987129200960219645e-03 2.987520361796982150e-03 2.986175411522633879e-03 2.983940972222222029e-03 2.986989883401920415e-03 2.988653656550068621e-03 2.987986539780521263e-03 2.986831811556927251e-03 2.985778892318244164e-03 2.986740719307270312e-03 2.985971793552812028e-03 2.984546467764060372e-03 2.988380379801097372e-03 2.988621506344307094e-03 2.987702546296296460e-03 2.985979831104252410e-03 2.985607424554183841e-03 2.985602066186557064e-03 2.987265839334705270e-03 2.989827139060356569e-03 2.989060892489711890e-03 2.986293295610425134e-03 2.982437950102880594e-03 2.985816400891632468e-03 2.984993891460905550e-03 2.986839849108367632e-03 2.985419881687242753e-03 2.985331468621398986e-03 2.986242391117969672e-03 2.986349558470507374e-03 2.987986539780521263e-03 2.986062885802468966e-03 2.985931605795610552e-03
