# vvf statistics with RF=500
# gcat file: /disk2/salam/Abacus/AbacusCosmos_720box_products/GCAT_derivative/AbacusCosmos_720box_planck_rockstar_halos_z0.100_Mr21_hod-kappa-pos_real-0.gcat.rsd_zz.1pz0.100by100
# stats order in row: stdvvf,p2.5,p16,p50,p84,p97.5,rho
# columns: numbers, mean, sigma,All, jnrealizations
0.000000000000000000e+00 1.432171147525999277e+00 4.808429414881852312e-03 1.432171379874602968e+00 1.432522910189362175e+00 1.431911342216346750e+00 1.431834286336950868e+00 1.432385894037332852e+00 1.432403114679237310e+00 1.432290938536206371e+00 1.432375022194748215e+00 1.431603622645542195e+00 1.431094808625938519e+00 1.432131439250172722e+00 1.432821413258574372e+00 1.432389861604514092e+00 1.432267614108168052e+00 1.431690462459696445e+00 1.432469785557821007e+00 1.432128562074224121e+00 1.432453958969868602e+00 1.432156407111220275e+00 1.432429674653897589e+00 1.432497896171298635e+00 1.432074290666997207e+00 1.432825550756900990e+00 1.432061819949834280e+00 1.432257486497612753e+00 1.432057794847452215e+00 1.432666994493457135e+00 1.432338859259179253e+00 1.432168848038654518e+00 1.432694047222630829e+00 1.432008822128908676e+00 1.431981456098204708e+00 1.431467729852265780e+00 1.432144676277656847e+00 1.432445109854436849e+00 1.431664757444429226e+00 1.431743006879327762e+00 1.432161284306992854e+00 1.432138209963283781e+00 1.432190473167691325e+00 1.432323272427677097e+00 1.432130536466877269e+00 1.432300517735269008e+00 1.432435753619902830e+00 1.432124330130254641e+00 1.431708060378634739e+00 1.432245578494765192e+00 1.431927554809109715e+00 1.432518553305255349e+00 1.432187485446456243e+00 1.432097554859472321e+00 1.431555221413145729e+00 1.432169577336514177e+00 1.431943260576872268e+00 1.432236589284309636e+00 1.431722645608240141e+00 1.432041598391300852e+00 1.432048382620777716e+00 1.432245821263971264e+00 1.432340999964083927e+00 1.431856398185238799e+00 1.432465251145655927e+00 1.432414527186515629e+00 1.432456539346660618e+00 1.432050739781738802e+00 1.432241861148740414e+00 1.431495079892985522e+00 1.432660570256081067e+00 1.432619342177695376e+00 1.432543413950594591e+00 1.431620851903774749e+00 1.432194844440782822e+00 1.432540161917436716e+00 1.431785650405921873e+00 1.432166701569500988e+00 1.432122662417045555e+00 1.432357131511511339e+00 1.432210958920863364e+00 1.432051617110060571e+00 1.432246398879818194e+00 1.432050746640753713e+00 1.431855880315032969e+00 1.432269165586986581e+00 1.431278211601700434e+00 1.432340582450304378e+00 1.431661592719102760e+00 1.432607115586374213e+00 1.432318005787970305e+00 1.432392500663929535e+00 1.431783449459339996e+00 1.431777436833770123e+00 1.432347601237570212e+00 1.432155941627749618e+00 1.432403714274852247e+00 1.432360461596626999e+00 1.432029953154965840e+00 1.432083008718086470e+00 1.432671046314221597e+00 1.432374918694945487e+00 1.432107834943133318e+00 1.431956990053339984e+00 1.432156173673380328e+00 1.431835474833548005e+00 1.431836282406451666e+00 1.431872833986307381e+00 1.432153027402614853e+00 1.432332497972943264e+00 1.432173705665520602e+00 1.432161603679958262e+00 1.431912982956713210e+00 1.431991396430313923e+00 1.432518906008060977e+00 1.432303667434229766e+00 1.432278795109824143e+00 1.431582933816106573e+00 1.432605755922380597e+00 1.432572638819486599e+00 1.432460868609553017e+00 1.432158914213036649e+00 1.431646167362871980e+00 1.432292360311355539e+00 1.432017678024475327e+00 1.431909830769183101e+00 1.432358687256247487e+00 1.432148627388895923e+00 1.431935062832921934e+00 1.432244478159900192e+00 1.432755732150025496e+00 1.432582349374007302e+00 1.432052208023059992e+00 1.432357603691783332e+00 1.432182082519141586e+00 1.432011205670300269e+00 1.432050523002673659e+00 1.432352119714337624e+00 1.432367488533912159e+00 1.432448419272029039e+00 1.432355616663495423e+00 1.431870295576985752e+00 1.431373146678996289e+00 1.431220775076666119e+00 1.432123475109283284e+00 1.432774641406346916e+00 1.432169706438523926e+00 1.432332715527082856e+00 1.432357425996631850e+00 1.432159060907426396e+00 1.432007855241276495e+00 1.432400474725812334e+00 1.431811618976384537e+00 1.431959318515686919e+00 1.431860429702306758e+00 1.431892756268846822e+00 1.431431384506680615e+00 1.432405752949587274e+00 1.432447504788048054e+00 1.432810487895239238e+00 1.432507980874442088e+00 1.432550938465871448e+00 1.431549317111951769e+00 1.432414659396605838e+00 1.432737867918965069e+00 1.432366520074835226e+00 1.432220784332268959e+00 1.432034988452503210e+00 1.432130292903569524e+00 1.432108291794686128e+00 1.431707342287574791e+00 1.431977334821594949e+00 1.432271372013618427e+00 1.432111289560152212e+00 1.432351499837944964e+00 1.431792302532074457e+00 1.432787035027195177e+00 1.432036714087086882e+00 1.432187340894532035e+00 1.432447899224658316e+00 1.432506546974867456e+00 1.432043148563705737e+00 1.432125218434062930e+00 1.432492631748902401e+00 1.432402443467883923e+00 1.432328933889701617e+00 1.432356004993219134e+00 1.432726855919602915e+00 1.432707924385974607e+00 1.432511285902166920e+00 1.432636586032300707e+00 1.432067446610331807e+00 1.431531770213535060e+00 1.432509112747342828e+00 1.432064599101537494e+00 1.432351057002740014e+00 1.432368755909303015e+00 1.432089340463030602e+00 1.431561538095195374e+00 1.432239747662108265e+00 1.432350032117535754e+00 1.432359281452556976e+00 1.432231356436852066e+00 1.432068262121808155e+00 1.432267650902121492e+00 1.432258978747578571e+00 1.432142128896304989e+00 1.431667366799670438e+00 1.432283976374714385e+00 1.432420743634100990e+00 1.431954520137647346e+00 1.432046802513497363e+00 1.432111486406303591e+00 1.431999170230647600e+00 1.432308725044017406e+00 1.432191663208018495e+00 1.431865135041192172e+00 1.431558416828337288e+00 1.431647510330300133e+00 1.432247030645367625e+00 1.432232110991190410e+00 1.432047300866337469e+00 1.432203443853578673e+00 1.432122628143857934e+00 1.432840771383679934e+00 1.432586963208062114e+00 1.432343285556106016e+00 1.431685312778935737e+00 1.431987273743071221e+00
1.000000000000000000e+00 2.199999987695636441e-02 1.600932014378588929e-04 2.199999999999999872e-02 2.199529992216912866e-02 2.199508485480156789e-02 2.200706883093318453e-02 2.199637164632367928e-02 2.201434886707162239e-02 2.199546301574374293e-02 2.201896891918376370e-02 2.198697149787122787e-02 2.200641358968693020e-02 2.200629854408207506e-02 2.200514476451684992e-02 2.201006393560790003e-02 2.200668113183811003e-02 2.202533222686121894e-02 2.199924716411751080e-02 2.199066700894385107e-02 2.200699619374810179e-02 2.198775568102168121e-02 2.199527205334070312e-02 2.199347586747902455e-02 2.198983276277356388e-02 2.200000458271455031e-02 2.199103217738802157e-02 2.200390246296112309e-02 2.201358188075632286e-02 2.200606076742866665e-02 2.200708793304902156e-02 2.199918454626624206e-02 2.201570524110938940e-02 2.198984811528397962e-02 2.197582071675611981e-02 2.197615877568245488e-02 2.199992829900099950e-02 2.199789436962005032e-02 2.197988537823423322e-02 2.199255198364519562e-02 2.198756705080368024e-02 2.198834305442134290e-02 2.199898313296345942e-02 2.198849263157795497e-02 2.198555401244876514e-02 2.201140543083009854e-02 2.201663843040741961e-02 2.200898733256034107e-02 2.198679821813245144e-02 2.199790492315873910e-02 2.198525017840805007e-02 2.200956044068613435e-02 2.200553561427234794e-02 2.199787332211890212e-02 2.199396177987679793e-02 2.199750842459951769e-02 2.198986173426046437e-02 2.199203628434011348e-02 2.198418512294608024e-02 2.198355207334229400e-02 2.200574092687107922e-02 2.200897140090322598e-02 2.199512036480323271e-02 2.199536260683672070e-02 2.199978684573792795e-02 2.199252006203149951e-02 2.200321443813021971e-02 2.200367753571837171e-02 2.199006860323931070e-02 2.196241259100605372e-02 2.199765547345247999e-02 2.199812970886760866e-02 2.200024914101857132e-02 2.200423838922063377e-02 2.199564261955572891e-02 2.199262112600061658e-02 2.198522807705914975e-02 2.201087164533353790e-02 2.200755351414626637e-02 2.200845398606993825e-02 2.198814497723040884e-02 2.199248982325447202e-02 2.199078759767947311e-02 2.198409557274080828e-02 2.197366817625110574e-02 2.200411203461466458e-02 2.201117414072636252e-02 2.200298978175372830e-02 2.201399784262692699e-02 2.202247028186016947e-02 2.200395546699053864e-02 2.201237233293502904e-02 2.199371159826379180e-02 2.198259172563426719e-02 2.199785211334121318e-02 2.199414256344380675e-02 2.200639675617105384e-02 2.202128539108662644e-02 2.199416447264323018e-02 2.201143322481567341e-02 2.201347028735592751e-02 2.201094012633127497e-02 2.201724656853425166e-02 2.201208578789077414e-02 2.200625636764164811e-02 2.198674984160588555e-02 2.200623351726656643e-02 2.200101872106174569e-02 2.199215883564840934e-02 2.200069065168237109e-02 2.199621016478761973e-02 2.200894542823583766e-02 2.200603302868741132e-02 2.200937094610733863e-02 2.200273796468930204e-02 2.200597399172675786e-02 2.199502409720493004e-02 2.198289666027106876e-02 2.200931222103649082e-02 2.201481895514792106e-02 2.199950678599655110e-02 2.200399185755550630e-02 2.198832545271761293e-02 2.199456002939631852e-02 2.199047188006061915e-02 2.200027668703326972e-02 2.201411707382667365e-02 2.201935215651822098e-02 2.202592607290023916e-02 2.201604002317863323e-02 2.200587964167324481e-02 2.200382950189024717e-02 2.197750065136912581e-02 2.200460568758876717e-02 2.199651221866824949e-02 2.197888247766238007e-02 2.199891393706608633e-02 2.201880543493033027e-02 2.199820493769891888e-02 2.199706025301181173e-02 2.200495565448327973e-02 2.199462136296901141e-02 2.198915383779554908e-02 2.200911300452952635e-02 2.200718140204254922e-02 2.201354156003077281e-02 2.201132382419527730e-02 2.199372893378208349e-02 2.200442363817415453e-02 2.198862273657530356e-02 2.199514312849158021e-02 2.198418391398090574e-02 2.201174262913528287e-02 2.200323503455788032e-02 2.198244772308091330e-02 2.200599608246356712e-02 2.199839015684627169e-02 2.200243629027310091e-02 2.200630046865853506e-02 2.201879518909343608e-02 2.199778981461344984e-02 2.199774622735942847e-02 2.198095687858862834e-02 2.199265051384752603e-02 2.199745854679279258e-02 2.198867152999698857e-02 2.199585797374254900e-02 2.199252137789595857e-02 2.199026129292101436e-02 2.201012919556247574e-02 2.199329991378019475e-02 2.199150222608148991e-02 2.201233794732654001e-02 2.199578477193927378e-02 2.200545562702224331e-02 2.200023010102293564e-02 2.200384108364928856e-02 2.199520755395862476e-02 2.199233848004077119e-02 2.199505768873219816e-02 2.200915555983793542e-02 2.201077278262952158e-02 2.200391001460257068e-02 2.201926713253371873e-02 2.201036720616813755e-02 2.200602437812785792e-02 2.200389878968676133e-02 2.201658065636424508e-02 2.200350947692661027e-02 2.200547527340741480e-02 2.200381628823772778e-02 2.199510463372414057e-02 2.199354881247083532e-02 2.200322200825061830e-02 2.201175432918383093e-02 2.199933783206604182e-02 2.199951520449502929e-02 2.200747945290231974e-02 2.199969788017093822e-02 2.198377080160028585e-02 2.200261784947616858e-02 2.201462615173936654e-02 2.201091119262520157e-02 2.199979465081768060e-02 2.199417188717722391e-02 2.199943400381725034e-02 2.199477502461767361e-02 2.198414391502483481e-02 2.201262392823690253e-02 2.201394169886174493e-02 2.200570559002741622e-02 2.199455700355083462e-02 2.199040380667039926e-02 2.199235076455476404e-02 2.200812398827087929e-02 2.201998234688875081e-02 2.201718838198134243e-02 2.199757113673106793e-02 2.197002758326437044e-02 2.199267280698721447e-02 2.198744187383878598e-02 2.200223416149652694e-02 2.199406199156444738e-02 2.199215034871922908e-02 2.200009658684867059e-02 2.200237587246704068e-02 2.201102357907945214e-02 2.199555748137540373e-02 2.199706600211965082e-02
2.000000000000000000e+00 1.059999994071534057e-01 7.713581523824151543e-04 1.059999999999999970e-01 1.059773541704512601e-01 1.059763179367712027e-01 1.060340589126780864e-01 1.059825179322868016e-01 1.060691354504360029e-01 1.059781399849471228e-01 1.060913957015217624e-01 1.059372263079250143e-01 1.060309018412188414e-01 1.060303475305772736e-01 1.060247884108539151e-01 1.060484898715653435e-01 1.060321909079472574e-01 1.061220552748767948e-01 1.059963726998389144e-01 1.059550319521839895e-01 1.060337089335135763e-01 1.059410046449226483e-01 1.059772198933688347e-01 1.059685655433080242e-01 1.059510124024544420e-01 1.060000220803519189e-01 1.059567914001422889e-01 1.060188027760854135e-01 1.060654399709168305e-01 1.060292018794290331e-01 1.060341509501452895e-01 1.059960709956464520e-01 1.060756707071634219e-01 1.059510863736409930e-01 1.058834998170976593e-01 1.058851286464700114e-01 1.059996545315502747e-01 1.059898546899875060e-01 1.059030840951285662e-01 1.059641141030177591e-01 1.059400957902359164e-01 1.059438347167573902e-01 1.059951005497330317e-01 1.059445554066937856e-01 1.059303966054349622e-01 1.060549534394541055e-01 1.060801669828721205e-01 1.060433026023362008e-01 1.059363914146381758e-01 1.059899055388557471e-01 1.059289326777842488e-01 1.060460639414877448e-01 1.060266715960394984e-01 1.059897532793001723e-01 1.059709067575882180e-01 1.059879951367067724e-01 1.059511519923458656e-01 1.059616293700023637e-01 1.059238010469220059e-01 1.059207508988310592e-01 1.060276608294697526e-01 1.060432258407155437e-01 1.059764890304155660e-01 1.059776561965769248e-01 1.059989729840100231e-01 1.059639602988790424e-01 1.060154877473546975e-01 1.060177190357339816e-01 1.059521487246984917e-01 1.058188970293927889e-01 1.059887036448164954e-01 1.059909885972711852e-01 1.060012004067258512e-01 1.060204213298812370e-01 1.059790053487685013e-01 1.059644472434575213e-01 1.059288261894668071e-01 1.060523815638797773e-01 1.060363942045229324e-01 1.060407328419733508e-01 1.059428803448374257e-01 1.059638146029533573e-01 1.059556129706374639e-01 1.059233695777511697e-01 1.058731284855735089e-01 1.060198125304161187e-01 1.060538390416815580e-01 1.060144053120861407e-01 1.060674441508388244e-01 1.061082659035080811e-01 1.060190581591362313e-01 1.060596121495960553e-01 1.059697013370891894e-01 1.059161237689651147e-01 1.059896510915531165e-01 1.059717778056838006e-01 1.060308207342787051e-01 1.061025568843264599e-01 1.059718833681901062e-01 1.060550873559300694e-01 1.060649022936240166e-01 1.060527115177779534e-01 1.060830971029377567e-01 1.060582315234737255e-01 1.060301443168188279e-01 1.059361583277374508e-01 1.060300342195570900e-01 1.060049083832974998e-01 1.059622198444877955e-01 1.060033276853786788e-01 1.059817398848858089e-01 1.060431006996817721e-01 1.060290682291302466e-01 1.060451509221535388e-01 1.060131920116847981e-01 1.060287837783198406e-01 1.059760251956237548e-01 1.059175929994878862e-01 1.060448679740849109e-01 1.060714004202581717e-01 1.059976236052561083e-01 1.060192334954947191e-01 1.059437499085485040e-01 1.059737892325458841e-01 1.059540917857466069e-01 1.060013331284330312e-01 1.060680186284376214e-01 1.060932422086787036e-01 1.061249165330647865e-01 1.060772837480425113e-01 1.060283291826074475e-01 1.060184512363802761e-01 1.058915940475057826e-01 1.060221910402004142e-01 1.059831952354015616e-01 1.058982519378278420e-01 1.059947671513184198e-01 1.060906080046643135e-01 1.059913510634584305e-01 1.059858357645114685e-01 1.060238772443285321e-01 1.059740847488506860e-01 1.059477412184694628e-01 1.060439081127331762e-01 1.060346013007504584e-01 1.060652456983300906e-01 1.060545602438499740e-01 1.059697848627682293e-01 1.060213138930209131e-01 1.059451822762264572e-01 1.059765987100048934e-01 1.059237952219080070e-01 1.060565781221972648e-01 1.060155869846879650e-01 1.059154299384807707e-01 1.060288902155062801e-01 1.059922434829865950e-01 1.060117384894976589e-01 1.060303568035365906e-01 1.060905586383592836e-01 1.059893509249557053e-01 1.059891409136408807e-01 1.059082467786543053e-01 1.059645888394471769e-01 1.059877548163652705e-01 1.059454173718036712e-01 1.059800429643959208e-01 1.059639666389532581e-01 1.059530771386194281e-01 1.060488043058919194e-01 1.059677177663954917e-01 1.059590561802108144e-01 1.060594464734824216e-01 1.059796902647983097e-01 1.060262862029253544e-01 1.060011086685650611e-01 1.060185070394011053e-01 1.059769091236188177e-01 1.059630854038327991e-01 1.059761870457096855e-01 1.060441131519464231e-01 1.060519052253967864e-01 1.060188391612669340e-01 1.060928325476624690e-01 1.060499510842646681e-01 1.060290265491614925e-01 1.060187850775816676e-01 1.060798886170277316e-01 1.060169092979191263e-01 1.060263808627811694e-01 1.060183875705999618e-01 1.059764132352163241e-01 1.059689170055412855e-01 1.060155242215711641e-01 1.060566344951584528e-01 1.059968095545000266e-01 1.059976641671124126e-01 1.060360373639839121e-01 1.059985443317326970e-01 1.059218047713468419e-01 1.060126132747488126e-01 1.060704714583805830e-01 1.060525721099214308e-01 1.059990105903033664e-01 1.059719190927629895e-01 1.059972729274831077e-01 1.059748251186124202e-01 1.059236024996651065e-01 1.060608243815050755e-01 1.060671736399702164e-01 1.060274905701320824e-01 1.059737746534721997e-01 1.059537637957755629e-01 1.059631445928547744e-01 1.060391428525778723e-01 1.060962785804639846e-01 1.060828167495464630e-01 1.059882972951587676e-01 1.058555874466374225e-01 1.059646962518474844e-01 1.059394926648596080e-01 1.060107645963014600e-01 1.059713895957196117e-01 1.059621789529199276e-01 1.060004653729981344e-01 1.060114473855230249e-01 1.060531136082918935e-01 1.059785951375360469e-01 1.059858634647583009e-01
3.000000000000000000e+00 4.832031910899660110e-01 1.233833342467186532e-02 4.839999999999999858e-01 4.838965982877208583e-01 4.838918668056345074e-01 4.841555142805300527e-01 4.839201762191209233e-01 4.823143706331146641e-01 4.839001863463623376e-01 4.824155917748442768e-01 4.837133729531670201e-01 4.841410989731124714e-01 4.841385679698056443e-01 4.821127171135055067e-01 4.822204916801366981e-01 4.821463775248167605e-01 4.825550060612321945e-01 4.819835060502108970e-01 4.837946741967646402e-01 4.821532802448448285e-01 4.837306249824769866e-01 4.838959851734954687e-01 4.838564690845384986e-01 4.837763207810183985e-01 4.820001004031096437e-01 4.838027079025364885e-01 4.840858541851447150e-01 4.822975666602066780e-01 4.821327859045735353e-01 4.821552901695285720e-01 4.839820600178573740e-01 4.823440875552147955e-01 4.837766585362475724e-01 4.834680557686346081e-01 4.834754930650140281e-01 4.839984225780220028e-01 4.839536761316410862e-01 4.835574783211530892e-01 4.838361436401943383e-01 4.837264751176809652e-01 4.837435471972695855e-01 4.839776289251960795e-01 4.837468378947150094e-01 4.836821882738728262e-01 4.822498826209139500e-01 4.823645328843807478e-01 4.841977213163275451e-01 4.837095607989139179e-01 4.839539083094922534e-01 4.836755039249771015e-01 4.822094605641235043e-01 4.821212802763305549e-01 4.839532130866158743e-01 4.838671591572895614e-01 4.839451853411894100e-01 4.837769581537301744e-01 4.838247982554824689e-01 4.836520727048137513e-01 4.836381456135305235e-01 4.841263003911637774e-01 4.821965552379706699e-01 4.838926480256711127e-01 4.838979773504078485e-01 4.839953106062344079e-01 4.838354413646929753e-01 4.820704254172166192e-01 4.820805714643752182e-01 4.837815092712648424e-01 4.831730770021331889e-01 4.819486335547316092e-01 4.819590236215539614e-01 4.820054584532250663e-01 4.840932445628539083e-01 4.839041376302260500e-01 4.838376647720136203e-01 4.836750176953012459e-01 4.822381878659439125e-01 4.821654906281137021e-01 4.821852191493505302e-01 4.837391894990690222e-01 4.838347761115983636e-01 4.837973271489484084e-01 4.836501026002978376e-01 4.834206998775243402e-01 4.840904647615225653e-01 4.822448152650048447e-01 4.820655034002407913e-01 4.823066800066445059e-01 4.824923034480272932e-01 4.820866606858836279e-01 4.822710665670311148e-01 4.838616551618034611e-01 4.836170179639538436e-01 4.839527464935067247e-01 4.838711363957637346e-01 4.821401471124748817e-01 4.824663435683524404e-01 4.838716183981510710e-01 4.822504915618707200e-01 4.822951217502525756e-01 4.822396882223488612e-01 4.823778566378867372e-01 4.822647886256069549e-01 4.821370713274215070e-01 4.837084965153294891e-01 4.841371373798644129e-01 4.840224118633583705e-01 4.838274943842650333e-01 4.840151943370120668e-01 4.839166236253276687e-01 4.821959862004397412e-01 4.841327266311230004e-01 4.822053089101698831e-01 4.820599863172837507e-01 4.821308847278317211e-01 4.838905301385084679e-01 4.836237265259635265e-01 4.822040222972540646e-01 4.823246698355135309e-01 4.839891492919241034e-01 4.820874579700797358e-01 4.837431599597875054e-01 4.838803206467190421e-01 4.837903813613335657e-01 4.840060871147319199e-01 4.823092922538389504e-01 4.824239881564447163e-01 4.825680166880870758e-01 4.823514223260046418e-01 4.821288176039320028e-01 4.820839009050499335e-01 4.835050143301207193e-01 4.841013251269528639e-01 4.839232688107014679e-01 4.835354145085723476e-01 4.839761066154538716e-01 4.824120099834735553e-01 4.839605086293762293e-01 4.839353255662598996e-01 4.821085738845882207e-01 4.838816699853182302e-01 4.837613844315020728e-01 4.842004860996496074e-01 4.841579908449360481e-01 4.822966832697651585e-01 4.822480946937329205e-01 4.838620365432058645e-01 4.820969178909064179e-01 4.837497002046566297e-01 4.838931488268147785e-01 4.836520461075799471e-01 4.822572703292365981e-01 4.840711707602733394e-01 4.836138499077801134e-01 4.841319138141984557e-01 4.839645834506179911e-01 4.820533769050742712e-01 4.821380375406097429e-01 4.824117855065016558e-01 4.839513759214959521e-01 4.839504170019074403e-01 4.835810513289497958e-01 4.838383113046455519e-01 4.819443190706421132e-01 4.837507736599337416e-01 4.839088754223361266e-01 4.838354703137111024e-01 4.837857484442623091e-01 4.822219214664141829e-01 4.838525981031642775e-01 4.838130489737927920e-01 4.822703132096087253e-01 4.839072649826640093e-01 4.821195278283963992e-01 4.840050622225046117e-01 4.820841546508616848e-01 4.838945661870897585e-01 4.838314465608969384e-01 4.838912691521083942e-01 4.822005899928129558e-01 4.822360218739740745e-01 4.840860203212565271e-01 4.824221253582387514e-01 4.822271360624110215e-01 4.821319886480739392e-01 4.840857733731087631e-01 4.823632671076166778e-01 4.820768894490284895e-01 4.821199582628351576e-01 4.820836114059356414e-01 4.838923019419311133e-01 4.838580738743583631e-01 4.820705912716726216e-01 4.822575266666639382e-01 4.839854323054529339e-01 4.819893785712092704e-01 4.821638680135871824e-01 4.839933533637605922e-01 4.836429576352063164e-01 4.840575926884757019e-01 4.823204456881079460e-01 4.822390543111521599e-01 4.839954823179889454e-01 4.838717815178988912e-01 4.839875480839794797e-01 4.838850505415888126e-01 4.836511661305463727e-01 4.822765787913720903e-01 4.823054499477891222e-01 4.821250042906006228e-01 4.838802540781183548e-01 4.837888837467487768e-01 4.838317168202047602e-01 4.821779891975710441e-01 4.824377950545626348e-01 4.823765818234094227e-01 4.839465650080834735e-01 4.833406068318161775e-01 4.838388017537186836e-01 4.837237212244532847e-01 4.840491515529235511e-01 4.838693638144178633e-01 4.838273076718230259e-01 4.820021161300481194e-01 4.840522691942749089e-01 4.822415165961952410e-01 4.839022645902589237e-01 4.839354520466323528e-01
4.000000000000000000e+00 1.825500441913043170e+00 9.018943371207429130e-03 1.826000000000000068e+00 1.825609893540037776e+00 1.825592042948530169e+00 1.824586070346460254e+00 1.825698846644865370e+00 1.825189651524483647e+00 1.825623430306730466e+00 1.825572695845053772e+00 1.824918634323312361e+00 1.826532327944015099e+00 1.826522779158812337e+00 1.824426547749033567e+00 1.824834391752218732e+00 1.826554533942563063e+00 1.826100271899766980e+00 1.825937514621753355e+00 1.825225361742339292e+00 1.824580048063479065e+00 1.824983721524799707e+00 1.825607580427278220e+00 1.825458497000759017e+00 1.825156119310205938e+00 1.826000380365307540e+00 1.825255670723205714e+00 1.824323549656413190e+00 1.825126061386342258e+00 1.826503043696579454e+00 1.826588298443069025e+00 1.825932317340098310e+00 1.825302107262887663e+00 1.825157393568570541e+00 1.825990921374099241e+00 1.826019010997614878e+00 1.825994048817082938e+00 1.825825232678464083e+00 1.826328657791462584e+00 1.825381814642551337e+00 1.824968065216705515e+00 1.825032473516971621e+00 1.825915600035967090e+00 1.825044888420970679e+00 1.824800983033247448e+00 1.824945613901549857e+00 1.825379477139233320e+00 1.824745131572275358e+00 1.824904252104993407e+00 1.825826108622175425e+00 1.824775764807868406e+00 1.824792647445977689e+00 1.826459455984604574e+00 1.825823485735869056e+00 1.825498827729774565e+00 1.825793199241760201e+00 1.825158523943618549e+00 1.825339011600229266e+00 1.824687365204524570e+00 1.824634822087410457e+00 1.826476496930300009e+00 1.824743810693067569e+00 1.825594990278668339e+00 1.825615096367447787e+00 1.825982308196248072e+00 1.825379165148614424e+00 1.826266798364808430e+00 1.826305235464625198e+00 1.825175694068862819e+00 1.824876828016321451e+00 1.825805404296555912e+00 1.825844765836011518e+00 1.826020678704541433e+00 1.826351786305312475e+00 1.825638337423125535e+00 1.825387553458051260e+00 1.824773930395909405e+00 1.824901358231289850e+00 1.824626254991036145e+00 1.824700912299616729e+00 1.825016033110123947e+00 1.825376655330121167e+00 1.825235370607396268e+00 1.826678486680463731e+00 1.825812064826682901e+00 1.824340925051688433e+00 1.824926437849312855e+00 1.826248151885559556e+00 1.825160548406887129e+00 1.825862990641497596e+00 1.826328303760214489e+00 1.825025778876067761e+00 1.825478062655894629e+00 1.826553530657247126e+00 1.825821725407320795e+00 1.825513832765836009e+00 1.826530930762197302e+00 1.825764752424636761e+00 1.825515651229388192e+00 1.824947918275626968e+00 1.825116809278964025e+00 1.824907035928556631e+00 1.825429897318475936e+00 1.825002021686944031e+00 1.826519278514256550e+00 1.824900236853288504e+00 1.826517381933124851e+00 1.826084553848124958e+00 1.825349183358818017e+00 1.826057324089636502e+00 1.825685443677372177e+00 1.824741657322825894e+00 1.824500192923901309e+00 1.824776936622717560e+00 1.826227251069211910e+00 1.824495298223163919e+00 1.825587000068009225e+00 1.824580422802498880e+00 1.824772067780479956e+00 1.825228626099536733e+00 1.825959063237713620e+00 1.826331324177107085e+00 1.825031012575561995e+00 1.825548482439894649e+00 1.825209166045031139e+00 1.826022965023761380e+00 1.825170433757266064e+00 1.825604469704056321e+00 1.826149507135001571e+00 1.825329863739901359e+00 1.824487475745999898e+00 1.824317500520354907e+00 1.826130508668307284e+00 1.824381853370995898e+00 1.825710514149464503e+00 1.826245325871219460e+00 1.825909856776485096e+00 1.825559141514223604e+00 1.825851009829010385e+00 1.825756000999980699e+00 1.826411319322112092e+00 1.825553573126427853e+00 1.825099768537030709e+00 1.826756379375950701e+00 1.824595403514800651e+00 1.825122718431642310e+00 1.824938847969644895e+00 1.825479501503912916e+00 1.824366759819529671e+00 1.825055687135750171e+00 1.825596879664801220e+00 1.824687264860415326e+00 1.824973570706488690e+00 1.826268507868303637e+00 1.824543161015716120e+00 1.826497674844476116e+00 1.825866383018240668e+00 1.826202212092667310e+00 1.826522938898658355e+00 1.825558292041201458e+00 1.825816554612916365e+00 1.825812936870832459e+00 1.826417689730000848e+00 1.825389992649344428e+00 1.825789059383801760e+00 1.825059736989750103e+00 1.825656211820631647e+00 1.825379274365364735e+00 1.825191687312444078e+00 1.824839802395725075e+00 1.825443892843756188e+00 1.825294684764763531e+00 1.825022927996527544e+00 1.825650136070959606e+00 1.826452817042846011e+00 1.826019098384903616e+00 1.826318809942890864e+00 1.825602226978565890e+00 1.825364093843383717e+00 1.825589788164772465e+00 1.824759079142927121e+00 1.824893161614375092e+00 1.826324531212013547e+00 1.825597420442795604e+00 1.824859535638667651e+00 1.826500023384612259e+00 1.826323599544001253e+00 1.825374687145835617e+00 1.826291286584908802e+00 1.824453949940687547e+00 1.826316751923731330e+00 1.825593684599103872e+00 1.825464551435079130e+00 1.826267426684801354e+00 1.824974540746877594e+00 1.825945040061481617e+00 1.825959761973087403e+00 1.824620114640628676e+00 1.825974924054187820e+00 1.825852091303773683e+00 1.826217281506522072e+00 1.825212640944209319e+00 1.824904637061289581e+00 1.825982956017867531e+00 1.825516266635709650e+00 1.825953022316831653e+00 1.825566327043266934e+00 1.824683944947061320e+00 1.825046638413823086e+00 1.825155893578355615e+00 1.826473563972275338e+00 1.825548231294719326e+00 1.825203515953643052e+00 1.825365113458045307e+00 1.824673552482094507e+00 1.825656718214776486e+00 1.825425073124271602e+00 1.825798404348678794e+00 1.825509564645785066e+00 1.825391842979938728e+00 1.824957675528619205e+00 1.826185435404211521e+00 1.825507145299849254e+00 1.825348478943696007e+00 1.826008016708439596e+00 1.824196981426358333e+00 1.824913954920041714e+00 1.825631270954158669e+00 1.825756478175931008e+00
5.000000000000000000e+00 5.015366948344346376e+00 1.834559765943763812e-02 5.016000000000000014e+00 5.016927954974758741e+00 5.014879346894757894e+00 5.013610408210777969e+00 5.017172405511464817e+00 5.015268932807408042e+00 5.014965567589572792e+00 5.014319740232302536e+00 5.015028317105356237e+00 5.013461132341404003e+00 5.015435495455796477e+00 5.017173006309841199e+00 5.014292747512127058e+00 5.015522690683467566e+00 5.013766536005499930e+00 5.015828353418791963e+00 5.015871229585465940e+00 5.015594496156953852e+00 5.017206069033129268e+00 5.016921598348347722e+00 5.016511904682261047e+00 5.015680945618079534e+00 5.018001045275527261e+00 5.014705030723243695e+00 5.014889406785775883e+00 5.015094199379576345e+00 5.015581359092484703e+00 5.015615404377627762e+00 5.015814076548703149e+00 5.015577939474557212e+00 5.015684447386137279e+00 5.016480529070419081e+00 5.012562033471570366e+00 5.015783652823868621e+00 5.015519916273371237e+00 5.013412037635426088e+00 5.014301852271104920e+00 5.015164157315130211e+00 5.015341156685741097e+00 5.015768154315668248e+00 5.017174332363223854e+00 5.016703688295127250e+00 5.014598364514565532e+00 5.015790536963726787e+00 5.014047477763292626e+00 5.014988793572211279e+00 5.015522322480192585e+00 5.014635699784163236e+00 5.016178911345467561e+00 5.015261616816434120e+00 5.013515310777462375e+00 5.014623285811910414e+00 5.015431920808690158e+00 5.015687553750863614e+00 5.016183548855394747e+00 5.014392770315610370e+00 5.016246882189923539e+00 5.013307887521721184e+00 5.016044663824035688e+00 5.016886999571937622e+00 5.014942674358772834e+00 5.015951400828247309e+00 5.016293894148820876e+00 5.016732891893689761e+00 5.016838478143788471e+00 5.015734738684312077e+00 5.013419819637836561e+00 5.017465234808388352e+00 5.017573403595347870e+00 5.016056804152235316e+00 5.014965967434193317e+00 5.015006517258706609e+00 5.018316275114686142e+00 5.014630658667400098e+00 5.016477746804652860e+00 5.013720827859140527e+00 5.015926740279757823e+00 5.015295977079190948e+00 5.014287679702019496e+00 5.015898734779799639e+00 5.014372344727880737e+00 5.013991556580934095e+00 5.016937543892143303e+00 5.014545672423659894e+00 5.016681670239850455e+00 5.015188963056643523e+00 5.017119138758326713e+00 5.014901486885935178e+00 5.014818642394107684e+00 5.014566244404145223e+00 5.014029330874215873e+00 5.015510281841796925e+00 5.014664504465187633e+00 5.013457297360423226e+00 5.014847264061090826e+00 5.016668969260169142e+00 5.014604696489825209e+00 5.015068776373995618e+00 5.014492359689652012e+00 5.013927514016208953e+00 5.014753362223116184e+00 5.015225826185344182e+00 5.014977759326288087e+00 5.013420108570000977e+00 5.016232268402077921e+00 5.016211501694714414e+00 5.016157468583580581e+00 5.015135917571577728e+00 5.014037931196273945e+00 5.013374433626422544e+00 5.014134871904090573e+00 5.016624255949160727e+00 5.017362070113700945e+00 5.014865494162724424e+00 5.014098883692737374e+00 5.016122339830771715e+00 5.015376027418244398e+00 5.015887547207213082e+00 5.016910143522656185e+00 5.013338203219616318e+00 5.014759686702360497e+00 5.013827588653820833e+00 5.014063059490219132e+00 5.015216126091786464e+00 5.012405254538330190e+00 5.013901716958382160e+00 5.015654208916878076e+00 5.019341092814379124e+00 5.016873126430976271e+00 5.014866057721500070e+00 5.015049678071365591e+00 5.015204785856360203e+00 5.015181365357506138e+00 5.013752476384061296e+00 5.016284219994127547e+00 5.015590725795354032e+00 5.015329737686693434e+00 5.017129889222188055e+00 5.014773670756934365e+00 5.015526089002639409e+00 5.014076108122817566e+00 5.013636053956238570e+00 5.017086244636105086e+00 5.014579773039397281e+00 5.016569626805386761e+00 5.015008187354782265e+00 5.015404949642494614e+00 5.014892633296080149e+00 5.016391056735643339e+00 5.012674116907625432e+00 5.014737293785145766e+00 5.013996485200910236e+00 5.013366016604881459e+00 5.011633248459705925e+00 5.016455463108126622e+00 5.017436506854146216e+00 5.016281885806195717e+00 5.015496077731866897e+00 5.017485934949528215e+00 5.013656437125352028e+00 5.016323649022131015e+00 5.015420548668756417e+00 5.015416078978404357e+00 5.015055618013301242e+00 5.016294194285541685e+00 5.015778689448984196e+00 5.014307614916323708e+00 5.014472380341884694e+00 5.014062507546579894e+00 5.014810808727300895e+00 5.015038928002153895e+00 5.017243882961071044e+00 5.016052463033229714e+00 5.016875767072037640e+00 5.014907322302566861e+00 5.016252476947481220e+00 5.016872703729917227e+00 5.018087467643049138e+00 5.016455215095655618e+00 5.014891127873513099e+00 5.014387651545178848e+00 5.016362780533047072e+00 5.015373010542412580e+00 5.014888569613155767e+00 5.015777374986254422e+00 5.016800160739267156e+00 5.015247864584762461e+00 5.016870113718201907e+00 5.014883856489104730e+00 5.014529129243349814e+00 5.016734617881141389e+00 5.014677849903153017e+00 5.015849025711057507e+00 5.015889466624866344e+00 5.015704635311465154e+00 5.013931144144412322e+00 5.016296792001520011e+00 5.014596631694250739e+00 5.015332103296259447e+00 5.016486759991943600e+00 5.015953180386430788e+00 5.016670660447968721e+00 5.015870952870332466e+00 5.016808230615067643e+00 5.014383371163392056e+00 5.014875960378334163e+00 5.015176172486139450e+00 5.013399863080839403e+00 5.014758996809590030e+00 5.015811195539639833e+00 5.014255974318485798e+00 5.013850792236983267e+00 5.014550525359665833e+00 5.015915825931386074e+00 5.015446219174682696e+00 5.013160839453961515e+00 5.015179116897083844e+00 5.015135605587410339e+00 5.014509185715617434e+00 5.016645594257745699e+00 5.016209565903322343e+00 5.018022030582119264e+00 5.018541914910891855e+00 5.014511371743009427e+00 5.012987509618922033e+00 5.015331048483280263e+00
6.000000000000000000e+00 2.932986985995028953e-03 2.556900416232602379e-05 2.946022483710562453e-03 2.932280949931412826e-03 2.932353287894375830e-03 2.933923289609053492e-03 2.932425625857338833e-03 2.934681498628257789e-03 2.932398834019204516e-03 2.935611175411522843e-03 2.931091392318244115e-03 2.933992948388202890e-03 2.933762538580246722e-03 2.933556241426611699e-03 2.934488597393689925e-03 2.933783972050754262e-03 2.936385459533607471e-03 2.932768561385459480e-03 2.931865676440329176e-03 2.933580354080932845e-03 2.931278935185185203e-03 2.932168424211248348e-03 2.932187178497942283e-03 2.931613833161865468e-03 2.932495284636488231e-03 2.931846922153635241e-03 2.933135609567901272e-03 2.934721686385459698e-03 2.933591070816186398e-03 2.933738425925926010e-03 2.932921274862825868e-03 2.935099451303155044e-03 2.931383423353909300e-03 2.929617841220850602e-03 2.929883080418381469e-03 2.933076667524005428e-03 2.932390796467764134e-03 2.930258166152263210e-03 2.932047860939643487e-03 2.931139617626885973e-03 2.931434327846364762e-03 2.933092742626886192e-03 2.931254822530864057e-03 2.931094071502057721e-03 2.934185849622770754e-03 2.935244127229081051e-03 2.934287658607681679e-03 2.931086033950617339e-03 2.932816786694101337e-03 2.930721664951989151e-03 2.934196566358024741e-03 2.934033136145404799e-03 2.932409550754458069e-03 2.932211291152263428e-03 2.932747127914951939e-03 2.931696887860082458e-03 2.931654020919067377e-03 2.930869020061728329e-03 2.931011016803840730e-03 2.933942043895747427e-03 2.934172453703703595e-03 2.931862997256515571e-03 2.932329175240054684e-03 2.932773919753086257e-03 2.931913901748971034e-03 2.933486582647462301e-03 2.933379415294924599e-03 2.931654020919067377e-03 2.927742412551440163e-03 2.932803390775034179e-03 2.932401513203017687e-03 2.933165080589849195e-03 2.933545524691358146e-03 2.932114840534979280e-03 2.931774584190672238e-03 2.931198559670781818e-03 2.934443051268861239e-03 2.933987590020576113e-03 2.934568972908093310e-03 2.930938678840877727e-03 2.931747792352537921e-03 2.931656700102880549e-03 2.930997620884773572e-03 2.929245434670782033e-03 2.933406207133058916e-03 2.934365354938271459e-03 2.933245456104252580e-03 2.935021754972565265e-03 2.935938035836762727e-03 2.933810763888889013e-03 2.934132265946502120e-03 2.932278270747599655e-03 2.930609139231824239e-03 2.932701581790123253e-03 2.932436342592592386e-03 2.933692879801097324e-03 2.935946073388203108e-03 2.931796017661179778e-03 2.934989604766803737e-03 2.934587727194787245e-03 2.934410901063100145e-03 2.935688871742112623e-03 2.934260866769547362e-03 2.933612504286693939e-03 2.931110146604938484e-03 2.933845593278463712e-03 2.933001650377229253e-03 2.931787980109739396e-03 2.932977537722908108e-03 2.932230045438957364e-03 2.934290337791495284e-03 2.933765217764060327e-03 2.933939364711934256e-03 2.933167759773662366e-03 2.933813443072702185e-03 2.932329175240054684e-03 2.930558234739369210e-03 2.934386788408779000e-03 2.934815457818930242e-03 2.933090063443072586e-03 2.933416923868312903e-03 2.931361989883401759e-03 2.932090727880658568e-03 2.931678133573388089e-03 2.933004329561042425e-03 2.934973529663922973e-03 2.935300390089163290e-03 2.936422968106995775e-03 2.935118205589848980e-03 2.933650012860082243e-03 2.933374056927297822e-03 2.930051868998628187e-03 2.933403527949245745e-03 2.932355967078189435e-03 2.929984889403292395e-03 2.932784636488340244e-03 2.935530799897119458e-03 2.932706940157750464e-03 2.932728373628258004e-03 2.933505336934156237e-03 2.932184499314129111e-03 2.931265539266118044e-03 2.933995627572016495e-03 2.933958118998628191e-03 2.934526105967078229e-03 2.934603802297668009e-03 2.932042502572016276e-03 2.933516053669410224e-03 2.931332518861453837e-03 2.932455096879286755e-03 2.930689514746227624e-03 2.934676140260631012e-03 2.933363340192043835e-03 2.930652006172839320e-03 2.933371377743484217e-03 2.933261531207132910e-03 2.933285643861454055e-03 2.933652692043895848e-03 2.935761209705075626e-03 2.932532793209876535e-03 2.932610489540466315e-03 2.930102773491083650e-03 2.931972843792866878e-03 2.932693544238683305e-03 2.931442365397805144e-03 2.932414909122084846e-03 2.931846922153635241e-03 2.931463798868312685e-03 2.934593085562414456e-03 2.931884430727023112e-03 2.931107467421124879e-03 2.935163751714677666e-03 2.932425625857338833e-03 2.933532128772290987e-03 2.933031121399176742e-03 2.933309756515775201e-03 2.932315779320987525e-03 2.931879072359396335e-03 2.932232724622770969e-03 2.934172453703703595e-03 2.934426976165980909e-03 2.933623221021947926e-03 2.935755851337448416e-03 2.934314450445815996e-03 2.933690200617284152e-03 2.933660729595336230e-03 2.935019075788751659e-03 2.933162401406035590e-03 2.933668767146776612e-03 2.933457111625514379e-03 2.932286308299039603e-03 2.932414909122084846e-03 2.933108817729766955e-03 2.934485918209876754e-03 2.932736411179698386e-03 2.932961462620027344e-03 2.933877743484224806e-03 2.932626564643347079e-03 2.930869020061728329e-03 2.932985575274348489e-03 2.935037830075446028e-03 2.934394825960219381e-03 2.932878407921810787e-03 2.932331854423868289e-03 2.932883766289437564e-03 2.932318458504801131e-03 2.930869020061728329e-03 2.934635952503429537e-03 2.934903870884773575e-03 2.934025098593964417e-03 2.932192536865569060e-03 2.931501307441700989e-03 2.931844242969821636e-03 2.933896497770919175e-03 2.935946073388203108e-03 2.935254843964334604e-03 2.932626564643347079e-03 2.928784615054869696e-03 2.931841563786008031e-03 2.931383423353909300e-03 2.933151684670782036e-03 2.931873713991769558e-03 2.931964806241426497e-03 2.932870370370370405e-03 2.932940029149519803e-03 2.934333204732510365e-03 2.932447059327846373e-03 2.932530114026062930e-03
