# vvf statistics with RF=500
# gcat file: /disk2/salam/Abacus/AbacusCosmos_720box_products/GCAT_derivative/AbacusCosmos_720box_planck_rockstar_halos_z0.100_Mr21_hod-LM1-neg_real-5.gcat.rsd_zz.1pz0.100by100
# stats order in row: stdvvf,p2.5,p16,p50,p84,p97.5,rho
# columns: numbers, mean, sigma,All, jnrealizations
0.000000000000000000e+00 1.496563926041057035e+00 5.197624576657759385e-03 1.496564186146848385e+00 1.496857323360550440e+00 1.496291696476367727e+00 1.496272369887682530e+00 1.496705638622929380e+00 1.497012706617477429e+00 1.496686634734448518e+00 1.496884049728768318e+00 1.495508205422463766e+00 1.495507816317495076e+00 1.496632670647442875e+00 1.497262522061760803e+00 1.496815043743040974e+00 1.496705236191614441e+00 1.496099493547767834e+00 1.496805383123474886e+00 1.496830747303545150e+00 1.496808882185457046e+00 1.496485243517210462e+00 1.496755562688479424e+00 1.496766335777990786e+00 1.496652871229094961e+00 1.497419453757291796e+00 1.496540469520509786e+00 1.496379018527350890e+00 1.496522322637459324e+00 1.497096223520129277e+00 1.497030320943986803e+00 1.496425265493073420e+00 1.497003307910887537e+00 1.496244539619606684e+00 1.496515164688100308e+00 1.495777692277065807e+00 1.496492621033137294e+00 1.496645142234541925e+00 1.496036297672775017e+00 1.496072690990285725e+00 1.496673268218213781e+00 1.496488096593996175e+00 1.496357295842710489e+00 1.496681156194188178e+00 1.496275850278894204e+00 1.496454987627966915e+00 1.496687878929732429e+00 1.496462659930415162e+00 1.496022177571079803e+00 1.496883623171096467e+00 1.496279675738074078e+00 1.497044929524558698e+00 1.496564259484945536e+00 1.496246818673603318e+00 1.495961367715642698e+00 1.496591253060081117e+00 1.496258665538148458e+00 1.496637705367737325e+00 1.495914569939373662e+00 1.496334112886639423e+00 1.496373833723035895e+00 1.496750445696243492e+00 1.496664640661147017e+00 1.496320034383152420e+00 1.496687572116487841e+00 1.496797794714903596e+00 1.496815316018796027e+00 1.496746663772397179e+00 1.496591144504741511e+00 1.495727937697307386e+00 1.497157956182706862e+00 1.497052127017401535e+00 1.497061649389829441e+00 1.496361706447153050e+00 1.496700548261054031e+00 1.496999734360035417e+00 1.496201196949402235e+00 1.496734061962645690e+00 1.496474601862479270e+00 1.496634390707446860e+00 1.496609964002737048e+00 1.496174988738682154e+00 1.496594250201484400e+00 1.496352335429971037e+00 1.496087435164043189e+00 1.496719059235267713e+00 1.495422020629744830e+00 1.496757538556339417e+00 1.496285790689090733e+00 1.497122231203387166e+00 1.496309804838659163e+00 1.496841968957712599e+00 1.496185714188542626e+00 1.496324558906616531e+00 1.496722913285404744e+00 1.496504495839989124e+00 1.496738008123610797e+00 1.497119975713097073e+00 1.496188918078177776e+00 1.496337776845657608e+00 1.496878523839365149e+00 1.496897018534701695e+00 1.496570380917532361e+00 1.496634760006347431e+00 1.496437527081163399e+00 1.496130722716791928e+00 1.496279595872727297e+00 1.496423460872269073e+00 1.496760832964493027e+00 1.496711632052760033e+00 1.496572959179124140e+00 1.496555354827032280e+00 1.496447461728733996e+00 1.496723706777299157e+00 1.496891283756092372e+00 1.496672320234916143e+00 1.496746374779432287e+00 1.496093995618381189e+00 1.497015176676998127e+00 1.497040314035021247e+00 1.496608484860740829e+00 1.496575826885100158e+00 1.496102008757302482e+00 1.496589709036678428e+00 1.496438465535716800e+00 1.496363827930082380e+00 1.496340072277179800e+00 1.496505721390937182e+00 1.496265652251330458e+00 1.496795999830449864e+00 1.497132842180309398e+00 1.497119384475358972e+00 1.496611493573122287e+00 1.496576922525419739e+00 1.496693066031130170e+00 1.496290941185784540e+00 1.496470841794869333e+00 1.496574128951868587e+00 1.496722071143269162e+00 1.496763709200073178e+00 1.496905219769238515e+00 1.496088916490875276e+00 1.495532483952896063e+00 1.495965005699445571e+00 1.496252694673491535e+00 1.496884881129489031e+00 1.496869775262780644e+00 1.496848196719017920e+00 1.496776180725993832e+00 1.496384366982976388e+00 1.496501655433736477e+00 1.496741637203677255e+00 1.496381943313889185e+00 1.496375294820806223e+00 1.495951551966483883e+00 1.496506489489018987e+00 1.495721040128215051e+00 1.496936136371843862e+00 1.496723554347384244e+00 1.497027584128146627e+00 1.496809190183156169e+00 1.497000259587007109e+00 1.495917637174849268e+00 1.496723006976747206e+00 1.496926634258858746e+00 1.496758866449082070e+00 1.496576667843501962e+00 1.496390674230908102e+00 1.496501084375880808e+00 1.496196591796608244e+00 1.496053981069182859e+00 1.496258645876293203e+00 1.496756454577087947e+00 1.496543435461593852e+00 1.496874367815736795e+00 1.496204617517598034e+00 1.497167519505317568e+00 1.496483784073167955e+00 1.496498980790127664e+00 1.496701303492691926e+00 1.496883369266087005e+00 1.496500211624230303e+00 1.496467863144735677e+00 1.497156703947358558e+00 1.496777451436455131e+00 1.496712849299953962e+00 1.496736499029612810e+00 1.497021023412772767e+00 1.496899449096140922e+00 1.497016964073390799e+00 1.497086722462936947e+00 1.496547616102177347e+00 1.495971270800627639e+00 1.496821904070153586e+00 1.496319527616713829e+00 1.496764524336247959e+00 1.496883605303434672e+00 1.496458995668195069e+00 1.496207665098869599e+00 1.496374561834459715e+00 1.496780724308944377e+00 1.496603778169639298e+00 1.497087112908816131e+00 1.496610785790951414e+00 1.496655397657174147e+00 1.496345935865714294e+00 1.496604014444021358e+00 1.496169819224410613e+00 1.496735328026570944e+00 1.496836029416657388e+00 1.496413627989107820e+00 1.496484777733692928e+00 1.496416077851829174e+00 1.496477693929729957e+00 1.496743306224176395e+00 1.496404726433992360e+00 1.496280963906902128e+00 1.496320327156393848e+00 1.495921115247653477e+00 1.496702557319199434e+00 1.496840376167735576e+00 1.496461240435953632e+00 1.496651608391319499e+00 1.496472820938958392e+00 1.497308074771986242e+00 1.497017189608541576e+00 1.496929984567835437e+00 1.495987774430188155e+00 1.496647847281739496e+00
1.000000000000000000e+00 1.799999988434357323e-02 1.390807862700337851e-04 1.799999999999999864e-02 1.799555617707906952e-02 1.799557658674670949e-02 1.800658292401316474e-02 1.799756539708055603e-02 1.801270907963598358e-02 1.799602599964164953e-02 1.801775719222898156e-02 1.798938213429191607e-02 1.800503745102872977e-02 1.800440533853027783e-02 1.800332625580149809e-02 1.800490880615373754e-02 1.800438133330411333e-02 1.802312499499155243e-02 1.799955645338844126e-02 1.799453273607990247e-02 1.800494371323559453e-02 1.798995580286729887e-02 1.799571703601136538e-02 1.799350626377818965e-02 1.799095973347232535e-02 1.800024257488913940e-02 1.799294138017414058e-02 1.800352039307922050e-02 1.801135524851559672e-02 1.800548487181001175e-02 1.800632963297304351e-02 1.800034078098504062e-02 1.801126480380259645e-02 1.799151676171338241e-02 1.797866400374567922e-02 1.797697991432144204e-02 1.800129287076931983e-02 1.799761752424791292e-02 1.798136517368015969e-02 1.799484512639104930e-02 1.798987453900930192e-02 1.799031156438142195e-02 1.799950767563345683e-02 1.798867275174257860e-02 1.798580818144866061e-02 1.801036673371505734e-02 1.801278733513882180e-02 1.801026352010411807e-02 1.798797728422513176e-02 1.799899551716473839e-02 1.798658452572717698e-02 1.800817743022201101e-02 1.800651323321581648e-02 1.799771852791167207e-02 1.799373181977485109e-02 1.800027217026936577e-02 1.798931076624456227e-02 1.799186573343032614e-02 1.798661317079911989e-02 1.798824291147315887e-02 1.800478001055261582e-02 1.800695668264812657e-02 1.799444821751563714e-02 1.799500994550016011e-02 1.799867672646905670e-02 1.799363014458743582e-02 1.800126619275689913e-02 1.800412358069329935e-02 1.798952833205877747e-02 1.796764143253886531e-02 1.799920278375805385e-02 1.799921076801626330e-02 1.799966189212382633e-02 1.800348431510102529e-02 1.799659691847085158e-02 1.799291213057761449e-02 1.798876662345861438e-02 1.800937689287220034e-02 1.800775444799522507e-02 1.800744278402620704e-02 1.798829315201511472e-02 1.799487821538390403e-02 1.799258343222855105e-02 1.798843506624138444e-02 1.797685631268991155e-02 1.800341408806700391e-02 1.801034992025092596e-02 1.800198884870173044e-02 1.801069603028123203e-02 1.801852972404059672e-02 1.800568750145157410e-02 1.800913620667187950e-02 1.799238411794528564e-02 1.798398496226121662e-02 1.799868853309650671e-02 1.799510070149319338e-02 1.800470821959917339e-02 1.801825389436122887e-02 1.799643721132086760e-02 1.801051163311873440e-02 1.801101634763267040e-02 1.801125894428864949e-02 1.801705919918747401e-02 1.800784592160470030e-02 1.800525582314055351e-02 1.799041252359738496e-02 1.800559341518682965e-02 1.800321883796562189e-02 1.799336304119623225e-02 1.800042634124858487e-02 1.799517700388613209e-02 1.800697513976691130e-02 1.800538255941266236e-02 1.800828054852224996e-02 1.800177694316502583e-02 1.800478874270101948e-02 1.799608700569524031e-02 1.798496699742051924e-02 1.800816282496580517e-02 1.801288302598046467e-02 1.800002876244615260e-02 1.800416312121798715e-02 1.799062911754911384e-02 1.799298717905358641e-02 1.799196881170862794e-02 1.800059879848806346e-02 1.801247682494677704e-02 1.801487815212928639e-02 1.802278763081055502e-02 1.801198067575314823e-02 1.800311964424364600e-02 1.800116142477152514e-02 1.798077822787888871e-02 1.800285355488921366e-02 1.799621206880211086e-02 1.798281688357212388e-02 1.799946032182549518e-02 1.801640304143895671e-02 1.799708580860184468e-02 1.799786870886063359e-02 1.800462511345644889e-02 1.799487750663904609e-02 1.798897808604040319e-02 1.800819613240387668e-02 1.800872362657333567e-02 1.801221281092907703e-02 1.801150522325585882e-02 1.799377104491509116e-02 1.800293846884550020e-02 1.798954670651651752e-02 1.799598670326817487e-02 1.798565524163961427e-02 1.800808650093323193e-02 1.800244653366799702e-02 1.798647920941955775e-02 1.800529506382074485e-02 1.799644521681310547e-02 1.800222584313610624e-02 1.800746208940556814e-02 1.801505883912316031e-02 1.799634651230740470e-02 1.799942869182951516e-02 1.798283006293094691e-02 1.799327512527657685e-02 1.799838531981049622e-02 1.799139106006943448e-02 1.799710612962712730e-02 1.799098859689184440e-02 1.799276447850850155e-02 1.801041579150097424e-02 1.799329095205975254e-02 1.799503857207684215e-02 1.801092455579411666e-02 1.799883863532436915e-02 1.800457239729111314e-02 1.800179960829172490e-02 1.800097398944335361e-02 1.799658682606204707e-02 1.799131941129595083e-02 1.799526410571351126e-02 1.800992482684846824e-02 1.800834960713548066e-02 1.800597572580192943e-02 1.801512888960791342e-02 1.800702851774136498e-02 1.800547577456473175e-02 1.800535583749749216e-02 1.801365056455470071e-02 1.800439220344464755e-02 1.800368789607845535e-02 1.800431077564550522e-02 1.799597006440814898e-02 1.799329050467858224e-02 1.800279551737016606e-02 1.801114425608955905e-02 1.800124624570921192e-02 1.800121312279938726e-02 1.800501952804091713e-02 1.799727499034121242e-02 1.798515194773799009e-02 1.800364004840928484e-02 1.801373054230769391e-02 1.800814192170491559e-02 1.800011465310867587e-02 1.799282130321054954e-02 1.800014457801686271e-02 1.799640611461082729e-02 1.798628700263452118e-02 1.801008025401478960e-02 1.801108669811828100e-02 1.800446074837358870e-02 1.799322515299765432e-02 1.799550773574220761e-02 1.799574664438648164e-02 1.800570451802842656e-02 1.801714005065843324e-02 1.801649765093237335e-02 1.800043012817581847e-02 1.797256618720369584e-02 1.799518855675031129e-02 1.799145334927056833e-02 1.800259558100010190e-02 1.799499069791858294e-02 1.799163813235545376e-02 1.800194183380805779e-02 1.800070975354005343e-02 1.801045544445681323e-02 1.799738999282508856e-02 1.799698860750028120e-02
2.000000000000000000e+00 9.199999940886714744e-02 7.108573520468532180e-04 9.199999999999999845e-02 9.197728712729301426e-02 9.197739144337206685e-02 9.203364605606731419e-02 9.198755647396729407e-02 9.206495751813946471e-02 9.197968844261288079e-02 9.209075898250368430e-02 9.194573090860312659e-02 9.202574697192461572e-02 9.202251617471031431e-02 9.201700086298544856e-02 9.202508945367465776e-02 9.202239348133213481e-02 9.211819441884572246e-02 9.199773298398536414e-02 9.197205620663059800e-02 9.202526786764858580e-02 9.194866299243285857e-02 9.197810929516919698e-02 9.196680979264408584e-02 9.195379419330300397e-02 9.200123982721115923e-02 9.196392260977893918e-02 9.201799312018268950e-02 9.205803793685748970e-02 9.202803378925117350e-02 9.203235145741778256e-02 9.200174176947908955e-02 9.205757566387993973e-02 9.195664122653507411e-02 9.189094935247790752e-02 9.188234178430958188e-02 9.200660800615428903e-02 9.198782290171154952e-02 9.190475533214303994e-02 9.197365286822092867e-02 9.194824764382532323e-02 9.195048132906059879e-02 9.199748367545988736e-02 9.194210517557317719e-02 9.192746403851538572e-02 9.205298552787695432e-02 9.206535749070952901e-02 9.205245799164327170e-02 9.193855056381733393e-02 9.199486597661976628e-02 9.193143202038335515e-02 9.204179575446805317e-02 9.203328985865862066e-02 9.198833914265966416e-02 9.196796263440479291e-02 9.200139109248786640e-02 9.194536613858332597e-02 9.195842485975500025e-02 9.193157842852883732e-02 9.193990821419613380e-02 9.202443116504670229e-02 9.203555637797930511e-02 9.197162422285770633e-02 9.197449527700082839e-02 9.199323660195296570e-02 9.196744296122467965e-02 9.200647165186859322e-02 9.202107607909908171e-02 9.194647814163374455e-02 9.183461176630976219e-02 9.199592533920783466e-02 9.199596614763867752e-02 9.199827189307732689e-02 9.201780872162747260e-02 9.198260647218435559e-02 9.196377311184113224e-02 9.194258496434402905e-02 9.204792634134680018e-02 9.203963384530892966e-02 9.203804089613394634e-02 9.194016499918837571e-02 9.197382198973995393e-02 9.196209309805702947e-02 9.194089033856707449e-02 9.188171004263731567e-02 9.201744978345358095e-02 9.205289959239362774e-02 9.201016522669773490e-02 9.205466859921518363e-02 9.209470747842972427e-02 9.202906945186360710e-02 9.204669616743405003e-02 9.196107438060924233e-02 9.191814536266845748e-02 9.199329694693769710e-02 9.197495914096520675e-02 9.202406423350689701e-02 9.209329768229071456e-02 9.198179019119553934e-02 9.205372612482908001e-02 9.205630577678920734e-02 9.205754571525311125e-02 9.208719146251376220e-02 9.204010137709069117e-02 9.202686309605172255e-02 9.195099734283106174e-02 9.202858856651047192e-02 9.201645183849095633e-02 9.196607776611406826e-02 9.200217907749276558e-02 9.197534913097356324e-02 9.203565071436421718e-02 9.202751085922027119e-02 9.204232280355816032e-02 9.200908215395457723e-02 9.202447579602741901e-02 9.198000025133122592e-02 9.192316465348264465e-02 9.204172110538078044e-02 9.206584657723347609e-02 9.200014700805811407e-02 9.202127817511415731e-02 9.195210437858436503e-02 9.196415669294055739e-02 9.195895170428854126e-02 9.200306052560563996e-02 9.206377043861685427e-02 9.207604388866080791e-02 9.211647011303172872e-02 9.206123456496052848e-02 9.201594484835640131e-02 9.200593617105445876e-02 9.190175538693654000e-02 9.201458483610042149e-02 9.198063946276632818e-02 9.191217518270196341e-02 9.199724164488586042e-02 9.208383776735468151e-02 9.198510524396497079e-02 9.198910673417658168e-02 9.202363946877741008e-02 9.197381836726623017e-02 9.194366577309538713e-02 9.204189134339758882e-02 9.204458742470815469e-02 9.206242103363750096e-02 9.205880447441883163e-02 9.196816311845490421e-02 9.201501884076589144e-02 9.194657205552886348e-02 9.197948759448176803e-02 9.192668234615802847e-02 9.204133100476985518e-02 9.201250450541419157e-02 9.193089373703329514e-02 9.202706365952825762e-02 9.198183110815587316e-02 9.201137653158454610e-02 9.203813956807289920e-02 9.207696739996282242e-02 9.198132661846007696e-02 9.199707998046195712e-02 9.191224254386928805e-02 9.196562841808028632e-02 9.199174719014253931e-02 9.195599875146599766e-02 9.198520910698308739e-02 9.195394171744721012e-02 9.196301844571011519e-02 9.205323626767164535e-02 9.196570931052762410e-02 9.197464159061496947e-02 9.205583661850326449e-02 9.199406413610232425e-02 9.202337003059901654e-02 9.200919799793549902e-02 9.200497816826604114e-02 9.198255488876157238e-02 9.195563254662374175e-02 9.197579431809127515e-02 9.205072689278107068e-02 9.204267576980357246e-02 9.203054259854320795e-02 9.207732543577377970e-02 9.203592353512253521e-02 9.202798729221972618e-02 9.202737428054273694e-02 9.206976955216847336e-02 9.202244903982818858e-02 9.201884924662322163e-02 9.202203285329924043e-02 9.197940255141942578e-02 9.196570702391275443e-02 9.201428819989196373e-02 9.205695953112441599e-02 9.200636970029152373e-02 9.200620040541908351e-02 9.202565536554246917e-02 9.198607217285507953e-02 9.192410995510527649e-02 9.201860469186967650e-02 9.207017832735044094e-02 9.204161426649179467e-02 9.200058600477767357e-02 9.196330888307613360e-02 9.200073895430840865e-02 9.198163125245532867e-02 9.192991134679866227e-02 9.205152129829781427e-02 9.205666534593788530e-02 9.202279938057611464e-02 9.196537300421023242e-02 9.197703953823795076e-02 9.197826062686423332e-02 9.202915642547862540e-02 9.208760470336531390e-02 9.208432132698769756e-02 9.200219843289862698e-02 9.185978273459666221e-02 9.197540817894603316e-02 9.195631711849401591e-02 9.201326630288940434e-02 9.197439690047276573e-02 9.195726156537231688e-02 9.200992492835230463e-02 9.200362762920472059e-02 9.205343893833482782e-02 9.198665996332823502e-02 9.198460843833476674e-02
3.000000000000000000e+00 4.536812042711715343e-01 9.484877674148892157e-03 4.540000000000000147e-01 4.538879169107720712e-01 4.538884316879447378e-01 4.541660359723320717e-01 4.539385939041429285e-01 4.523191391108591364e-01 4.538997668798505081e-01 4.524459028270833016e-01 4.537321938315849734e-01 4.541270557092801918e-01 4.541111124273747857e-01 4.520835259790154659e-01 4.541238109996553751e-01 4.541105069622259904e-01 4.525806943186767572e-01 4.539888127687973784e-01 4.538621034544597088e-01 4.541246914338310514e-01 4.537466630278751967e-01 4.538919741305088573e-01 4.538362135419610199e-01 4.537719843886909299e-01 4.520060913249939749e-01 4.538219659221700009e-01 4.540887921365536761e-01 4.542864046014489787e-01 4.541383406556525615e-01 4.521589441168786805e-01 4.540085952537337710e-01 4.522828717399318688e-01 4.537860338787708669e-01 4.534618587611410345e-01 4.534193822834407528e-01 4.540326090738483478e-01 4.539399086671417893e-01 4.535299882694884821e-01 4.538699826323076003e-01 4.537446133727902065e-01 4.537556361238425651e-01 4.539875824854215924e-01 4.537143016272850438e-01 4.536420507987606876e-01 4.522603202021781010e-01 4.523211041934859233e-01 4.542588687848483353e-01 4.536967603910116442e-01 4.539746647107106292e-01 4.536616319266743580e-01 4.542062529622662437e-01 4.541642782155544955e-01 4.539424562039944266e-01 4.538419025654323313e-01 4.540068647390162471e-01 4.537303937708351276e-01 4.537948357209648509e-01 4.536623544190444557e-01 4.537034601004896750e-01 4.541205624883826175e-01 4.541754629956804568e-01 4.538599717084499940e-01 4.538741397365040897e-01 4.539666241009417957e-01 4.538393380912609243e-01 4.540319361950906352e-01 4.541040058685976710e-01 4.537358812641491546e-01 4.531838450207025248e-01 4.519799810143689256e-01 4.539800938155212906e-01 4.539914721680120557e-01 4.540878821697703072e-01 4.539141667214315334e-01 4.538212281823464922e-01 4.537166692805673085e-01 4.542365060757765916e-01 4.541955844105462492e-01 4.541877235526609602e-01 4.537047272786035035e-01 4.538708172102384752e-01 4.538129376795423386e-01 4.537083066707549017e-01 4.534162647756233011e-01 4.540861108879122310e-01 4.542610479885511587e-01 4.540501631839213847e-01 4.542697776526488096e-01 4.524653019592416725e-01 4.541434514255008326e-01 4.522294203008716540e-01 4.538079105303977623e-01 4.535960651592551574e-01 4.539669218903230608e-01 4.538764288043283246e-01 4.541187517610014157e-01 4.524583755695152920e-01 4.539101385522040788e-01 4.542651267464391518e-01 4.522766327294426292e-01 4.522827246010261426e-01 4.524283754462632423e-01 4.541978915782519111e-01 4.541325635392117754e-01 4.537581825396228563e-01 4.541410783608234025e-01 4.540811862464662063e-01 4.538326011501715995e-01 4.540107532737142626e-01 4.538783533202390696e-01 4.541759285252321421e-01 4.541357601096304708e-01 4.542088538349500770e-01 4.540448184553845801e-01 4.541207827325701163e-01 4.539013055880910530e-01 4.536208342682730432e-01 4.542058845852486315e-01 4.523235070968427696e-01 4.540007254528085068e-01 4.541050031684981669e-01 4.537636455204054342e-01 4.538231210716849318e-01 4.537974355842064877e-01 4.540151030285322631e-01 4.523133069375523951e-01 4.543752600592609325e-01 4.525722227292428568e-01 4.523008480800234654e-01 4.520783377332293074e-01 4.540292937136818363e-01 4.535151841920563864e-01 4.540719729955390305e-01 4.539044599575643435e-01 4.535666036189857642e-01 4.539863881171541382e-01 4.524118985961338435e-01 4.539264976169575805e-01 4.539462441012626637e-01 4.521161417379063741e-01 4.538707993341181135e-01 4.537220028367968117e-01 4.542067246728533347e-01 4.542200292480163548e-01 4.523066772522190693e-01 4.522889089395360496e-01 4.538428919106361481e-01 4.540741147142143275e-01 4.537363447088055279e-01 4.538987757379861487e-01 4.536381933169102987e-01 4.542039595235382032e-01 4.540617070158483037e-01 4.536589756153599495e-01 4.541335532763677296e-01 4.539103404685083110e-01 4.540561407102107205e-01 4.521873813561842481e-01 4.523781441824260563e-01 4.539078509215312418e-01 4.539855903383666069e-01 4.535669360317027832e-01 4.538303837153092601e-01 4.539592741774425289e-01 4.537828634039735021e-01 4.539270101583730566e-01 4.537727123882721036e-01 4.538175040690477502e-01 4.542627094078579009e-01 4.538307829019515016e-01 4.538748617623825643e-01 4.542755415739183067e-01 4.539707078020702169e-01 4.541153260205647024e-01 4.540453901202468612e-01 4.540245661781823761e-01 4.539139121684538369e-01 4.537810562626867772e-01 4.538805502218852261e-01 4.522492234297504354e-01 4.542105956466393479e-01 4.541507210841153608e-01 4.523799032279320897e-01 4.521764938899498487e-01 4.541381112029104217e-01 4.541350861235479153e-01 4.523427808432624597e-01 4.541107811313260800e-01 4.540930169344232770e-01 4.541087273412810488e-01 4.538983560689611174e-01 4.538307716180042806e-01 4.540705091603364218e-01 4.542810829035922593e-01 4.540314330862212366e-01 4.540305976528289933e-01 4.541266036516987126e-01 4.539312692008283245e-01 4.536254991262804181e-01 4.540918101098786464e-01 4.523447891735043469e-01 4.522044527005901204e-01 4.540028918061854712e-01 4.538189373143104999e-01 4.540036465788697129e-01 4.539093542240730805e-01 4.536541277331151423e-01 4.542542464068174968e-01 4.542796311636499995e-01 4.541125099867560633e-01 4.538291233033852623e-01 4.538866951126090399e-01 4.538927209195256496e-01 4.541438806213836665e-01 4.524304057165339232e-01 4.524142743456351923e-01 4.540108487884345623e-01 4.533080582772487932e-01 4.538786447091467391e-01 4.537844344760466053e-01 4.540654663207803199e-01 4.538736542697243137e-01 4.537890951160764574e-01 4.540489773638254900e-01 4.540179015615102287e-01 4.522625478274711064e-01 4.539341698190327845e-01 4.539240459891737411e-01
4.000000000000000000e+00 1.832620392068427639e+00 9.162801551964487937e-03 1.832000000000000295e+00 1.831547717578269507e+00 1.833549303338525949e+00 1.832669995377339989e+00 1.831752211525087715e+00 1.833293501882951038e+00 1.831595535074639125e+00 1.831805314543279772e+00 1.832918157460631914e+00 1.832512700571368391e+00 1.832448365565970461e+00 1.832338538923797167e+00 1.832499607381869344e+00 1.832445922367396562e+00 1.832351041157474381e+00 1.831954856811534693e+00 1.833442946553918818e+00 1.832503160147089361e+00 1.832976607914368117e+00 1.831564089442934362e+00 1.833338360431622238e+00 1.833078897288235920e+00 1.832024688733161488e+00 1.833280805068854047e+00 1.832358297784507428e+00 1.833155711960031908e+00 1.832558238064219136e+00 1.832644215978145308e+00 1.832034683931366148e+00 1.833146506698130951e+00 1.833135652276796979e+00 1.831826099048309731e+00 1.833651951260787172e+00 1.832131585513855132e+00 1.831757516912343009e+00 1.832101318251633915e+00 1.833474775655621558e+00 1.832968328030170069e+00 1.833012856059751616e+00 1.831949892320027251e+00 1.832845879260882604e+00 1.832554011376491321e+00 1.833055103120332374e+00 1.833301466554128956e+00 1.833044598268374736e+00 1.832775018848271653e+00 1.831897765969211056e+00 1.832633112232424644e+00 1.832832280675928960e+00 1.832662902402854233e+00 1.831767796840788165e+00 1.833361342081504475e+00 1.832027700885193067e+00 1.832910885849585281e+00 1.833171208617289771e+00 1.832636030846976904e+00 1.832802083313431751e+00 1.832486498851799261e+00 1.832708035700631344e+00 1.831434951916036002e+00 1.833491568891516543e+00 1.831865320160628752e+00 1.833350982509631022e+00 1.832128870285035349e+00 1.832419688879451058e+00 1.832933053388655420e+00 1.832699426118964414e+00 1.831918861102486362e+00 1.831919673722544051e+00 1.831965588131713840e+00 1.832354625848060081e+00 1.831653641924366749e+00 1.833277824859963490e+00 1.832855443745727619e+00 1.832954359318992754e+00 1.832789230484847431e+00 1.832757510018667269e+00 1.832807202266429014e+00 1.831478716143517538e+00 1.833244334150397892e+00 1.832821661749260977e+00 1.833639343894370777e+00 1.832347478296597387e+00 1.833053391883316507e+00 1.832202420601198201e+00 1.833088618193067454e+00 1.831883855277460782e+00 1.832578861258849168e+00 1.832929862812382460e+00 1.833224026239536286e+00 1.832368245599282019e+00 1.831866521812933524e+00 1.833500815918806648e+00 1.832479192128093848e+00 1.831855812593391475e+00 1.831637387285546037e+00 1.833069850659640121e+00 1.833121219381280476e+00 1.833145910329822659e+00 1.833736247383969564e+00 1.832798540465545134e+00 1.832534925999638631e+00 1.833023142682088658e+00 1.832569285367904088e+00 1.832327606175167656e+00 1.833323767641882540e+00 1.832043392064855780e+00 1.831509126173299640e+00 1.832709914225165715e+00 1.832547824935777614e+00 1.832842775827375537e+00 1.832180853326573988e+00 1.832487387590459260e+00 1.833601309358059428e+00 1.832468304070512755e+00 1.832830794185408507e+00 1.833311205755344897e+00 1.832002927377852863e+00 1.832423713226186468e+00 1.833045211199170854e+00 1.833285471465793126e+00 1.833181711148534676e+00 1.832060944379451772e+00 1.833269863516805209e+00 1.833514265261158682e+00 1.832316742465740056e+00 1.833219366554431407e+00 1.832317510458575383e+00 1.832118207232301899e+00 1.832041514996104237e+00 1.832290428475391142e+00 1.831614472780303648e+00 1.832249231359515118e+00 1.831945072754683768e+00 1.833669465106454011e+00 1.831703400075476607e+00 1.833782845113911320e+00 1.832470733769567373e+00 1.833478074843111649e+00 1.832876989433227966e+00 1.832834184142438927e+00 1.832887871326797091e+00 1.833242992756781709e+00 1.833170976055818580e+00 1.831366030793580180e+00 1.832299070829164434e+00 1.832934925541738647e+00 1.833591089655212780e+00 1.832538428509280726e+00 1.832823026094982488e+00 1.832249002759987144e+00 1.832622381670859335e+00 1.832538919828867297e+00 1.833637807090846117e+00 1.832226541368074946e+00 1.832759474877277750e+00 1.833532655181868476e+00 1.831628156141509312e+00 1.831941853523981756e+00 1.832250574189741910e+00 1.833314809986513527e+00 1.831835661438490526e+00 1.833122844675963314e+00 1.831705468304271944e+00 1.833081838149980269e+00 1.833262780754699506e+00 1.833060096112765436e+00 1.833316422559865932e+00 1.833494485621607106e+00 1.833111877011934565e+00 1.831881798884124724e+00 1.832465368435406416e+00 1.832183160132802247e+00 1.832099130481123606e+00 1.833652235499877658e+00 1.833115544462043056e+00 1.831517991203730711e+00 1.833010126821466468e+00 1.832849804459566911e+00 1.832608196092729846e+00 1.831538103776804594e+00 1.832715346916787835e+00 1.832557312166810393e+00 1.832545105238633898e+00 1.833389324125789477e+00 1.832447028706144065e+00 1.832375345867540695e+00 1.832438741165697937e+00 1.831589842110873834e+00 1.833316376976695583e+00 1.832284521545674894e+00 1.833134237619781892e+00 1.832126840118848632e+00 1.832123468942693290e+00 1.832510876409497946e+00 1.833722351793654504e+00 1.832487148452859538e+00 1.832370476038100549e+00 1.833397464083760919e+00 1.832828666697967179e+00 1.832011669138616350e+00 1.831269368193429337e+00 1.832014714829271584e+00 1.831634222331501860e+00 1.832602797935095174e+00 1.833025945853060890e+00 1.833128379497371618e+00 1.832454005056689539e+00 1.833309718366538776e+00 1.831542787326651434e+00 1.833566630322489122e+00 1.832580593168226413e+00 1.831742571816940224e+00 1.833679094250450614e+00 1.832043777489894554e+00 1.833201751094776899e+00 1.833509767393337153e+00 1.833129191253457080e+00 1.832264172466232299e+00 1.831810075311508967e+00 1.833148018596661322e+00 1.832197635529797974e+00 1.832072237138076876e+00 1.833064131902493399e+00 1.833734069268956324e+00 1.831693507163361545e+00
5.000000000000000000e+00 5.192201973589739339e+00 1.849558812262526442e-02 5.192000000000000171e+00 5.194717216450158048e+00 5.190724091021605702e+00 5.191898076423796304e+00 5.191297752313458247e+00 5.193664451295041395e+00 5.192853280118818304e+00 5.193118017404663611e+00 5.188937335624646430e+00 5.191452465046617171e+00 5.191270205942896787e+00 5.192959440006744032e+00 5.191415372440994602e+00 5.193263771250831162e+00 5.192662568001455092e+00 5.191872061444043673e+00 5.192422390622167150e+00 5.193425986617733692e+00 5.193100575094359961e+00 5.192764126946834757e+00 5.194125474810637577e+00 5.191391380869736949e+00 5.194069996331899475e+00 5.189963980325785542e+00 5.193015437825962088e+00 5.193274096655330574e+00 5.193582080802087830e+00 5.193825747466447318e+00 5.192098296381907119e+00 5.193248018429748925e+00 5.191552114463294565e+00 5.189841009081252565e+00 5.189354868600789317e+00 5.192372921390794538e+00 5.193312523385758439e+00 5.190620746802339092e+00 5.188513678109419658e+00 5.193077116927351966e+00 5.193203271584770242e+00 5.191857991771605896e+00 5.192730201003024071e+00 5.191903295044847155e+00 5.192989074887841561e+00 5.193687014965027160e+00 5.192959314963354167e+00 5.192529442712986665e+00 5.191860254135845842e+00 5.192127399759911555e+00 5.192357825714013053e+00 5.191877982243894074e+00 5.191341922050966673e+00 5.190191978237279180e+00 5.192078506002141935e+00 5.190915562215236534e+00 5.191652812190950428e+00 5.192135668637345880e+00 5.192606120445251605e+00 5.191378236376004374e+00 5.192005843496875883e+00 5.192398002320901540e+00 5.190560646502046183e+00 5.193618162071127031e+00 5.192161942832619559e+00 5.192365226266322686e+00 5.193189423942200733e+00 5.192977178520966852e+00 5.190651969400116528e+00 5.193769958824407063e+00 5.195772175034027995e+00 5.193902437093952607e+00 5.191004644187462880e+00 5.193018021918756055e+00 5.193953968360070839e+00 5.190758546791336414e+00 5.192703670778151093e+00 5.192235865838623177e+00 5.192146002727556109e+00 5.192620623215030484e+00 5.190522649681845735e+00 5.191859908166393645e+00 5.190662874114318370e+00 5.189319188929820470e+00 5.192984774735771580e+00 5.192984227005683628e+00 5.192573672358854253e+00 5.191082833616612824e+00 5.193340678240145003e+00 5.191639896251870390e+00 5.192634272923725369e+00 5.191802394922656383e+00 5.189378771888042863e+00 5.191621714657615350e+00 5.190586824564036306e+00 5.191357536651095117e+00 5.193261177997002598e+00 5.190972333398773841e+00 5.191029686256666054e+00 5.193176380234086231e+00 5.193246328936560907e+00 5.192916840299145242e+00 5.192262240729355049e+00 5.191515429005526983e+00 5.191033586947596312e+00 5.191612768045536619e+00 5.192928455928750076e+00 5.192084868665179265e+00 5.192122975764591253e+00 5.192608297676920337e+00 5.194011940314989140e+00 5.191551971297317714e+00 5.192387558157248506e+00 5.192512549384045606e+00 5.191380754145460408e+00 5.192870883754504341e+00 5.191660473255389263e+00 5.194354521512358325e+00 5.193714605824366615e+00 5.192008296367801812e+00 5.192800736673166107e+00 5.189297021017500455e+00 5.193975632353469152e+00 5.191682556000811744e+00 5.192172720097223859e+00 5.193597484526320862e+00 5.192288214069263219e+00 5.192565369632418992e+00 5.193454428175490634e+00 5.194900190677860685e+00 5.192335006522986518e+00 5.192449179361914524e+00 5.192823092054711154e+00 5.192906971408786987e+00 5.191039807057819644e+00 5.191844332828775777e+00 5.192727721054740009e+00 5.193159093882109723e+00 5.191385240911356114e+00 5.193334088281438277e+00 5.190522445248328509e+00 5.190819565494102505e+00 5.192363218176451412e+00 5.192515312328644939e+00 5.195522717463543216e+00 5.193317339372105934e+00 5.192202600404942636e+00 5.192847585013657508e+00 5.190983644091488713e+00 5.190842386853797841e+00 5.193857552557928692e+00 5.192331607769082424e+00 5.190705417207605699e+00 5.190098500762510447e+00 5.191526743401648325e+00 5.188975037514445887e+00 5.192642032086815185e+00 5.192151569111938869e+00 5.192340292076164765e+00 5.192945765829147575e+00 5.191835209332157142e+00 5.191043611499400079e+00 5.192059500038141984e+00 5.193534075060873612e+00 5.193514886006709297e+00 5.191165279168002300e+00 5.191399709569791909e+00 5.191912150076286814e+00 5.193003219882780463e+00 5.190064812394123983e+00 5.190568903679053214e+00 5.191148699747770934e+00 5.191665010811339798e+00 5.193318882596414277e+00 5.192519087013923951e+00 5.194281050064932792e+00 5.191015488939674682e+00 5.191495167903953600e+00 5.192633431393109511e+00 5.192861658407974979e+00 5.192407470057396779e+00 5.191723000939556520e+00 5.192360482182547976e+00 5.194027336895175928e+00 5.193579456752226875e+00 5.191544266478444136e+00 5.193935912779938491e+00 5.193266906682477924e+00 5.193063753135518823e+00 5.193243419286192264e+00 5.190837587467061809e+00 5.190064683349511654e+00 5.192806351454772873e+00 5.193213260505823214e+00 5.192359472651235208e+00 5.192349918531911968e+00 5.193447854977136124e+00 5.191213986102864553e+00 5.191713862247032907e+00 5.193049951741167014e+00 5.193958973032051674e+00 5.194148401616902611e+00 5.192033071052235549e+00 5.191928547159754714e+00 5.192041702725752828e+00 5.190963363725522584e+00 5.192041514760498799e+00 5.192906473240931575e+00 5.193196664624104564e+00 5.191286182447718112e+00 5.190045833020212385e+00 5.190704231331863205e+00 5.190773143203033513e+00 5.193645436533532944e+00 5.192940143489774840e+00 5.192754989613175276e+00 5.190124020290694418e+00 5.190077724504711831e+00 5.192611631320061427e+00 5.193532866822771155e+00 5.191298471830929628e+00 5.192554538054951152e+00 5.191587136636345967e+00 5.192560111173968984e+00 5.192204724465553589e+00 5.193014653151714732e+00 5.189247447931234269e+00 5.193131045964247683e+00
6.000000000000000000e+00 3.188893199292581939e-03 2.904703118966450354e-05 3.203066057956104398e-03 3.188113533093278520e-03 3.188003686556927212e-03 3.190168467078189230e-03 3.188306434327846384e-03 3.190899884259259210e-03 3.188306434327846384e-03 3.192070687585733986e-03 3.186752507716049485e-03 3.190045224622770764e-03 3.189646026234567878e-03 3.189536179698216570e-03 3.190015753600822842e-03 3.189568329903978098e-03 3.192965534979423908e-03 3.188654728223593807e-03 3.188081382887516992e-03 3.189549575617284163e-03 3.186723036694101563e-03 3.188038515946501911e-03 3.187834897976680494e-03 3.187277627743484009e-03 3.188491298010973866e-03 3.187625921639231866e-03 3.189303090706447231e-03 3.190656078532235883e-03 3.189613876028806784e-03 3.189951453189300221e-03 3.188938721707819043e-03 3.191060635288065980e-03 3.187076688957476197e-03 3.184909229252400574e-03 3.184893154149519810e-03 3.189311128257887613e-03 3.188330546982167529e-03 3.185514724794238483e-03 3.188059949417009452e-03 3.186790016289437789e-03 3.187173139574759912e-03 3.189110189471879367e-03 3.186720357510287958e-03 3.186567644032922003e-03 3.190380122599451463e-03 3.191071352023319534e-03 3.190757887517146809e-03 3.186639981995884573e-03 3.188652049039780636e-03 3.186398855452674851e-03 3.190155071159122072e-03 3.190085412379972674e-03 3.188191229423868300e-03 3.187684863683127711e-03 3.189078039266117839e-03 3.187132951817558436e-03 3.187111518347050896e-03 3.186519418724279712e-03 3.186768582818930249e-03 3.189844285836762518e-03 3.190098808299039832e-03 3.187553583676268863e-03 3.188078703703703821e-03 3.188392168209876545e-03 3.187628600823045472e-03 3.189161093964334830e-03 3.189514746227709030e-03 3.187149026920438766e-03 3.182731052812071398e-03 3.188761895576131510e-03 3.188638653120713477e-03 3.188641332304526649e-03 3.189621913580246732e-03 3.187944744513031368e-03 3.187483924897119465e-03 3.187049897119341446e-03 3.190492648319615942e-03 3.190117562585733767e-03 3.190773962620027573e-03 3.186497985253772171e-03 3.187783993484225031e-03 3.187516075102880559e-03 3.186819487311385278e-03 3.184652027606310089e-03 3.189353995198902694e-03 3.190757887517146809e-03 3.189284336419753296e-03 3.190897205075445605e-03 3.192207325960219610e-03 3.189702289094650117e-03 3.190297067901234473e-03 3.187636638374485420e-03 3.185825510116598036e-03 3.188638653120713477e-03 3.188108174725651743e-03 3.189455804183813619e-03 3.192188571673525242e-03 3.187896519204389510e-03 3.191266932441701003e-03 3.190640003429355120e-03 3.190765925068587191e-03 3.192097479423868303e-03 3.190045224622770764e-03 3.189579046639231651e-03 3.187170460390946307e-03 3.189884473593964428e-03 3.189353995198902694e-03 3.187658071844992960e-03 3.188994984567901283e-03 3.187917952674897051e-03 3.190181862997256389e-03 3.190015753600822842e-03 3.190031828703703606e-03 3.189040530692729969e-03 3.189629951131687114e-03 3.188343942901234688e-03 3.186224708504800922e-03 3.190339934842249554e-03 3.191098143861453851e-03 3.189043209876543140e-03 3.189538858882030176e-03 3.187055255486968657e-03 3.187623242455418261e-03 3.187293702846364773e-03 3.188879779663923199e-03 3.190899884259259210e-03 3.191580396947873727e-03 3.192740483539094516e-03 3.191084747942386692e-03 3.189412937242798538e-03 3.188970871913580137e-03 3.185504008058984930e-03 3.189415616426611710e-03 3.188113533093278520e-03 3.185541516632373234e-03 3.188783329046639050e-03 3.191848315329218200e-03 3.188301075960219607e-03 3.188619898834019108e-03 3.189846965020576124e-03 3.187832218792866889e-03 3.186744470164609103e-03 3.190366726680384304e-03 3.190080054012345463e-03 3.190808792009602272e-03 3.190907921810699592e-03 3.187596450617283944e-03 3.189316486625514389e-03 3.186843599965706424e-03 3.188196587791495076e-03 3.186339913408779007e-03 3.190331897290809172e-03 3.189469200102880778e-03 3.186388138717421298e-03 3.189544217249656952e-03 3.188756537208504733e-03 3.189252186213991768e-03 3.189905907064471968e-03 3.191810806755829896e-03 3.188081382887516992e-03 3.188649369855967031e-03 3.185587062757201486e-03 3.187647355109739407e-03 3.188769933127571891e-03 3.187159743655692754e-03 3.188266246570644908e-03 3.187392832647462093e-03 3.187317815500685918e-03 3.190937392832647514e-03 3.187438378772290779e-03 3.187296382030178378e-03 3.191398212448559851e-03 3.188641332304526649e-03 3.189584405006858862e-03 3.189080718449931445e-03 3.188919967421124674e-03 3.188207304526749063e-03 3.187349965706447012e-03 3.188151041666666824e-03 3.190602494855967249e-03 3.190540873628257799e-03 3.189627271947873943e-03 3.191719714506172957e-03 3.190152391975308466e-03 3.189889831961591204e-03 3.189750514403291975e-03 3.191283007544581767e-03 3.189386145404663787e-03 3.189576367455418480e-03 3.189415616426611710e-03 3.188118891460905296e-03 3.188030478395061530e-03 3.189262902949245755e-03 3.190760566700960414e-03 3.188732424554184021e-03 3.189123585390946525e-03 3.189688893175582959e-03 3.188145683299039614e-03 3.186088070130315298e-03 3.189222715192043846e-03 3.191569680212620174e-03 3.190278313614540538e-03 3.189155735596707619e-03 3.187631280006858643e-03 3.188850308641975276e-03 3.188266246570644908e-03 3.186138974622770761e-03 3.190728416495198887e-03 3.190854338134430524e-03 3.189980924211248143e-03 3.187692901234568093e-03 3.188006365740740818e-03 3.188086741255144203e-03 3.189830889917695360e-03 3.192070687585733986e-03 3.191829561042523831e-03 3.188949438443072597e-03 3.183636616941014873e-03 3.187818822873799730e-03 3.187422303669410015e-03 3.189380787037037011e-03 3.187759880829903886e-03 3.187414266117969634e-03 3.189099472736625380e-03 3.188721707818930034e-03 3.190481931584361955e-03 3.188496656378600642e-03 3.188295717592592397e-03
