# vvf statistics with RF=500
# gcat file: /disk2/salam/Abacus/AbacusCosmos_720box_products/GCAT_derivative/AbacusCosmos_720box_planck_rockstar_halos_z0.100_Mr21_hod-fradsat-neg_real-8.gcat.rsd_zz.1pz0.100by100
# stats order in row: stdvvf,p2.5,p16,p50,p84,p97.5,rho
# columns: numbers, mean, sigma,All, jnrealizations
0.000000000000000000e+00 1.446997418031704896e+00 5.111986785386789245e-03 1.446997652090566300e+00 1.447469534696857574e+00 1.446267856308985245e+00 1.447074629244331279e+00 1.447157451706283959e+00 1.447376043773551002e+00 1.447004291689389488e+00 1.447148234640132980e+00 1.446239976573479025e+00 1.445865726436873944e+00 1.446949803690207981e+00 1.447517281330606975e+00 1.447355047490048063e+00 1.447107389538639710e+00 1.446977210381898082e+00 1.447298426123238224e+00 1.447119615149345062e+00 1.447380963357108863e+00 1.446987035659454968e+00 1.447205198847962393e+00 1.447134554437463194e+00 1.447137536843035255e+00 1.447665072208907944e+00 1.446911176849167369e+00 1.447100828326105759e+00 1.447098645497825631e+00 1.447566405755821295e+00 1.447244932334706080e+00 1.446884502893725166e+00 1.447452515254552541e+00 1.446919486721471415e+00 1.446805145586790298e+00 1.446360136206622293e+00 1.447137781659277866e+00 1.447035809512048354e+00 1.446257427043063259e+00 1.446398101975301831e+00 1.447061933589763871e+00 1.446897586808436831e+00 1.447002707670237642e+00 1.447256287975602795e+00 1.446724811910678143e+00 1.446982790879463465e+00 1.447224779086016877e+00 1.446861649346197209e+00 1.446396789469767352e+00 1.447146975396962576e+00 1.446666447014889334e+00 1.447486935573042865e+00 1.447020529364830832e+00 1.446935896265030497e+00 1.446343864244802546e+00 1.446916258935094346e+00 1.446848092449845913e+00 1.446986577573673660e+00 1.446492581056367577e+00 1.446771604674962353e+00 1.446758301187557327e+00 1.447079989304465242e+00 1.447074954825097404e+00 1.446104793076615103e+00 1.447046786750044278e+00 1.447169178271927592e+00 1.447342947744282515e+00 1.447044508511029948e+00 1.447164212987404497e+00 1.446200636162833009e+00 1.447704930551740876e+00 1.447176933932840637e+00 1.447426068084702644e+00 1.447017836754005859e+00 1.447109916547746344e+00 1.447402748084476887e+00 1.446715934482984744e+00 1.447152728649381492e+00 1.446895360998147195e+00 1.447031242357566860e+00 1.446976288091222917e+00 1.446731031618447183e+00 1.447016601902732624e+00 1.446677214886622043e+00 1.446650265443229166e+00 1.446980939918104392e+00 1.445646311748098656e+00 1.447298909851556736e+00 1.446621642016694631e+00 1.447388389779766138e+00 1.447054673485063336e+00 1.447240696133429649e+00 1.446558250404380797e+00 1.446703324249310141e+00 1.447087227690628142e+00 1.446980885730526634e+00 1.447222461064578747e+00 1.447410948949523268e+00 1.446706579535741444e+00 1.446794162759474034e+00 1.447483642144197669e+00 1.447001104983558495e+00 1.447222563565214504e+00 1.446895950179473145e+00 1.447172133442593323e+00 1.446480277439134987e+00 1.446622985347664203e+00 1.446681308459414339e+00 1.447136324006927488e+00 1.447254277589491878e+00 1.446989894739053373e+00 1.446926866119323973e+00 1.446952424712607099e+00 1.447027628860183768e+00 1.447486117739193556e+00 1.447210991435611716e+00 1.447088784800385719e+00 1.446509759981640775e+00 1.447496380289392093e+00 1.447451673549511320e+00 1.447284544280605045e+00 1.447115263908952620e+00 1.446401818343070467e+00 1.447064035066260690e+00 1.446854982148238378e+00 1.446747510032667439e+00 1.447246361233591516e+00 1.446818715857541404e+00 1.447014734855583074e+00 1.447270397105642425e+00 1.447529466809214460e+00 1.447247771690751916e+00 1.446848568636457610e+00 1.447065810799683883e+00 1.447116285385539936e+00 1.446708124518823135e+00 1.446900463246704849e+00 1.447003548039769383e+00 1.447058962395149750e+00 1.447175971305913800e+00 1.447397186411943704e+00 1.446615830270884251e+00 1.446286454980177716e+00 1.446518735486147067e+00 1.447119891939719460e+00 1.447531445705709574e+00 1.447255282520927500e+00 1.447212707394875286e+00 1.447276386876743315e+00 1.446945996112962485e+00 1.446930780391814775e+00 1.447068600079049361e+00 1.446798264457820338e+00 1.446788792616804598e+00 1.446634654795760921e+00 1.446929266702760453e+00 1.445949682282223314e+00 1.447399047383686410e+00 1.447074729287555206e+00 1.447599731627941644e+00 1.447104289808738731e+00 1.447429703617767016e+00 1.446331122420994930e+00 1.446998900192326909e+00 1.447395618790478400e+00 1.447143234315201754e+00 1.447180496410893635e+00 1.447022132897168412e+00 1.446893238363502698e+00 1.446899441115498952e+00 1.446377761631162606e+00 1.446754132145768423e+00 1.447210098066868067e+00 1.446874093059884681e+00 1.447175760032419989e+00 1.446771090215394295e+00 1.447610223882372926e+00 1.446914747598049056e+00 1.447058832663655314e+00 1.447243114430035504e+00 1.447433441906884166e+00 1.447054378538723540e+00 1.446979948110589831e+00 1.447052951893517569e+00 1.447194845156694054e+00 1.447171828403974958e+00 1.447032529591061545e+00 1.447556491501751363e+00 1.447416224443093258e+00 1.447373630588894899e+00 1.447194970880528953e+00 1.446920089633286333e+00 1.446090339719416473e+00 1.447337421962451742e+00 1.446866165584073327e+00 1.447216419894004735e+00 1.447332841184867158e+00 1.446798606140814014e+00 1.446570599893628017e+00 1.446831905796855722e+00 1.447197251514356742e+00 1.446863029866463313e+00 1.447228826103197141e+00 1.446709622243807170e+00 1.447205950767681326e+00 1.446934597301441361e+00 1.447056513833558933e+00 1.446646912020844056e+00 1.447188598060771936e+00 1.447152188412897722e+00 1.446804066025761726e+00 1.446937111171527679e+00 1.446976950627330449e+00 1.446932801846751770e+00 1.447215729552139507e+00 1.447069139395469550e+00 1.446764983432551332e+00 1.446570134757154680e+00 1.446439014001296819e+00 1.446939999590752812e+00 1.447221727311600814e+00 1.446915079516188918e+00 1.447123146828626750e+00 1.446880355149283037e+00 1.447588444315633049e+00 1.447350984824863129e+00 1.447345714935797112e+00 1.446523777705536196e+00 1.446920927553934755e+00
1.000000000000000000e+00 1.999999989015600194e-02 1.489682923146452549e-04 2.000000000000000042e-02 1.999568747922030390e-02 1.999667040824891495e-02 2.000710575576143679e-02 1.999866940043872401e-02 2.001423991649128875e-02 1.999641342204323130e-02 2.002043759025434397e-02 1.998919241004597225e-02 2.000591962539071886e-02 2.000626936930512134e-02 2.000453268829911063e-02 2.000599882172194796e-02 2.000532415088613486e-02 2.002304351119467765e-02 1.999801113780780987e-02 1.999151780018949831e-02 2.000640297825835925e-02 1.998978390938870031e-02 1.999736760994934304e-02 1.999259103334934812e-02 1.999178704092171438e-02 2.000012392916524287e-02 1.999319501142958477e-02 2.000220627499935816e-02 2.001435738245013404e-02 2.000775005176219645e-02 2.000711143814015019e-02 2.000001809626579877e-02 2.001079442941667771e-02 1.999085543932095296e-02 1.997920865612371963e-02 1.997713170517259954e-02 2.000225793289042708e-02 1.999733353805173419e-02 1.998145173090469864e-02 1.999393614607571784e-02 1.998871696915881235e-02 1.998722457063538405e-02 1.999923624406328704e-02 1.998877115008728181e-02 1.998675800989656651e-02 2.000970994926095856e-02 2.001473054639187760e-02 2.001016848901476797e-02 1.998760581911804626e-02 1.999805915926555072e-02 1.998773553680725790e-02 2.000903673064349797e-02 2.000801417036034494e-02 1.999711619586180822e-02 1.999498499265272081e-02 1.999747321805190811e-02 1.998889852506478132e-02 1.999065036065569845e-02 1.998457774024257547e-02 1.998434277149087682e-02 2.000573218852428822e-02 2.000728013347409170e-02 1.999495748342248330e-02 1.999441806159415330e-02 1.999939779863569439e-02 1.999633095009658440e-02 2.000402414700765477e-02 2.000308299885450447e-02 1.998914439300994786e-02 1.996235238180326874e-02 1.999936102029602203e-02 1.999973113341162873e-02 1.999808432309120934e-02 2.000411322006803369e-02 1.999600339908573846e-02 1.999574842744463940e-02 1.998786373617318993e-02 2.000884079255884490e-02 2.000798191474540202e-02 2.000905369224924638e-02 1.998730443341054097e-02 1.999351957272195446e-02 1.999160464201315407e-02 1.998706575869186111e-02 1.997613904063993626e-02 2.000305331719840971e-02 2.001212506924533729e-02 2.000044815049400668e-02 2.001353453573018540e-02 2.001943349544106632e-02 2.000429156917761520e-02 2.000948363065422828e-02 1.999525842610088214e-02 1.998154835413287062e-02 1.999797587434168356e-02 1.999451627728499048e-02 2.000556022698006531e-02 2.001768749455619736e-02 1.999614183696426378e-02 2.000937606664765847e-02 2.001233330219175099e-02 2.001129875699132060e-02 2.001949772326457044e-02 2.000856868613388323e-02 2.000611136371361828e-02 1.998896844750670115e-02 2.000549180078480330e-02 2.000075938956927257e-02 1.999208548554530854e-02 2.000149394829765087e-02 1.999752113582162899e-02 2.000771852894799030e-02 2.000681105922903422e-02 2.000916737041421103e-02 2.000385458732177948e-02 2.000239369400234196e-02 1.999470539144180062e-02 1.998329941898269874e-02 2.000939746854800069e-02 2.001326859431302313e-02 2.000006843387220137e-02 2.000442951057247384e-02 1.998958100355030867e-02 1.999352401507187640e-02 1.999050711052896556e-02 1.999738824893192504e-02 2.001187611238915143e-02 2.001720465082075864e-02 2.002362537243249779e-02 2.001264978771423453e-02 2.000436543684720389e-02 2.000268734749529806e-02 1.997918523095702781e-02 2.000287571185223670e-02 1.999443886615824562e-02 1.998041405882172022e-02 1.999733569917683945e-02 2.001876528658426413e-02 1.999933402401007573e-02 1.999695890881351620e-02 2.000416046237783393e-02 1.999785357359125035e-02 1.999068570098901099e-02 2.000860937396390510e-02 2.000682311887743217e-02 2.001385946940401409e-02 2.001065704664386005e-02 1.999231629459424439e-02 2.000481874108406277e-02 1.998985801519295724e-02 1.999422755581852298e-02 1.998370706014407708e-02 2.000792693484977625e-02 2.000263150284324609e-02 1.998552102517444154e-02 2.000657141047923471e-02 1.999937717805032669e-02 2.000337851592285526e-02 2.000558829738227629e-02 2.001724870337415196e-02 1.999758860909120126e-02 1.999876118667170966e-02 1.998170759872544902e-02 1.999301730381882955e-02 1.999732212701743617e-02 1.998886427387993811e-02 1.999745784741811805e-02 1.999311661025165304e-02 1.999001907422449584e-02 2.000810320434110584e-02 1.999280878854636442e-02 1.999201403214266592e-02 2.001110891233098474e-02 1.999620122208886630e-02 2.000418199815248363e-02 2.000101047011011712e-02 2.000239170173966421e-02 1.999718498135399578e-02 1.999332612087620364e-02 1.999469599624697710e-02 2.001006826237078373e-02 2.001052666897062265e-02 2.000641786896030852e-02 2.001939820942665385e-02 2.000770000865105189e-02 2.000457473521797050e-02 2.000537239759063446e-02 2.001577592955887733e-02 2.000388753514968990e-02 2.000554558986251605e-02 2.000267425473416585e-02 1.999513189105208560e-02 1.999238091271890796e-02 2.000345287417951146e-02 2.001101400442985984e-02 2.000187107681102375e-02 2.000128124220178216e-02 2.000773018676278020e-02 1.999655135172082390e-02 1.998582531151715455e-02 2.000142006174028542e-02 2.001455400896614417e-02 2.000780490522443417e-02 2.000194393781570476e-02 1.999751093477605476e-02 1.999820216512429930e-02 1.999558280334854526e-02 1.998600777308996712e-02 2.001139236199278235e-02 2.001276594210767146e-02 2.000632791907325930e-02 1.999566126983544356e-02 1.999272724063257470e-02 1.999233262632125682e-02 2.000618121601688629e-02 2.001896979728397252e-02 2.001703210963677940e-02 1.999722677099613141e-02 1.997280329458990533e-02 1.999284355839084024e-02 1.998919333534042442e-02 2.000200200084469720e-02 1.999517022393121693e-02 1.999014753385842946e-02 1.999936795931410091e-02 1.999977115130105107e-02 2.000942298951097209e-02 1.999636900657125391e-02 1.999531801829278199e-02
2.000000000000000000e+00 9.999999945077998886e-02 7.448414615732306928e-04 1.000000000000000056e-01 9.997843739610151603e-02 9.998335204124457476e-02 1.000355287788071978e-01 9.999334700219361660e-02 1.000711995824564438e-01 9.998206711021614956e-02 1.001021879512717233e-01 9.994596205022986124e-02 1.000295981269535978e-01 1.000313468465256206e-01 1.000226634414955601e-01 1.000299941086097433e-01 1.000266207544306535e-01 1.001152175559733848e-01 9.999005568903904240e-02 9.995758900094747768e-02 1.000320148912917928e-01 9.994891954694350156e-02 9.998683804974671518e-02 9.996295516674673365e-02 9.995893520460856496e-02 1.000006196458262109e-01 9.996597505714792387e-02 1.000110313749967839e-01 1.000717869122506598e-01 1.000387502588109823e-01 1.000355571907007440e-01 1.000000904813289904e-01 1.000539721470833920e-01 9.995427719660476829e-02 9.989604328061858773e-02 9.988565852586299421e-02 1.000112896644521354e-01 9.998666769025867096e-02 9.990725865452348975e-02 9.996968073037858227e-02 9.994358484579406177e-02 9.993612285317693411e-02 9.999618122031644907e-02 9.994385575043640557e-02 9.993379004948284294e-02 1.000485497463047824e-01 1.000736527319593810e-01 1.000508424450738398e-01 9.993802909559024172e-02 9.999029579632774667e-02 9.993867768403628948e-02 1.000451836532174898e-01 1.000400708518017212e-01 9.998558097930904109e-02 9.997492496326361444e-02 9.998736609025953015e-02 9.994449262532389966e-02 9.995325180327849224e-02 9.992288870121288080e-02 9.992171385745438061e-02 1.000286609426214168e-01 1.000364006673704620e-01 9.997478741711240957e-02 9.997209030797078733e-02 9.999698899317847889e-02 9.998165475048292894e-02 1.000201207350382704e-01 1.000154149942725224e-01 9.994572196504973582e-02 9.981176190901633327e-02 9.999680510148009627e-02 9.999865566705813669e-02 9.999042161545604324e-02 1.000205661003401719e-01 9.998001699542868881e-02 9.997874213722320047e-02 9.993931868086594617e-02 1.000442039627942176e-01 1.000399095737270205e-01 1.000452684612462284e-01 9.993652216705270486e-02 9.996759786360977229e-02 9.995802321006577729e-02 9.993532879345930209e-02 9.988069520319967087e-02 1.000152665859920520e-01 1.000606253462267003e-01 1.000022407524700369e-01 1.000676726786509235e-01 1.000971674772053316e-01 1.000214578458880760e-01 1.000474181532711310e-01 9.997629213050440722e-02 9.990774177066434614e-02 9.998987937170841778e-02 9.997258138642495240e-02 1.000278011349003265e-01 1.000884374727809834e-01 9.998070918482131197e-02 1.000468803332383028e-01 1.000616665109587550e-01 1.000564937849565961e-01 1.000974886163228661e-01 1.000428434306694092e-01 1.000305568185680949e-01 9.994484223753349883e-02 1.000274590039240130e-01 1.000037969478463629e-01 9.996042742772653922e-02 1.000074697414882474e-01 9.998760567910813801e-02 1.000385926447399515e-01 1.000340552961451746e-01 1.000458368520710656e-01 1.000192729366088940e-01 1.000119684700117029e-01 9.997352695720899962e-02 9.991649709491350062e-02 1.000469873427400069e-01 1.000663429715651226e-01 1.000003421693609895e-01 1.000221475528623727e-01 9.994790501775153990e-02 9.996762007535937855e-02 9.995253555264482781e-02 9.998694124465962174e-02 1.000593805619457433e-01 1.000860232541038036e-01 1.001181268621624959e-01 1.000632489385711726e-01 1.000218271842360090e-01 1.000134367374764799e-01 9.989592615478512516e-02 1.000143785592611800e-01 9.997219433079122808e-02 9.990207029410859418e-02 9.998667849588419032e-02 1.000938264329213068e-01 9.999667012005038214e-02 9.998479454406757061e-02 1.000208023118891731e-01 9.998926786795625521e-02 9.995342850494505493e-02 1.000430468698195186e-01 1.000341155943871574e-01 1.000692973470200670e-01 1.000532852332192968e-01 9.996158147297122543e-02 1.000240937054203000e-01 9.994929007596478621e-02 9.997113777909261145e-02 9.991853530072039580e-02 1.000396346742488812e-01 1.000131575142162305e-01 9.992760512587221811e-02 1.000328570523961874e-01 9.999688589025162999e-02 1.000168925796142694e-01 1.000279414869113676e-01 1.000862435168707598e-01 9.998794304545600975e-02 9.999380593335854828e-02 9.990853799362725551e-02 9.996508651909413734e-02 9.998661063508718083e-02 9.994432136939969402e-02 9.998728923709059024e-02 9.996558305125825827e-02 9.995009537112248266e-02 1.000405160217055361e-01 9.996404394273183946e-02 9.996007016071332962e-02 1.000555445616549272e-01 9.998100611044435926e-02 1.000209099907624355e-01 1.000050523505505856e-01 1.000119585086983315e-01 9.998592490676998235e-02 9.996663060438101822e-02 9.997347998123488899e-02 1.000503413118539187e-01 1.000526333448531063e-01 1.000320893448015391e-01 1.000969910471332658e-01 1.000385000432552629e-01 1.000228736760898629e-01 1.000268619879531584e-01 1.000788796477943832e-01 1.000194376757484460e-01 1.000277279493125837e-01 1.000133712736708258e-01 9.997565945526044884e-02 9.996190456359453635e-02 1.000172643708975573e-01 1.000550700221492922e-01 1.000093553840551291e-01 1.000064062110089247e-01 1.000386509338139079e-01 9.998275675860411604e-02 9.992912655758577622e-02 1.000071003087013993e-01 1.000727700448307278e-01 1.000390245261221778e-01 1.000097196890785134e-01 9.998755467388026341e-02 9.999101082562149301e-02 9.997791401674273326e-02 9.993003886544983561e-02 1.000569618099639152e-01 1.000638297105383573e-01 1.000316395953662896e-01 9.997830634917721782e-02 9.996363620316287002e-02 9.996166313160627370e-02 1.000309060800844418e-01 1.000948489864198626e-01 1.000851605481838935e-01 9.998613385498066053e-02 9.986401647294952666e-02 9.996421779195421853e-02 9.994596667670212209e-02 1.000100100042234930e-01 9.997585111965608118e-02 9.995073766929213344e-02 9.999683979657050803e-02 9.999885575650525882e-02 1.000471149475548605e-01 9.998184503285625913e-02 9.997659009146390996e-02
3.000000000000000000e+00 4.738228581207005186e-01 7.306044845233499764e-03 4.739999999999999769e-01 4.738977932575211827e-01 4.739210886754992580e-01 4.741684064115461172e-01 4.739684647903977810e-01 4.723360620291944256e-01 4.739149981024246006e-01 4.724823271300025440e-01 4.737438601180895548e-01 4.741402951217600359e-01 4.741485840525314077e-01 4.741074247126889629e-01 4.741421720748101865e-01 4.741261823760012928e-01 4.725438268641943829e-01 4.739528639660450793e-01 4.737989718644911030e-01 4.741517505847230862e-01 4.737578786525121766e-01 4.739376123557993981e-01 4.738244074903795178e-01 4.738053528698445982e-01 4.740029371212162168e-01 4.738387217708811550e-01 4.740522887174847821e-01 4.743402699640681397e-01 4.741836762267640504e-01 4.741685410839215353e-01 4.740004288814994582e-01 4.722547485342336038e-01 4.737832739119066106e-01 4.735072451501321500e-01 4.734580214125905795e-01 4.740535130095031024e-01 4.739368048518260990e-01 4.735604060224413714e-01 4.738562866619944747e-01 4.737325921690638264e-01 4.736972223240586422e-01 4.739818989842999319e-01 4.737338762570685868e-01 4.736861648345486731e-01 4.742301257974846918e-01 4.723476408948482641e-01 4.742409931896500175e-01 4.737062579130977280e-01 4.739540020745935389e-01 4.737093322223320246e-01 4.742141705162509213e-01 4.741899358375401552e-01 4.739316538419248159e-01 4.738811443258694744e-01 4.739401152678301976e-01 4.737368950440352666e-01 4.737784135475400227e-01 4.736344924437490000e-01 4.736289236843337913e-01 4.741358528680256201e-01 4.741725391633359599e-01 4.738804923571128258e-01 4.738677080597815117e-01 4.739857278276659591e-01 4.739130435172890787e-01 4.740953722840813844e-01 4.740730670728517948e-01 4.737427221143357681e-01 4.731077514487374569e-01 4.739848561810157124e-01 4.739936278618555598e-01 4.739545984572616777e-01 4.740974833156124113e-01 4.739052805583319761e-01 4.738992377304379611e-01 4.737123705473045843e-01 4.742095267836445860e-01 4.741891713794660901e-01 4.742145725063071082e-01 4.736991150718298238e-01 4.738464138735103415e-01 4.738010300157117771e-01 4.736934584809970872e-01 4.734344952631664438e-01 4.740723636176023548e-01 4.742873641411145536e-01 4.740106211667079461e-01 4.743207684968053783e-01 4.724586304924091595e-01 4.741017101895094732e-01 4.742247620465051550e-01 4.738876246985909146e-01 4.735626959929489788e-01 4.739520282218979141e-01 4.738700357716542633e-01 4.741317773794275214e-01 4.724174248715262703e-01 4.739085615360529857e-01 4.742222127795495124e-01 4.722910659317253179e-01 4.742677805406942948e-01 4.724601462690438680e-01 4.742030778613730568e-01 4.741448393200127787e-01 4.737385522059088250e-01 4.741301556785997851e-01 4.740179975327917794e-01 4.738124260074237926e-01 4.740354065746543166e-01 4.739412509189725453e-01 4.741829291360674103e-01 4.741614221037281363e-01 4.742172666788168067e-01 4.740913537195261540e-01 4.740567305478555205e-01 4.738745177771706563e-01 4.736041962298899732e-01 4.742227200045875946e-01 4.723131388257873486e-01 4.740016218827711736e-01 4.741049794005676166e-01 4.737530697841422778e-01 4.738465191572034385e-01 4.737750185195365171e-01 4.739381014996866259e-01 4.742814638636228541e-01 4.744077502244520295e-01 4.725575587894069729e-01 4.742997999688273736e-01 4.741034608532787020e-01 4.740636901356385380e-01 4.735066899736815049e-01 4.740681543708979984e-01 4.738682011279504169e-01 4.735358131940747284e-01 4.739368560704910749e-01 4.724428607633886501e-01 4.739842163690388133e-01 4.739279261388802955e-01 4.740986029583546535e-01 4.739491296941126808e-01 4.737792511134395479e-01 4.742040421629445390e-01 4.741617079173950922e-01 4.723270834779346727e-01 4.742525720054595051e-01 4.738178961818835799e-01 4.741142041636922655e-01 4.737596349600730616e-01 4.738631930728989805e-01 4.736138573254146666e-01 4.741878683559396790e-01 4.740623666173849338e-01 4.736568482966342919e-01 4.741557424283578959e-01 4.739852391197927339e-01 4.740800708273716912e-01 4.741324426479598952e-01 4.724070693996300085e-01 4.739428500354614937e-01 4.739706401241194911e-01 4.735664700897931900e-01 4.738345101005062565e-01 4.739365344103132482e-01 4.737360832909545127e-01 4.739397509838094158e-01 4.738368636629641806e-01 4.737634520591205156e-01 4.741920459428842216e-01 4.738295682885488858e-01 4.738107325617811338e-01 4.742632812222443706e-01 4.739099689635062340e-01 4.740991133562138526e-01 4.740239481416097522e-01 4.740566833312300776e-01 4.739332840580897099e-01 4.738418290647660180e-01 4.738742951110533341e-01 4.722376109919504961e-01 4.742494820546037104e-01 4.741521034943592672e-01 4.724577977424690434e-01 4.741824902050299495e-01 4.741084212246659546e-01 4.741273258228980714e-01 4.723723119375894952e-01 4.740921345830476086e-01 4.741314304797416557e-01 4.740633798371997054e-01 4.738846258179345017e-01 4.738194276314380837e-01 4.740818331180544076e-01 4.742610319049876955e-01 4.740443445204213235e-01 4.740303654401822886e-01 4.741832054262778984e-01 4.739182670357835470e-01 4.736640598829565674e-01 4.740336554632446631e-01 4.723434746116010330e-01 4.741849762538190016e-01 4.740460713262321657e-01 4.739410091541924608e-01 4.739573913134458305e-01 4.738953124393605609e-01 4.736683842222322305e-01 4.742699989792289461e-01 4.743025528279518066e-01 4.741499716820362087e-01 4.738971720951000166e-01 4.738276356029920144e-01 4.738182832438137537e-01 4.741464948196002505e-01 4.724476872159018015e-01 4.724019577874279952e-01 4.739342744726083301e-01 4.733554380817807661e-01 4.738303923338629264e-01 4.737438820475680656e-01 4.740474474200193078e-01 4.738855343071697868e-01 4.737664965524447380e-01 4.739850206357442142e-01 4.739945762858349121e-01 4.742233248514099997e-01 4.739139454557386721e-01 4.738890370335389624e-01
4.000000000000000000e+00 1.831893316025084539e+00 9.150022832543125428e-03 1.832000000000000073e+00 1.831604973096579769e+00 1.831695009395600593e+00 1.832650887227747827e+00 1.831878117080187218e+00 1.831302952358953018e+00 1.831671469459160040e+00 1.831870039508272541e+00 1.831010024760211019e+00 1.832542237685789832e+00 1.832574274228349065e+00 1.832415194248198542e+00 1.832549492069730501e+00 1.832487692221169695e+00 1.832108481274312917e+00 1.831817820223195170e+00 1.831223030497358017e+00 1.832586512808465740e+00 1.831064206100004865e+00 1.831758873071359650e+00 1.831321338654800179e+00 1.831247692948428929e+00 1.832011351911536412e+00 1.831376663046949904e+00 1.832202094789940894e+00 1.831313700494186847e+00 1.832709904741417262e+00 1.832651407733637772e+00 1.832001657617947199e+00 1.830987690291626002e+00 1.831162358241799515e+00 1.832093433766544877e+00 1.831902977364327167e+00 1.832206826652763132e+00 1.831755752085538980e+00 1.832299123723961198e+00 1.831444550980535713e+00 1.830966474374947195e+00 1.832828493127264702e+00 1.831930039956197298e+00 1.830971437347995057e+00 1.832785709507515293e+00 1.830888460357377623e+00 1.831347844994856811e+00 1.830930416744851241e+00 1.832863453613124971e+00 1.831822218988724327e+00 1.832875348725225617e+00 1.830826860853880023e+00 1.832734098005007528e+00 1.831735843540941655e+00 1.831540625326989247e+00 1.831768546773554718e+00 1.832981994748440258e+00 1.831143573036061900e+00 1.832585778780244201e+00 1.832564232145713401e+00 1.832525068468824569e+00 1.832666860226226824e+00 1.831538105481499423e+00 1.831488694442024778e+00 1.831944838355029637e+00 1.831663915028847178e+00 1.832368611865900832e+00 1.832282402695072809e+00 1.831005626399711206e+00 1.832543948649540066e+00 1.831941469459115623e+00 1.831975371820505183e+00 1.831824523995154497e+00 1.832376770958231926e+00 1.831633911356253419e+00 1.831610555953929076e+00 1.830888318233464096e+00 1.830808932519134125e+00 1.832731143390678996e+00 1.832829318210030811e+00 1.832835816543746610e+00 1.831406392861331112e+00 1.831230985208404993e+00 1.832813930072043407e+00 1.831811950026681846e+00 1.832279683855374541e+00 1.831109443835948536e+00 1.832041050585250908e+00 1.831238410019311980e+00 1.831778164832857492e+00 1.832393107736669524e+00 1.830867752204861754e+00 1.831565671830840847e+00 1.832307984073984208e+00 1.831814590089698491e+00 1.831497690999305039e+00 1.832509316791373966e+00 1.831618405751892054e+00 1.831646592265926410e+00 1.832858847704925687e+00 1.831128497150545265e+00 1.831033836264705617e+00 1.831784041678708341e+00 1.830784034781250291e+00 1.832559800916167436e+00 1.830989509791613568e+00 1.832503048951887870e+00 1.832069560084545579e+00 1.831275030475950194e+00 1.832136845664064762e+00 1.831772936041261124e+00 1.832707017251636206e+00 1.832623893025379758e+00 1.832839731129941807e+00 1.832353080198674933e+00 1.832219262370614388e+00 1.831515013856068963e+00 1.832468556720713515e+00 1.830859868372141985e+00 1.831214076379641842e+00 1.832006268542693661e+00 1.832405743168438628e+00 1.831045619925208312e+00 1.831406799780583849e+00 1.831130451324453290e+00 1.831760763602164221e+00 1.831086664283607224e+00 1.831574225550099522e+00 1.832161721577573621e+00 1.831157455575852300e+00 1.832399874015203878e+00 1.832246161030569143e+00 1.832091285678759229e+00 1.832263415205664714e+00 1.831490600140095237e+00 1.832203969193951565e+00 1.831755950044598347e+00 1.831717023722460258e+00 1.831938996599323133e+00 1.831721436047317964e+00 1.832381098353809579e+00 1.831803387340958711e+00 1.833145878780692239e+00 1.832788618655093682e+00 1.830624315377284983e+00 1.831268141450467235e+00 1.830975119767913162e+00 1.831296172584832682e+00 1.832441396683299972e+00 1.831070994191674739e+00 1.831471244112976571e+00 1.832505937415211950e+00 1.832726107232239388e+00 1.832241045660441214e+00 1.832672278008496303e+00 1.832601941199897944e+00 1.831942949509409946e+00 1.832309472058533562e+00 1.832511888040216252e+00 1.831578256358734835e+00 1.831779116592754164e+00 1.831886524699128493e+00 1.832322586803123876e+00 1.831360385029804583e+00 1.831754706834797242e+00 1.832978853914790207e+00 1.831767138823499508e+00 1.831369481499051322e+00 1.831085747198963443e+00 1.832742253517645414e+00 1.831341285030847033e+00 1.831268485344268004e+00 1.831016465478285227e+00 1.831652031943340697e+00 1.832383071030767585e+00 1.832092559062086679e+00 1.832219079879353396e+00 1.831742144292026087e+00 1.831388672672260132e+00 1.831514153256223132e+00 1.830921246006926628e+00 1.830963190210811664e+00 1.832587876796763826e+00 1.831774936162538836e+00 1.832705320792436421e+00 1.832419045745966146e+00 1.832492111619302255e+00 1.831443497554637201e+00 1.832356098219711571e+00 1.832507976031406471e+00 1.832244961733649369e+00 1.831554081220371222e+00 1.831302091605051974e+00 1.832316283274843194e+00 1.833008882805775119e+00 1.832171390635889852e+00 1.832117361785683407e+00 1.832708085107471074e+00 1.831684103817627474e+00 1.832700181066123424e+00 1.832130077655409695e+00 1.831331691820402341e+00 1.832714929318557839e+00 1.832178064703918530e+00 1.831772001625486368e+00 1.831835318325385709e+00 1.831595384786726788e+00 1.832716912792350161e+00 1.831042401122339403e+00 1.831168083702851890e+00 1.832579637387110383e+00 1.831602572316926913e+00 1.831333815241943830e+00 1.831297668571027160e+00 1.832566199387146932e+00 1.831735736451483465e+00 1.831558438031765323e+00 1.831745972223245866e+00 1.833503342443353334e+00 1.831344469948601006e+00 1.831010109517182904e+00 1.832183383277374400e+00 1.831557592512099264e+00 1.833096528854817775e+00 1.831942105073171678e+00 1.831979037459176229e+00 1.830862203540253752e+00 1.831667401001926709e+00 1.831571130475618814e+00
5.000000000000000000e+00 5.069479171537611961e+00 1.854787657068105236e-02 5.070000000000000284e+00 5.070906344730269133e+00 5.069155948491100183e+00 5.069800598509948131e+00 5.069662693011216525e+00 5.071608394838892586e+00 5.069090802487958847e+00 5.069174797852400438e+00 5.067260275946654069e+00 5.067499441111468883e+00 5.067588031244987690e+00 5.071649149801032763e+00 5.069520101424341618e+00 5.069349139834545603e+00 5.067832312683372642e+00 5.069495823434279735e+00 5.069848914128056272e+00 5.071623154988493809e+00 5.069409199420974232e+00 5.071332425883153583e+00 5.070121086057394422e+00 5.071916372281839003e+00 5.072031428436305056e+00 5.068274935397400149e+00 5.068559070084837082e+00 5.069636724974618147e+00 5.069963863116540459e+00 5.069802038424713331e+00 5.068004585593753220e+00 5.070735308414185738e+00 5.069680939411794540e+00 5.069824092534767956e+00 5.068198313602287897e+00 5.068572160194434240e+00 5.069324051896114014e+00 5.067296158957431906e+00 5.066463419415586422e+00 5.071137495075590529e+00 5.068760151113133716e+00 5.069806387870043451e+00 5.071151240777143521e+00 5.068641831309769863e+00 5.070460501142727061e+00 5.071732720455701227e+00 5.068575678267440487e+00 5.067157889233525836e+00 5.067508190957890513e+00 5.068889732134320703e+00 5.070289907545062924e+00 5.070030790769311402e+00 5.069268955650968245e+00 5.068728695637465087e+00 5.069359460776158066e+00 5.069184665956428582e+00 5.069628931462284882e+00 5.068088914925517052e+00 5.070027761127235522e+00 5.069252479249982457e+00 5.069844785822334998e+00 5.070721217795941982e+00 5.068584978614119052e+00 5.069847341954148767e+00 5.069069895849484197e+00 5.071020121266440306e+00 5.068781231909731844e+00 5.071245932506624143e+00 5.068441269739849986e+00 5.071837954747071109e+00 5.071931815433188717e+00 5.071514184335931041e+00 5.069042289965239867e+00 5.068986861668234312e+00 5.070921801199960832e+00 5.068922243493521052e+00 5.070240256834410708e+00 5.069172277965014572e+00 5.068593436051931356e+00 5.068780404312913213e+00 5.066357859727743218e+00 5.069870937214536077e+00 5.068719876404255587e+00 5.069944088514415803e+00 5.068773710578077463e+00 5.069071280039844751e+00 5.070413612872301634e+00 5.067426944446882686e+00 5.070922504395221964e+00 5.069087483629608037e+00 5.070403152007781244e+00 5.068798011016573568e+00 5.067320662608095994e+00 5.069486884145617545e+00 5.068609876291744420e+00 5.069408961516748136e+00 5.068478473621628844e+00 5.067022341486744352e+00 5.068374957681852422e+00 5.071125258775389888e+00 5.070863105021599537e+00 5.068936823530589386e+00 5.068170448197713007e+00 5.069548619565030556e+00 5.069202398287699474e+00 5.067391073138790780e+00 5.070192505255811000e+00 5.069992879134290753e+00 5.068378566498624060e+00 5.069371607930782453e+00 5.069955875235421239e+00 5.069725922408637508e+00 5.068322094925919785e+00 5.070977137886070629e+00 5.070606801429593524e+00 5.070657287269640712e+00 5.067764732654012505e+00 5.070381318530063020e+00 5.071362261798920024e+00 5.070017347986603085e+00 5.069122437979064699e+00 5.065359826299648205e+00 5.070357690222227376e+00 5.069592603230145933e+00 5.067338182279349290e+00 5.071009406879410264e+00 5.068356217587816737e+00 5.069981944299908783e+00 5.071205456206786977e+00 5.071106638240766351e+00 5.070681242590057813e+00 5.068719293093796985e+00 5.068728705383356292e+00 5.070589696457731499e+00 5.069031046723069700e+00 5.069324599741328541e+00 5.068751370563135517e+00 5.069831175086554786e+00 5.069229083384225731e+00 5.071054677212781137e+00 5.069455880905382017e+00 5.067638825200713626e+00 5.070181615362453265e+00 5.069728978323540858e+00 5.071511989546976906e+00 5.070700495619553827e+00 5.070051412309100058e+00 5.071221550864809302e+00 5.069427992652933312e+00 5.068536685399995356e+00 5.069866481158552318e+00 5.068007892597448105e+00 5.068666822820478757e+00 5.068328131984238816e+00 5.067664538274390118e+00 5.065842239200147645e+00 5.070856453786444007e+00 5.069416074556668761e+00 5.070419139686245025e+00 5.071388471265528608e+00 5.069685960821278314e+00 5.067361047036774480e+00 5.070229188248454477e+00 5.071320891411621901e+00 5.069175979855952363e+00 5.071355310105234437e+00 5.070254372359818795e+00 5.069468837223332081e+00 5.068952906303704431e+00 5.068177027896504150e+00 5.068075517218418646e+00 5.068813887493439196e+00 5.069037009799528981e+00 5.069059718331839548e+00 5.068706075861201477e+00 5.070606296391005685e+00 5.069286392773237893e+00 5.068708038164441376e+00 5.070654904648232986e+00 5.070551297684755987e+00 5.070667457917155119e+00 5.069626287994541514e+00 5.068911626626828593e+00 5.069951182192176553e+00 5.069159237904234061e+00 5.069361365549466925e+00 5.071997620550218855e+00 5.070985490160445863e+00 5.069405252471161916e+00 5.070527903518293300e+00 5.068765934381704419e+00 5.068068561374243330e+00 5.070875303604506001e+00 5.068789847322083375e+00 5.068474130863913629e+00 5.070324794898152021e+00 5.069958829325688754e+00 5.069125767661229354e+00 5.070403881531902357e+00 5.068359843644986817e+00 5.071687985872021187e+00 5.069977762983871372e+00 5.068492593842499616e+00 5.069369021965729694e+00 5.069544248859009450e+00 5.070879798929190940e+00 5.068451571255615740e+00 5.068885685292771726e+00 5.069233613135873284e+00 5.069453447233864374e+00 5.068900131903284922e+00 5.070155628224420674e+00 5.068056320772438283e+00 5.069566320138679139e+00 5.070304575407099001e+00 5.068312530160032026e+00 5.069296986447519693e+00 5.067100195837459076e+00 5.070185126407917409e+00 5.071258349175865376e+00 5.068507307014046503e+00 5.070775168788956400e+00 5.069501414586497390e+00 5.069839777686125259e+00 5.069941986854816562e+00 5.070387785542080472e+00 5.067079906265155920e+00 5.068813117637220422e+00
6.000000000000000000e+00 2.984778513533814428e-03 2.642971520476248981e-05 2.998044195816186672e-03 2.984198173868312948e-03 2.984174061213991803e-03 2.985998585390946345e-03 2.984476808984910974e-03 2.986821094821673697e-03 2.984458054698216605e-03 2.987865976508916402e-03 2.983113104423868334e-03 2.985701195987654384e-03 2.985564557613168760e-03 2.985443994341563899e-03 2.986038773148148254e-03 2.985352902091906527e-03 2.988297325102880816e-03 2.984324095507544586e-03 2.983531057098765590e-03 2.985433277606309912e-03 2.983022012174211396e-03 2.984337491426611744e-03 2.983624828532236133e-03 2.983581961591221052e-03 2.984259795096021965e-03 2.983769504458161706e-03 2.984854573902606320e-03 2.986767511145404629e-03 2.985685120884773620e-03 2.985663687414266080e-03 2.984725973079561077e-03 2.986521026234567697e-03 2.983070237482853253e-03 2.981446652091906523e-03 2.981553819444444659e-03 2.985117133916323582e-03 2.984174061213991803e-03 2.981869963134430555e-03 2.983876671810699408e-03 2.982904128086419707e-03 2.982815715020575940e-03 2.984833140432098780e-03 2.982949674211248393e-03 2.983003257887517027e-03 2.986014660493827109e-03 2.986869320130315555e-03 2.986408500514403219e-03 2.982882694615912166e-03 2.984629522462276929e-03 2.982646926440329221e-03 2.986137902949245575e-03 2.986132544581618798e-03 2.984219607338820489e-03 2.983884709362139790e-03 2.984535751028806385e-03 2.983204196673525273e-03 2.983198838305898496e-03 2.982601380315500535e-03 2.982357574588477209e-03 2.985588670267489905e-03 2.985936964163237329e-03 2.983686449759945149e-03 2.983989197530864321e-03 2.984466092249656987e-03 2.984120477537722735e-03 2.985304676783264669e-03 2.985052833504800961e-03 2.983230988511660024e-03 2.979046103395061561e-03 2.984752764917695395e-03 2.984198173868312948e-03 2.984626843278463757e-03 2.985350222908093355e-03 2.983871313443072631e-03 2.983943651406035635e-03 2.983064879115226477e-03 2.986111111111111258e-03 2.985837834362140009e-03 2.986526384602194908e-03 2.982644247256515616e-03 2.983678412208504768e-03 2.983399777091906742e-03 2.982890732167352548e-03 2.980809006344307087e-03 2.985210905349794126e-03 2.986630872770919005e-03 2.984918874314128941e-03 2.986893432784636700e-03 2.987533757716049308e-03 2.985620820473250999e-03 2.985934284979423724e-03 2.983839163237311538e-03 2.981942301097393559e-03 2.984366962448559667e-03 2.984072252229080877e-03 2.985395769032921608e-03 2.987670396090534933e-03 2.983678412208504768e-03 2.986759473593964247e-03 2.986360275205761361e-03 2.986521026234567697e-03 2.987742734053497936e-03 2.985765496399177005e-03 2.985602066186557064e-03 2.982928240740740852e-03 2.985612782921810617e-03 2.984865290637859873e-03 2.983683770576131544e-03 2.985087662894375660e-03 2.984224965706447266e-03 2.986081640089163335e-03 2.985926247427983342e-03 2.985928926611796947e-03 2.984956382887517246e-03 2.985264489026063194e-03 2.983924897119341699e-03 2.982437950102880594e-03 2.986258466220850435e-03 2.986588005829903924e-03 2.984803669410150857e-03 2.985347543724279750e-03 2.983147933813443033e-03 2.983624828532236133e-03 2.983228309327846418e-03 2.984415187757201524e-03 2.986448688271605128e-03 2.987249764231824506e-03 2.988206232853223444e-03 2.986713927469135995e-03 2.985350222908093355e-03 2.985106417181070029e-03 2.981631515775034439e-03 2.985093021262002870e-03 2.983962405692729570e-03 2.981669024348422310e-03 2.984463413065843816e-03 2.987421231995884829e-03 2.984441979595336275e-03 2.984495563271604909e-03 2.985363618827160514e-03 2.984141911008230275e-03 2.983091670953360794e-03 2.985832475994513232e-03 2.985615462105624222e-03 2.986630872770919005e-03 2.986596043381344306e-03 2.983461398319615758e-03 2.985264489026063194e-03 2.983094350137174399e-03 2.984128515089163117e-03 2.982255765603566717e-03 2.986116469478738034e-03 2.985151963305898281e-03 2.982424554183813435e-03 2.985529728223594061e-03 2.984932270233196100e-03 2.985347543724279750e-03 2.985481502914952203e-03 2.987611454046639088e-03 2.984107081618655576e-03 2.984257115912208359e-03 2.981837812928669462e-03 2.983766825274348534e-03 2.984460733882030210e-03 2.983180084019204561e-03 2.984107081618655576e-03 2.983841842421124709e-03 2.983252421982167564e-03 2.986279899691357976e-03 2.983504265260630839e-03 2.983107746056241558e-03 2.986922903806584189e-03 2.984270511831275518e-03 2.985320751886145433e-03 2.984910836762688559e-03 2.984972457990398009e-03 2.984294624485596664e-03 2.983734675068587007e-03 2.983930255486968476e-03 2.986271862139917594e-03 2.986408500514403219e-03 2.985741383744855860e-03 2.987659679355281379e-03 2.985923568244170170e-03 2.985425240054869530e-03 2.985486861282578980e-03 2.987123842592592435e-03 2.985001929012345498e-03 2.985425240054869530e-03 2.985050154320987789e-03 2.984174061213991803e-03 2.983943651406035635e-03 2.985109096364883200e-03 2.986370991941014914e-03 2.984747406550068618e-03 2.984835819615912385e-03 2.985837834362140009e-03 2.984069573045267706e-03 2.982547796639231901e-03 2.984843857167352333e-03 2.986847886659808014e-03 2.985918209876543394e-03 2.985194830246913796e-03 2.984305341220850651e-03 2.984479488168724146e-03 2.984123156721536340e-03 2.982633530521262063e-03 2.986261145404664041e-03 2.986788944615912170e-03 2.986121827846364811e-03 2.984120477537722735e-03 2.983461398319615758e-03 2.983587319958847829e-03 2.985639574759944934e-03 2.987855259773662415e-03 2.987239047496570519e-03 2.984605409807956217e-03 2.980208869170095955e-03 2.983723958333333454e-03 2.983150612997256639e-03 2.985031400034293420e-03 2.983662337105624004e-03 2.983236346879286800e-03 2.984629522462276929e-03 2.984372320816186443e-03 2.986070923353909348e-03 2.984241040809328029e-03 2.984136552640603499e-03
