# vvf statistics with RF=500
# gcat file: /disk2/salam/Abacus/AbacusCosmos_720box_products/GCAT_derivative/AbacusCosmos_720box_planck_rockstar_halos_z0.100_Mr21_hod-gammaIHV-pos_real-0.gcat.rsd_zz.1pz0.100by100
# stats order in row: stdvvf,p2.5,p16,p50,p84,p97.5,rho
# columns: numbers, mean, sigma,All, jnrealizations
0.000000000000000000e+00 1.408317827106505105e+00 4.778523090705525354e-03 1.408318062275542459e+00 1.408640289412190327e+00 1.407941442629511153e+00 1.408030179505383117e+00 1.408336974060215629e+00 1.408776020088451375e+00 1.408314271719886435e+00 1.408372611263172924e+00 1.407175234576859335e+00 1.407494338288468594e+00 1.407882160725011156e+00 1.408950798232222024e+00 1.408542173848355450e+00 1.408442005939360309e+00 1.407949480634730133e+00 1.408650610251980240e+00 1.408509152140601683e+00 1.408738118308244802e+00 1.408277024071969308e+00 1.408584239604081745e+00 1.408626714440719407e+00 1.408344831385976326e+00 1.409005931040228532e+00 1.408276508051573783e+00 1.408296269162515824e+00 1.408027812742626894e+00 1.408520855524447946e+00 1.408630063520377007e+00 1.408090785978847181e+00 1.408833079506092156e+00 1.408103509034087431e+00 1.408342888132400494e+00 1.407772207175379320e+00 1.408377729798866440e+00 1.408386629410266266e+00 1.407849103780041355e+00 1.407761304119236057e+00 1.408427522807211840e+00 1.408268749053725344e+00 1.408192601122505661e+00 1.408584036929590333e+00 1.408126143669217845e+00 1.408280973978394135e+00 1.408491792983233015e+00 1.408326606745731846e+00 1.407730021041738722e+00 1.408458723699971493e+00 1.408058661294593117e+00 1.408608632882730971e+00 1.408518648923465122e+00 1.408169215379396100e+00 1.407846179508208007e+00 1.408030982882158888e+00 1.407963061975648689e+00 1.408390891020864455e+00 1.407569968017565509e+00 1.408147513808807760e+00 1.408248148517433629e+00 1.408571326038088767e+00 1.408387601186569693e+00 1.408065782128571364e+00 1.408583741346446816e+00 1.408608344647195088e+00 1.408685918504847034e+00 1.408316280735502968e+00 1.408312615798108736e+00 1.407668828366301028e+00 1.408660316490445652e+00 1.408662434124122509e+00 1.408847103421803082e+00 1.408029661367609098e+00 1.408401140954000708e+00 1.408698164238097128e+00 1.407896235024313825e+00 1.408323517044397954e+00 1.408292352814199733e+00 1.408475912149193654e+00 1.408411976786320130e+00 1.408153353065680236e+00 1.408374431305716490e+00 1.408022082463502134e+00 1.407898719883978966e+00 1.408362585163339009e+00 1.407484154464981430e+00 1.408577833615765718e+00 1.407989931828147467e+00 1.408714265927659914e+00 1.408270043258423421e+00 1.408521821031174515e+00 1.408013166078355027e+00 1.408135739609548409e+00 1.408659453236623671e+00 1.408253397254920936e+00 1.408560185074277715e+00 1.408627248172458213e+00 1.408033377041207679e+00 1.408168186963829394e+00 1.408670537979504367e+00 1.408060989468126634e+00 1.408519394236137368e+00 1.408311575661737924e+00 1.408302669517667915e+00 1.407899757426481324e+00 1.407947545717017634e+00 1.408090895995386616e+00 1.408409746775716620e+00 1.408515788325920726e+00 1.408330630597551814e+00 1.408321071672626879e+00 1.408148019000247553e+00 1.408436307452370473e+00 1.408624889648748990e+00 1.408536979444662940e+00 1.408559608272937691e+00 1.407819542274905356e+00 1.408785126487742234e+00 1.408801320354363451e+00 1.408626647749533944e+00 1.408436138213420952e+00 1.407786942761884097e+00 1.408570045753023470e+00 1.408262796195075106e+00 1.408121901805866161e+00 1.408398547850547633e+00 1.408275929457369235e+00 1.408138833075756491e+00 1.408500368219003818e+00 1.408880538021662909e+00 1.408622371854599153e+00 1.408278338812573027e+00 1.408470454386257842e+00 1.408498198530499401e+00 1.408140331768194864e+00 1.408196288839512533e+00 1.408293255702972369e+00 1.408632647244433489e+00 1.408454273640016963e+00 1.408580757295027297e+00 1.407871246334585935e+00 1.407346549903818689e+00 1.407592897123673303e+00 1.408415282047674078e+00 1.408800811731064639e+00 1.408415165111762013e+00 1.408491828170872262e+00 1.408244953530111143e+00 1.408226711898423522e+00 1.408122585677604066e+00 1.408438644181789545e+00 1.408047301196859502e+00 1.408037589272985501e+00 1.407908358291230178e+00 1.408172055231529551e+00 1.407679377380846475e+00 1.408698425258751552e+00 1.408164052401514210e+00 1.408876629347637133e+00 1.408649704554120863e+00 1.408500559194993285e+00 1.407809620790349436e+00 1.408258795606956770e+00 1.408712979703655277e+00 1.408374656027164384e+00 1.408345872319821446e+00 1.408356157717223001e+00 1.408136806202443081e+00 1.408090577551799116e+00 1.407782573235298873e+00 1.408332927936561507e+00 1.408617784674534912e+00 1.408154261218416137e+00 1.408488783349659768e+00 1.408105877545784868e+00 1.408777365752522659e+00 1.408031348394796156e+00 1.408213193395845941e+00 1.408530433753183431e+00 1.408793131500874818e+00 1.408253972643815244e+00 1.408285968839928737e+00 1.408853481823060250e+00 1.408552959657351833e+00 1.408608159382052305e+00 1.408362110316064397e+00 1.408835820160049046e+00 1.408794094934367580e+00 1.408706348904777972e+00 1.408517076595099837e+00 1.408407314505006891e+00 1.407652486038031947e+00 1.408634051470981197e+00 1.408247537918705827e+00 1.408616564295897433e+00 1.408731613213604961e+00 1.408101664796138630e+00 1.407857983994545092e+00 1.408190699049906236e+00 1.408678518033304572e+00 1.408208642161185242e+00 1.408440642186482128e+00 1.408112545268140892e+00 1.408574585445137473e+00 1.408366570445725330e+00 1.408297150385513952e+00 1.408173257127679712e+00 1.408302293308252517e+00 1.408515994584978781e+00 1.408287344131934793e+00 1.408326246671460336e+00 1.408338079567278189e+00 1.408199272583671391e+00 1.408342526514537285e+00 1.408325994247757951e+00 1.408088472531538127e+00 1.408004491093751698e+00 1.407734564543729805e+00 1.408416190912265886e+00 1.408543306259452565e+00 1.408149143698153694e+00 1.408473245680585073e+00 1.408190691655895499e+00 1.408954546901276528e+00 1.408745690708605780e+00 1.408566467745343331e+00 1.407834997036921942e+00 1.408225952866541952e+00
1.000000000000000000e+00 2.599999980094477511e-02 1.906028279335592241e-04 2.600000000000000228e-02 2.599596146928161849e-02 2.599285433834378281e-02 2.600989412193877026e-02 2.599858646329041706e-02 2.601561951014759108e-02 2.599444615229637434e-02 2.602544979663002842e-02 2.598543360677335601e-02 2.600884668066759040e-02 2.600562762873757927e-02 2.600763961778805936e-02 2.600904894232165462e-02 2.600650661653412452e-02 2.603113770731046300e-02 2.599844250728281653e-02 2.599105689140079195e-02 2.600671049541300114e-02 2.598411525604576999e-02 2.599548719093970270e-02 2.599100732113699200e-02 2.598993979128515902e-02 2.599895375625329783e-02 2.599144495838507513e-02 2.600270125396284687e-02 2.601540157355372931e-02 2.600735934094015878e-02 2.600670734645256152e-02 2.600192133333180736e-02 2.601475150710340009e-02 2.598560193519333650e-02 2.597459644665348066e-02 2.596861392877007624e-02 2.600100324197133356e-02 2.599570611564631581e-02 2.597483215088350686e-02 2.599237618598982877e-02 2.598732389509454677e-02 2.598751882432753790e-02 2.599886515496132103e-02 2.598458435797527250e-02 2.598102676627060334e-02 2.601394254409335541e-02 2.602013847764250015e-02 2.601358565252561567e-02 2.598512017380845765e-02 2.599556096115242590e-02 2.598309201661511136e-02 2.601137163187876994e-02 2.600947372489720993e-02 2.599505207403964707e-02 2.599357670390498032e-02 2.599788508275888144e-02 2.598513774264594317e-02 2.599073526698860923e-02 2.598077392676849048e-02 2.598086147704853355e-02 2.600689977733707664e-02 2.601060718322235205e-02 2.599335566474150760e-02 2.599334888699291954e-02 2.599892247389670730e-02 2.599209012498434127e-02 2.600333057783602367e-02 2.600661802476817927e-02 2.598685331468875148e-02 2.595427140066262905e-02 2.599730221525668045e-02 2.599898443913792670e-02 2.599774544549599692e-02 2.600622371565331978e-02 2.599219182978070378e-02 2.599353326275790493e-02 2.598216820945468963e-02 2.601114674962892379e-02 2.600783248836451705e-02 2.600975211196765446e-02 2.598433907550307814e-02 2.599176874735052364e-02 2.598878004535157271e-02 2.598080943552416242e-02 2.597020947758841083e-02 2.600417789570415306e-02 2.601290530932480818e-02 2.600026816953552103e-02 2.601577856255887777e-02 2.602381640949471414e-02 2.600849410802468994e-02 2.601216856765083824e-02 2.599301526845569296e-02 2.597700769070082627e-02 2.599747977020648235e-02 2.599414486030503582e-02 2.600794222348206536e-02 2.602304070840904399e-02 2.599598563641179402e-02 2.601471773492582129e-02 2.601352539444890324e-02 2.601441290644249116e-02 2.602241775273876623e-02 2.601179433252487697e-02 2.600640632007215902e-02 2.598543136999514544e-02 2.600639824190685220e-02 2.600007861885688526e-02 2.599139287178589205e-02 2.600123227370659817e-02 2.599630309038062151e-02 2.601110076106889421e-02 2.600814796692753686e-02 2.601010357284428906e-02 2.600434937462927504e-02 2.600628982269506673e-02 2.599483979040525736e-02 2.597762281903726392e-02 2.601323907277898126e-02 2.601928139684597102e-02 2.599890455064769040e-02 2.600548681503158169e-02 2.598857646839620658e-02 2.599044208777166395e-02 2.598823897216863757e-02 2.600024507410496691e-02 2.601484247498003430e-02 2.602378313646016086e-02 2.603095338750216828e-02 2.601888077986536096e-02 2.600721724320629799e-02 2.600223022162202746e-02 2.597418639146172048e-02 2.600571158152583523e-02 2.599492850288186163e-02 2.597503142917536798e-02 2.599907817383642974e-02 2.602260228424642732e-02 2.599643194201689544e-02 2.599271540840681835e-02 2.600476174893563350e-02 2.599673967664187235e-02 2.598630250209453194e-02 2.600922878036687411e-02 2.601052406151237867e-02 2.601587361545895302e-02 2.601507921039745638e-02 2.599145858245037119e-02 2.600436189956003077e-02 2.598707216066803785e-02 2.599364793222488229e-02 2.598054330346849516e-02 2.601099993761158552e-02 2.600431513428490618e-02 2.598122909339327380e-02 2.600873886969687354e-02 2.599906715447162717e-02 2.599874674146084030e-02 2.600733239353698531e-02 2.602266861666292785e-02 2.599753227330586780e-02 2.599876130377721389e-02 2.597631041078182074e-02 2.598872677707893264e-02 2.599863424615014851e-02 2.598598731860178937e-02 2.599623112752121046e-02 2.599179091972494623e-02 2.598928627495077776e-02 2.601294362382636921e-02 2.599035275866098949e-02 2.598888844829078809e-02 2.601475241275161623e-02 2.599644264175383912e-02 2.600630196730683782e-02 2.600153170274916922e-02 2.600146831656108964e-02 2.599454519894689800e-02 2.598913160310694151e-02 2.599745349020963700e-02 2.601375004489759821e-02 2.601153318150471044e-02 2.600766572822620429e-02 2.602257162177980254e-02 2.600960351067554965e-02 2.600758965639349274e-02 2.600879208290464775e-02 2.601894903972330059e-02 2.600592352160712578e-02 2.600326345762606767e-02 2.600228253920146282e-02 2.599544718778567728e-02 2.599186619264085354e-02 2.600421706051318782e-02 2.601441278009303248e-02 2.600160954743078665e-02 2.600171212575248803e-02 2.601073577720146301e-02 2.599864189024768402e-02 2.597966201197246527e-02 2.600311700869808312e-02 2.601522520064293229e-02 2.601198921329243852e-02 2.600190575275974220e-02 2.599213419186700846e-02 2.599640054979878573e-02 2.599447997882563602e-02 2.598424087799530713e-02 2.601593224645448732e-02 2.601891970638236379e-02 2.600587879384253648e-02 2.599101998933340402e-02 2.599331947593231176e-02 2.599054190387401972e-02 2.600845288507450809e-02 2.602500026551491166e-02 2.602184952597320911e-02 2.599745651400231158e-02 2.596327759506909805e-02 2.599483765429772344e-02 2.598813283855132619e-02 2.600202023057312725e-02 2.599506097277565209e-02 2.598770254315016515e-02 2.600029405641187535e-02 2.599942581109944764e-02 2.601440522404298988e-02 2.599919325315434154e-02 2.599545566040535258e-02
2.000000000000000000e+00 1.139999991272194063e-01 8.357200917086701460e-04 1.140000000000000041e-01 1.139822925960809474e-01 1.139686690219688936e-01 1.140433819192699927e-01 1.139938021851964467e-01 1.140684855444932810e-01 1.139756485139148678e-01 1.141115875698393567e-01 1.139361319681601037e-01 1.140387892921578966e-01 1.140246749875416937e-01 1.140334967856861115e-01 1.140396761317180319e-01 1.140285290109573080e-01 1.141365268705150926e-01 1.139931709934707965e-01 1.139607879084496289e-01 1.140294229414262339e-01 1.139303515072776080e-01 1.139802130679663933e-01 1.139605705619083503e-01 1.139558898540964788e-01 1.139954126235721565e-01 1.139624894329191729e-01 1.140118439596832511e-01 1.140675299763509731e-01 1.140322678795068628e-01 1.140294091344458555e-01 1.140084243076856241e-01 1.140646796849918293e-01 1.139368700235400128e-01 1.138886151891729537e-01 1.138623841492226452e-01 1.140043988301820133e-01 1.139811729686030645e-01 1.138896486615661452e-01 1.139665725078015529e-01 1.139444201554145469e-01 1.139452748451284386e-01 1.139950241409842524e-01 1.139324083388146558e-01 1.139168096674941788e-01 1.140611326933324010e-01 1.140882994788940119e-01 1.140595678610738517e-01 1.139347576851601762e-01 1.139805365219760391e-01 1.139258649959278141e-01 1.140498602320838273e-01 1.140415386399339231e-01 1.139783052477122832e-01 1.139718363171218357e-01 1.139907269013274022e-01 1.139348347177552845e-01 1.139593777091039151e-01 1.139157010635233891e-01 1.139160849378281770e-01 1.140302528698625695e-01 1.140465084187441691e-01 1.139708671454050526e-01 1.139708374275843483e-01 1.139952754624701803e-01 1.139653182403159576e-01 1.140146033028194839e-01 1.140290174932143130e-01 1.139423568413276133e-01 1.137994976798284430e-01 1.139881712515100620e-01 1.139955471562201367e-01 1.139901146456362979e-01 1.140272885994030039e-01 1.139657641767307800e-01 1.139716458444000463e-01 1.139218144568397983e-01 1.140488742099114439e-01 1.140343424489829033e-01 1.140427592601658824e-01 1.139313328695134991e-01 1.139639091229984469e-01 1.139508048142338220e-01 1.139158567557597979e-01 1.138693800171184239e-01 1.140183184657797555e-01 1.140565848178087816e-01 1.140011758202711112e-01 1.140691829281427760e-01 1.141044257954768187e-01 1.140372433967236365e-01 1.140533544889305861e-01 1.139693746386134104e-01 1.138991875669190246e-01 1.139889497616745767e-01 1.139743274644143961e-01 1.140348235952675093e-01 1.141010246445627457e-01 1.139823985596517125e-01 1.140645316069824611e-01 1.140593036525836546e-01 1.140631950513247700e-01 1.140982932235468927e-01 1.140517136118398556e-01 1.140280892495471599e-01 1.139361221607479574e-01 1.140280538298992785e-01 1.140003447134494141e-01 1.139622610532150804e-01 1.140054030462520074e-01 1.139837904732073359e-01 1.140486725677636037e-01 1.140357257011438141e-01 1.140443002809326534e-01 1.140190703349129864e-01 1.140275784533552883e-01 1.139773744656230603e-01 1.139018846680864838e-01 1.140580482421847675e-01 1.140845415092477250e-01 1.139951968759168183e-01 1.140240575736000128e-01 1.139499122075833537e-01 1.139580922309988420e-01 1.139484324164317247e-01 1.140010745556910010e-01 1.140650785441432308e-01 1.141042799060176249e-01 1.141357186990479694e-01 1.140827849578711917e-01 1.140316448355968293e-01 1.140097786640350414e-01 1.138868172548706259e-01 1.140250430882286531e-01 1.139777634357127811e-01 1.138905224202304833e-01 1.139959581468212718e-01 1.140991023232343360e-01 1.139843554380740864e-01 1.139680598676298950e-01 1.140208784376408602e-01 1.139857047360451348e-01 1.139399417399529352e-01 1.140404646523778265e-01 1.140461439620158446e-01 1.140695996985507943e-01 1.140661165378965419e-01 1.139625491692054793e-01 1.140191252519170556e-01 1.139433163967752405e-01 1.139721486259091254e-01 1.139146898690541754e-01 1.140482304956815796e-01 1.140189202041722860e-01 1.139176967941089580e-01 1.140383165825170630e-01 1.139959098311448260e-01 1.139945049433282870e-01 1.140321497255083194e-01 1.140993931653682264e-01 1.139891799675718798e-01 1.139945687934847129e-01 1.138961302626587679e-01 1.139505712533460807e-01 1.139940116946583509e-01 1.139385597815616991e-01 1.139834749437468459e-01 1.139640063403324632e-01 1.139530244363226308e-01 1.140567528121617658e-01 1.139577005572058738e-01 1.139512801194288300e-01 1.140646836559109367e-01 1.139844023523052946e-01 1.140276317028069003e-01 1.140067159274386621e-01 1.140064380033832397e-01 1.139760827953825578e-01 1.139523462597765852e-01 1.139888345339961084e-01 1.140602886583971659e-01 1.140505685650591156e-01 1.140336112699148891e-01 1.140989678801114515e-01 1.140421077006543576e-01 1.140332777241868517e-01 1.140385499019665322e-01 1.140830842510944659e-01 1.140259723639697048e-01 1.140143090065142972e-01 1.140100080564987184e-01 1.139800376695218193e-01 1.139643363831175926e-01 1.140184901884039870e-01 1.140631944973309886e-01 1.140070572464272902e-01 1.140075070129147605e-01 1.140470722538833304e-01 1.139940452110859981e-01 1.139108257448023520e-01 1.140136668842915979e-01 1.140667566489728668e-01 1.140525680890514676e-01 1.140083559928696116e-01 1.139655114566476557e-01 1.139842177952715974e-01 1.139757968302354818e-01 1.139309023112101971e-01 1.140698567729158258e-01 1.140829556356765112e-01 1.140257762499249650e-01 1.139606261070772314e-01 1.139707084713955099e-01 1.139585298862168528e-01 1.140370626499420670e-01 1.141096165487961445e-01 1.140958017677286968e-01 1.139888477921639914e-01 1.138389863783798861e-01 1.139773650996130927e-01 1.139479670613404438e-01 1.140088579340513969e-01 1.139783442652471113e-01 1.139460803815045553e-01 1.140012893242674658e-01 1.139974824025129646e-01 1.140631613669577243e-01 1.139964627253690355e-01 1.139800748187003998e-01
3.000000000000000000e+00 4.940088302109393315e-01 3.689115043876501580e-03 4.939999999999999947e-01 4.939232679163507722e-01 4.938642324285318908e-01 4.941879883168366350e-01 4.939731428025179727e-01 4.942967706928041993e-01 4.938944768936310847e-01 4.944835461359705087e-01 4.937232385286937641e-01 4.941680869326842140e-01 4.941069249460140478e-01 4.941451527379731035e-01 4.941719299041114621e-01 4.941236257141483623e-01 4.945916164388988179e-01 4.939704076383734654e-01 4.938300809366150124e-01 4.941274994128470044e-01 4.936981898648696299e-01 4.939142566278543756e-01 4.938291391016028098e-01 4.938088560344180422e-01 4.939801213688126413e-01 4.938374542093164066e-01 4.940513238252940975e-01 4.942926298975208743e-01 4.941398274778630584e-01 4.941274395825986931e-01 4.940365053333043432e-01 4.942802786349645983e-01 4.937264367686733935e-01 4.935173324864161604e-01 4.934036646466314346e-01 4.940190615974553445e-01 4.939184161972799969e-01 4.935218108667866477e-01 4.938551475338067154e-01 4.937591540067963747e-01 4.937628576622232202e-01 4.939784379442651030e-01 4.937071028015301843e-01 4.936395085591414600e-01 4.942649083377737562e-01 4.943826310752074682e-01 4.942581273979866907e-01 4.937172833023606988e-01 4.939156582618960956e-01 4.936787483156871992e-01 4.942160610056965941e-01 4.941800007730470234e-01 4.939059894067531764e-01 4.938779573741945983e-01 4.939598165724187750e-01 4.937176171102728994e-01 4.938239700727836134e-01 4.936347046086013157e-01 4.936363680639220819e-01 4.941310957694044492e-01 4.942015364812247236e-01 4.938737576300885612e-01 4.938736288528655094e-01 4.939795270040374109e-01 4.938497123747024875e-01 4.940632809788844670e-01 4.941257424705953749e-01 4.937502129790862782e-01 4.951276390280255346e-01 4.939487420898768799e-01 4.939807043436205691e-01 4.939571634644239206e-01 4.941182505974131001e-01 4.938516447658333752e-01 4.938771319924001868e-01 4.936611959796391447e-01 4.942117882429495901e-01 4.941488172789259004e-01 4.941852901273854903e-01 4.937024424345585194e-01 4.938436061996599458e-01 4.937868208616799093e-01 4.936353792749590963e-01 4.934339800741798232e-01 4.940793800183789219e-01 4.942452008771713867e-01 4.940050952211748614e-01 4.942997926886186777e-01 4.944525117803995617e-01 4.941613880524691194e-01 4.942312027853659195e-01 4.938672901006581628e-01 4.935631461233157546e-01 4.939521156339231611e-01 4.938887523457957118e-01 4.941509022461592071e-01 4.944377734597719121e-01 4.939237270918240830e-01 4.942796369635906184e-01 4.942569824945292067e-01 4.942738452224073598e-01 4.944259373020365445e-01 4.942240923179726519e-01 4.941217200813710630e-01 4.937231960299077738e-01 4.941215665962301884e-01 4.940014937582808408e-01 4.938364645639319317e-01 4.940234132004253653e-01 4.939297587172317705e-01 4.942109144603089588e-01 4.941548113716232038e-01 4.941919678840415164e-01 4.940826381179562743e-01 4.941195066312062401e-01 4.939019560176999279e-01 4.935748335617080595e-01 4.942515423828006682e-01 4.943663465400734425e-01 4.939791864623062079e-01 4.941042494856000555e-01 4.937829528995279493e-01 4.938183996676616117e-01 4.937765404712041728e-01 4.940046564079943470e-01 4.942820070246206621e-01 4.944518795927430044e-01 4.945881143625412424e-01 4.943587348174418583e-01 4.941371276209196584e-01 4.940423742108185357e-01 4.935095414377727030e-01 4.941085200489908624e-01 4.939036415547553016e-01 4.935255971543320297e-01 4.939824853028921825e-01 4.944294434006821226e-01 4.939322068983210134e-01 4.938615927597295729e-01 4.940904732297770607e-01 4.939380538561956024e-01 4.937397475397961033e-01 4.941753468269705629e-01 4.941999571687352710e-01 4.943015986937200901e-01 4.942865049975516678e-01 4.938377130665571046e-01 4.940828760916405882e-01 4.937543710526927088e-01 4.938793107122728676e-01 4.936303227659014081e-01 4.942089988146201596e-01 4.940819875514131931e-01 4.936433527744721883e-01 4.941660385242406250e-01 4.939822759349609127e-01 4.939761880877559519e-01 4.941393154772027452e-01 4.944307037165956431e-01 4.939531131928114882e-01 4.939764647717670432e-01 4.935498978048546981e-01 4.937858087644996785e-01 4.939740506768528494e-01 4.937337590534340293e-01 4.939283914229030126e-01 4.938440274747740166e-01 4.937964392240647427e-01 4.942459288527010219e-01 4.938167024145587725e-01 4.937888805175249529e-01 4.942802958422807258e-01 4.939324101933229016e-01 4.941197373788299152e-01 4.940291023522342395e-01 4.940278980146606824e-01 4.938963587799911070e-01 4.937935004590318644e-01 4.939516163139831550e-01 4.942612508530543902e-01 4.942191304485895054e-01 4.941456488362978572e-01 4.944288608138163177e-01 4.941824667028355544e-01 4.941442034714763620e-01 4.941670495751882553e-01 4.943600317547426348e-01 4.941125469105353551e-01 4.940620056948953343e-01 4.940433682448278074e-01 4.939134965679278788e-01 4.938454576601762347e-01 4.940801241497506102e-01 4.942738428217676727e-01 4.940305814011849428e-01 4.940325303892972864e-01 4.942039797668277834e-01 4.939741959147059824e-01 4.936135782274768125e-01 4.940592231652635169e-01 4.942892788122157377e-01 4.942277950525563179e-01 4.940362093024350254e-01 4.938505496454731469e-01 4.939316104461768941e-01 4.938951195976871156e-01 4.937005766819108632e-01 4.943027126826352591e-01 4.943594744212648773e-01 4.941116970830082278e-01 4.938293797973347110e-01 4.938730700427139131e-01 4.938202961736063989e-01 4.941606048164156606e-01 4.944750050447833112e-01 4.944151409934909869e-01 4.939516737660439305e-01 4.933022743063128490e-01 4.939019154316567350e-01 4.937745239324752289e-01 4.940383843808893727e-01 4.939061584827374451e-01 4.937663483198531100e-01 4.940055870718256803e-01 4.939890904108895087e-01 4.942736992568168564e-01 4.939846718099324407e-01 4.939136575477017232e-01
4.000000000000000000e+00 1.817717755202780783e+00 9.195671348671583673e-03 1.818000000000000060e+00 1.817717613505922536e+00 1.817500353350346209e+00 1.816691066363107954e+00 1.817901161163922197e+00 1.817090962708770130e+00 1.817611657879800280e+00 1.817777570410774146e+00 1.818980352474135032e+00 1.818618587132833975e+00 1.818393501117112399e+00 1.816533597919350651e+00 1.818632729890029776e+00 1.818454962648424544e+00 1.818174849095223200e+00 1.817891095316928940e+00 1.817374670329486186e+00 1.818469218486955308e+00 1.818888067923203788e+00 1.817684450504937654e+00 1.817371204224117243e+00 1.817296559252170152e+00 1.817926843418019134e+00 1.817401805167079498e+00 1.818188879988633211e+00 1.817075740675906603e+00 1.818514587762662060e+00 1.818468998301952189e+00 1.818134345538354957e+00 1.817030336034606730e+00 1.816993243006980174e+00 1.818221751265743702e+00 1.817802975013905309e+00 1.818070149765534049e+00 1.817699758394038412e+00 1.818238250561845515e+00 1.817466919466519393e+00 1.817113647741610993e+00 1.817127277793364026e+00 1.817920648143064533e+00 1.816922090876886386e+00 1.818671873638942227e+00 1.816973833079751355e+00 1.817406595207645248e+00 1.816948905576404538e+00 1.816959556768606765e+00 1.817689608745196583e+00 1.818816441163058073e+00 1.816794264749686194e+00 1.816661703246666759e+00 1.817654025792464267e+00 1.817550863373048387e+00 1.817852118479063250e+00 1.818959641985215869e+00 1.817352181360972763e+00 1.818654174873794105e+00 1.818660303393397459e+00 1.818482453661492526e+00 1.816740870951222719e+00 1.817535407634617517e+00 1.817534933713581990e+00 1.817924656059392685e+00 1.817446917200828072e+00 1.818232884250226444e+00 1.818462752654943948e+00 1.817080743311698221e+00 1.816798998046383895e+00 1.817811362589870861e+00 1.817928988859720985e+00 1.817842354611989286e+00 1.818435181348374563e+00 1.817454028713127778e+00 1.817547825834379571e+00 1.816753146338024205e+00 1.816778557589466381e+00 1.818547671686411515e+00 1.818681897675276993e+00 1.816904939971715205e+00 1.817424445487817453e+00 1.817215466248044642e+00 1.818656660486691390e+00 1.817914663431188682e+00 1.818292131322698069e+00 1.818902378936634534e+00 1.818018751239060649e+00 1.817102071907958694e+00 1.817663484601630630e+00 1.818593934168803328e+00 1.816849927648227725e+00 1.817511606078940245e+00 1.818390538349058172e+00 1.817823777778283967e+00 1.817590590616713797e+00 1.818555344703476573e+00 1.817609304864262754e+00 1.817719303346024606e+00 1.819029109311351533e+00 1.816944696781508162e+00 1.817006686080752553e+00 1.817565793806676933e+00 1.816823788764045045e+00 1.818447949611199599e+00 1.816981316563506699e+00 1.818447384761025409e+00 1.818005497272377813e+00 1.817398163111798137e+00 1.818086164369176805e+00 1.817741500704306290e+00 1.816775345465427405e+00 1.818569730918241145e+00 1.816705695703278112e+00 1.818304121656770134e+00 1.818439803756139561e+00 1.817639182267567710e+00 1.818433597332608898e+00 1.816924698314100972e+00 1.817346731410472538e+00 1.817923402810673217e+00 1.818383654989516041e+00 1.817201231520934712e+00 1.817331681368034024e+00 1.817177632746253213e+00 1.818017136335493333e+00 1.817036689790913151e+00 1.817661160608140314e+00 1.818161975065536229e+00 1.817318749855211468e+00 1.818504651851886589e+00 1.818155943958032594e+00 1.818193047402320239e+00 1.816719002298178509e+00 1.817645385316893014e+00 1.818252200042275835e+00 1.817935543078255112e+00 1.817578682622750463e+00 1.817750510407181386e+00 1.817490638941676728e+00 1.818332956137114875e+00 1.817772028159035491e+00 1.819041175146617118e+00 1.818645304719499034e+00 1.816735065219480250e+00 1.817108710987440645e+00 1.817053224849299209e+00 1.817402757803645352e+00 1.818304997438466630e+00 1.817096045695941964e+00 1.817555843876339949e+00 1.816639527911758645e+00 1.818769149483764114e+00 1.818301727466537177e+00 1.818686036537529249e+00 1.818611048658035356e+00 1.817934772570362290e+00 1.817912368306761728e+00 1.818512703517316975e+00 1.817583315686918333e+00 1.817827448956541136e+00 1.817913386548729804e+00 1.818341728754727660e+00 1.817211741566519212e+00 1.817904502288498980e+00 1.817020190200694607e+00 1.817736468839752373e+00 1.817425995848459763e+00 1.817250863379250569e+00 1.816904062341103465e+00 1.817325435201756934e+00 1.817223046115101992e+00 1.817030399290651355e+00 1.817751258565710737e+00 1.818440652944762759e+00 1.818107101369153433e+00 1.818102669211848488e+00 1.817618583526364073e+00 1.817240048248016215e+00 1.817821940200043285e+00 1.816960387751309192e+00 1.816805548369713641e+00 1.816535421633030278e+00 1.817576540967389409e+00 1.818671507015698463e+00 1.818530692127821924e+00 1.816614093175185962e+00 1.817323517543750322e+00 1.818414190856990409e+00 1.818228190998622873e+00 1.818159602164163724e+00 1.817681653361321592e+00 1.817431259162348933e+00 1.818294869846653228e+00 1.817006677255728953e+00 1.818112544508814210e+00 1.818119717100693089e+00 1.816749852746071259e+00 1.817905036787318629e+00 1.818576340838072625e+00 1.818217950838965757e+00 1.817063421706444970e+00 1.816837400436118077e+00 1.818133256096815531e+00 1.817449998492854712e+00 1.817748315366699341e+00 1.817614023134808132e+00 1.816898073699825922e+00 1.817112806136975012e+00 1.817321468722706612e+00 1.818411063354066659e+00 1.817372090023389619e+00 1.817532877201728514e+00 1.817338660817036988e+00 1.816590401511358088e+00 1.817746172391349058e+00 1.817526105352590404e+00 1.817822151632930927e+00 1.817429431654836947e+00 1.817639032904356355e+00 1.817170211557165516e+00 1.818141260737767162e+00 1.817654648019467079e+00 1.817140123978731037e+00 1.818020561329107387e+00 1.817959850945338296e+00 1.817006149494694967e+00 1.817943589778253433e+00 1.817682245792958895e+00
5.000000000000000000e+00 4.967540013555741041e+00 1.690590632728071821e-02 4.967999999999999972e+00 4.967728252312527459e+00 4.966634628957381281e+00 4.967889777290305453e+00 4.967729905754876718e+00 4.968983326438189962e+00 4.966938787869553451e+00 4.968858953479671214e+00 4.965216698401924589e+00 4.965689035493612735e+00 4.967074877088878182e+00 4.969459754660426221e+00 4.967728347983435988e+00 4.967242763758017432e+00 4.967942511679789064e+00 4.967702399083885112e+00 4.968290490394689840e+00 4.969282220815838258e+00 4.966963570097979286e+00 4.969137359191166503e+00 4.968281014848109578e+00 4.968076952411047742e+00 4.969500018555566889e+00 4.966365328971424908e+00 4.968516147295670038e+00 4.968941700548762164e+00 4.967405634119570479e+00 4.967281103172439316e+00 4.968367122461247121e+00 4.968817537856748956e+00 4.967247754535033977e+00 4.967142058952350503e+00 4.965998017455570235e+00 4.966191619216524522e+00 4.967179537789649935e+00 4.965189068841962872e+00 4.964543851524057416e+00 4.967576913793073423e+00 4.967614175265687493e+00 4.967783157301839836e+00 4.967053240736042596e+00 4.966373193398649910e+00 4.968663025921831178e+00 4.969846449229716967e+00 4.966593814582197730e+00 4.965156808595400761e+00 4.967151802115586712e+00 4.966767973945273695e+00 4.968171981688844774e+00 4.967809481455367049e+00 4.967054565531882737e+00 4.966772656346151393e+00 4.967595888121004499e+00 4.967159022344243446e+00 4.966229723323054124e+00 4.966324862155361508e+00 4.966341597728122892e+00 4.967317857471381437e+00 4.968025971995469803e+00 4.966730420862915274e+00 4.966729125791569999e+00 4.967794109627647892e+00 4.968487996968160125e+00 4.968636396564976465e+00 4.967264042730722196e+00 4.967486960538581187e+00 4.965251767188304299e+00 4.969484308070218681e+00 4.969805871635211147e+00 4.969569033235195832e+00 4.967188729689784310e+00 4.968507438231157813e+00 4.968763858304106940e+00 4.966591384653455066e+00 4.968129029179124245e+00 4.967496005277623361e+00 4.967862653385822114e+00 4.967006354048088212e+00 4.964427830743949777e+00 4.967855262515282533e+00 4.966331649790580727e+00 4.966303135483445708e+00 4.968798299456086198e+00 4.966914144725779856e+00 4.968051241009709962e+00 4.967012491713164835e+00 4.968547102181990915e+00 4.967622374632715498e+00 4.968324196421309402e+00 4.966665378987995538e+00 4.965604931645504649e+00 4.967518442245607346e+00 4.966881217922900937e+00 4.967516964685073866e+00 4.968399002943942655e+00 4.967232947757453054e+00 4.966809955237375895e+00 4.968583350339740967e+00 4.968752865130515950e+00 4.968280066330586386e+00 4.966251810255903898e+00 4.969224099927634697e+00 4.967215150341379726e+00 4.966771953465220157e+00 4.968015022249269386e+00 4.968354714337533728e+00 4.967585428261496183e+00 4.967293605885035213e+00 4.968120245364158194e+00 4.966455916961388439e+00 4.967929782413259332e+00 4.968831065121470658e+00 4.967201356134757440e+00 4.967014003028205060e+00 4.965722515792892366e+00 4.968528662900784987e+00 4.969682746797580819e+00 4.967790684908375276e+00 4.967047981671032453e+00 4.965817226730474765e+00 4.968172968316352467e+00 4.965752738989761106e+00 4.966046809154048169e+00 4.968834912721186825e+00 4.968540749591855210e+00 4.967907334953298282e+00 4.969606228954283722e+00 4.969379048624957385e+00 4.968426143885317003e+00 4.967063643782602789e+00 4.967090912071434161e+00 4.967380885665211743e+00 4.967225240994612712e+00 4.967823860293053784e+00 4.968315297653817630e+00 4.967318226459228825e+00 4.968607522299303803e+00 4.968909860335085860e+00 4.965377278238597647e+00 4.965382724246370394e+00 4.967762697050072340e+00 4.968010095748865318e+00 4.969031860552659552e+00 4.966878969246653064e+00 4.968367275183783072e+00 4.968033324134127682e+00 4.967478818650186589e+00 4.966786266434355390e+00 4.966280777624555220e+00 4.966100141934766121e+00 4.966824190648416959e+00 4.966411869006329916e+00 4.967669124112102708e+00 4.965821826504081216e+00 4.967760531214516995e+00 4.967400487165564371e+00 4.970329705782619456e+00 4.967528474376290859e+00 4.967763313737123099e+00 4.965471643907140908e+00 4.965845947251081860e+00 4.969738930898701668e+00 4.967321422055803737e+00 4.967279855443283765e+00 4.966431434199751749e+00 4.965952854382901904e+00 4.968472232150836554e+00 4.966156634808760906e+00 4.965876838888793721e+00 4.968817710835558898e+00 4.967320270932041204e+00 4.969204160522322056e+00 4.968292673048379626e+00 4.968280561410595375e+00 4.966957713398777230e+00 4.966223174758130021e+00 4.967513420744672281e+00 4.968626258575441490e+00 4.968202837667399230e+00 4.967464154091205231e+00 4.968309443481344623e+00 4.967834270539031039e+00 4.967449624371156780e+00 4.967679287834787516e+00 4.969619266587149475e+00 4.969131848282469122e+00 4.968623571441781017e+00 4.968436140567417780e+00 4.967130062650739752e+00 4.966445817116913908e+00 4.968805782947289806e+00 4.966751732322377322e+00 4.968307547370621080e+00 4.968327147720706272e+00 4.968050533445479644e+00 4.965740601037307300e+00 4.966112315365506014e+00 4.968595588431233168e+00 4.968908013322800521e+00 4.968289939738856020e+00 4.966363998777110211e+00 4.968496420522270363e+00 4.967312228130783325e+00 4.966945251338683143e+00 4.966987583216795343e+00 4.969043059072807189e+00 4.967612208557001807e+00 4.967122849623924807e+00 4.966284127192628794e+00 4.966723506016604617e+00 4.966192776094081829e+00 4.969615151271160158e+00 4.968773127616000984e+00 4.968171578728115989e+00 4.967513998521672747e+00 4.964977546257060226e+00 4.967013594867349724e+00 4.967731546446157331e+00 4.966385864039467357e+00 4.969055885949807738e+00 4.967649293825243006e+00 4.968056187394392254e+00 4.967890285751617618e+00 4.968751397792210867e+00 4.965845911352478659e+00 4.967131681572838353e+00
6.000000000000000000e+00 2.980649488214247387e-03 2.624692243487269304e-05 2.993896819272976514e-03 2.980085626714677489e-03 2.979793595679012305e-03 2.981851208847736620e-03 2.980377657750343107e-03 2.982325424382716115e-03 2.980048118141289618e-03 2.983592678326474606e-03 2.978780864197530694e-03 2.981733324759944931e-03 2.981267146776406252e-03 2.981435935356652970e-03 2.981827096193415474e-03 2.981208204732510407e-03 2.984294624485596664e-03 2.980291923868312945e-03 2.979630165466392363e-03 2.981280542695473410e-03 2.978684413580246979e-03 2.980072230795610330e-03 2.979740012002743670e-03 2.979405114026062971e-03 2.980128493655692570e-03 2.979667674039780667e-03 2.980733989197530912e-03 2.982368291323731196e-03 2.981484160665294827e-03 2.981433256172839365e-03 2.980707197359396595e-03 2.982395083161865513e-03 2.978888031550068396e-03 2.977551118827160507e-03 2.977101015946502158e-03 2.980902777777777631e-03 2.980088305898491094e-03 2.977658286179698209e-03 2.979852537722908149e-03 2.978968407064471781e-03 2.979070216049382706e-03 2.980567879801097365e-03 2.978654942558299056e-03 2.978499549897119496e-03 2.981950338648833940e-03 2.982933599108367629e-03 2.982328103566529286e-03 2.978620113168724357e-03 2.980214227537722731e-03 2.978470078875171574e-03 2.981953017832647546e-03 2.981765474965706458e-03 2.979825745884773832e-03 2.979780199759945146e-03 2.980479466735253598e-03 2.979163987482853250e-03 2.979397076474622590e-03 2.978612075617283975e-03 2.978274498456790105e-03 2.981636874142661216e-03 2.981840492112483067e-03 2.979611411179698428e-03 2.979924875685871152e-03 2.980230302640603495e-03 2.979549789951988978e-03 2.981092999828532323e-03 2.981318051268861281e-03 2.979220250342935489e-03 2.975166645233196308e-03 2.980281207133058958e-03 2.980318715706447262e-03 2.980366941015089120e-03 2.981403785150891442e-03 2.979557827503429360e-03 2.979659636488340285e-03 2.978700488683127742e-03 2.982068222736625630e-03 2.981524348422496737e-03 2.982325424382716115e-03 2.978668338477366215e-03 2.979439943415637670e-03 2.979252400548697017e-03 2.978411136831275730e-03 2.977007244513031614e-03 2.981042095336076860e-03 2.982231652949245571e-03 2.980476787551440427e-03 2.982593342764060153e-03 2.983399777091906742e-03 2.981829775377229080e-03 2.981733324759944931e-03 2.979772162208504764e-03 2.977824395576131756e-03 2.980337469993141197e-03 2.980034722222222026e-03 2.981366276577503572e-03 2.983504265260630839e-03 2.979673032407407444e-03 2.982794281550068399e-03 2.982148598251029015e-03 2.982108410493827105e-03 2.983450681584362205e-03 2.981829775377229080e-03 2.981363597393689967e-03 2.978791580932784681e-03 2.981315372085048109e-03 2.980618784293552828e-03 2.979445301783264881e-03 2.980897419410150854e-03 2.979997213648834156e-03 2.982175390089163332e-03 2.981671703532235915e-03 2.981706532921810614e-03 2.980945644718792711e-03 2.981248392489711883e-03 2.979981138545953392e-03 2.977942279663923011e-03 2.982164673353909345e-03 2.982515646433470374e-03 2.980683084705075449e-03 2.981216242283950789e-03 2.979115762174211392e-03 2.979624807098765586e-03 2.979040745027434784e-03 2.980522333676268679e-03 2.982440629286694199e-03 2.983137217078189480e-03 2.984163344478737816e-03 2.982713906035665448e-03 2.981489519032921604e-03 2.980792931241426757e-03 2.977685078017832526e-03 2.981395747599451494e-03 2.979879329561042466e-03 2.977805641289437387e-03 2.980522333676268679e-03 2.983180084019204561e-03 2.980227623456790324e-03 2.979943629972565088e-03 2.981226959019204342e-03 2.979999892832647327e-03 2.978783543381344299e-03 2.981564536179698213e-03 2.981636874142661216e-03 2.982448666838134581e-03 2.982384366426611959e-03 2.979579260973936900e-03 2.981012624314128938e-03 2.979043424211248389e-03 2.979938271604938311e-03 2.978368269890260649e-03 2.981977130486968258e-03 2.981151941872428168e-03 2.978328082133059173e-03 2.981443972908093352e-03 2.980707197359396595e-03 2.980725951646090530e-03 2.981168016975308498e-03 2.983549811385459525e-03 2.980302640603566498e-03 2.980342828360767974e-03 2.977685078017832526e-03 2.979362247085047891e-03 2.980511616941015126e-03 2.978960369513031399e-03 2.979970421810699405e-03 2.979906121399176783e-03 2.979105045438957405e-03 2.982443308470507370e-03 2.979423868312757340e-03 2.978853202160493697e-03 2.982845186042523862e-03 2.980147247942386939e-03 2.981165337791495326e-03 2.980894740226337249e-03 2.980712555727023372e-03 2.979959705075445851e-03 2.979346171982167561e-03 2.980211548353909560e-03 2.982253086419753112e-03 2.981883359053498148e-03 2.981427897805212588e-03 2.983405135459533519e-03 2.981682420267489902e-03 2.981427897805212588e-03 2.981618119855967280e-03 2.982660322359396380e-03 2.981031378600822873e-03 2.980959040637859870e-03 2.980782214506172770e-03 2.980133852023319780e-03 2.980112418552812240e-03 2.980851873285322168e-03 2.982376328875171578e-03 2.980514296124828731e-03 2.980819723079561074e-03 2.981813700274348316e-03 2.980157964677640492e-03 2.978167331104252403e-03 2.980993870027435003e-03 2.982488854595336056e-03 2.981931584362140005e-03 2.980948323902606317e-03 2.979691786694101379e-03 2.980316036522633657e-03 2.979817708333333450e-03 2.978879993998628448e-03 2.982443308470507370e-03 2.982874657064471784e-03 2.981591328017832530e-03 2.979726616083676078e-03 2.979707861796982143e-03 2.979512281378600674e-03 2.981577932098765371e-03 2.983606074245541764e-03 2.983091670953360794e-03 2.980468750000000045e-03 2.976042738340191861e-03 2.980015967935528091e-03 2.979198816872427949e-03 2.980873306755829708e-03 2.979555148319615755e-03 2.979367605452675101e-03 2.980573238168724142e-03 2.980203510802469178e-03 2.982159314986282568e-03 2.980546446330589825e-03 2.980112418552812240e-03
