# vvf statistics with RF=500
# gcat file: /disk2/salam/Abacus/AbacusCosmos_720box_products/GCAT_derivative/AbacusCosmos_720box_planck_rockstar_halos_z0.100_Mr21_hod-fconc-pos_real-8.gcat.rsd_zz.1pz0.100by100
# stats order in row: stdvvf,p2.5,p16,p50,p84,p97.5,rho
# columns: numbers, mean, sigma,All, jnrealizations
0.000000000000000000e+00 1.442453179762445581e+00 5.020542462735050164e-03 1.442453413761621617e+00 1.442877446680751019e+00 1.442043946828976297e+00 1.442340543232836447e+00 1.442610518579565904e+00 1.442769582029655329e+00 1.442534825407842280e+00 1.442588162780032768e+00 1.441384077628181437e+00 1.440969522826334837e+00 1.442241748512266275e+00 1.442974364997693826e+00 1.442685690624127215e+00 1.442577138266344594e+00 1.442353384031564989e+00 1.442642565796623977e+00 1.442588500261060780e+00 1.442689203990333846e+00 1.442394758911807129e+00 1.442858093294013822e+00 1.442839923723728157e+00 1.442460001156379068e+00 1.443049753685294645e+00 1.442480379689710990e+00 1.442497255957382762e+00 1.442403935377183366e+00 1.442688611879951344e+00 1.442683049933229711e+00 1.442128042144401157e+00 1.442904113541964906e+00 1.442202020233243953e+00 1.442491911318638520e+00 1.441888001786691742e+00 1.442492088393587446e+00 1.442505572607891473e+00 1.441957241380376065e+00 1.441964098860488486e+00 1.442601230220082131e+00 1.442358152578525621e+00 1.442325397142547372e+00 1.442777772846761897e+00 1.442361379671796673e+00 1.442478692482954905e+00 1.442671600902225126e+00 1.442262790657555804e+00 1.441828114181537668e+00 1.442651189817264923e+00 1.442278503212239604e+00 1.442770841980447027e+00 1.442559086599413121e+00 1.442220026575041558e+00 1.441762815055417812e+00 1.442483287975134143e+00 1.442300903161870540e+00 1.442537587340314342e+00 1.441713863069251200e+00 1.442360926771341978e+00 1.442254252232602063e+00 1.442666908921071967e+00 1.442676402086711773e+00 1.441659263239212452e+00 1.442827508287797045e+00 1.442696742553392975e+00 1.442645634835955315e+00 1.442631926911148721e+00 1.442508297763267722e+00 1.441708072548306241e+00 1.442827403602348513e+00 1.442824341961686407e+00 1.442720103035936896e+00 1.442175508807050033e+00 1.442616209223880563e+00 1.442987479921035598e+00 1.442150875739497184e+00 1.442320293407907572e+00 1.442241164803222730e+00 1.442714018084391592e+00 1.442432822208882470e+00 1.442059825622460600e+00 1.442502505181549211e+00 1.442116367376645281e+00 1.442176687061908602e+00 1.442642784721878790e+00 1.441668740860586162e+00 1.442643856925363233e+00 1.442264458973619323e+00 1.443107034303765523e+00 1.442474189181496502e+00 1.442819174827709494e+00 1.442408357379500128e+00 1.442135253379658311e+00 1.442641051241022820e+00 1.442487936582159236e+00 1.442763632371796501e+00 1.442927910802374036e+00 1.442335890647227670e+00 1.442381922314051490e+00 1.442641383555014922e+00 1.442540606161578420e+00 1.442705807563789522e+00 1.442204770554954774e+00 1.442623960585961429e+00 1.442305723550422636e+00 1.442262023761921252e+00 1.442333173418030690e+00 1.442587678586709776e+00 1.442585432198810302e+00 1.442442098862866784e+00 1.442458117047615396e+00 1.442122251617964368e+00 1.442516455657955499e+00 1.442763832055333761e+00 1.442706871957736725e+00 1.442605709719383622e+00 1.441890555871897295e+00 1.442769451936204428e+00 1.442796825929529181e+00 1.442583212223325084e+00 1.442358807556014977e+00 1.442019181683042994e+00 1.442404192099786098e+00 1.442351460972385757e+00 1.442199848902580239e+00 1.442531556407190330e+00 1.442421870015607732e+00 1.442178400645012903e+00 1.442586887078944446e+00 1.443029196068391418e+00 1.442965403093190213e+00 1.442319110802520843e+00 1.442464394306210984e+00 1.442657365317823626e+00 1.442160111277697832e+00 1.442222587001537493e+00 1.442545081021508580e+00 1.442691858238882130e+00 1.442688433609391696e+00 1.442880572829448038e+00 1.442017799085349772e+00 1.441590898501756257e+00 1.441804048087019563e+00 1.442429813284994200e+00 1.442714600842743611e+00 1.442747010482420933e+00 1.442711641486667862e+00 1.442712831287391584e+00 1.442286964450291364e+00 1.442178530242219647e+00 1.442803034407867502e+00 1.441998591072662039e+00 1.442330981366931164e+00 1.442173810034191650e+00 1.442453327341757241e+00 1.441496590560024549e+00 1.442848588558886203e+00 1.442771115469296594e+00 1.442928269086062310e+00 1.442668761213466100e+00 1.442806319441244378e+00 1.442029171258343068e+00 1.442557317278117202e+00 1.442841614458997501e+00 1.442506305543570289e+00 1.442749759831302603e+00 1.442533350822507110e+00 1.442387533273782774e+00 1.442104274071030368e+00 1.442110959634618439e+00 1.442161967548269086e+00 1.442802098901705854e+00 1.442340130865785719e+00 1.442585673936571444e+00 1.442295893499492054e+00 1.442955033766175621e+00 1.442187110478754253e+00 1.442458274630339821e+00 1.442677763661595058e+00 1.442962298757106021e+00 1.442559027865402799e+00 1.442447279002511573e+00 1.442595804479430477e+00 1.442788450071136763e+00 1.442596010794706674e+00 1.442690446671496263e+00 1.442951395295341888e+00 1.442786660349495875e+00 1.442791301345924815e+00 1.442768422069116596e+00 1.442454487181394018e+00 1.441725504334770092e+00 1.442908259709744456e+00 1.442227650675438788e+00 1.442843519592695634e+00 1.442830397285637556e+00 1.442178736177875731e+00 1.442090297428906709e+00 1.442189214475954051e+00 1.442649791827625094e+00 1.442488670616145274e+00 1.442658113658318308e+00 1.442223968906725551e+00 1.442561591352748751e+00 1.442523268069506370e+00 1.442473361286674027e+00 1.442246480601289127e+00 1.442517806146955461e+00 1.442533952843675582e+00 1.442291415133037269e+00 1.442325302514426921e+00 1.442347339601374845e+00 1.442128570227825923e+00 1.442732191004067577e+00 1.442560633168249673e+00 1.442189378041264014e+00 1.441912801375974107e+00 1.441958778580812561e+00 1.442480638999122267e+00 1.442595534723679407e+00 1.442075149361443875e+00 1.442431022141636543e+00 1.442352159828897529e+00 1.443074392183002708e+00 1.442770363605959005e+00 1.442683507189975955e+00 1.441664140017321794e+00 1.442342655948982255e+00
1.000000000000000000e+00 2.199999987600780721e-02 1.609612571216106165e-04 2.199999999999999872e-02 2.199670806442371312e-02 2.199310129429866284e-02 2.200579747160811769e-02 2.199802636030154593e-02 2.201445305734826829e-02 2.199502868988746987e-02 2.202052815712887690e-02 2.198645541428561126e-02 2.200593490610499095e-02 2.200732506597682589e-02 2.200460203299673539e-02 2.200693720096503700e-02 2.200461791485025867e-02 2.202624538552186428e-02 2.199838223203973500e-02 2.199081019128807171e-02 2.200563952340163151e-02 2.198850732677917752e-02 2.199931004295472420e-02 2.198969599149877552e-02 2.199120847481676397e-02 2.200140356999537999e-02 2.199058556781360169e-02 2.200264991644880833e-02 2.201244044844564984e-02 2.200797686349853163e-02 2.200813752807238496e-02 2.199845264910116338e-02 2.201278202732302736e-02 2.199100255117331787e-02 2.197789196284064342e-02 2.197491319055167036e-02 2.200085612105293076e-02 2.199649386354230254e-02 2.198014236487941947e-02 2.199576136558052328e-02 2.199036910579456675e-02 2.198862997177415332e-02 2.199939755623653986e-02 2.198817638974154276e-02 2.198550372763104915e-02 2.201279051185604449e-02 2.201710196112708837e-02 2.201196618809324324e-02 2.198716418384377702e-02 2.199865313521389906e-02 2.198663174416992314e-02 2.200911952785420539e-02 2.200685509390905639e-02 2.199424606015603495e-02 2.199276013070943295e-02 2.199914824635852001e-02 2.198768205566810352e-02 2.199026372200798760e-02 2.198053709908621978e-02 2.198434232249059372e-02 2.200586995312244290e-02 2.200949322056745122e-02 2.199329272999143992e-02 2.199502803997083894e-02 2.200112666917267146e-02 2.199358154539057461e-02 2.200282119942091608e-02 2.200301063863187301e-02 2.198954400455234437e-02 2.196140096557597232e-02 2.200248466200002348e-02 2.199794865381307293e-02 2.199698006013980564e-02 2.200306125800387952e-02 2.199556469460846320e-02 2.199242720464640241e-02 2.198667589803209033e-02 2.201153962975509193e-02 2.200790150824455046e-02 2.201037685983809472e-02 2.198710655462369698e-02 2.199446730327919708e-02 2.199176173878875096e-02 2.198492419641893958e-02 2.197658293960581821e-02 2.200410013158486666e-02 2.201324951233944033e-02 2.200294640023642279e-02 2.201178480743719995e-02 2.202285030460842535e-02 2.200833647191799067e-02 2.200843036733752395e-02 2.199697331743606307e-02 2.198122313921281948e-02 2.199924884866481106e-02 2.199133727542058186e-02 2.200571951122810843e-02 2.201985588887525949e-02 2.199522610479120316e-02 2.201163382760308596e-02 2.201165637806404285e-02 2.201165287333561177e-02 2.202111109849418796e-02 2.200965810245145149e-02 2.200277532535788866e-02 2.199014607254361556e-02 2.200710039237646284e-02 2.200184015742673999e-02 2.199350292290360928e-02 2.200051877189775767e-02 2.199660766089125280e-02 2.201282205690900315e-02 2.200757417788304707e-02 2.200814370016674140e-02 2.200144943320191462e-02 2.200337631761241017e-02 2.199323041305805207e-02 2.198198945168398574e-02 2.200995675481709837e-02 2.201483365813544993e-02 2.199732958361899290e-02 2.200417990814640054e-02 2.199046758554930314e-02 2.199069283211672887e-02 2.199148409613280175e-02 2.200027143012304662e-02 2.201335751735984669e-02 2.201981575842673275e-02 2.202767204442612758e-02 2.201198001244666566e-02 2.200788291615174419e-02 2.200227423015011993e-02 2.197726481121030015e-02 2.200523087766996164e-02 2.199398842857407457e-02 2.197918221825673549e-02 2.199604742106332084e-02 2.202138707347883403e-02 2.199652439644196947e-02 2.199793841854530418e-02 2.200378163340527271e-02 2.199665881044962981e-02 2.198794159589505595e-02 2.200949464380027795e-02 2.200841945190816495e-02 2.201407880466075412e-02 2.201167526554273154e-02 2.199468476233684341e-02 2.200472318252266746e-02 2.198962026609764184e-02 2.199212261121966799e-02 2.198517175071347876e-02 2.201171632419402641e-02 2.200503125213918582e-02 2.198390068039218423e-02 2.200624870352490062e-02 2.199636552567177383e-02 2.200245352081747069e-02 2.200713433582118100e-02 2.201763759323536324e-02 2.199719570455570608e-02 2.199816695781372025e-02 2.198152590360190686e-02 2.199016422337518942e-02 2.199705658221555102e-02 2.199105196001199802e-02 2.199828135924804945e-02 2.199280903502666418e-02 2.198677933390341330e-02 2.201141014497445120e-02 2.199211764215662154e-02 2.199060359961385602e-02 2.201128495785504083e-02 2.199696839086721575e-02 2.200556729945667492e-02 2.199895957238049565e-02 2.200165567872180983e-02 2.199449814328743869e-02 2.199135048884173424e-02 2.199548219884390338e-02 2.201147527787389313e-02 2.200938823211609843e-02 2.200419818382717829e-02 2.201950639487081085e-02 2.200978632695179196e-02 2.200564732372895307e-02 2.200518588881438670e-02 2.201483238604039563e-02 2.200212332632232523e-02 2.200381223382504026e-02 2.200464758888769426e-02 2.199816429569853224e-02 2.199259220988748764e-02 2.200360422934029281e-02 2.201184561737160733e-02 2.200059202486018273e-02 2.200087375733986855e-02 2.200610287761903608e-02 2.199880141693429450e-02 2.198344933601843396e-02 2.200243391759093559e-02 2.201435914427920040e-02 2.201105594185108830e-02 2.199923701314025759e-02 2.199212013721646777e-02 2.199838024551878379e-02 2.199364232454808013e-02 2.198720027945930133e-02 2.201356343276654817e-02 2.201210209486248112e-02 2.200578166940958882e-02 2.199222798741325841e-02 2.199407302269528602e-02 2.199249511404838264e-02 2.200630886162386821e-02 2.202050085583547381e-02 2.201993339869562707e-02 2.199762930983783019e-02 2.196956354667172970e-02 2.199564033167077104e-02 2.198769473547074887e-02 2.200313136920477308e-02 2.199428093930074629e-02 2.198963457293171345e-02 2.199981918503890119e-02 2.200059329504132702e-02 2.201224155292075615e-02 2.199339056312019786e-02 2.199756947766659532e-02
2.000000000000000000e+00 1.039999994138550848e-01 7.609077609385349588e-04 1.039999999999999952e-01 1.039844381227302966e-01 1.039673879366845854e-01 1.040274062294201940e-01 1.039906700668800366e-01 1.040683235438281673e-01 1.039764992612862288e-01 1.040970421973365090e-01 1.039359710493501648e-01 1.040280559197690469e-01 1.040346275846177199e-01 1.040217550650754663e-01 1.040327940409256219e-01 1.040218301429284981e-01 1.041240690951942688e-01 1.039923523696423824e-01 1.039565572679072569e-01 1.040266595651713477e-01 1.039456709993197420e-01 1.039967383848768717e-01 1.039512901416305701e-01 1.039584400627701632e-01 1.040066350581599769e-01 1.039554954114824820e-01 1.040125268777579992e-01 1.040588093926521629e-01 1.040377088092657720e-01 1.040384683145239991e-01 1.039926852502964100e-01 1.040604241291634147e-01 1.039574666055465835e-01 1.038954892788830353e-01 1.038814078098806160e-01 1.040040471177047648e-01 1.039834255367454302e-01 1.039061275430663428e-01 1.039799628191079295e-01 1.039544721364834001e-01 1.039462507756596377e-01 1.039971520840272390e-01 1.039441065696872918e-01 1.039314721669831187e-01 1.040604642378649414e-01 1.040808456344189670e-01 1.040565674346226044e-01 1.039393215963523992e-01 1.039936330028293360e-01 1.039368046088032516e-01 1.040431104953107866e-01 1.040324058984791744e-01 1.039727995571012586e-01 1.039657751633536742e-01 1.039959735282402764e-01 1.039417697177037747e-01 1.039539739585832179e-01 1.039079935593166804e-01 1.039259818881373421e-01 1.040277488693060887e-01 1.040448770426824904e-01 1.039682929054140809e-01 1.039764961889530492e-01 1.040053260724526363e-01 1.039696582145736153e-01 1.040133365790806841e-01 1.040142321098961320e-01 1.039505716578838085e-01 1.038175318372682315e-01 1.040117456749092006e-01 1.039903027271163460e-01 1.039857239206608969e-01 1.040144714014728800e-01 1.039790331017854397e-01 1.039642013310557167e-01 1.039370133361516985e-01 1.040545509770240684e-01 1.040373525844287966e-01 1.040490542465073581e-01 1.039390491673120170e-01 1.039738454336834733e-01 1.039610554924559199e-01 1.039287325648895338e-01 1.038893011690456836e-01 1.040193824402193684e-01 1.040626340583318959e-01 1.040139284374812650e-01 1.040557099987940576e-01 1.041080196217852999e-01 1.040394087763395897e-01 1.040398526455955791e-01 1.039856920460613954e-01 1.039112366580969560e-01 1.039964491027791094e-01 1.039590489383518390e-01 1.040270376894419646e-01 1.040938642019557658e-01 1.039774324953765955e-01 1.040549962759418634e-01 1.040551028781209197e-01 1.040550863103137935e-01 1.040997979201543217e-01 1.040456564843159626e-01 1.040131197198736618e-01 1.039534177974789086e-01 1.040335654912342006e-01 1.040086989260173289e-01 1.039692865446352477e-01 1.040024523762439479e-01 1.039839634878495511e-01 1.040606133599334682e-01 1.040358052045380483e-01 1.040384974916973293e-01 1.040068518660454133e-01 1.040159607741677622e-01 1.039679983162744292e-01 1.039148592261424781e-01 1.040470682954990206e-01 1.040701227475493984e-01 1.039873762134716079e-01 1.040197595657829932e-01 1.039549376771421590e-01 1.039560024790972537e-01 1.039597429999005174e-01 1.040012831242180386e-01 1.040631446275192828e-01 1.040936744943809222e-01 1.041308133009234971e-01 1.040566327861115054e-01 1.040372646945355306e-01 1.040107509061642121e-01 1.038925245620850590e-01 1.040247277853489083e-01 1.039715816623501682e-01 1.039015886681227407e-01 1.039813150813902465e-01 1.041011025291726649e-01 1.039835698740893127e-01 1.039902543422141640e-01 1.040178768124612879e-01 1.039842052857618826e-01 1.039429966351402695e-01 1.040448837706922230e-01 1.040398010453840588e-01 1.040665543493053818e-01 1.040551921643838168e-01 1.039748734219559795e-01 1.040223277719253409e-01 1.039509321670070291e-01 1.039627614348566098e-01 1.039299028215546344e-01 1.040553862598263130e-01 1.040237841010216158e-01 1.039238941254903292e-01 1.040295393257540807e-01 1.039828188486301985e-01 1.040115984620462175e-01 1.040337259511546764e-01 1.040833777134762689e-01 1.039867433306269628e-01 1.039913347096648594e-01 1.039126679079362819e-01 1.039535036014099800e-01 1.039860856613826073e-01 1.039577001746021800e-01 1.039918755164453285e-01 1.039660063473987761e-01 1.039375023057252240e-01 1.040539388671519461e-01 1.039627379447403965e-01 1.039555806527200366e-01 1.040533470734965604e-01 1.039856687568268268e-01 1.040263181428860984e-01 1.039950816148896146e-01 1.040078268448667576e-01 1.039739912228133389e-01 1.039591114017972828e-01 1.039786431218075458e-01 1.040542467681311312e-01 1.040443807336397380e-01 1.040198459599102898e-01 1.040922120484802094e-01 1.040462626364993676e-01 1.040266964394459676e-01 1.040245151107589278e-01 1.040701167340091354e-01 1.040100375426146334e-01 1.040180214689910981e-01 1.040219704201963691e-01 1.039913221251203279e-01 1.039649813558317509e-01 1.040170381750631923e-01 1.040559974639385099e-01 1.040027986629754181e-01 1.040041304892430074e-01 1.040288499669263511e-01 1.039943339709621106e-01 1.039217604975416764e-01 1.040115057922480629e-01 1.040678795911380294e-01 1.040522644523869666e-01 1.039963931530266672e-01 1.039627497395687605e-01 1.039923429788160714e-01 1.039699455342272816e-01 1.039394922301712654e-01 1.040641180458054954e-01 1.040572099029862668e-01 1.040273315281180500e-01 1.039632595768626711e-01 1.039719815618322662e-01 1.039645223573196220e-01 1.040298237094946510e-01 1.040969131366767941e-01 1.040942306120156841e-01 1.039887931010515659e-01 1.038561185842663548e-01 1.039793906588072775e-01 1.039418296585890022e-01 1.040148028362407329e-01 1.039729644403308007e-01 1.039509997993135482e-01 1.039991452383657033e-01 1.040028046674680851e-01 1.040578691592617538e-01 1.039687553892954808e-01 1.039885102580602738e-01
3.000000000000000000e+00 4.770748573171749718e-01 1.251963505043493866e-02 4.779999999999999805e-01 4.759287744848040291e-01 4.778501099397618468e-01 4.781259632467581566e-01 4.779571181920063139e-01 4.763127116044443832e-01 4.778919869893732408e-01 4.764441546724248466e-01 4.777057130922056083e-01 4.781289493235539312e-01 4.781591537062237496e-01 4.760995712593839024e-01 4.761500958026980701e-01 4.760999148849419660e-01 4.765678547049276292e-01 4.759649973841324488e-01 4.778003305198044726e-01 4.761220187790534686e-01 4.777502955545657182e-01 4.759850718384748824e-01 4.777761219971097262e-01 4.778089841346551681e-01 4.760303681508091245e-01 4.777954500643136759e-01 4.780575754573877512e-01 4.762691660663695425e-01 4.761725903193319009e-01 4.761760665164752049e-01 4.779663802850162013e-01 4.762765565911709076e-01 4.778045099754929526e-01 4.775196526471739422e-01 4.774549320492589843e-01 4.760185233464179211e-01 4.779238212169645839e-01 4.775685477460164807e-01 4.779079060339768148e-01 4.777907469349910174e-01 4.777529602958202615e-01 4.779869105400483265e-01 4.777431051952935048e-01 4.776850355367108780e-01 4.762767401656126109e-01 4.763700242498406512e-01 4.762589047969265632e-01 4.777211127216965947e-01 4.779707363014656374e-01 4.777095442596919761e-01 4.761973134208455360e-01 4.761483193045777385e-01 4.778749825797538042e-01 4.778426973854140170e-01 4.779814937163350819e-01 4.777323646640615484e-01 4.777884572327190105e-01 4.775771242437824027e-01 4.776598013704774215e-01 4.781275380723876145e-01 4.762053987722775772e-01 4.778542693152685317e-01 4.778919728684573043e-01 4.760243770239178107e-01 4.778605444862134011e-01 4.760610404965616160e-01 4.760651392722168862e-01 4.777728197352736350e-01 4.771613482520597471e-01 4.760537590505459216e-01 4.759556163279556329e-01 4.779343849430375823e-01 4.780665127875388110e-01 4.779036329101293279e-01 4.758361522459857995e-01 4.777105036026972340e-01 4.762496756256102137e-01 4.761709599056548337e-01 4.762245175128606567e-01 4.777198605959148692e-01 4.778797895894297820e-01 4.778210050518647001e-01 4.776724439040115344e-01 4.774912111423446071e-01 4.760887119379271226e-01 4.762866712669805991e-01 4.760637493869334658e-01 4.762549803790958602e-01 4.764943974997096210e-01 4.761803709378619742e-01 4.761824024933028476e-01 4.779342384424744572e-01 4.775920300247148975e-01 4.779836795300808627e-01 4.778117826205017238e-01 4.761237494247536062e-01 4.764296092320283171e-01 4.778962762768270700e-01 4.762517137245030896e-01 4.762522016344765130e-01 4.762521258048977857e-01 4.764567674037832323e-01 4.762089662166769100e-01 4.760600479486525316e-01 4.777859010307203280e-01 4.781542721616340863e-01 4.780399816022719017e-01 4.778588362339966089e-01 4.780112714985058631e-01 4.779262937230008279e-01 4.762774226858493276e-01 4.781645662285498588e-01 4.761762000581531429e-01 4.760313604638232166e-01 4.760730512356139976e-01 4.778529153382612971e-01 4.776086799047702391e-01 4.762154279678608715e-01 4.763209464214760991e-01 4.779419791349944768e-01 4.760904380126221302e-01 4.777928866314803402e-01 4.777977806250816584e-01 4.778149726341581749e-01 4.780058974363098345e-01 4.762890081028767209e-01 4.764287409550511110e-01 4.765987224157652857e-01 4.762592039056641746e-01 4.761705576403741369e-01 4.760492060705208139e-01 4.775060263526601512e-01 4.771134149385714007e-01 4.778693849481094325e-01 4.775476863784872128e-01 4.779141212394666938e-01 4.764627384989056913e-01 4.779244846136028180e-01 4.759553948739801976e-01 4.760818207954958803e-01 4.779274050634055859e-01 4.777380037653561895e-01 4.762054295658605385e-01 4.761821663231039503e-01 4.763046141372053732e-01 4.762526102908336556e-01 4.778845143816822794e-01 4.761021924945813555e-01 4.777744766906669160e-01 4.778288458255909865e-01 4.776778225836837977e-01 4.762534986507435120e-01 4.761088580008296933e-01 4.776502056921574924e-01 4.761351992217205953e-01 4.779210327850503259e-01 4.760530852685961878e-01 4.761543610841310614e-01 4.763816133809105624e-01 4.779390703080739766e-01 4.779601729924981002e-01 4.775986082691686674e-01 4.777862953987881967e-01 4.759363151424819138e-01 4.778055834948061187e-01 4.759628148637305434e-01 4.778437599428520532e-01 4.777127509820832674e-01 4.762468740458108418e-01 4.778287378614030079e-01 4.777958418461555890e-01 4.762441654517727274e-01 4.779341314015695397e-01 4.761204561155171211e-01 4.779773943453580753e-01 4.760358228668901126e-01 4.778804596586997966e-01 4.778120697121067129e-01 4.779018405021539517e-01 4.762482832849078696e-01 4.762031272039664587e-01 4.780912150849723208e-01 4.764220474526593696e-01 4.762117405285932747e-01 4.761221875497719247e-01 4.761122037761658654e-01 4.763209188979649067e-01 4.760459410604285235e-01 4.760824828773054240e-01 4.761005569232064638e-01 4.779601151519953794e-01 4.778390489239190408e-01 4.760779824166354035e-01 4.762562960849492932e-01 4.780128630855985383e-01 4.760189049315353138e-01 4.761320440793936348e-01 4.779739580588451275e-01 4.776403992098550155e-01 4.760526611260584295e-01 4.763106796671317533e-01 4.762392103782326358e-01 4.779834223764110601e-01 4.778287920722487092e-01 4.779648071526353958e-01 4.778618650515446542e-01 4.777218969809793880e-01 4.762934633634944293e-01 4.762618453252063788e-01 4.761250943017710791e-01 4.778311353628880154e-01 4.778712229476521633e-01 4.778369392961421269e-01 4.761365008242254837e-01 4.764435639717130022e-01 4.764312862626872147e-01 4.779484913682947034e-01 4.773386988776857631e-01 4.779052762972104129e-01 4.777326401615917262e-01 4.780680361127218059e-01 4.778757404084434945e-01 4.777747875391526455e-01 4.759960878217507907e-01 4.780128906831706548e-01 4.762648626904672500e-01 4.778563949623388374e-01 4.779471913783923664e-01
4.000000000000000000e+00 1.827520623460918925e+00 8.844510076656373829e-03 1.828000000000000291e+00 1.827726470080297760e+00 1.827426780271725226e+00 1.828481717186347222e+00 1.827836008483237684e+00 1.827199603759906310e+00 1.827586929323377074e+00 1.827703837041696922e+00 1.826874568059731807e+00 1.828493136743632785e+00 1.826607980476076420e+00 1.828382387105365048e+00 1.828336342656184499e+00 1.828383706743012427e+00 1.828178366998314708e+00 1.827865578189483475e+00 1.827236410439754488e+00 1.826468080442335440e+00 1.827045063334197028e+00 1.827942670841874229e+00 1.827143830566352545e+00 1.827269504180229376e+00 1.828116623906888893e+00 1.827217746271057264e+00 1.828220183966746459e+00 1.827032557220989117e+00 1.826662079670378080e+00 1.826675414830007949e+00 1.827871429207132969e+00 1.827060908267811090e+00 1.827252393797491825e+00 1.828161013272653346e+00 1.827913233577707075e+00 1.828071135876579767e+00 1.827708671934332951e+00 1.828348205805879090e+00 1.827647808012781372e+00 1.827199760245111992e+00 1.827055254018325137e+00 1.827949942400017402e+00 1.827017565474888139e+00 1.826795491550434303e+00 1.827061612484051967e+00 1.827419462773548497e+00 1.826993193611739175e+00 1.826933460366655604e+00 1.827888087780500381e+00 1.826889219470118952e+00 1.826756920811898999e+00 1.826568972794451629e+00 1.827521899907510461e+00 1.827398432678947415e+00 1.827929227015607783e+00 1.826976490807331599e+00 1.827191003810481940e+00 1.828381040514899247e+00 1.826698989341491108e+00 1.828487739741264662e+00 1.826787937307098542e+00 1.827442686837470465e+00 1.827586875321213222e+00 1.828093615965802110e+00 1.827466684771543948e+00 1.828234416024610898e+00 1.828250156700866436e+00 1.827131201832803864e+00 1.826789262136546910e+00 1.828206452824365558e+00 1.827829551780467909e+00 1.827749070451616609e+00 1.828254362710504122e+00 1.827631466442921404e+00 1.827370769549710117e+00 1.826892888254666225e+00 1.826957789269672450e+00 1.828656543503229148e+00 1.826861279366561952e+00 1.826928671902368961e+00 1.827540283199744042e+00 1.827315475386628973e+00 1.826747337775173730e+00 1.828052126339938521e+00 1.826340310921543919e+00 1.827099709524173443e+00 1.828244819074190008e+00 1.826978139017287894e+00 1.827896575282499603e+00 1.826691927169193264e+00 1.826699720489014522e+00 1.827748510194232789e+00 1.828438106579975297e+00 1.827937586152694305e+00 1.827280206339491953e+00 1.828475239387499007e+00 1.827648038776646722e+00 1.827603332707196326e+00 1.826965607691056093e+00 1.826967479379315584e+00 1.826967188486855687e+00 1.827752221175017233e+00 1.826801622503470668e+00 1.828230604307010232e+00 1.827181228209532993e+00 1.828589978057462595e+00 1.828152900353458232e+00 1.827460151957627232e+00 1.828043105228595477e+00 1.827718127459509123e+00 1.827064230723447258e+00 1.826628656764293090e+00 1.826675927113839526e+00 1.828120434722413368e+00 1.828280541299794892e+00 1.827437508866823546e+00 1.826503487167196571e+00 1.826826410649819099e+00 1.827231193625242334e+00 1.827778112675250810e+00 1.828347312367800903e+00 1.827207943017460368e+00 1.827226658959517192e+00 1.827292405805943432e+00 1.828022553375678427e+00 1.827108673940867067e+00 1.827644707949418912e+00 1.828296779687368590e+00 1.826994341033073121e+00 1.826654282040594879e+00 1.828188967850655544e+00 1.828108845659765835e+00 1.826434162846606757e+00 1.827500493065154830e+00 1.828268339064083037e+00 1.827671576622897698e+00 1.827775127098743013e+00 1.827711208940723697e+00 1.827828701322764315e+00 1.828314219357492831e+00 1.827722377522814634e+00 1.826998056240734636e+00 1.828788918584859369e+00 1.826698814508378010e+00 1.827168540786842765e+00 1.826969047040046812e+00 1.827558352070533854e+00 1.828392453529610773e+00 1.827137538473931233e+00 1.827345460604979710e+00 1.826767907286556358e+00 1.826972454908104337e+00 1.828418051314110615e+00 1.826662292898041606e+00 1.828519210456523547e+00 1.827698008223999970e+00 1.828203865275197071e+00 1.826592149873158100e+00 1.827463920238535211e+00 1.827766988542173898e+00 1.827847690858340091e+00 1.826464970535649268e+00 1.827182736378629269e+00 1.827755428740455823e+00 1.827256499222815078e+00 1.827857196577519661e+00 1.827402496183124558e+00 1.826901482835247226e+00 1.826947042032879276e+00 1.827345047721014026e+00 1.827219244549733057e+00 1.826936651501968489e+00 1.827748100841148693e+00 1.828462591973036400e+00 1.827913549923251946e+00 1.828137571850157794e+00 1.827542845724065446e+00 1.827281304254667615e+00 1.827624611794848253e+00 1.826952448063532852e+00 1.826779223265636132e+00 1.828348830910730971e+00 1.827619030774277453e+00 1.826812265136998681e+00 1.828469241262569378e+00 1.826430428771594228e+00 1.827231088041352702e+00 1.828176429114418688e+00 1.828316761974189797e+00 1.828386172385759290e+00 1.827847469660768942e+00 1.827384479985196375e+00 1.828299478692457125e+00 1.826983186241843304e+00 1.828049191883837077e+00 1.828072601291694355e+00 1.828507093649436088e+00 1.827900408643449381e+00 1.828623285677896781e+00 1.828202236425283234e+00 1.827191808975173526e+00 1.826917643173640249e+00 1.827936602728199578e+00 1.827345255037804650e+00 1.827865413127651717e+00 1.827471734966994887e+00 1.826936459584163730e+00 1.827125764919623530e+00 1.827004473873585777e+00 1.828480404167305728e+00 1.827354216408701770e+00 1.827507522067590262e+00 1.827376412203656431e+00 1.826523635514781141e+00 1.827701571034344497e+00 1.827654472091736926e+00 1.827803017199252533e+00 1.827468240473148375e+00 1.827637751195189342e+00 1.826977544383660224e+00 1.828260188313923562e+00 1.827524798047353016e+00 1.827138727241780503e+00 1.827984975920505128e+00 1.826049243488430118e+00 1.827016048892422750e+00 1.827450815881078272e+00 1.827798045689751572e+00
5.000000000000000000e+00 5.055244982827137967e+00 1.743395940330484672e-02 5.055600000000093353e+00 5.057243154084325454e+00 5.054414551998819505e+00 5.055331837341246803e+00 5.055546421712937111e+00 5.057320261447189935e+00 5.054857502548683712e+00 5.056714011355231797e+00 5.052887207937638792e+00 5.053362870256473904e+00 5.053682101514314517e+00 5.057057630855976704e+00 5.055593664258059228e+00 5.057061280794677316e+00 5.056024508949337637e+00 5.055628207508768845e+00 5.055887179433412371e+00 5.057296065014483588e+00 5.055357729947685286e+00 5.057841372602953633e+00 5.055631014772763443e+00 5.055978748437418346e+00 5.058322693501664524e+00 5.055835536454599932e+00 5.054608758078740216e+00 5.054856779343064765e+00 5.055832503096435282e+00 5.055869412130810758e+00 5.055644390629794316e+00 5.056936380276844112e+00 5.055931404719755662e+00 5.054915151453347910e+00 5.052232314445924466e+00 5.054196674354614061e+00 5.055194226094085863e+00 5.053434549161822886e+00 5.053026270074725268e+00 5.055785769868586854e+00 5.055385927146985203e+00 5.055861547469632455e+00 5.055281644514214356e+00 5.054667175198082951e+00 5.056938329405475052e+00 5.055927232164274976e+00 5.054747871920321600e+00 5.055048929176446215e+00 5.055690465983703419e+00 5.054926516455067187e+00 5.056095004262506798e+00 5.055574802028016457e+00 5.054677640006768335e+00 5.054336146403040075e+00 5.055804251526757831e+00 5.055167992616785178e+00 5.055761541178018348e+00 5.053525302144459275e+00 5.054400157598065491e+00 5.053347954689753507e+00 5.056180851670358578e+00 5.056457937649850187e+00 5.054857353186025470e+00 5.056258929060773788e+00 5.054524922431578915e+00 5.054648106448786926e+00 5.056241837915057324e+00 5.055596071592079355e+00 5.051122222082473634e+00 5.056571020503278113e+00 5.056278493416784592e+00 5.057305688372142782e+00 5.054703254452345362e+00 5.054980686179108673e+00 5.058258257068672492e+00 5.052937879111374819e+00 5.054649918614669168e+00 5.053814473620521497e+00 5.055933635455941655e+00 5.055035679694848127e+00 5.054728485699073737e+00 5.056105948854250798e+00 5.054533935703954484e+00 5.054614076109338328e+00 5.054941912046814423e+00 5.055042569833584132e+00 5.054676868490676434e+00 5.054706220326034227e+00 5.055695650950158715e+00 5.055915114957887369e+00 5.055936685296538613e+00 5.055304413316215495e+00 5.053683029006292848e+00 5.055827371765876599e+00 5.055858419931274383e+00 5.055313927715766376e+00 5.056559634118081625e+00 5.054902872082924326e+00 5.054671549865944691e+00 5.054676728271797259e+00 5.054675923458704645e+00 5.056847875890573718e+00 5.054217851526579430e+00 5.054637567925398756e+00 5.054435074773870440e+00 5.053630508285722911e+00 5.054422734347033597e+00 5.056506262911202754e+00 5.054119176053239570e+00 5.055220378793916503e+00 5.054944410522922205e+00 5.055739995228224259e+00 5.053870089692835244e+00 5.056333106103131136e+00 5.056775939174925405e+00 5.056443610420346069e+00 5.053859211209890567e+00 5.056287338129346054e+00 5.055406347313649462e+00 5.055386289762619612e+00 5.054960238898723368e+00 5.053809277842603365e+00 5.053861043599189529e+00 5.054042890456702075e+00 5.054062354901903475e+00 5.055067371713724889e+00 5.054548617275226974e+00 5.056351992015997610e+00 5.054751046494570410e+00 5.055810920828678334e+00 5.056522659438137168e+00 5.054770906578369249e+00 5.055201675261089989e+00 5.056617885078530605e+00 5.055211910199049363e+00 5.055091625495279573e+00 5.054909305503096029e+00 5.055201243109572751e+00 5.055526211098412048e+00 5.056869088113502997e+00 5.053232437636928864e+00 5.053228759492973232e+00 5.054180315476319407e+00 5.053933412320001928e+00 5.057234285397974816e+00 5.054681065523721983e+00 5.054778461744321660e+00 5.055085043839525838e+00 5.055613604814630513e+00 5.054189632833028689e+00 5.056589502664100344e+00 5.054690494083101449e+00 5.055155815832338639e+00 5.054298620064712644e+00 5.055435497618857354e+00 5.053165062124779006e+00 5.056563863693323668e+00 5.055638951510920798e+00 5.056050232773865893e+00 5.055355521919711492e+00 5.055578733577553052e+00 5.053752637291747618e+00 5.055738665537805154e+00 5.057323281493011358e+00 5.055942764260940692e+00 5.055605025107188233e+00 5.056346731780220871e+00 5.054960448676521167e+00 5.054620184200496524e+00 5.054188490851994509e+00 5.053840536347620649e+00 5.056592462590881354e+00 5.053303556701950860e+00 5.057279466638770593e+00 5.055760890816172193e+00 5.056380505073521547e+00 5.054735573293695161e+00 5.056011398752795039e+00 5.056961316443294052e+00 5.056636184289756919e+00 5.056156732959761868e+00 5.054964437321024739e+00 5.056479377585788804e+00 5.056248186200652306e+00 5.055297344278460336e+00 5.055191340093996288e+00 5.057407403593098039e+00 5.054487785965138258e+00 5.054875774079625295e+00 5.057068100428008250e+00 5.053578288657289974e+00 5.052298228580516692e+00 5.056828317433842201e+00 5.054720184498243896e+00 5.056136058076958761e+00 5.056200805323198821e+00 5.055401997431209438e+00 5.053724652781178328e+00 5.054194851890056128e+00 5.054559137250208778e+00 5.055297381677204882e+00 5.056539851368881955e+00 5.054974681226087618e+00 5.056188347910949510e+00 5.055627750970135281e+00 5.056538312616553732e+00 5.053058391497556201e+00 5.057115890418279136e+00 5.054779081056602230e+00 5.055328207145275421e+00 5.054213850198246760e+00 5.054637872852153713e+00 5.054275240755846887e+00 5.055449317574864487e+00 5.054705878271325226e+00 5.054575621064223867e+00 5.053455387814564048e+00 5.052999615734497851e+00 5.054998068951246815e+00 5.055170907818683723e+00 5.054719360907313330e+00 5.054685655868389915e+00 5.055616894085845914e+00 5.055958445434394655e+00 5.056136349987679246e+00 5.054811105697984530e+00 5.052481632091340380e+00 5.055441421776468047e+00
6.000000000000000000e+00 2.981564382067354666e-03 2.608957291433733325e-05 2.994815779320987581e-03 2.981055491255144019e-03 2.980605388374485670e-03 2.982561192558299060e-03 2.981119791666666640e-03 2.983322080761316962e-03 2.981031378600822873e-03 2.984460733882030210e-03 2.979587298525377282e-03 2.982534400720164743e-03 2.982298632544581798e-03 2.982183427640603714e-03 2.982622813786008076e-03 2.981963734567901099e-03 2.985165359224965873e-03 2.981189450445816038e-03 2.980334790809328026e-03 2.982145919067215410e-03 2.979723936899862907e-03 2.981363597393689967e-03 2.980219585905349942e-03 2.980262452846365023e-03 2.981202846364883197e-03 2.980350865912208356e-03 2.981585969650205753e-03 2.983354230967078056e-03 2.982253086419753112e-03 2.982491533779149662e-03 2.981497556584361986e-03 2.983330118312757344e-03 2.980128493655692570e-03 2.978408457647462124e-03 2.978159293552812021e-03 2.981776191700960012e-03 2.980975115740740634e-03 2.978641546639231898e-03 2.981157300240054944e-03 2.979991855281206945e-03 2.979892725480109625e-03 2.981636874142661216e-03 2.979954346707819075e-03 2.979667674039780667e-03 2.983067558299039648e-03 2.983788258744856075e-03 2.983206875857338878e-03 2.979734653635116460e-03 2.981612761488340070e-03 2.979316700960219638e-03 2.982746056241426542e-03 2.982676397462277144e-03 2.980731310013717307e-03 2.980514296124828731e-03 2.981470764746227669e-03 2.980013288751714486e-03 2.980024005486968473e-03 2.978930898491083477e-03 2.979560506687242965e-03 2.982483496227709280e-03 2.982829110939643532e-03 2.980329432441700815e-03 2.980878665123456919e-03 2.981602044753086517e-03 2.980460712448559663e-03 2.982041430898490879e-03 2.981851208847736620e-03 2.980219585905349942e-03 2.976144547325102786e-03 2.981762795781892853e-03 2.981036736968450084e-03 2.981336805555555650e-03 2.981926225994513228e-03 2.980664330418381514e-03 2.980262452846365023e-03 2.979823066700960227e-03 2.983279213820301881e-03 2.982387045610425131e-03 2.983458719135802586e-03 2.979493527091906738e-03 2.980519654492455508e-03 2.980249056927297864e-03 2.979643561385459521e-03 2.978223593964334642e-03 2.982036072530864102e-03 2.983314043209876580e-03 2.981749399862825695e-03 2.983338155864197726e-03 2.984482167352537751e-03 2.982681755829903920e-03 2.982654963991769603e-03 2.981119791666666640e-03 2.978971086248285386e-03 2.981403785150891442e-03 2.980763460219478835e-03 2.982116448045267487e-03 2.984321416323730981e-03 2.980498221021947967e-03 2.983589999142661001e-03 2.982839827674897085e-03 2.983311364026062975e-03 2.984704539609053537e-03 2.982775527263374464e-03 2.981878000685870937e-03 2.980074909979423935e-03 2.982451346021947752e-03 2.981628836591220834e-03 2.980551804698216602e-03 2.981644911694101598e-03 2.980924211248285171e-03 2.983257780349794341e-03 2.982673718278463539e-03 2.982534400720164743e-03 2.981634194958847611e-03 2.981918188443072847e-03 2.980704518175582990e-03 2.979137195644718933e-03 2.982882694615912166e-03 2.983209555041152049e-03 2.981331447187928873e-03 2.982140560699588633e-03 2.980222265089163113e-03 2.980251736111111036e-03 2.980283886316872563e-03 2.981556498628257831e-03 2.983314043209876580e-03 2.984208890603566502e-03 2.985170717592592650e-03 2.983241705246913577e-03 2.982357574588477209e-03 2.981789587620027604e-03 2.978301290294924422e-03 2.982247728052126335e-03 2.980755422668038453e-03 2.978435249485596875e-03 2.981178733710562485e-03 2.984318737139917809e-03 2.980918852880658394e-03 2.981272505144033028e-03 2.982159314986282568e-03 2.980811685528120692e-03 2.979624807098765586e-03 2.982593342764060153e-03 2.982542438271605124e-03 2.983381022805212807e-03 2.983340835048010897e-03 2.980626821844993210e-03 2.982295953360768193e-03 2.979876650377229295e-03 2.980817043895747469e-03 2.979442622599451276e-03 2.983260459533607512e-03 2.982172710905349727e-03 2.979305984224965651e-03 2.982103052126200329e-03 2.981449331275720128e-03 2.981883359053498148e-03 2.982183427640603714e-03 2.984235682441700819e-03 2.981050132887517242e-03 2.981063528806584401e-03 2.978855881344307302e-03 2.980353545096021961e-03 2.981328768004115268e-03 2.980037401406035631e-03 2.981232317386831119e-03 2.980699159807956213e-03 2.979678390775034220e-03 2.983407814643347124e-03 2.980267811213991799e-03 2.979815029149519845e-03 2.983710562414266295e-03 2.981095679012345494e-03 2.982170031721536555e-03 2.981553819444444659e-03 2.981789587620027604e-03 2.980843835733882220e-03 2.980305319787380103e-03 2.980932248799725553e-03 2.983051483196159318e-03 2.982920203189300470e-03 2.982052147633744866e-03 2.984326774691358191e-03 2.982949674211248393e-03 2.982266482338820270e-03 2.982352216220850432e-03 2.983322080761316962e-03 2.981580611282578976e-03 2.981947659465020769e-03 2.982006601508916180e-03 2.981170696159122103e-03 2.980857231652949378e-03 2.981811021090535144e-03 2.983016653806584186e-03 2.981307334533607727e-03 2.981768154149520064e-03 2.982274519890260652e-03 2.981208204732510407e-03 2.979107724622771011e-03 2.981532385973936685e-03 2.983729316700960230e-03 2.982863940329218231e-03 2.981658307613168756e-03 2.980508937757201521e-03 2.981462727194787287e-03 2.980916173696844789e-03 2.979600694444444441e-03 2.983324759945130134e-03 2.983445323216735428e-03 2.982654963991769603e-03 2.980444637345678899e-03 2.980559842249656984e-03 2.980498221021947967e-03 2.982403120713305895e-03 2.984391075102880812e-03 2.984246399176954806e-03 2.981277863511659805e-03 2.977141203703703633e-03 2.980886702674897300e-03 2.979801633230452686e-03 2.981851208847736620e-03 2.980471429183813650e-03 2.980206189986282783e-03 2.981387710048011112e-03 2.981283221879286582e-03 2.983035408093278554e-03 2.980862590020576155e-03 2.981109074931413087e-03
