# vvf statistics with RF=500
# gcat file: /disk2/salam/Abacus/AbacusCosmos_720box_products/GCAT_derivative/AbacusCosmos_720box_03_rockstar_halos_z0.100_Mr21_hod-default_real-3.gcat.rsd_zz.1pz0.100by100
# stats order in row: stdvvf,p2.5,p16,p50,p84,p97.5,rho
# columns: numbers, mean, sigma,All, jnrealizations
0.000000000000000000e+00 1.401067084797844142e+00 4.700198868614714059e-03 1.401067300743265021e+00 1.401458555089046154e+00 1.400844686973703679e+00 1.401087814919258712e+00 1.401040059198133347e+00 1.401491971279842597e+00 1.401067924384730823e+00 1.401241950278265147e+00 1.400311572691485873e+00 1.399844981100873964e+00 1.401061953940348159e+00 1.401609117403375127e+00 1.401279106555617826e+00 1.401159160353200983e+00 1.400924535550655436e+00 1.401365112281026892e+00 1.401356625985731075e+00 1.401296742163986364e+00 1.401062492579995489e+00 1.401295779819387466e+00 1.401313443315549856e+00 1.401119222659165997e+00 1.401607263604680353e+00 1.400927947446046096e+00 1.401246078483067370e+00 1.401024663816893723e+00 1.401293058420521875e+00 1.401459403982606711e+00 1.400985674861132235e+00 1.401512160715666200e+00 1.400794796369721817e+00 1.400970416763045900e+00 1.400467516226081566e+00 1.401168156918271235e+00 1.401105803186263099e+00 1.400621180747938732e+00 1.400327361522538228e+00 1.401120514617099078e+00 1.401047474777152857e+00 1.401112423925732875e+00 1.401424807445249554e+00 1.400901674780361539e+00 1.400896136846140561e+00 1.401188362920352537e+00 1.401004498055102854e+00 1.400401594327427945e+00 1.401237569416870388e+00 1.400985270573334995e+00 1.401333861764414879e+00 1.401223427889075834e+00 1.400911735760362209e+00 1.400311391199284605e+00 1.400930817177762355e+00 1.400742897577245349e+00 1.401125241068559069e+00 1.400575994351983988e+00 1.400851716018498561e+00 1.400948012858588498e+00 1.401201809983247504e+00 1.401073424006975099e+00 1.400784527084865783e+00 1.401393382394007237e+00 1.401273424051704408e+00 1.401224178345915616e+00 1.401108596093210812e+00 1.401152489300893977e+00 1.400394678744664612e+00 1.401627389210253538e+00 1.401408931066729480e+00 1.401379684356606869e+00 1.400711081419780069e+00 1.401342422501847595e+00 1.401512706421886412e+00 1.400934500102121394e+00 1.401087878669591280e+00 1.400978064494302178e+00 1.401090592586525130e+00 1.401179418348210026e+00 1.400994957776507732e+00 1.401065326258668531e+00 1.400750850937028336e+00 1.400764016220874764e+00 1.401066629549248876e+00 1.400142368685068250e+00 1.401216542652109043e+00 1.400764854166964390e+00 1.401546616720233063e+00 1.401088380403992639e+00 1.401229371453516004e+00 1.400962774996969973e+00 1.400697912954288249e+00 1.401280088869595764e+00 1.401080842223839440e+00 1.401236962140314235e+00 1.401432269927824104e+00 1.400909275283286126e+00 1.400911963817482730e+00 1.401504012063315763e+00 1.401023788659456759e+00 1.400895439741418169e+00 1.400900108061886584e+00 1.401197020337894505e+00 1.400624378872380449e+00 1.400832922495527599e+00 1.400788386433641897e+00 1.401148913348295055e+00 1.401172311209838650e+00 1.400805315740454082e+00 1.401163158946463261e+00 1.400923629451219066e+00 1.401027462205181706e+00 1.401427090771889983e+00 1.401112070535040832e+00 1.401126535446406196e+00 1.400567481163227379e+00 1.401358570648616686e+00 1.401124323746125278e+00 1.401343213416145428e+00 1.401240733289839113e+00 1.400486827108371912e+00 1.401101272995656677e+00 1.401068819865944226e+00 1.400908598111401338e+00 1.401054264973267127e+00 1.400966541295907364e+00 1.400690651631848249e+00 1.401258507059378378e+00 1.401527910007069222e+00 1.401376838986591711e+00 1.400935676764803572e+00 1.401159501230534676e+00 1.401204815203419773e+00 1.400826103403153722e+00 1.401244698632991170e+00 1.401180013352283371e+00 1.401304602351736817e+00 1.401100147224230152e+00 1.401330497733301650e+00 1.400708604168111604e+00 1.400291545977910390e+00 1.400444537334316619e+00 1.401284065754785146e+00 1.401284196314673824e+00 1.401369614221702697e+00 1.401198479592212998e+00 1.401222627135235044e+00 1.401016680268193815e+00 1.400885167605174786e+00 1.401191702069881861e+00 1.400605210518748978e+00 1.400786138658348889e+00 1.400647543333008560e+00 1.400865815014802118e+00 1.400179312868583548e+00 1.401324113025983920e+00 1.401040958731766040e+00 1.401526783496340300e+00 1.401248458423137278e+00 1.401458367702775654e+00 1.400640058194706272e+00 1.401164919625569327e+00 1.401420617672200386e+00 1.401298382012257315e+00 1.401235087252264533e+00 1.401014986978172505e+00 1.400986038999012973e+00 1.400809130844058892e+00 1.400811647424746065e+00 1.400847735553125473e+00 1.401083944018778560e+00 1.400991223748839554e+00 1.401269197633606467e+00 1.400872318992095744e+00 1.401646843154991107e+00 1.400889512033628881e+00 1.400993932061660008e+00 1.401352264745722831e+00 1.401461244588184440e+00 1.401078097294597091e+00 1.400974706504884537e+00 1.401674826871010193e+00 1.401627219556528914e+00 1.401322708597694255e+00 1.401091777627824220e+00 1.401485290093845482e+00 1.401507891446540643e+00 1.401364400034076363e+00 1.401394854475058516e+00 1.400993342726125634e+00 1.400327924394388246e+00 1.401603864514142206e+00 1.401001347999615954e+00 1.401296691231482816e+00 1.401478707770196896e+00 1.400882214657995117e+00 1.400736561237565514e+00 1.400757161377259585e+00 1.401481728779616631e+00 1.401340516174004902e+00 1.401377383135668397e+00 1.400881688324711716e+00 1.401255608841096345e+00 1.401115249369346616e+00 1.401041648277066010e+00 1.400750036830421763e+00 1.401202592593095320e+00 1.401278993243102455e+00 1.401052951668978697e+00 1.401136780388435588e+00 1.400994918151033941e+00 1.400820468544163866e+00 1.401152139244585149e+00 1.401128446198157906e+00 1.400681370709804918e+00 1.400459498176805484e+00 1.400703185700105102e+00 1.400928544324244740e+00 1.401203198763106395e+00 1.400715898055481246e+00 1.401290504244124602e+00 1.401069787912057496e+00 1.401679433829839949e+00 1.401443596336890751e+00 1.401266087180927711e+00 1.400581063274271676e+00 1.401037895462478255e+00
1.000000000000000000e+00 2.599999986239352745e-02 1.831971131859342456e-04 2.599999999999999881e-02 2.599541024585207138e-02 2.599337749078356116e-02 2.600894017422037199e-02 2.599561745114652850e-02 2.601449555727089816e-02 2.599557529102530795e-02 2.602311899347226412e-02 2.598754079379583110e-02 2.600746726259791156e-02 2.600891459474561490e-02 2.600854724339068946e-02 2.600957578645353083e-02 2.600535100017085238e-02 2.603126590115625860e-02 2.599659736122603149e-02 2.599390921350999695e-02 2.600692178721750528e-02 2.598796182104235949e-02 2.599761097846082364e-02 2.599267410125245120e-02 2.598699780125585460e-02 2.600199899239464749e-02 2.599110570442945967e-02 2.600362445759112767e-02 2.601516148694378583e-02 2.600620044148127530e-02 2.600859431190450169e-02 2.599952041275562994e-02 2.601334262063225572e-02 2.598779188757720932e-02 2.597334791339833693e-02 2.597099994812452836e-02 2.600169698477238639e-02 2.599611641612185192e-02 2.597476121001187840e-02 2.599173825223952475e-02 2.598719887911826731e-02 2.598590715465883341e-02 2.600184372418208600e-02 2.598689512844158667e-02 2.598399526404472290e-02 2.601300569375661342e-02 2.602003708504968538e-02 2.601166928172278861e-02 2.598323481932699255e-02 2.599701593609831524e-02 2.598462174260015439e-02 2.601259695925930288e-02 2.600929571194119869e-02 2.599552018162765848e-02 2.599048887059200383e-02 2.599787871476707743e-02 2.598632130423517844e-02 2.599286306472646524e-02 2.598104918381983694e-02 2.598291382121925910e-02 2.600673630417380325e-02 2.600673272163323002e-02 2.599133919073385451e-02 2.599587213559617638e-02 2.600019572919043051e-02 2.599358977752893457e-02 2.600153245648329989e-02 2.600315307282975025e-02 2.598941020222552203e-02 2.595551939748355283e-02 2.599850343672519687e-02 2.599923524749829171e-02 2.599900903421420439e-02 2.600520172751919976e-02 2.599367673450799637e-02 2.599073581031445535e-02 2.598632754449995211e-02 2.601526744567347893e-02 2.600785451423347217e-02 2.601337352319153459e-02 2.598500548508177188e-02 2.599357850954941984e-02 2.599291647798821978e-02 2.598279450000219246e-02 2.597044627508349884e-02 2.600623157237235208e-02 2.601245920119331020e-02 2.599779451100080185e-02 2.601649491879666140e-02 2.602406074521798965e-02 2.600893938009091536e-02 2.601020377281396817e-02 2.599321910626584131e-02 2.597862014096544853e-02 2.600033675902119548e-02 2.599368168075771521e-02 2.600700723193182309e-02 2.602228813133274782e-02 2.599709968878394922e-02 2.601550045299697717e-02 2.601419804658895371e-02 2.601433641706527716e-02 2.602572454315762313e-02 2.601068226130364563e-02 2.600424051134547429e-02 2.598600823314585126e-02 2.600782132652032508e-02 2.600163818331480484e-02 2.599155027901954573e-02 2.600285858423920932e-02 2.599738854952121300e-02 2.601223771254384740e-02 2.600785016345859985e-02 2.601163888302880645e-02 2.600174715078014398e-02 2.600388104394847633e-02 2.599209444614486095e-02 2.597738681569532887e-02 2.601005223007894426e-02 2.601590548223071606e-02 2.599691080429917395e-02 2.600555559742399533e-02 2.598806631158539007e-02 2.598904239405907396e-02 2.599109104497181535e-02 2.599643554619944855e-02 2.601490165434978616e-02 2.602045041574476553e-02 2.602786423027073776e-02 2.601580228098841069e-02 2.600432729753426181e-02 2.600033183338765208e-02 2.597575130764405091e-02 2.600589452194259493e-02 2.599354062003984486e-02 2.597579776867722443e-02 2.600080259529729751e-02 2.602344641873797701e-02 2.599570941266229548e-02 2.599390668693285847e-02 2.600512414579638984e-02 2.599768053763029663e-02 2.598584753624811824e-02 2.600822393135904589e-02 2.600750446953191408e-02 2.601689175363208414e-02 2.601246718308839606e-02 2.599225082195204262e-02 2.600344086651164635e-02 2.598723469163623234e-02 2.599199423872543963e-02 2.597767105345225730e-02 2.601096226374284906e-02 2.600007983827077804e-02 2.597938099119631583e-02 2.600568185630713208e-02 2.600133391891690585e-02 2.600004082756000867e-02 2.600541498318984304e-02 2.602386633952893935e-02 2.599729454233480272e-02 2.599937477599520083e-02 2.597691647178019050e-02 2.599138861152447064e-02 2.599944333233314767e-02 2.598687829853523965e-02 2.599826006291565059e-02 2.599119012738103363e-02 2.598730952955247836e-02 2.601253178041235473e-02 2.599236984904181036e-02 2.598929246905557974e-02 2.601304806716532927e-02 2.599674174607516722e-02 2.600524225405738063e-02 2.600105008537314383e-02 2.600429896954514070e-02 2.599549880760181411e-02 2.598691871367717759e-02 2.599678833994830893e-02 2.601046079023750998e-02 2.601064504453938150e-02 2.600835904199284496e-02 2.602186495208426431e-02 2.601061845891764965e-02 2.600684561467833320e-02 2.600858807634676487e-02 2.601825969798132743e-02 2.600412102256848684e-02 2.600480974385499869e-02 2.600403369036827228e-02 2.599505493394338104e-02 2.599210380326571687e-02 2.600666803422072015e-02 2.600954628052015369e-02 2.600058160064906004e-02 2.600271117454134445e-02 2.600824735217921804e-02 2.599555497248230707e-02 2.597914797419361571e-02 2.600223556445090123e-02 2.601730998443925122e-02 2.601263914636406382e-02 2.600137135486052520e-02 2.599526503573574426e-02 2.599762127002929607e-02 2.599656966431421537e-02 2.598549426506687951e-02 2.601385672544725969e-02 2.601527994030221336e-02 2.600795118301328993e-02 2.599434350098420513e-02 2.599332474805823856e-02 2.599486337263308411e-02 2.601013704387166933e-02 2.602456981240861347e-02 2.601844857648708334e-02 2.599422597800300772e-02 2.596749502654726802e-02 2.599258838502349969e-02 2.598773385026762264e-02 2.600074292333501638e-02 2.599314840874276944e-02 2.598871017491795332e-02 2.599981335508958630e-02 2.599922099031589523e-02 2.601254696956722262e-02 2.599719796175588987e-02 2.599707378176127973e-02
2.000000000000000000e+00 1.159999993860634515e-01 8.173409665218462315e-04 1.160000000000000059e-01 1.159795226353400044e-01 1.159704534204189785e-01 1.160398869311370373e-01 1.159804470897306677e-01 1.160646724862855472e-01 1.159802589907282938e-01 1.161031462785685614e-01 1.159444127723198714e-01 1.160333154792829863e-01 1.160397728073265800e-01 1.160381338551276925e-01 1.160427227395619265e-01 1.160238736930699621e-01 1.161394940205433129e-01 1.159848189962392057e-01 1.159728257218138325e-01 1.160308818198934749e-01 1.159462912015736119e-01 1.159893412885175390e-01 1.159673152209724778e-01 1.159419901902184191e-01 1.160089185814530549e-01 1.159603177582237410e-01 1.160161706569450141e-01 1.160676435571338233e-01 1.160276635081472357e-01 1.160383438531123745e-01 1.159978603030635824e-01 1.160595286151285266e-01 1.159455330368829307e-01 1.158810906905464455e-01 1.158706151531709722e-01 1.160075711628306416e-01 1.159826732411590317e-01 1.158873961677452935e-01 1.159631398946071035e-01 1.159428873068353433e-01 1.159371242284778780e-01 1.160082258463508570e-01 1.159415321115086078e-01 1.159285942549687642e-01 1.160580254029141140e-01 1.160893962256062950e-01 1.160520629492247519e-01 1.159252015016127291e-01 1.159866864841309353e-01 1.159313893131391771e-01 1.160562018182338118e-01 1.160414731763530355e-01 1.159800131180310639e-01 1.159575657303335561e-01 1.159905358043454293e-01 1.159389719727415696e-01 1.159681582887796131e-01 1.159154502047346491e-01 1.159237693562089888e-01 1.160300542801600554e-01 1.160300382965174792e-01 1.159613594663510411e-01 1.159815833741983382e-01 1.160008732533111264e-01 1.159714005458983288e-01 1.160068371135408866e-01 1.160140675557019829e-01 1.159527532099292602e-01 1.158015480810804798e-01 1.159933230253893527e-01 1.159965880273000766e-01 1.159955787680326117e-01 1.160232077073933415e-01 1.159717885078049154e-01 1.159586674614029450e-01 1.159389998139228606e-01 1.160681162960816581e-01 1.160350432173493374e-01 1.160596664880853002e-01 1.159331013949802258e-01 1.159713502733743379e-01 1.159683965941012973e-01 1.159232370000097823e-01 1.158681449196033025e-01 1.160278023998151109e-01 1.160555872053239956e-01 1.159901601260035775e-01 1.160735927146312463e-01 1.161073479402033315e-01 1.160398833880979252e-01 1.160455245248623035e-01 1.159697467818014416e-01 1.159046129366150674e-01 1.160015024633253289e-01 1.159718105756882695e-01 1.160312630347727497e-01 1.160994393551768866e-01 1.159870601499591591e-01 1.160691558672172774e-01 1.160633451309353303e-01 1.160639624761373861e-01 1.161147710387032128e-01 1.160476593196624051e-01 1.160189192044644158e-01 1.159375751940353305e-01 1.160348951490906694e-01 1.160073088178660561e-01 1.159623012448564305e-01 1.160127536835287854e-01 1.159883489132484818e-01 1.160545990251956316e-01 1.160350238061998995e-01 1.160519273242823779e-01 1.160077949804037278e-01 1.160173154268470536e-01 1.159647290674155340e-01 1.158991104084868412e-01 1.160448484111214484e-01 1.160709629207216653e-01 1.159862174345655389e-01 1.160247865115839883e-01 1.159467573901502291e-01 1.159511122196481836e-01 1.159602523544896319e-01 1.159840970522744708e-01 1.160664843040221245e-01 1.160912403163997242e-01 1.161243173350540447e-01 1.160705024844098099e-01 1.160193064043836403e-01 1.160014804874218292e-01 1.158918135264119242e-01 1.160262986363592708e-01 1.159711812278700765e-01 1.158920208140983982e-01 1.160035808097879539e-01 1.161046070989848189e-01 1.159808573795702291e-01 1.159728144493927526e-01 1.160228615735531127e-01 1.159896516294274815e-01 1.159368582386454544e-01 1.160366913860634286e-01 1.160334814794500985e-01 1.160753632085123888e-01 1.160556228168559134e-01 1.159654267440937137e-01 1.160153515582827283e-01 1.159430470857616552e-01 1.159642819881596537e-01 1.159003785461716063e-01 1.160489085613142513e-01 1.160003562015157752e-01 1.159080074991835629e-01 1.160253498204471961e-01 1.160059513305523454e-01 1.160001821537292865e-01 1.160241591557700791e-01 1.161064805917445125e-01 1.159879294965706631e-01 1.159972105390555119e-01 1.158970119510193131e-01 1.159615799591091900e-01 1.159975164057940461e-01 1.159414570242341402e-01 1.159922372037775207e-01 1.159606944144692398e-01 1.159433809780033714e-01 1.160559110203012723e-01 1.159659577880326892e-01 1.159522279388633531e-01 1.160582144535068361e-01 1.159854631747969100e-01 1.160233885181021635e-01 1.160046849962801940e-01 1.160191800179706245e-01 1.159799177569927203e-01 1.159416373379443532e-01 1.159856710551539771e-01 1.160466712179827331e-01 1.160474932756372368e-01 1.160372941873527020e-01 1.160975513246836344e-01 1.160473746628633562e-01 1.160305419731802734e-01 1.160383160329317292e-01 1.160814663448397760e-01 1.160183861006901657e-01 1.160214588571992222e-01 1.160179964647199830e-01 1.159779373975935446e-01 1.159647708145701145e-01 1.160297496911386061e-01 1.160425910977053027e-01 1.160025948336650403e-01 1.160120960094921522e-01 1.160367958789534359e-01 1.159801683387672172e-01 1.159069678848638346e-01 1.160099740567809290e-01 1.160772291613443585e-01 1.160563900376242880e-01 1.160061183524546680e-01 1.159788747748210086e-01 1.159893872047460806e-01 1.159846954254018930e-01 1.159352821056830046e-01 1.160618223135339300e-01 1.160681720413483525e-01 1.160354745088285205e-01 1.159747633120833815e-01 1.159702181067213678e-01 1.159770827394399073e-01 1.160452268111197560e-01 1.161096191630538177e-01 1.160823090335577484e-01 1.159742389787826455e-01 1.158549778107493405e-01 1.159669327947202289e-01 1.159452741011939986e-01 1.160033145810331623e-01 1.159694313620831252e-01 1.159496300111724082e-01 1.159991672765535442e-01 1.159965244183324556e-01 1.160559787872999099e-01 1.159874985986032031e-01 1.159869445647810915e-01
3.000000000000000000e+00 4.979999973643068900e-01 3.508929321792098217e-03 4.979999999999999982e-01 4.979120885551666098e-01 4.978731534773159217e-01 4.981712387216055693e-01 4.979160573334988626e-01 4.982776456738810533e-01 4.979152498050231634e-01 4.984428176441995095e-01 4.977613582811663551e-01 4.981430267989907512e-01 4.981707487762813691e-01 4.981637125849447401e-01 4.981834131405329935e-01 4.981024922340416827e-01 4.985988622606083442e-01 4.979348263804062591e-01 4.978833380126145847e-01 4.981325788474737504e-01 4.977694225722729127e-01 4.979542410489803950e-01 4.978596808624508041e-01 4.977509578855928707e-01 4.980382883927897963e-01 4.978296400309950576e-01 4.980694223030915357e-01 4.982904007883848241e-01 4.981187623022182986e-01 4.981646141280169915e-01 4.979908140597040234e-01 4.982555625028793900e-01 4.977661676928250012e-01 4.974895100335527953e-01 4.974445374679236642e-01 4.980325037852557646e-01 4.979256144318724431e-01 4.975165800994582610e-01 4.978417557544339567e-01 4.977548093000345175e-01 4.977300678084653485e-01 4.980353144093338513e-01 4.977489913063041782e-01 4.976934477497796938e-01 4.982491090573381576e-01 4.983837872444131789e-01 4.982235116268441955e-01 4.976788823086477631e-01 4.979428436991137907e-01 4.977054472236491778e-01 4.982412802196589663e-01 4.981780486364121852e-01 4.979141942480989069e-01 4.978178252905699486e-01 4.979593692290001927e-01 4.977380003657353447e-01 4.978633002397607754e-01 4.976370189823953183e-01 4.976727339602765587e-01 4.981290261337905645e-01 4.981289575143595383e-01 4.978341121917484458e-01 4.979209355202652842e-01 4.980037489668012740e-01 4.978772195849773263e-01 4.980293524357186086e-01 4.980603934718929593e-01 4.977971646426273544e-01 4.971480253825695805e-01 4.979713350572749775e-01 4.979853520482365181e-01 4.979810191937951713e-01 4.980996330886369727e-01 4.978788851455762665e-01 4.978225551360230261e-01 4.977381198908067406e-01 4.982924303055919490e-01 4.981504441572411346e-01 4.982561544057455549e-01 4.977127973681047535e-01 4.978770037598311826e-01 4.978643233091589737e-01 4.976704485000419953e-01 4.974339324996762679e-01 4.981193585785165800e-01 4.982386416228564707e-01 4.979577564030153725e-01 4.983159411369513792e-01 4.984608558122522459e-01 4.981712235109721498e-01 4.981954414946674903e-01 4.978701198046303622e-01 4.975904934692612636e-01 4.980064502304828999e-01 4.978789798852824022e-01 4.981342154423864521e-01 4.984269034386041852e-01 4.979444478851695055e-01 4.982968932920190386e-01 4.982719472000499694e-01 4.982745975268657035e-01 4.984927239420190448e-01 4.982046063895851362e-01 4.980812221019248476e-01 4.977320038502551780e-01 4.981498084848892671e-01 4.980313775111835928e-01 4.978381553442974283e-01 4.980547528827356518e-01 4.979499806792909156e-01 4.982343992633398999e-01 4.981503608231685476e-01 4.982229293749363963e-01 4.980334646572504576e-01 4.980743369187054514e-01 4.978485782376977364e-01 4.975668705467797270e-01 4.981925388684351752e-01 4.983046511596498918e-01 4.979408300208072458e-01 4.981064110583519056e-01 4.977714239680586794e-01 4.977901197015929813e-01 4.978293592459985817e-01 4.979317270002817652e-01 4.982854239948535935e-01 4.983917041169574347e-01 4.985337071798010555e-01 4.983026744589317825e-01 4.980828843912332160e-01 4.980063558856557826e-01 4.975355442771822179e-01 4.981129027664389364e-01 4.978762780299939572e-01 4.975364341846638117e-01 4.980153727868482094e-01 4.984490890973659050e-01 4.979178187502239505e-01 4.978832896189447355e-01 4.980981471002539074e-01 4.979555733746110491e-01 4.977289258865985611e-01 4.981575199160309664e-01 4.981437394548806075e-01 4.983235420503376312e-01 4.982387945068469381e-01 4.978515734358506251e-01 4.980659058277999707e-01 4.977554952474939620e-01 4.978466588802026305e-01 4.975723147930470325e-01 4.982099695132283790e-01 4.980015292099556623e-01 4.976050666775294617e-01 4.981088294015750262e-01 4.980255496777160618e-01 4.980007820048032996e-01 4.981037177549439421e-01 4.984571321955927892e-01 4.979481800801050517e-01 4.979880245556003726e-01 4.975578616517898345e-01 4.978350587899687540e-01 4.979893376731502896e-01 4.977486689488672678e-01 4.979666735127689647e-01 4.978312570552213545e-01 4.977569286814282346e-01 4.982400317940520185e-01 4.978538532624162127e-01 4.977949095996029860e-01 4.982499206710897521e-01 4.979375919055936128e-01 4.981004093277144329e-01 4.980201131736855524e-01 4.980823418012876869e-01 4.979137848532962929e-01 4.977494430542782622e-01 4.979384843574714559e-01 4.982003643668568849e-01 4.982038935454081163e-01 4.981601078043245145e-01 4.984187979283832282e-01 4.982033843284995878e-01 4.981311198503773352e-01 4.981644946931034212e-01 4.983497434459500663e-01 4.980789334322733297e-01 4.980921250938380451e-01 4.980772606847461148e-01 4.979052829655308821e-01 4.978487574625510281e-01 4.981277185016122488e-01 4.981828479884244931e-01 4.980111398893550811e-01 4.980519294200611569e-01 4.981579685148173620e-01 4.979148606267764787e-01 4.976006035057085053e-01 4.980428196575595878e-01 4.983315527788749200e-01 4.982420882649732374e-01 4.980262667200209270e-01 4.979093072229384687e-01 4.979544381720995561e-01 4.979342958780184625e-01 4.977221593847425685e-01 4.982654095874128886e-01 4.982926696257886090e-01 4.981522957361775861e-01 4.978916562880821295e-01 4.978721432512693279e-01 4.979016138296644134e-01 4.981941633787727586e-01 4.984706064069034381e-01 4.983533611957910447e-01 4.978894052709806894e-01 4.973774047392515163e-01 4.978580390669885558e-01 4.977650560551259984e-01 4.980142298392630229e-01 4.978687656751499824e-01 4.977837564272746818e-01 4.979964250321005648e-01 4.979850789683583079e-01 4.982403227247875765e-01 4.979463301905551753e-01 4.979439516660429943e-01
4.000000000000000000e+00 1.818809444059140468e+00 9.240318123957673088e-03 1.818000000000000060e+00 1.817679070267656183e+00 1.819536424354849302e+00 1.818625124489716693e+00 1.819693221580257037e+00 1.819013573966095754e+00 1.819690270371771668e+00 1.819616551158945272e+00 1.819127855565708218e+00 1.818522133977038546e+00 1.818623335894135717e+00 1.818597649557087470e+00 1.818669568452789154e+00 1.818374158396561802e+00 1.818183802942298755e+00 1.819761815285822149e+00 1.819573644945699842e+00 1.818483992660054671e+00 1.819157327472965324e+00 1.817832952263145341e+00 1.819487187087671654e+00 1.819089846087909690e+00 1.818139775698979665e+00 1.819377399310062149e+00 1.818253433226948657e+00 1.819060137817838596e+00 1.818433553946652292e+00 1.818600940732399307e+00 1.817966465784220720e+00 1.818932957088824853e+00 1.819145432130404583e+00 1.818134353937883585e+00 1.819967765595495557e+00 1.818118658396776999e+00 1.819728149128529759e+00 1.818233284700831343e+00 1.819421677656766656e+00 1.819103921538278712e+00 1.819013500826118346e+00 1.818128918867809141e+00 1.819082658990910817e+00 1.818879668483130541e+00 1.818909398124981536e+00 1.819401054639243398e+00 1.818815952083539633e+00 1.818826437352889513e+00 1.817791345070258746e+00 1.818923521982011238e+00 1.818880818151285439e+00 1.818649984781119056e+00 1.819686412713935830e+00 1.819334220941440261e+00 1.819851510033695385e+00 1.819042491296462449e+00 1.819500414530852650e+00 1.818673442867388523e+00 1.818803967485347783e+00 1.818471023114922147e+00 1.818470772612661879e+00 1.819393743351369830e+00 1.819711049491732568e+00 1.818013685987238448e+00 1.819551284427025406e+00 1.818107154072563070e+00 1.818220472554018752e+00 1.819258714155786771e+00 1.818882936239039738e+00 1.817895355691015791e+00 1.819946467324880413e+00 1.817930708623131775e+00 1.818363720793457539e+00 1.819557371415559954e+00 1.819351506722011846e+00 1.819042928114996682e+00 1.819067546778245337e+00 1.818549211802940491e+00 1.818935117890854158e+00 1.818950383955724170e+00 1.819550495668459389e+00 1.819504153459175377e+00 1.818795615000153632e+00 1.819928965892389838e+00 1.818435730714343723e+00 1.818871185683439862e+00 1.817845785423056082e+00 1.819153375475858647e+00 1.817680550512148718e+00 1.818625068961741809e+00 1.818713479191376159e+00 1.819525337438608892e+00 1.818503409867581189e+00 1.818023547226943482e+00 1.819557717653040196e+00 1.818489967217386649e+00 1.817556740250010350e+00 1.817797201315739297e+00 1.819083839367250155e+00 1.818992771103796979e+00 1.819002446393256811e+00 1.819798739210021665e+00 1.818746936578846896e+00 1.818296509601002642e+00 1.819020576320209637e+00 1.818546891215921057e+00 1.818114546817935384e+00 1.819408519531368285e+00 1.818199881005649443e+00 1.817817399347290808e+00 1.818855698515566166e+00 1.818548907583374286e+00 1.818813826513322018e+00 1.818122166158396391e+00 1.818271374534551121e+00 1.819446611230140176e+00 1.818417077098672952e+00 1.818702882857058611e+00 1.819112160257517097e+00 1.817783993931380682e+00 1.818388464466031751e+00 1.819164641810977479e+00 1.819232967584134997e+00 1.819376373148027026e+00 1.817750762422715383e+00 1.819041969523381264e+00 1.819429955993230097e+00 1.817946209314294626e+00 1.819104944109112498e+00 1.818302577958357702e+00 1.818023202811490435e+00 1.818302591535083668e+00 1.818412163111216895e+00 1.819547843402789189e+00 1.818305843807405786e+00 1.818056119932710990e+00 1.819639445740986350e+00 1.819699658886360760e+00 1.819573468085300183e+00 1.818358296040685662e+00 1.819837637634120764e+00 1.819009327537368215e+00 1.818575042585028667e+00 1.818524735600347331e+00 1.819181123388581955e+00 1.818871743802103813e+00 1.819457557536642955e+00 1.818240595973775964e+00 1.819106428414536181e+00 1.819439596710780815e+00 1.818436973741657914e+00 1.818766515210942236e+00 1.820005588678954345e+00 1.818556669383742275e+00 1.818397292875629345e+00 1.818093271715035764e+00 1.818002854788619338e+00 1.818378632286120400e+00 1.817666972022482952e+00 1.817810826075564323e+00 1.817956282413818236e+00 1.818384153024613425e+00 1.819397202806713132e+00 1.817961076083909999e+00 1.819081480897466907e+00 1.817878338245409564e+00 1.819383308916672437e+00 1.819111667068673555e+00 1.818876260645756027e+00 1.818506171161614837e+00 1.819250472833890520e+00 1.818912361004098699e+00 1.819771922225261740e+00 1.818366554533704660e+00 1.818073425200322113e+00 1.818300597178194700e+00 1.819684916532127161e+00 1.819084309957402557e+00 1.817775430847154983e+00 1.818731450640453495e+00 1.818744334268176610e+00 1.818584489936268866e+00 1.817527182807116226e+00 1.818742475319703455e+00 1.818478666441738945e+00 1.818600504723016043e+00 1.819276774266540553e+00 1.818288154578058036e+00 1.818336312089553264e+00 1.818282048041904631e+00 1.819653845376036694e+00 1.819447266228600091e+00 1.818466249469741225e+00 1.818667505307139942e+00 1.818040667306922931e+00 1.818189573666006309e+00 1.818576680240839183e+00 1.819688848073761411e+00 1.818540358193553308e+00 1.818156317545066791e+00 1.819210367373483184e+00 1.818883768003456636e+00 1.818095889351401651e+00 1.819668552501502168e+00 1.819833488902050656e+00 1.819759876501995111e+00 1.818984598554681753e+00 1.818968904879350701e+00 1.819068420441131817e+00 1.818555971181467612e+00 1.819604045068894393e+00 1.819532732364076644e+00 1.819640436084315915e+00 1.818708813298411275e+00 1.819717996883033262e+00 1.819289981232827591e+00 1.819595818460210346e+00 1.819722151475735350e+00 1.819481186951644958e+00 1.819141369518733509e+00 1.818051947485502362e+00 1.819520388611993944e+00 1.819209712244256760e+00 1.817986949213571624e+00 1.817945529245934555e+00 1.818877322718200684e+00 1.819803857322912499e+00 1.817795389817000284e+00
5.000000000000000000e+00 4.937827532077516679e+00 1.734857226908858782e-02 4.937999999999999723e+00 4.939127946711893813e+00 4.936742232672663100e+00 4.937697257690452091e+00 4.937167652836983223e+00 4.938751925795736852e+00 4.937159645657037466e+00 4.936385495223277076e+00 4.935633709221685095e+00 4.935417056679157533e+00 4.935691715787494438e+00 4.939623318763969984e+00 4.937817926228254883e+00 4.939016278417064143e+00 4.937930900942410162e+00 4.937353760374389999e+00 4.938842750566899475e+00 4.939314607126155110e+00 4.937712745998048547e+00 4.937546269678444233e+00 4.938608079237965853e+00 4.937529582238612491e+00 4.938379654786337447e+00 4.938310083841597198e+00 4.936688089333453711e+00 4.936877183714639905e+00 4.939177606924405772e+00 4.939632258160939315e+00 4.937908915314896063e+00 4.938533045209262617e+00 4.937680458639669645e+00 4.936934053385176213e+00 4.936487759370439043e+00 4.938322296569463532e+00 4.937262417800373449e+00 4.937202688456872934e+00 4.934431538963626629e+00 4.937567787032470790e+00 4.937322359385178494e+00 4.938350165769659128e+00 4.939509066336857934e+00 4.936959100168497372e+00 4.938469080937793798e+00 4.937802422216736709e+00 4.936214470616163474e+00 4.936814615672128426e+00 4.937433257402056519e+00 4.937078131094030375e+00 4.938391484265535425e+00 4.937764755159298247e+00 4.937149179110667419e+00 4.938192885412481026e+00 4.937597118981532418e+00 4.935701942180759971e+00 4.938643982298028590e+00 4.938397887170678402e+00 4.936753626031658904e+00 4.937278861438534783e+00 4.939278699208649037e+00 4.938354446239432427e+00 4.937216023291305156e+00 4.938037173490090304e+00 4.938782057730497499e+00 4.938291048850559584e+00 4.938598841293589281e+00 4.937987938422849332e+00 4.935541842352257014e+00 4.939715652977787919e+00 4.939854697024675723e+00 4.939811716500699390e+00 4.936987527962875433e+00 4.938798579556519464e+00 4.940239091329770460e+00 4.937402233454990963e+00 4.936897291421265876e+00 4.937491149317554395e+00 4.938538911941284582e+00 4.939149888741312111e+00 4.936780410775194028e+00 4.936654675704070350e+00 4.936730955000417254e+00 4.938380245538954938e+00 4.937183040047305127e+00 4.936364373026453478e+00 4.939580957090152324e+00 4.935128959211735555e+00 4.938565989111752152e+00 4.937697106928029100e+00 4.939487755325106200e+00 4.936712151797720161e+00 4.937936182178893851e+00 4.938063958309486523e+00 4.938099689452375429e+00 4.937330296031364085e+00 4.938229601538298930e+00 4.937449163969812815e+00 4.936941509041810505e+00 4.938695444537041013e+00 4.936720610838464474e+00 4.938881726766911839e+00 4.938027986222875754e+00 4.936805044769278616e+00 4.935342640587469631e+00 4.935484247117356560e+00 4.938311128815711548e+00 4.938394553013713661e+00 4.938542911114354617e+00 4.937504025289836562e+00 4.938323282658324764e+00 4.937490323339678966e+00 4.938209597178084387e+00 4.938331824252014002e+00 4.938737099808368392e+00 4.938497944767523684e+00 4.935703494982112360e+00 4.939909150466531784e+00 4.939019594626570253e+00 4.937413290447281611e+00 4.939055136156911274e+00 4.935733517177256502e+00 4.937918054871223816e+00 4.938307298544645008e+00 4.937323027966649569e+00 4.938829021764251870e+00 4.935879286555891809e+00 4.937285630142126180e+00 4.939000002267644795e+00 4.938821853662469508e+00 4.938063022818008463e+00 4.937390883168342626e+00 4.937119052319562940e+00 4.938772717807570878e+00 4.937399714338571499e+00 4.938152431368386885e+00 4.936447605277527018e+00 4.939184788405835747e+00 4.938842270517243449e+00 4.938973193536252637e+00 4.935559658990120724e+00 4.937311031887142931e+00 4.937561281738009455e+00 4.937424694677289949e+00 4.937205535093103670e+00 4.940367805772710952e+00 4.938527656170887958e+00 4.938653499955173665e+00 4.937574591410884395e+00 4.936479521185623831e+00 4.939754064933382871e+00 4.936080300357970074e+00 4.938015163130041962e+00 4.936082388327299952e+00 4.937078678566614975e+00 4.934253136766769465e+00 4.938007754095821156e+00 4.937028013731733722e+00 4.938529096893684134e+00 4.937486171155740955e+00 4.939881207439087873e+00 4.935614129638236314e+00 4.938363836189649803e+00 4.937894275963887303e+00 4.937506876721695193e+00 4.939569418645946008e+00 4.938326124202396805e+00 4.937588810614970569e+00 4.938379110312129505e+00 4.936550858252632956e+00 4.935966392776786726e+00 4.936776272223424300e+00 4.937381182389199097e+00 4.938995625020590197e+00 4.938199435445099539e+00 4.938816473523611528e+00 4.937145119689914097e+00 4.937514555598664145e+00 4.937390031640951804e+00 4.937985940792782635e+00 4.938020920763322330e+00 4.937486899821925235e+00 4.940150977057228054e+00 4.940016690389821719e+00 4.939300140203139122e+00 4.937630413263370599e+00 4.939466533432147699e+00 4.938782677286276623e+00 4.938913481352153134e+00 4.938766090886097082e+00 4.937060817838938576e+00 4.936500330020234806e+00 4.939266413576227421e+00 4.937812324640288075e+00 4.938110459384810191e+00 4.938514914610967921e+00 4.939566362502345598e+00 4.937155786696831861e+00 4.938036511094802350e+00 4.938424585279174828e+00 4.939286233968928741e+00 4.938399493325116296e+00 4.938260451934665340e+00 4.939100356789791313e+00 4.937548224284794784e+00 4.939348236219701427e+00 4.937243910362707489e+00 4.938630646031064053e+00 4.936899662517351572e+00 4.937509501513599020e+00 4.936925700302308151e+00 4.938731702131065049e+00 4.937024435925468246e+00 4.937924478790406191e+00 4.936660704415356982e+00 4.937500972168741065e+00 4.936903379976110173e+00 4.935821554661407262e+00 4.938591793154464504e+00 4.937669431550848032e+00 4.936141041137755536e+00 4.938698197661126166e+00 4.937854933234411270e+00 4.939964537467021799e+00 4.939851988160020468e+00 4.938381993914761736e+00 4.935468043816426231e+00 4.937444243628354101e+00
6.000000000000000000e+00 3.142647048781820746e-03 2.673762300467035928e-05 3.156614368998628389e-03 3.141937800068586931e-03 3.141744898834019067e-03 3.143861454046639227e-03 3.141924404149519772e-03 3.144450874485596806e-03 3.142109267832647254e-03 3.145699374142661361e-03 3.140842013888888763e-03 3.143805191186556987e-03 3.143577460562414425e-03 3.143698023834019285e-03 3.144048996913580314e-03 3.143167545438957551e-03 3.146294152949245717e-03 3.142079796810699766e-03 3.141967271090534853e-03 3.143266675240054871e-03 3.140908993484224990e-03 3.142229831104252549e-03 3.141618977194787429e-03 3.141136724108367553e-03 3.142251264574760089e-03 3.141610939643347047e-03 3.142797818072702153e-03 3.144375857338820197e-03 3.143170224622770723e-03 3.143513160150891803e-03 3.142513824588477351e-03 3.144402649176954948e-03 3.140992048182441546e-03 3.139301483196159023e-03 3.139180919924554163e-03 3.143046982167352690e-03 3.142044967421124633e-03 3.139478309327846557e-03 3.141886895576131902e-03 3.140866126543209909e-03 3.140850051440329145e-03 3.143044302983539085e-03 3.140825938786008433e-03 3.140705375514403139e-03 3.144046317729766709e-03 3.144962598593964171e-03 3.144140089163237253e-03 3.140466928155007022e-03 3.142294131515775170e-03 3.140651791838134504e-03 3.144035600994513156e-03 3.143973979766803706e-03 3.141787765775034148e-03 3.141399284122085248e-03 3.142669217249656911e-03 3.141061706961591378e-03 3.141511809842249727e-03 3.140533907750342815e-03 3.140448173868312653e-03 3.143652477709190599e-03 3.143379200960219350e-03 3.141316229423868258e-03 3.141977987825788840e-03 3.142564729080932814e-03 3.141672560871056064e-03 3.142805855624142535e-03 3.142929098079561001e-03 3.141436792695473119e-03 3.136997385116598210e-03 3.142500428669410192e-03 3.142216435185185390e-03 3.142436128257887571e-03 3.143097886659808153e-03 3.141868141289437533e-03 3.141431434327846342e-03 3.141080461248285313e-03 3.144488383058985110e-03 3.143601573216735137e-03 3.144780414094650294e-03 3.140659829389574886e-03 3.141624335562414206e-03 3.141533243312757268e-03 3.140745563271605048e-03 3.138819230109739580e-03 3.143371163408778968e-03 3.144201710390946702e-03 3.142369148662551345e-03 3.144825960219478547e-03 3.145458247599451206e-03 3.143641760973937046e-03 3.143566743827160438e-03 3.141897612311385455e-03 3.139933770576131683e-03 3.142513824588477351e-03 3.142079796810699766e-03 3.143470293209876722e-03 3.145434134945130494e-03 3.141835991083676439e-03 3.144884902263374391e-03 3.144132051611796871e-03 3.144332990397805117e-03 3.145811899862825840e-03 3.143684627914952127e-03 3.143255958504800884e-03 3.140742884087791443e-03 3.143644440157750217e-03 3.142741555212619914e-03 3.141493055555555358e-03 3.143073774005487007e-03 3.141924404149519772e-03 3.144121334876543317e-03 3.143639081790123441e-03 3.143714098936900049e-03 3.142599558470507513e-03 3.143245241769547331e-03 3.141726144547325131e-03 3.139984675068587146e-03 3.143743569958847538e-03 3.144228502229081020e-03 3.142438807441701176e-03 3.143317579732510334e-03 3.141117969821673617e-03 3.141265324931412795e-03 3.141442151063100329e-03 3.142101230281207306e-03 3.144512495713305822e-03 3.144900977366255155e-03 3.146036951303154798e-03 3.144654492455418223e-03 3.143081811556927389e-03 3.142556691529492432e-03 3.139673889746227593e-03 3.143210412379972632e-03 3.141929762517146982e-03 3.139438121570644648e-03 3.142658500514403357e-03 3.145284100651577711e-03 3.142042288237311461e-03 3.142012817215363539e-03 3.143277391975308858e-03 3.142178926611797086e-03 3.140756280006858601e-03 3.143491726680384263e-03 3.143580139746227596e-03 3.144402649176954948e-03 3.144257973251028942e-03 3.141645769032921746e-03 3.143057698902606244e-03 3.140911672668038595e-03 3.141897612311385455e-03 3.140086484053498071e-03 3.144142768347050858e-03 3.142749592764060296e-03 3.140148105281207087e-03 3.143012152777777991e-03 3.142934456447187778e-03 3.142771026234567836e-03 3.143014831961591163e-03 3.145610961076817595e-03 3.142310206618655500e-03 3.142470957647462270e-03 3.139523855452674810e-03 3.141560035150891585e-03 3.142580804183813577e-03 3.141040273491083838e-03 3.142154813957475940e-03 3.141485018004115410e-03 3.140855409807955922e-03 3.144330311213991945e-03 3.141621656378601034e-03 3.140761638374485812e-03 3.144705396947873686e-03 3.142259302126200471e-03 3.142966606652949305e-03 3.142875514403292367e-03 3.142883551954732315e-03 3.142122663751714846e-03 3.141222457990397714e-03 3.142093192729766924e-03 3.143703382201646062e-03 3.144091863854595395e-03 3.143547989540466502e-03 3.145447530864197653e-03 3.144019525891632392e-03 3.143443501371741972e-03 3.143620327503429505e-03 3.144678605109739369e-03 3.142918381344307448e-03 3.143272033607681648e-03 3.142937135631001383e-03 3.142133380486968400e-03 3.141852066186556769e-03 3.142977323388202859e-03 3.144083826303155013e-03 3.142377186213991726e-03 3.142915702160493843e-03 3.143641760973937046e-03 3.141908329046639442e-03 3.139998070987654304e-03 3.142754951131687072e-03 3.144724151234568055e-03 3.143990054869684470e-03 3.142888910322359525e-03 3.141878858024691520e-03 3.142473636831275875e-03 3.142168209876543099e-03 3.140766996742112589e-03 3.144158843449931622e-03 3.144692001028806527e-03 3.143848058127572068e-03 3.142034250685871079e-03 3.141640410665294970e-03 3.141913687414266219e-03 3.143724815672153602e-03 3.145894954561042397e-03 3.144970636145404553e-03 3.141994062928669604e-03 3.138414673353909484e-03 3.141637731481481365e-03 3.141176911865569462e-03 3.142653142146776581e-03 3.141568072702331967e-03 3.141276041666666782e-03 3.142452203360768335e-03 3.142291452331961565e-03 3.143869491598079609e-03 3.142318244170095882e-03 3.142294131515775170e-03
