# vvf statistics with RF=500
# gcat file: /disk2/salam/Abacus/AbacusCosmos_720box_products/GCAT_derivative/AbacusCosmos_720box_planck_rockstar_halos_z0.100_Mr21_hod-kappa-pos_real-3.gcat.rsd_zz.1pz0.100by100
# stats order in row: stdvvf,p2.5,p16,p50,p84,p97.5,rho
# columns: numbers, mean, sigma,All, jnrealizations
0.000000000000000000e+00 1.430807330804441113e+00 5.047410857689598601e-03 1.430807559449681410e+00 1.431286862021241335e+00 1.430430768412328080e+00 1.430913528664328194e+00 1.430925242120276053e+00 1.431091126417569637e+00 1.430794562150349281e+00 1.431099449743507890e+00 1.430003155524963265e+00 1.430032812205580317e+00 1.430732816436697030e+00 1.431402515949344201e+00 1.430883509579827351e+00 1.430993603800388758e+00 1.430834595848988755e+00 1.431169787636873414e+00 1.431021029139731615e+00 1.431085072108335909e+00 1.430560284167512464e+00 1.431181144748274958e+00 1.431060242389214032e+00 1.430757627226179496e+00 1.431501371741637829e+00 1.430694051390526633e+00 1.430807364377147728e+00 1.430681681470044264e+00 1.431035126770322741e+00 1.431207022803998585e+00 1.430739846026133577e+00 1.431214147555486038e+00 1.430609778723032743e+00 1.430692572211924363e+00 1.430332294043883401e+00 1.430909999820875633e+00 1.430847754444951603e+00 1.430197107736984163e+00 1.430112887973066682e+00 1.430921863452888187e+00 1.430870795363308412e+00 1.430750976610628999e+00 1.431038299167338268e+00 1.430710804908596812e+00 1.430537359501812267e+00 1.431137202253606633e+00 1.430843477855854307e+00 1.430276008706801383e+00 1.430992228956732948e+00 1.430540701194618070e+00 1.431252474018368082e+00 1.431027863485961671e+00 1.430781768450363867e+00 1.429821566921329890e+00 1.430774279767945467e+00 1.430420293624008909e+00 1.430868962113673426e+00 1.430293744492859176e+00 1.430526221596266856e+00 1.430776831826608086e+00 1.430696025322103715e+00 1.431000700167419870e+00 1.430203372977610243e+00 1.430683888064169018e+00 1.430988761947728394e+00 1.431068714169330791e+00 1.430927994106012235e+00 1.430958942897334829e+00 1.430087877750170655e+00 1.431435616301139024e+00 1.431256608070568870e+00 1.431240866073696827e+00 1.430836733436650743e+00 1.430922896249121834e+00 1.431335705817235349e+00 1.430429266247408515e+00 1.430753819850245412e+00 1.430400418811500485e+00 1.430790958599917007e+00 1.430887511802754863e+00 1.430532792466047365e+00 1.430895742950526905e+00 1.430578616767423039e+00 1.430406186660096557e+00 1.430858126845488298e+00 1.429447316864315587e+00 1.430967289862507208e+00 1.430626003173533389e+00 1.431348631457491249e+00 1.430880612926241469e+00 1.431180046100975822e+00 1.430494583956122945e+00 1.430250996881789138e+00 1.431004581001069642e+00 1.430990021987513794e+00 1.431072118931131509e+00 1.431145178823746367e+00 1.430500491328239310e+00 1.430710731042946104e+00 1.431283747211068880e+00 1.430950189019976504e+00 1.431084770682207408e+00 1.430681397162088642e+00 1.430914868827507069e+00 1.430178827860127289e+00 1.430560557782085018e+00 1.430684541215488936e+00 1.430942467600780033e+00 1.431045307875452588e+00 1.430460677028973837e+00 1.430745302965229060e+00 1.430682858334103802e+00 1.430835405354450307e+00 1.431016210039481429e+00 1.430898731770051002e+00 1.431017066508279534e+00 1.430370879355134628e+00 1.431182268881555197e+00 1.431349689363992095e+00 1.431045371947606615e+00 1.430928177768612253e+00 1.430185080774945883e+00 1.430894984513067181e+00 1.430767485471887257e+00 1.430737474595498382e+00 1.430977902106545852e+00 1.430611602491811851e+00 1.430615695803459264e+00 1.431088473284332974e+00 1.431387666238451040e+00 1.431242912841386161e+00 1.430638945955166497e+00 1.430785703507296169e+00 1.430923182841952412e+00 1.430573567129100221e+00 1.430696777981302459e+00 1.430799133207631302e+00 1.430919975207967321e+00 1.430997932366922409e+00 1.430899566453344152e+00 1.430427058820695319e+00 1.429984579389461219e+00 1.430491571702329212e+00 1.430747903538563959e+00 1.431138981417747313e+00 1.430885395076277655e+00 1.431092230000295284e+00 1.431032473592355636e+00 1.430705167653553156e+00 1.430808605837708969e+00 1.430938866695902645e+00 1.430615810552997136e+00 1.430478350585349778e+00 1.430333923291644549e+00 1.430606204797885361e+00 1.430008357100310157e+00 1.431180839233388680e+00 1.430954202285175114e+00 1.431379702834318479e+00 1.431006551066631660e+00 1.430992836790266010e+00 1.430306791973110503e+00 1.430955439205181756e+00 1.431218075026653658e+00 1.431023575583578067e+00 1.430837544050014953e+00 1.430924459996449682e+00 1.430601222039205700e+00 1.430493195978020493e+00 1.430323452691076636e+00 1.430648717484008348e+00 1.431080369074171799e+00 1.430715963586496775e+00 1.431038677797868308e+00 1.430474437931902987e+00 1.431176069320999167e+00 1.430621820384933685e+00 1.430793625505626832e+00 1.431056054081486284e+00 1.431331329067881963e+00 1.430798490737098749e+00 1.430647268272565720e+00 1.431259367253519432e+00 1.431088884500547165e+00 1.430917042904910952e+00 1.431075372710524540e+00 1.431294868968016720e+00 1.431191179701102101e+00 1.431085611807712876e+00 1.431128140571845231e+00 1.430881847112627225e+00 1.430015990181578767e+00 1.431213501342713856e+00 1.430566865068334748e+00 1.430937223858335994e+00 1.431170004283981001e+00 1.430478926582229082e+00 1.430337910809466484e+00 1.430809378813282073e+00 1.431125149129856000e+00 1.430903142720909349e+00 1.431088552377152601e+00 1.430737282448784287e+00 1.430975470819430662e+00 1.430940275246696203e+00 1.430974913000720550e+00 1.430407417263157344e+00 1.430818889271098682e+00 1.431008745867107246e+00 1.430322210268883509e+00 1.430561279680133246e+00 1.430637744847801818e+00 1.430589161873246251e+00 1.430968688970456926e+00 1.430965750079833620e+00 1.430560604694847582e+00 1.430315111872540124e+00 1.430311486769730633e+00 1.430724984698283908e+00 1.430823960235748205e+00 1.430321891597746253e+00 1.431070066559924525e+00 1.430746226493609496e+00 1.431555440339055130e+00 1.431293089773426841e+00 1.430967660112511197e+00 1.430335506783767974e+00 1.430863596368884050e+00
1.000000000000000000e+00 2.199999986767030291e-02 1.598348301695998945e-04 2.199999999999999872e-02 2.199673043657024082e-02 2.199486927395637517e-02 2.200790700124280463e-02 2.199864892751683676e-02 2.201441420001250607e-02 2.199459473616170377e-02 2.202083884695987814e-02 2.198897779025799776e-02 2.200829694169937484e-02 2.200731551434617628e-02 2.200490336173837810e-02 2.200789669452809724e-02 2.200524458466276631e-02 2.202459779220617905e-02 2.199593277494167609e-02 2.199442465688279669e-02 2.200528342229418274e-02 2.198661252739655958e-02 2.199673412230257821e-02 2.199234220162729278e-02 2.199052341929608190e-02 2.199860490166916788e-02 2.199368615875763738e-02 2.200177457371106648e-02 2.201412050156104430e-02 2.200708841031058863e-02 2.200550158591327646e-02 2.199815020020591191e-02 2.201229387485069411e-02 2.198883768526654209e-02 2.197583051038252272e-02 2.197233782922571391e-02 2.200091336068632844e-02 2.199691228279548882e-02 2.197827863913073831e-02 2.199375036634752811e-02 2.199069090554701608e-02 2.198623982331000815e-02 2.199948036165092283e-02 2.198736915267876166e-02 2.198496748499658218e-02 2.201321554101166866e-02 2.201656235008880164e-02 2.201174123130717961e-02 2.198572225501644467e-02 2.199630502010987629e-02 2.198502300836627926e-02 2.200789751533390945e-02 2.200910138915720266e-02 2.199808627731430696e-02 2.199207975969817708e-02 2.199872847994147756e-02 2.198999633251727190e-02 2.199091937549872006e-02 2.198461062820482315e-02 2.198300423380318905e-02 2.200569592069125807e-02 2.200907171166994331e-02 2.199119951791386751e-02 2.199302978899529692e-02 2.199890524180649065e-02 2.199208042735825014e-02 2.200221673460394170e-02 2.200407849241709651e-02 2.199119441198303659e-02 2.196117130310755103e-02 2.199785937535261512e-02 2.200106520802098259e-02 2.199839035043442761e-02 2.200378873900554408e-02 2.199709954579598045e-02 2.199413700872030267e-02 2.198647190534306489e-02 2.201254351789630470e-02 2.201008581136723943e-02 2.200885701025695126e-02 2.198685555798128577e-02 2.199300388199270859e-02 2.199210879210188041e-02 2.198297697460917591e-02 2.197627859905695868e-02 2.200299023401225407e-02 2.201155180846823059e-02 2.200345109714128139e-02 2.201270634600370132e-02 2.202078541702545689e-02 2.200850332547461818e-02 2.200940045631134476e-02 2.199413984179713483e-02 2.198099950117412757e-02 2.199794630123959663e-02 2.199480640842069873e-02 2.200782653684605836e-02 2.202131300593308458e-02 2.199523688879956307e-02 2.201163171718341707e-02 2.200982484618227084e-02 2.201180544103287576e-02 2.201988997928595870e-02 2.200758125171456761e-02 2.200691822615649315e-02 2.198963439303597972e-02 2.200647070224701074e-02 2.199949035759373936e-02 2.199301896889319097e-02 2.200261223079376036e-02 2.199671593959177940e-02 2.201068632838726336e-02 2.200899718767145713e-02 2.200923346617518483e-02 2.200208756129536786e-02 2.200441385100385464e-02 2.199403888170090721e-02 2.198414952721848559e-02 2.200905236231899542e-02 2.201432677454342665e-02 2.199899284840277011e-02 2.200311817423199548e-02 2.198825490952731679e-02 2.199349542805282762e-02 2.199059756518508338e-02 2.200048070427003052e-02 2.201248904323201139e-02 2.201820245560703881e-02 2.202519155520695979e-02 2.201234059782897212e-02 2.200658944801736280e-02 2.200318392605321929e-02 2.197848223803598039e-02 2.200259259743829465e-02 2.199505978857427962e-02 2.198035561244124358e-02 2.199718017101048514e-02 2.201990872265192217e-02 2.199689961256147755e-02 2.199386509860114594e-02 2.200456175824969107e-02 2.199596206253775013e-02 2.198774713976768894e-02 2.200928741441605246e-02 2.200770522427872994e-02 2.201340059272529834e-02 2.201398915085205771e-02 2.199516355907002452e-02 2.200519177938298210e-02 2.199055301156774625e-02 2.199520852976011645e-02 2.198191295554238756e-02 2.200996984739394396e-02 2.200403806652028588e-02 2.198234922786669251e-02 2.200660578950704160e-02 2.199860909024689559e-02 2.200235928098722218e-02 2.200763062568780390e-02 2.201751159543863592e-02 2.199905587117046910e-02 2.199877686212757533e-02 2.198337406739126962e-02 2.199108659714848688e-02 2.199866735863474296e-02 2.198824479208998095e-02 2.199815930086243890e-02 2.199172090635817881e-02 2.198863203592005960e-02 2.200991229134230745e-02 2.199041602263116651e-02 2.199212240978079547e-02 2.201237053836910956e-02 2.199786374861863875e-02 2.200411079708989096e-02 2.200262941260776317e-02 2.200219958235163920e-02 2.199517875824764240e-02 2.199300583508074017e-02 2.199728052083624319e-02 2.201045240614411813e-02 2.201107768392759206e-02 2.200614884174892719e-02 2.201677040522180551e-02 2.200865321295823740e-02 2.200621488238573009e-02 2.200560271950490962e-02 2.201474912021418248e-02 2.200480331647185206e-02 2.200475278617165451e-02 2.200404305531800109e-02 2.199402975198497950e-02 2.199163759700424603e-02 2.200417382281962334e-02 2.201096728902581651e-02 2.200276613856701549e-02 2.200315098665083652e-02 2.200804308687828725e-02 2.199767831937292709e-02 2.198516448168917267e-02 2.200254082311382461e-02 2.201781063445658673e-02 2.200957870036279046e-02 2.200002333649902359e-02 2.199271898351448998e-02 2.200055967099305565e-02 2.199459389517459049e-02 2.198789897589983888e-02 2.201070381426750017e-02 2.201336148023717160e-02 2.200796185633985269e-02 2.199044118055666630e-02 2.199223599163403764e-02 2.199245914170313079e-02 2.200562589241545144e-02 2.202055878691066074e-02 2.201789707763831053e-02 2.199657497390648808e-02 2.197106248839220816e-02 2.199223928099414832e-02 2.198926756092400500e-02 2.200230579767951944e-02 2.199181069555148846e-02 2.199046286307221668e-02 2.200084950954334442e-02 2.199971193269212311e-02 2.201195672019491678e-02 2.199627448008064853e-02 2.199644451316901811e-02
2.000000000000000000e+00 1.059999993624114456e-01 7.701132726353567860e-04 1.059999999999999970e-01 1.059842466489293311e-01 1.059752792290625384e-01 1.060380973696244261e-01 1.059934902871265683e-01 1.060694502364238900e-01 1.059739564560518432e-01 1.061004053535339470e-01 1.059468929894248901e-01 1.060399761736424418e-01 1.060352474782133847e-01 1.060236252883758334e-01 1.060380477099990143e-01 1.060252693624660625e-01 1.061185166351752279e-01 1.059804033701735315e-01 1.059731369831625608e-01 1.060254564892356144e-01 1.059354967229106936e-01 1.059842644074578677e-01 1.059631033351133150e-01 1.059543401111538441e-01 1.059932781625878145e-01 1.059695787649231613e-01 1.060085502187896600e-01 1.060680351438850338e-01 1.060341532496782840e-01 1.060265076412185148e-01 1.059910873282648436e-01 1.060592341242806158e-01 1.059462179381024383e-01 1.058835470045703386e-01 1.058667186317238801e-01 1.060044007378523057e-01 1.059851228171055371e-01 1.058953425339935472e-01 1.059698881287653577e-01 1.059551470903628972e-01 1.059337009668573082e-01 1.059974962879544486e-01 1.059391422810885830e-01 1.059275706095289815e-01 1.060636748794198531e-01 1.060798004140642153e-01 1.060565713872073240e-01 1.059312072287156015e-01 1.059821969150748500e-01 1.059278381312193512e-01 1.060380516647906612e-01 1.060438521477574253e-01 1.059907793361507533e-01 1.059618388421821322e-01 1.059938735851725794e-01 1.059518005112195932e-01 1.059562479001301960e-01 1.059258512086232312e-01 1.059181113083244585e-01 1.060274439815124259e-01 1.060437091562279055e-01 1.059575976772213768e-01 1.059664162560682577e-01 1.059947252559767378e-01 1.059618420590897614e-01 1.060106806303644372e-01 1.060196509180096475e-01 1.059575730759182433e-01 1.058129162786091149e-01 1.059896860812444136e-01 1.060051323659192829e-01 1.059922444157295057e-01 1.060182548333903629e-01 1.059860250842897256e-01 1.059717510420159908e-01 1.059348191802893108e-01 1.060604369498640148e-01 1.060485952729512543e-01 1.060426746857834890e-01 1.059366676884552771e-01 1.059662914314194182e-01 1.059619787255817874e-01 1.059179799685714823e-01 1.058857059772744247e-01 1.060144074911499590e-01 1.060556587135287471e-01 1.060166280134988981e-01 1.060612214852905549e-01 1.061001479183953933e-01 1.060409705681958914e-01 1.060452931076819316e-01 1.059717646922952866e-01 1.059084521420207980e-01 1.059901049059726041e-01 1.059749763314815629e-01 1.060377096775310113e-01 1.061026899376775884e-01 1.059770504642160716e-01 1.060560437282473678e-01 1.060473378952418444e-01 1.060568807613402192e-01 1.060958335365596444e-01 1.060365278491701979e-01 1.060333332714812893e-01 1.059500566209915368e-01 1.060311770199174192e-01 1.059975444502243846e-01 1.059663641228489883e-01 1.060125862029153987e-01 1.059841767998512818e-01 1.060514886731386275e-01 1.060433500860533812e-01 1.060444885188440711e-01 1.060100582498776783e-01 1.060212667366549344e-01 1.059712782481952720e-01 1.059236295402345290e-01 1.060436159275369716e-01 1.060690290046183287e-01 1.059951473604860694e-01 1.060150239303905284e-01 1.059434100186316119e-01 1.059686597897090687e-01 1.059546973595281161e-01 1.060023161205737863e-01 1.060601744810269753e-01 1.060877027406520873e-01 1.061213774932699000e-01 1.060594592440850387e-01 1.060317491586291183e-01 1.060153407346200449e-01 1.058963235105370021e-01 1.060124916058390460e-01 1.059761971631306143e-01 1.059053497690350676e-01 1.059864135512323391e-01 1.060959238455047027e-01 1.059850617696143915e-01 1.059704409296237104e-01 1.060219793806576050e-01 1.059805444831364296e-01 1.059409634916079479e-01 1.060447484512773431e-01 1.060371251715248042e-01 1.060645664922219011e-01 1.060674022722871840e-01 1.059766971482464792e-01 1.060250149370270956e-01 1.059544826920991445e-01 1.059769138252078247e-01 1.059128533312496956e-01 1.060480365374435463e-01 1.060194561386886419e-01 1.059149553706304342e-01 1.060318278948975679e-01 1.059932983439168530e-01 1.060113674447566157e-01 1.060367657419503395e-01 1.060843740507497884e-01 1.059954510156395080e-01 1.059941066993419639e-01 1.059198932337943044e-01 1.059570536044427136e-01 1.059935790916037568e-01 1.059433612709790029e-01 1.059911311768826497e-01 1.059601098215439546e-01 1.059452270821602815e-01 1.060477592219220278e-01 1.059538226544956135e-01 1.059620443380347443e-01 1.060596035030511725e-01 1.059897071524352613e-01 1.060198065677967483e-01 1.060126689880192125e-01 1.060105979876942578e-01 1.059767703806477335e-01 1.059663008417526531e-01 1.059868970549382589e-01 1.060503615932398419e-01 1.060533742952874947e-01 1.060296262375175491e-01 1.060808028615232435e-01 1.060416927533442411e-01 1.060299444333130670e-01 1.060269949212509222e-01 1.060710639428501523e-01 1.060231432520916672e-01 1.060228997879179846e-01 1.060194801756230987e-01 1.059712342595639928e-01 1.059597084219295604e-01 1.060201102372218263e-01 1.060528423925789360e-01 1.060133277585501577e-01 1.060151820265903960e-01 1.060387530549590229e-01 1.059888137206150133e-01 1.059285197754114838e-01 1.060122421477302374e-01 1.060858148751089997e-01 1.060461519199298180e-01 1.060001124394952809e-01 1.059649187387516345e-01 1.060026965966029133e-01 1.059739524040230196e-01 1.059416950656992262e-01 1.060515729232888588e-01 1.060643780411427289e-01 1.060383616714556526e-01 1.059539438699548530e-01 1.059625915960549225e-01 1.059636667736605364e-01 1.060271065725471723e-01 1.060990559732968158e-01 1.060862313740755097e-01 1.059834976015494451e-01 1.058605738077078862e-01 1.059626074447899829e-01 1.059482891571792984e-01 1.060111097524558676e-01 1.059605424422026265e-01 1.059540483402570399e-01 1.060040930914361162e-01 1.059986120393347775e-01 1.060576096518482392e-01 1.059820497676613044e-01 1.059828690179961674e-01
3.000000000000000000e+00 4.830350295617915624e-01 1.252584704930762537e-02 4.839999999999999858e-01 4.819283668375843321e-01 4.838871240270402607e-01 4.821732352090469242e-01 4.839702764053703810e-01 4.823158020184558081e-01 4.838810841955574760e-01 4.824565601924845626e-01 4.837575113856759090e-01 4.841825327173862603e-01 4.821602762688571020e-01 4.821074281980863296e-01 4.821730093982974363e-01 4.821149040821570142e-01 4.825389152656081038e-01 4.839105210487169018e-01 4.838773424514214994e-01 4.821157549793543828e-01 4.837054756027243108e-01 4.819284475886291830e-01 4.838315284358004620e-01 4.837915152245138017e-01 4.819694346638426774e-01 4.838610954926680363e-01 4.840390406216434349e-01 4.823093673523829450e-01 4.821553006258956220e-01 4.821205347459181501e-01 4.839593044045299997e-01 4.822693476217288500e-01 4.837544290758639676e-01 4.834682712284155137e-01 4.833914322429656574e-01 4.820200109023095592e-01 4.819323509230648561e-01 4.835221300608762429e-01 4.838625080596455907e-01 4.837951999220344024e-01 4.836972761128201515e-01 4.839885679563203369e-01 4.837221213589327773e-01 4.836692846699247594e-01 4.822895404894374516e-01 4.823628660337637153e-01 4.822572397040936765e-01 4.836858896103617966e-01 4.839187104424172436e-01 4.836705061840581577e-01 4.821730273814066048e-01 4.821994031624441401e-01 4.839578981009147185e-01 4.838257547133598679e-01 4.839720265587125203e-01 4.837799193153800026e-01 4.838002262609718551e-01 4.836614338205060815e-01 4.836260931436701660e-01 4.841253102552077192e-01 4.821987529556778229e-01 4.838063893941050853e-01 4.838466553578965601e-01 4.839759153197428221e-01 4.838257694018815447e-01 4.820485666399590419e-01 4.820893560611382300e-01 4.838062770636267773e-01 4.831457686683661157e-01 4.819531008599982069e-01 4.820233377393688401e-01 4.819647340413360515e-01 4.820830078273032893e-01 4.839361900075115352e-01 4.818715471910538506e-01 4.837023819175473860e-01 4.822748170739099560e-01 4.822209709581368187e-01 4.821940490429023063e-01 4.837108222755882592e-01 4.838460854038396097e-01 4.838263934262413968e-01 4.836254934414018214e-01 4.834781291792530356e-01 4.840657851482696450e-01 4.822530896218948926e-01 4.820756104010043841e-01 4.822783844897174377e-01 4.824553895911941059e-01 4.821863001308530072e-01 4.822059554519121938e-01 4.838710765195369801e-01 4.835819890258308273e-01 4.839548186272711328e-01 4.838857409852553304e-01 4.821714723072636488e-01 4.824669485845339834e-01 4.838952115535903320e-01 4.822548403492002977e-01 4.822152534481751740e-01 4.822586464808111817e-01 4.824357713643561141e-01 4.841667875377205221e-01 4.821515720457922316e-01 4.837719566467915677e-01 4.821417672037754398e-01 4.839887878670622867e-01 4.838464173156501458e-01 4.840574690774627764e-01 4.839277506710191190e-01 4.822341277401209214e-01 4.821971202026201220e-01 4.822022968498381745e-01 4.820457365701985020e-01 4.820967034629026204e-01 4.818693973172653022e-01 4.836512895988067107e-01 4.821983290289889035e-01 4.823138866059059615e-01 4.839778426648609355e-01 4.820683163627191847e-01 4.837416080096009763e-01 4.838568994171622006e-01 4.837931464340718413e-01 4.840105754939407201e-01 4.822736235835377028e-01 4.823987992546632797e-01 4.825519240731706572e-01 4.822703712797074549e-01 4.821443688156531460e-01 4.820697569253477588e-01 4.835266092367915824e-01 4.840570371436424546e-01 4.838913153486341101e-01 4.835678234737073034e-01 4.839379637622306940e-01 4.824361820144648094e-01 4.819320733297560166e-01 4.838650321692252176e-01 4.820999439761978200e-01 4.839111653758304543e-01 4.837304370748891635e-01 4.822034788067516842e-01 4.821688144591976255e-01 4.822935948042542664e-01 4.823064895777586791e-01 4.838935982995405394e-01 4.821137471664816432e-01 4.837921662544903967e-01 4.838945876547225411e-01 4.836020850219325262e-01 4.822184302929036770e-01 4.820884703664898852e-01 4.836116830130672284e-01 4.821447268428361022e-01 4.839693999854316475e-01 4.820516897016291491e-01 4.821671800718873024e-01 4.823836631364282757e-01 4.839792291657503132e-01 4.839730909668066849e-01 4.836342294826079247e-01 4.838039051372667321e-01 4.819708030391793852e-01 4.837413854259796087e-01 4.839595046189736349e-01 4.838178599398799129e-01 4.837499047902412697e-01 4.822171692921360386e-01 4.837891524978856217e-01 4.838266930151775003e-01 4.822710272497232609e-01 4.839530024696100940e-01 4.820900638271511940e-01 4.840578470773707620e-01 4.820481908497040724e-01 4.838939326814480912e-01 4.838461283717762629e-01 4.839401714583972947e-01 4.822290027164302106e-01 4.822427019842318030e-01 4.821347155328628564e-01 4.823674243325867805e-01 4.821895840293577984e-01 4.821361624231782494e-01 4.821227504909711969e-01 4.823231398156016536e-01 4.821052362972469973e-01 4.821041292243062326e-01 4.820885796665125844e-01 4.838686545436695630e-01 4.838160271340933849e-01 4.820914446635936046e-01 4.822402833322929072e-01 4.840608550484742922e-01 4.820690352529864997e-01 4.821762167216061545e-01 4.839489230262044028e-01 4.836736185971617918e-01 4.820556671245846969e-01 4.823902148094579290e-01 4.822098606170393542e-01 4.840005134029785050e-01 4.838398176373188142e-01 4.820122618826660488e-01 4.838810656938409838e-01 4.837337774697964554e-01 4.822345108398606861e-01 4.822927378851962210e-01 4.821744370343549191e-01 4.837897059722466864e-01 4.838291918159488558e-01 4.838341011174688289e-01 4.821232581883748702e-01 4.824504243314062801e-01 4.823921087009848674e-01 4.839246494259427100e-01 4.833633747446284823e-01 4.838292641818712769e-01 4.837638863403281309e-01 4.840507275489493999e-01 4.838198353021327947e-01 4.837901829875887461e-01 4.820186119818132831e-01 4.839936625192267083e-01 4.822619608697250038e-01 4.839180385617742330e-01 4.839217792897183568e-01
4.000000000000000000e+00 1.829479566986947248e+00 9.042987987497667565e-03 1.830000000000000071e+00 1.829728031769251695e+00 1.829573216879098574e+00 1.828656999921447701e+00 1.829887615334355067e+00 1.829197688982857173e+00 1.829550380326177894e+00 1.829731518738302531e+00 1.829083152553278691e+00 1.830690154695902683e+00 1.828607852737491601e+00 1.828407424784443513e+00 1.828656143527152889e+00 1.830436254087857595e+00 1.830043852916040770e+00 1.829661680824693715e+00 1.829536232822523534e+00 1.830439484672652384e+00 1.828886405687986549e+00 1.829728338355169015e+00 1.829363010408088464e+00 1.829211720786901640e+00 1.829883953184298973e+00 1.829474803205749067e+00 1.830147612267783996e+00 1.829173285311527009e+00 1.830589626857653363e+00 1.830457631919149897e+00 1.829846130289855211e+00 1.829021509237593879e+00 1.829071498365353321e+00 1.829987340682762920e+00 1.829696495597341155e+00 1.830075975002544597e+00 1.829743158068897646e+00 1.830191203040341330e+00 1.829480144109816964e+00 1.829225652597774587e+00 1.828855403484423547e+00 1.829956775537326941e+00 1.828949343154642637e+00 1.828749568070170195e+00 1.829098091316787578e+00 1.829376180725560186e+00 1.828975589583160311e+00 1.828812351212731668e+00 1.829692644854594041e+00 1.828754186605013210e+00 1.828656211728653780e+00 1.828756242699062007e+00 1.829840813067508121e+00 1.829341180011257340e+00 1.829894232649677210e+00 1.829167876750300348e+00 1.829244657143757058e+00 1.830718485039601662e+00 1.828586261266356150e+00 1.830473797039318340e+00 1.828753776769665995e+00 1.829267959899198992e+00 1.829420205175517733e+00 1.829908936022994537e+00 1.829341235548436639e+00 1.830184392014782446e+00 1.830339256414694749e+00 1.829267535178588977e+00 1.828766628513319725e+00 1.829821938949785620e+00 1.830088605939927504e+00 1.829866106422499916e+00 1.830315154199097405e+00 1.829758734945756471e+00 1.829512305725370602e+00 1.828874708489900192e+00 1.829042252305202121e+00 1.828838039235423540e+00 1.828735937034077663e+00 1.828906621413897593e+00 1.829418050183938771e+00 1.829343594979383703e+00 1.828583993797035845e+00 1.830024654248743055e+00 1.830248733101928593e+00 1.828959850267269482e+00 1.830287068534933725e+00 1.829055781840670969e+00 1.829727079196479034e+00 1.828706549043981777e+00 1.828781092460779245e+00 1.829512541385852620e+00 1.830417776643227246e+00 1.829829169603111927e+00 1.829567987609539870e+00 1.828650314061572857e+00 1.829770917038439970e+00 1.829603795750145423e+00 1.828966489955058172e+00 1.828816355400963101e+00 1.828980924827640742e+00 1.829652676460669980e+00 1.828629933097010385e+00 1.829054992643737165e+00 1.829137769966174609e+00 1.830538244777819568e+00 1.829957607018024790e+00 1.829419305139751373e+00 1.830217290106935568e+00 1.829726825884225194e+00 1.828887936740541509e+00 1.828747584502882884e+00 1.828767217098556053e+00 1.830173647144114568e+00 1.830367152151684440e+00 1.829504143341484479e+00 1.828681528854992244e+00 1.828752169014505657e+00 1.829190424721153674e+00 1.829916223298957645e+00 1.830259375402025324e+00 1.829023022019772293e+00 1.829458937878939651e+00 1.829217888376759138e+00 1.830039985855189233e+00 1.829037725955823479e+00 1.829512458584075629e+00 1.830093189223560124e+00 1.829025391492334451e+00 1.828547523226170091e+00 1.830264844758063170e+00 1.830208157276450809e+00 1.828215421278054587e+00 1.829589064231405882e+00 1.830364158272379749e+00 1.829765441497690492e+00 1.829654233863986956e+00 1.829742104135795522e+00 1.829489687747277049e+00 1.830379455345315431e+00 1.829664117020185499e+00 1.828980784807948456e+00 1.830772544017335246e+00 1.828640234090068706e+00 1.829113467431902063e+00 1.829162371261707332e+00 1.829597696049915623e+00 1.828431389668731200e+00 1.829214182325862526e+00 1.829601436793682367e+00 1.828495486756480215e+00 1.828828403683460335e+00 1.830335893715096418e+00 1.828531776681638465e+00 1.828548881055403363e+00 1.829884301597809904e+00 1.830196249282118881e+00 1.830634729318576071e+00 1.829455054384628188e+00 1.829921465647361689e+00 1.829898257167884790e+00 1.828617024696637561e+00 1.829258566944624187e+00 1.829889148468253346e+00 1.829022180432939404e+00 1.829846887299011904e+00 1.829311329937975739e+00 1.829054392078804714e+00 1.828823621298806268e+00 1.829202787337046887e+00 1.829344727722675312e+00 1.829027879279033320e+00 1.829822302726004990e+00 1.830341943576113461e+00 1.830218719321463849e+00 1.830182965259250061e+00 1.829598960345144798e+00 1.829418212645352426e+00 1.829773788778650934e+00 1.828868499928702152e+00 1.828920454828165454e+00 1.828510912850774384e+00 1.829393468215702701e+00 1.828719003331257253e+00 1.830516965216631098e+00 1.828465535057044011e+00 1.829225517806887691e+00 1.828399111932297760e+00 1.830395345395187556e+00 1.830336308692360969e+00 1.829503383915114245e+00 1.829304400114444062e+00 1.830347186170905083e+00 1.828911282015417861e+00 1.830230092435347178e+00 1.830262104798683120e+00 1.830669038590330366e+00 1.829806878384202529e+00 1.828765954613235767e+00 1.830211350286286232e+00 1.829479901808483522e+00 1.828795902921053873e+00 1.830001941172418656e+00 1.829394351810523567e+00 1.830046554450786012e+00 1.829550310371340860e+00 1.828993414813486762e+00 1.828889389658226783e+00 1.829110217539706706e+00 1.830662281686451287e+00 1.829204880019031920e+00 1.829354175667740501e+00 1.829372737696214779e+00 1.830467971960012319e+00 1.829708248294213080e+00 1.829487084451038026e+00 1.829715100102221381e+00 1.829590294487932534e+00 1.829354449282694972e+00 1.829107256204133503e+00 1.830191800443341732e+00 1.829318798766328413e+00 1.829206683610097972e+00 1.830070663748378124e+00 1.827976064225509178e+00 1.828993494750741355e+00 1.829690104479436030e+00 1.829704248140877176e+00
5.000000000000000000e+00 5.018023655169897346e+00 1.730028114105979647e-02 5.017999999999999794e+00 5.019253945071936229e+00 5.016829728032413449e+00 5.017802796283359790e+00 5.017691832649067152e+00 5.019286437602850981e+00 5.016767108457246493e+00 5.018749362666219405e+00 5.015485934159755743e+00 5.017891702707457213e+00 5.017667937270926970e+00 5.019118412236508675e+00 5.017800446352405963e+00 5.019196242083534543e+00 5.019606060460080954e+00 5.019071933191237456e+00 5.018727808070528873e+00 5.019205100594191116e+00 5.016945222160487994e+00 5.019254786089042852e+00 5.018252629644045726e+00 5.017837616584833071e+00 5.019681663926328419e+00 5.016559870211174221e+00 5.018404764131005891e+00 5.019219474355918642e+00 5.017616157550813583e+00 5.019254861732401096e+00 5.017578077483330290e+00 5.018803003465958312e+00 5.017452962729001875e+00 5.016482764688229068e+00 5.015685480835069043e+00 5.018208329269272738e+00 5.019295439074243248e+00 5.017041605714298136e+00 5.016574515378722232e+00 5.019874987620777773e+00 5.018858926939220311e+00 5.017881475216560361e+00 5.019116722034215883e+00 5.016569853394674539e+00 5.019013143350660400e+00 5.019776215820246357e+00 5.018677000738037464e+00 5.016742078190116416e+00 5.017157208677788915e+00 5.016582522818123557e+00 5.018901028371991480e+00 5.018075116727842122e+00 5.017563497252872651e+00 5.016193465189338063e+00 5.017709977833924917e+00 5.015718254389621933e+00 5.017927966591071431e+00 5.016488425163100118e+00 5.018120330098164494e+00 5.017298669917606979e+00 5.018068350260747046e+00 5.017991889996709531e+00 5.018409524579835690e+00 5.017750295608408351e+00 5.018192897515382889e+00 5.018505617011025599e+00 5.018930267043136162e+00 5.017990724916129075e+00 5.017129407700843480e+00 5.019511548375914955e+00 5.020243061102969584e+00 5.019632707235492042e+00 5.016863832493263509e+00 5.017338432763828848e+00 5.020661638990606690e+00 5.014914364591431806e+00 5.018859922080357805e+00 5.018299564991730577e+00 5.018019398338585013e+00 5.018999482371909515e+00 5.016404249083610267e+00 5.018199369834156265e+00 5.016115655115366501e+00 5.016585051112001814e+00 5.016681773354794593e+00 5.018633812330756783e+00 5.018837171727531299e+00 5.018897046888843860e+00 5.020739075081804614e+00 5.017938758208212668e+00 5.018143304038986230e+00 5.016663351188092257e+00 5.015664431631551068e+00 5.017531569982740969e+00 5.016815388975230050e+00 5.017784450400901264e+00 5.018857427806749705e+00 5.016913577636191057e+00 5.018652031517818912e+00 5.018640243563030623e+00 5.018691640555495326e+00 5.018533107097264967e+00 5.017728525390921845e+00 5.019577984493331257e+00 5.015635699284297644e+00 5.017475320112319004e+00 5.017883755200244877e+00 5.018407055629263702e+00 5.018595826096504453e+00 5.017250935675979129e+00 5.018436482872295379e+00 5.018051358789092475e+00 5.018105230287942753e+00 5.018476153753643310e+00 5.017006358028878843e+00 5.016640323107961486e+00 5.016383210301673223e+00 5.020064761550759869e+00 5.019266504595901068e+00 5.017770277876595131e+00 5.018711227195280067e+00 5.017319983901233016e+00 5.018515774946600061e+00 5.015855390095397937e+00 5.018109644273955006e+00 5.018847501856898319e+00 5.018148505109713220e+00 5.019741384445803867e+00 5.018813656305005644e+00 5.019502993188687867e+00 5.018726224587957141e+00 5.017088081791667875e+00 5.018591347906607325e+00 5.018872733574676559e+00 5.017515722076359985e+00 5.017356822642300429e+00 5.020539188764638006e+00 5.017292829810613419e+00 5.018600127044443582e+00 5.019040495586224893e+00 5.017078983173383300e+00 5.017204120074263862e+00 5.018117530486859934e+00 5.017756791135550287e+00 5.019055335141367813e+00 5.019189526394268519e+00 5.016896851791517342e+00 5.017183725699319474e+00 5.015845227820316055e+00 5.016907109197102699e+00 5.019869576756589069e+00 5.018273125205818808e+00 5.016920679166624986e+00 5.015972414722308592e+00 5.017506120007605652e+00 5.015682872576292084e+00 5.018538130545176834e+00 5.017739782656819081e+00 5.019992643760009088e+00 5.017784652796972722e+00 5.017721013370735506e+00 5.016206264468372034e+00 5.017966123531155453e+00 5.017696036619506472e+00 5.017317675285986489e+00 5.017580153260350784e+00 5.016111614004787889e+00 5.017406037287213572e+00 5.018260002426045752e+00 5.015813981889236217e+00 5.016203193285456052e+00 5.018820482748157730e+00 5.017512740480378319e+00 5.018937635445321455e+00 5.018599745112079624e+00 5.018501704738205227e+00 5.016900318585757468e+00 5.018404058732059525e+00 5.019379464299905891e+00 5.018383148600857879e+00 5.018525711935491351e+00 5.017401935918755385e+00 5.019823652390571489e+00 5.019973719210201857e+00 5.017416993183946516e+00 5.019277929385256520e+00 5.019362799408833453e+00 5.019095592820716156e+00 5.019084067318607012e+00 5.018922184162987854e+00 5.016638240702755880e+00 5.016092611898513631e+00 5.018952011041312389e+00 5.018500541897886080e+00 5.018630931060421574e+00 5.018718711409722921e+00 5.017833823808249605e+00 5.017470445755152220e+00 5.018613455774683096e+00 5.018579538653871630e+00 5.020060824656101595e+00 5.018183943682716475e+00 5.018005322843277050e+00 5.018338604420124582e+00 5.018127655865598058e+00 5.016766916635731377e+00 5.017238766318963705e+00 5.018440469652990288e+00 5.019046417494075207e+00 5.017815303245486191e+00 5.015819720183333885e+00 5.018228394454676611e+00 5.016279998775741156e+00 5.019283214915487790e+00 5.018685534435002538e+00 5.018078906694476871e+00 5.017218782684670586e+00 5.017391724621928617e+00 5.018229145026846361e+00 5.017551052538114398e+00 5.018525931488901470e+00 5.020130605139072166e+00 5.017823798755569165e+00 5.020193842632163062e+00 5.019934268277929768e+00 5.018726132204441193e+00 5.015150581458387435e+00 5.017189025776460198e+00
6.000000000000000000e+00 2.939842021570796167e-03 2.561356519031442457e-05 2.952907986111111011e-03 2.939270940500685915e-03 2.939198602537722912e-03 2.941076710390946522e-03 2.939434370713305857e-03 2.941725072873799512e-03 2.939126264574759909e-03 2.942826217421124890e-03 2.938097457990397968e-03 2.941127614883401985e-03 2.940685549554184017e-03 2.940688228737997189e-03 2.940822187928669208e-03 2.940439064643347086e-03 2.943134323559670838e-03 2.939265582133059138e-03 2.939177169067215371e-03 2.940321180555555396e-03 2.937759880829904097e-03 2.939268261316872310e-03 2.938890496399176964e-03 2.938440393518518615e-03 2.939356674382716077e-03 2.938994984567901061e-03 2.939876436042523824e-03 2.941604509602194651e-03 2.940511402606310089e-03 2.940602494855967027e-03 2.939654063786008038e-03 2.941449116941015091e-03 2.938134966563785838e-03 2.936404213820301839e-03 2.936313121570644901e-03 2.939994320130315513e-03 2.939209319272976465e-03 2.936883787722908111e-03 2.939083397633744828e-03 2.938306434327846162e-03 2.937917952674897262e-03 2.939782664609053714e-03 2.937992969821673437e-03 2.937958140432098738e-03 2.941245498971193240e-03 2.942035858196159065e-03 2.941494663065843777e-03 2.937816143689986337e-03 2.939573688271605086e-03 2.937467849794238479e-03 2.940830225480109590e-03 2.941146369170095920e-03 2.939388824588477171e-03 2.938810120884773579e-03 2.939793381344307267e-03 2.938568994341563857e-03 2.938416280864197469e-03 2.937789351851852020e-03 2.937540187757201483e-03 2.940640003429355331e-03 2.940806112825788878e-03 2.938357338820301624e-03 2.939045889060356524e-03 2.939530821330590005e-03 2.938641332304526860e-03 2.940093449931412833e-03 2.940412272805212768e-03 2.938727066186557022e-03 2.934319808813443207e-03 2.939678176440329183e-03 2.939696930727023119e-03 2.939619234396433339e-03 2.940468535665295008e-03 2.939059284979423682e-03 2.938984267832647507e-03 2.938110853909465126e-03 2.941711676954732353e-03 2.940942751200274503e-03 2.941481267146776619e-03 2.937722372256515793e-03 2.938804762517146802e-03 2.938590427812071398e-03 2.937607167352537709e-03 2.936497985253772383e-03 2.940096129115226439e-03 2.941561642661179570e-03 2.940136316872427914e-03 2.941687564300411641e-03 2.942702974965706424e-03 2.940972222222222425e-03 2.940929355281207344e-03 2.938917288237311281e-03 2.937245477537722693e-03 2.939568329903977876e-03 2.939308449074074219e-03 2.940731095679012270e-03 2.942847650891632430e-03 2.938922646604938058e-03 2.941775977366254975e-03 2.941082068758573299e-03 2.941240140603566464e-03 2.942633316186557026e-03 2.940693587105623966e-03 2.940637324245541726e-03 2.938175154320987748e-03 2.940669474451303254e-03 2.939849644204389507e-03 2.938743141289437786e-03 2.940286351165980697e-03 2.939035172325102970e-03 2.941280328360768373e-03 2.941167802640603460e-03 2.940897205075445817e-03 2.939755872770918963e-03 2.940366726680384082e-03 2.939147698045267449e-03 2.937615204903978091e-03 2.941044560185184994e-03 2.941567001028806781e-03 2.939852323388203112e-03 2.940171146262002613e-03 2.938143004115226220e-03 2.938960155178326362e-03 2.938437714334705009e-03 2.939905907064471746e-03 2.941558963477366399e-03 2.942207325960219388e-03 2.942981610082304449e-03 2.941711676954732353e-03 2.940733774862825875e-03 2.940080054012345675e-03 2.937060613854595211e-03 2.940130958504801138e-03 2.939300411522633837e-03 2.937074009773662370e-03 2.939629951131687326e-03 2.942271626371742010e-03 2.939399541323731158e-03 2.939220036008230452e-03 2.940347972393690147e-03 2.939163773148148213e-03 2.937888481652949340e-03 2.940913280178326580e-03 2.940610532407407409e-03 2.941601830418381480e-03 2.941583076131687111e-03 2.939070001714677669e-03 2.940382801783264846e-03 2.938343942901234466e-03 2.939308449074074219e-03 2.937339248971193237e-03 2.941266932441700781e-03 2.940353330761316924e-03 2.937261552640603457e-03 2.940422989540466322e-03 2.940157750342935455e-03 2.940171146262002613e-03 2.940634645061728555e-03 2.942368076989026159e-03 2.939581725823045468e-03 2.939474558470507332e-03 2.937277627743484221e-03 2.938649369855967242e-03 2.939667459705075630e-03 2.938268925754458291e-03 2.939332561728394931e-03 2.938828875171467948e-03 2.938105495541838350e-03 2.941347307956104166e-03 2.938448431069958997e-03 2.938167116769547366e-03 2.941966199417009667e-03 2.939627271947873721e-03 2.940283671982167526e-03 2.940176504629629824e-03 2.939970207475994367e-03 2.939268261316872310e-03 2.939019097222222206e-03 2.939327203360768154e-03 2.941301761831275913e-03 2.941430362654321156e-03 2.940618569958847791e-03 2.942228759430726929e-03 2.941033843449931441e-03 2.940666795267489649e-03 2.940613211591221014e-03 2.941735789609053499e-03 2.940039866255144199e-03 2.940503365054869707e-03 2.940283671982167526e-03 2.939053926611796905e-03 2.939061964163237287e-03 2.940130958504801138e-03 2.941266932441700781e-03 2.939951453189300432e-03 2.940090770747599662e-03 2.940816829561042432e-03 2.939327203360768154e-03 2.937722372256515793e-03 2.939852323388203112e-03 2.942129629629629609e-03 2.941213348765432146e-03 2.939970207475994367e-03 2.938852987825788660e-03 2.939852323388203112e-03 2.939257544581618756e-03 2.937939386145404803e-03 2.941127614883401985e-03 2.941679526748971259e-03 2.940934713648834121e-03 2.938702953532235877e-03 2.938743141289437786e-03 2.938818158436213961e-03 2.940492648319615720e-03 2.942930705589848987e-03 2.942156421467763926e-03 2.939394182956104381e-03 2.935659400720164701e-03 2.938759216392318116e-03 2.938309113511659767e-03 2.939897869513031364e-03 2.938614540466392110e-03 2.938764574759945326e-03 2.939758551954732568e-03 2.939418295610425093e-03 2.941285686728395150e-03 2.939295053155007061e-03 2.939327203360768154e-03
