# vvf statistics with RF=500
# gcat file: /disk2/salam/Abacus/AbacusCosmos_720box_products/GCAT_derivative/AbacusCosmos_720box_planck_rockstar_halos_z0.100_Mr21_hod-gammaIHV-pos_real-7.gcat.rsd_zz.1pz0.100by100
# stats order in row: stdvvf,p2.5,p16,p50,p84,p97.5,rho
# columns: numbers, mean, sigma,All, jnrealizations
0.000000000000000000e+00 1.414348931467644066e+00 4.898746650761966713e-03 1.414349172806050214e+00 1.414801925301778285e+00 1.414045903258625225e+00 1.414177365410888010e+00 1.414411390485149633e+00 1.414699666242567266e+00 1.414453074091879925e+00 1.414500581960030479e+00 1.413361278491051198e+00 1.413105174523273888e+00 1.414095336089148613e+00 1.414931100946141607e+00 1.414677630308433187e+00 1.414301327680653086e+00 1.414289243636467353e+00 1.414651914239877684e+00 1.414535813429797839e+00 1.414651970853222140e+00 1.414280836757397353e+00 1.414689315159619598e+00 1.414592033002830096e+00 1.414578904994078679e+00 1.415002548099807855e+00 1.414378287946988610e+00 1.414317227017795942e+00 1.414419293165883440e+00 1.414796681881992813e+00 1.414792165276100855e+00 1.414267195706848668e+00 1.414843105749705066e+00 1.414096905465497711e+00 1.414359331907838024e+00 1.413831653394805210e+00 1.414545352736331640e+00 1.414560407956526600e+00 1.413939414687285234e+00 1.413740047185763959e+00 1.414438330271464261e+00 1.414230761008807846e+00 1.414401835476507996e+00 1.414692770888409612e+00 1.414282608784848350e+00 1.414215920899791312e+00 1.414607931638355742e+00 1.414449206910956880e+00 1.413975748125099852e+00 1.414584919477744673e+00 1.414186523165315013e+00 1.414659602776155767e+00 1.414565007452395662e+00 1.414149971985146692e+00 1.413845127050817441e+00 1.414283698137054124e+00 1.414205250142808401e+00 1.414565086455725318e+00 1.413797562536005303e+00 1.413970501906067323e+00 1.414230294870160387e+00 1.414588849059624787e+00 1.414634537629707145e+00 1.413743573333642090e+00 1.414625456652877755e+00 1.414519292054131183e+00 1.414756603175790106e+00 1.414265063898792363e+00 1.414410788172590694e+00 1.413778009058459517e+00 1.414996924533755696e+00 1.414607332121075034e+00 1.414856193518640781e+00 1.414017655972619414e+00 1.414485777909990416e+00 1.414844386976556345e+00 1.414013567901781787e+00 1.414441756620539170e+00 1.414360455436813657e+00 1.414306254055557099e+00 1.414103361076312071e+00 1.414223532259088145e+00 1.414133181127956718e+00 1.413966287826716961e+00 1.414057708539188329e+00 1.414438548117442629e+00 1.413519375004904433e+00 1.414550350049982752e+00 1.413928995320501869e+00 1.414732662744449421e+00 1.414410466272763678e+00 1.414744315392162166e+00 1.414222678541791955e+00 1.414121672078847869e+00 1.414443145347441977e+00 1.414323942859075034e+00 1.414553016573351307e+00 1.414863679609391189e+00 1.413993931612047783e+00 1.414167995963274915e+00 1.414658641091741442e+00 1.414583360448211868e+00 1.414509514853409256e+00 1.414141097674812775e+00 1.414325744326650369e+00 1.413896191188471319e+00 1.414105524576959594e+00 1.414013456780953248e+00 1.414587370994452531e+00 1.414672406768884283e+00 1.414233760753123015e+00 1.414264039094310865e+00 1.414031221910619029e+00 1.414392016125742835e+00 1.414796088769520122e+00 1.414340460348056272e+00 1.414524006195047479e+00 1.413823387949128652e+00 1.414684289079667812e+00 1.414851470801633981e+00 1.414536941252486191e+00 1.414339059984162983e+00 1.413782017553683712e+00 1.414422751200706374e+00 1.414219270871900358e+00 1.414329288009562147e+00 1.414341047274037422e+00 1.413967785907415120e+00 1.414281058966847526e+00 1.414581586988336692e+00 1.414647921612624648e+00 1.414722924826690820e+00 1.414043689529269843e+00 1.414449019060212365e+00 1.414505799936378150e+00 1.414230285579906043e+00 1.414151459611612927e+00 1.414208709315616819e+00 1.414558099125866830e+00 1.414562574456146971e+00 1.414480879176107653e+00 1.414148524237883509e+00 1.413404075969328932e+00 1.414068239772058755e+00 1.414055969554967485e+00 1.414755034532910294e+00 1.414513850805341422e+00 1.414666114976221412e+00 1.414419413954906446e+00 1.414422292097884393e+00 1.414256508171783500e+00 1.414532363356803657e+00 1.413964513339042828e+00 1.414113089900720599e+00 1.413959442914433318e+00 1.414229082002521398e+00 1.413487785761620152e+00 1.414495226224504965e+00 1.414501364610100564e+00 1.414892068940784897e+00 1.414487592468639088e+00 1.414780236417291226e+00 1.413631842691323692e+00 1.414482198138375280e+00 1.414806640786756109e+00 1.414638914192297259e+00 1.414425584101514977e+00 1.414451744926384036e+00 1.414184934031097018e+00 1.413963202116623297e+00 1.413867571399829659e+00 1.414376886793325738e+00 1.414560071056714996e+00 1.414280390960740430e+00 1.414512247886412277e+00 1.413950579272687413e+00 1.414801888735470081e+00 1.414170288693922029e+00 1.414103579789185883e+00 1.414492660186811746e+00 1.414916864878971170e+00 1.414137041906372794e+00 1.414146356277405481e+00 1.414867704895649725e+00 1.414501404069282930e+00 1.414678203197758721e+00 1.414550012634953502e+00 1.414843386681646109e+00 1.414740633026104533e+00 1.414692933565368627e+00 1.414614403942121124e+00 1.414426946859138834e+00 1.413674724634369939e+00 1.414320666852751929e+00 1.414202859697882841e+00 1.414729795700802928e+00 1.414434386119008513e+00 1.414311964305001723e+00 1.414134975834910213e+00 1.414323216041741382e+00 1.414460281321156643e+00 1.414531126714163811e+00 1.414489859428385010e+00 1.414090430051491820e+00 1.414446224093917959e+00 1.414386904739943551e+00 1.414498351300511825e+00 1.414048721880339032e+00 1.414521272383996386e+00 1.414572596986972242e+00 1.414080591341282167e+00 1.414203920571813988e+00 1.414399994653968484e+00 1.414298501655543161e+00 1.414319081655122101e+00 1.414305533635183743e+00 1.414064263089893414e+00 1.413937636431087830e+00 1.413618999729423287e+00 1.414461426778756303e+00 1.414384058901938523e+00 1.414055157793371098e+00 1.414453489033536293e+00 1.414085320444754101e+00 1.415057436168052352e+00 1.414724916748620664e+00 1.414283286070557866e+00 1.413762631306186179e+00 1.414257217708742020e+00
1.000000000000000000e+00 2.599999982358566775e-02 1.926203921925878496e-04 2.599999999999999881e-02 2.599599925325010719e-02 2.599448014258375420e-02 2.601139085994300104e-02 2.599424877447375354e-02 2.601807667258024606e-02 2.599423440527774340e-02 2.602541816565072039e-02 2.598286326600756160e-02 2.601107637383590077e-02 2.600864295478317462e-02 2.600583631133944473e-02 2.600862526601585220e-02 2.600515691152347278e-02 2.603135172860188834e-02 2.599838554257936918e-02 2.599174141053336301e-02 2.600523535443635681e-02 2.598345640580645294e-02 2.599606316286503724e-02 2.599042285478599806e-02 2.598746269052725974e-02 2.600279774793448628e-02 2.598875065483412933e-02 2.600499383321693350e-02 2.601814076189128133e-02 2.600652775304374692e-02 2.600807302009760374e-02 2.600067177217618014e-02 2.601543438583996809e-02 2.599077525018314572e-02 2.597177215121604377e-02 2.597261660112509807e-02 2.600075047585648919e-02 2.599580972900272791e-02 2.597378149250120088e-02 2.599453462263778131e-02 2.598912115575392756e-02 2.598390451859908246e-02 2.599829744782016644e-02 2.598767857587712393e-02 2.598351649654018908e-02 2.601570968258248850e-02 2.601962512750490356e-02 2.601213315982114915e-02 2.598517263023226304e-02 2.599886980022792990e-02 2.598332295384547103e-02 2.601213669983659660e-02 2.600764476152623433e-02 2.599549192377131196e-02 2.599190083822463387e-02 2.599687837951588504e-02 2.598729705948801122e-02 2.598732518094493127e-02 2.597781127852098054e-02 2.598072686098502893e-02 2.600878353317416514e-02 2.600999774955757571e-02 2.599348294364961509e-02 2.599360513751043308e-02 2.600028760398001570e-02 2.599080789299865885e-02 2.600346540308183518e-02 2.600240760307838059e-02 2.598774801166890344e-02 2.595562169787589413e-02 2.599755346605989517e-02 2.599872795014830998e-02 2.599928125613765878e-02 2.600516996830249880e-02 2.599691786059003459e-02 2.599174126211696925e-02 2.598241650174161130e-02 2.601419907357348238e-02 2.600879407607108521e-02 2.600902336615331517e-02 2.598329004291985433e-02 2.599186365389694747e-02 2.598937611390708669e-02 2.598047421404910129e-02 2.596993939575529750e-02 2.600439370372084613e-02 2.601493574396701938e-02 2.600334218921161733e-02 2.601603379341960523e-02 2.602536060753997058e-02 2.600784810404468267e-02 2.601250429932870298e-02 2.599349677833833958e-02 2.597778962149409690e-02 2.599907932713532710e-02 2.599173608015838827e-02 2.600533748803632306e-02 2.602444626627095983e-02 2.599341423632610393e-02 2.601446141768091677e-02 2.601573186603813731e-02 2.601302305181983632e-02 2.602454369811008084e-02 2.601340053683471112e-02 2.600589337810043505e-02 2.598508048568444473e-02 2.600754498368634121e-02 2.600191885665878097e-02 2.599073388401725027e-02 2.600065648902016163e-02 2.599915799976276060e-02 2.601390110532505670e-02 2.600878657543005679e-02 2.601217186073820700e-02 2.600376959746367872e-02 2.600442092888101062e-02 2.599447458547476247e-02 2.597765270865750112e-02 2.601365647287036745e-02 2.601779019522107439e-02 2.599831272109384694e-02 2.600433160220011475e-02 2.598558042449070071e-02 2.599127805948830972e-02 2.598851222374685271e-02 2.600096448355178336e-02 2.601413691570930720e-02 2.602352956475891335e-02 2.603058584433465272e-02 2.601762727095078762e-02 2.600541225039634807e-02 2.600281011693856073e-02 2.597172166675211502e-02 2.600522743050928329e-02 2.599719315147940718e-02 2.597566170895982546e-02 2.599734976772034856e-02 2.602392734945122021e-02 2.599849826431395103e-02 2.599644065311285460e-02 2.600131371468463945e-02 2.599670594005583368e-02 2.598442708585340863e-02 2.600998096444343682e-02 2.600880419910328936e-02 2.601892424304369511e-02 2.601333820402143907e-02 2.599339989373524243e-02 2.600304115146491457e-02 2.598830216956352426e-02 2.599219075978686372e-02 2.597920086532623518e-02 2.601480248459250855e-02 2.600167121194451106e-02 2.598067171142424275e-02 2.600840367300658734e-02 2.599528534448217881e-02 2.600163476666552537e-02 2.600963538760185309e-02 2.602211391689751921e-02 2.599686259626292351e-02 2.599834538567855416e-02 2.597824841920626932e-02 2.598998738612989454e-02 2.599903388693137335e-02 2.598849894582493103e-02 2.599648701362653608e-02 2.598977236958240414e-02 2.598672970931027032e-02 2.601273840351176619e-02 2.598877773839060323e-02 2.599043698806283859e-02 2.601517133726208991e-02 2.599724029503793984e-02 2.600591595670013675e-02 2.600297900229349077e-02 2.600100943039569332e-02 2.599224604871691949e-02 2.598772443678799490e-02 2.599461029425397668e-02 2.601293046496771372e-02 2.601218354863584284e-02 2.600607470662757298e-02 2.601989347355110338e-02 2.601229178767541783e-02 2.600936598743623304e-02 2.600719123269525090e-02 2.601894759834704959e-02 2.600815176656641123e-02 2.600472349734621325e-02 2.600505532823747107e-02 2.599374674370218130e-02 2.599280957553076407e-02 2.600361774470613674e-02 2.601383497966647598e-02 2.599985794725443583e-02 2.600136485946902623e-02 2.600727472360456899e-02 2.599667682399283558e-02 2.598009195230828461e-02 2.600246886223786871e-02 2.601625393285715571e-02 2.601103033720015417e-02 2.600307634685815328e-02 2.599158063179174069e-02 2.599742000509918174e-02 2.599414399765600722e-02 2.598255297131307068e-02 2.601599113205221858e-02 2.601717641734757960e-02 2.600826806542970437e-02 2.599121384337566357e-02 2.599187440267906879e-02 2.599090953744425184e-02 2.600707311122654741e-02 2.602338522414885530e-02 2.602265246936600121e-02 2.599424317140213575e-02 2.596639021283599427e-02 2.599168602848677193e-02 2.598672247721373757e-02 2.600152163640720784e-02 2.599326596978583995e-02 2.598813969926679415e-02 2.600247512232455038e-02 2.600042657930047921e-02 2.601409787740724400e-02 2.599547075393784587e-02 2.599297178492208579e-02
2.000000000000000000e+00 1.120088336926473860e-01 1.966080378597966170e-03 1.120000000000000162e-01 1.119827660140004649e-01 1.119762221526684753e-01 1.120490683197544468e-01 1.119752254900407973e-01 1.120778687434225984e-01 1.119751635919656596e-01 1.121094936366492656e-01 1.119261802228017910e-01 1.120477136103700255e-01 1.120372311898352319e-01 1.120251410334622139e-01 1.120371549920682747e-01 1.120222143881011156e-01 1.121350536001311932e-01 1.119930454141880583e-01 1.119644245376821834e-01 1.120225522960335285e-01 1.119287352865508678e-01 1.119830413169570771e-01 1.119587446052319885e-01 1.119459931284251253e-01 1.120120518372562518e-01 1.119515412823623990e-01 1.120215118969344892e-01 1.120781448204547504e-01 1.120281195515730466e-01 1.120347760865743059e-01 1.120028937878358444e-01 1.120664865851567771e-01 1.119602626161735476e-01 1.118784031129306383e-01 1.118820407433080977e-01 1.120032328190741083e-01 1.119819496018579080e-01 1.118870587369282521e-01 1.119764568359781359e-01 1.119531372863246110e-01 1.119306656185806575e-01 1.119926659290714777e-01 1.119469230960860595e-01 1.119289941389423337e-01 1.120676724788168543e-01 1.120845390107903516e-01 1.120522659192295656e-01 1.119361282533082036e-01 1.119951314471356874e-01 1.119281604165650867e-01 1.120522811685268905e-01 1.120329312804206889e-01 1.119805805947071825e-01 1.119651113031214923e-01 1.119865530194530390e-01 1.119452796408714063e-01 1.119454007794550982e-01 1.119044178151673008e-01 1.119169772473201374e-01 1.120378367582887114e-01 1.120430672288633966e-01 1.119719265264906422e-01 1.119724529000449553e-01 1.120012389094523497e-01 1.119604032313788328e-01 1.120149278901986928e-01 1.120103712132607260e-01 1.119472222041122123e-01 1.138054182137635262e-01 1.119894610845657001e-01 1.119945204006388834e-01 1.119969038725929789e-01 1.120222706326876871e-01 1.119867230917724471e-01 1.119644238983500267e-01 1.119242556998100158e-01 1.120611652400088365e-01 1.120378821738446662e-01 1.120388698849681119e-01 1.119280186464239879e-01 1.119649511244791562e-01 1.119542355675997580e-01 1.119158889220576714e-01 1.118705081663305123e-01 1.120189267237205744e-01 1.120643385893963923e-01 1.120143971227577362e-01 1.120690686485767418e-01 1.121092456940183391e-01 1.120338072174232452e-01 1.120538646740313338e-01 1.119719861220728474e-01 1.119043245233591888e-01 1.119960340245829550e-01 1.119644015760669076e-01 1.120229922561564728e-01 1.121053069931672308e-01 1.119716305564816550e-01 1.120622953377024000e-01 1.120677680383181246e-01 1.120560993001469829e-01 1.121057266995511142e-01 1.120577253894418368e-01 1.120253868595095653e-01 1.119357313229483730e-01 1.120325014681873288e-01 1.120082658440686024e-01 1.119600844234589221e-01 1.120028279527022358e-01 1.119963729220549709e-01 1.120598816844771556e-01 1.120378498633910064e-01 1.120524326308722785e-01 1.120162382659973949e-01 1.120190440013335842e-01 1.119761982143528123e-01 1.119037347449861608e-01 1.120588278831338852e-01 1.120766346871061858e-01 1.119927317216350138e-01 1.120186592094774003e-01 1.119378849054984137e-01 1.119624285639496536e-01 1.119505141946018217e-01 1.120041546983769065e-01 1.120608974830554772e-01 1.121013581251153191e-01 1.121317544063646504e-01 1.120759328594803095e-01 1.120233143093996575e-01 1.120121051191199368e-01 1.118781856413937348e-01 1.120225181621938570e-01 1.119879089602189848e-01 1.118951581309038656e-01 1.119885836147953423e-01 1.121030716591744636e-01 1.119935309847370219e-01 1.119846674287938437e-01 1.120056590786415174e-01 1.119858102033174374e-01 1.119329166775223788e-01 1.120429949237563422e-01 1.120379257807526258e-01 1.120815198161882187e-01 1.120574568788615943e-01 1.119715687730133413e-01 1.120131003447719376e-01 1.119496093458121067e-01 1.119663601960049493e-01 1.119104037275591712e-01 1.120637645490138862e-01 1.120071990668378981e-01 1.119167396799813502e-01 1.120362004375668324e-01 1.119796907146924647e-01 1.120070420717899640e-01 1.120415062850541321e-01 1.120952599497123947e-01 1.119864850300556491e-01 1.119928724306153145e-01 1.119063008827347050e-01 1.119568687402518470e-01 1.119958382821659160e-01 1.119504569973997221e-01 1.119848671356220016e-01 1.119559425151241960e-01 1.119428356708749989e-01 1.120548731228199063e-01 1.119516579499902909e-01 1.119588054870399307e-01 1.120653534528213008e-01 1.119881120401634289e-01 1.120254841211698188e-01 1.120128326252642637e-01 1.120043483155506864e-01 1.119665983637036510e-01 1.119471206507790667e-01 1.119767828060171250e-01 1.120557004644762988e-01 1.120524829787390153e-01 1.120261679670110783e-01 1.120856949629893684e-01 1.120529492392171728e-01 1.120403457920330081e-01 1.120309776177641492e-01 1.120816204236488312e-01 1.120351153021322405e-01 1.120203473731836846e-01 1.120217767985614149e-01 1.119730628959478558e-01 1.119690258638248309e-01 1.120155841310418315e-01 1.120595968354863581e-01 1.119993880804806413e-01 1.120058793946357989e-01 1.120313372709119959e-01 1.119856847802768174e-01 1.119142422560972239e-01 1.120106350988708255e-01 1.120700169415385083e-01 1.120475152987083639e-01 1.120132519556966549e-01 1.119637319523336533e-01 1.119888861758118470e-01 1.119747741437489563e-01 1.119248435687332233e-01 1.120688848765326456e-01 1.120739907208818803e-01 1.120356162818510470e-01 1.119621519406951704e-01 1.119649974269252002e-01 1.119608410843752344e-01 1.120304687868220461e-01 1.121007363501796972e-01 1.120975798680381580e-01 1.119752013537322899e-01 1.118552193783704379e-01 1.119641859688660923e-01 1.119428045172284059e-01 1.120065547414464402e-01 1.119709918698466866e-01 1.119489094737646517e-01 1.120106620653980589e-01 1.120018375723712822e-01 1.120607293180619773e-01 1.119804894015783980e-01 1.119697246119720491e-01
3.000000000000000000e+00 4.931235309483739671e-01 1.243070089099254823e-02 4.939999999999999947e-01 4.939239858117520643e-01 4.938951227090913609e-01 4.922155501189213189e-01 4.938907267150013380e-01 4.923420662657492786e-01 4.938904537002771211e-01 4.924809899038520844e-01 4.936744020541437017e-01 4.942104511028820868e-01 4.921635512982047711e-01 4.921104409684232683e-01 4.921632165722999441e-01 4.920975846334442183e-01 4.925932711720048540e-01 4.919694494980404453e-01 4.938430868001338903e-01 4.920990690147187263e-01 4.936856717103226266e-01 4.919255029280614755e-01 4.938180342409339563e-01 4.937617911200179455e-01 4.920529419993757148e-01 4.937862624418484780e-01 4.940948828311217400e-01 4.923432790327119668e-01 4.921235251729816351e-01 4.921527663803085262e-01 4.940127636713473880e-01 4.922920660705101259e-01 4.938247297534797409e-01 4.934636708731048316e-01 4.934797154213768078e-01 4.920142013123612879e-01 4.939203848510518302e-01 4.935018483575228099e-01 4.938961578301178657e-01 4.937933019593246375e-01 4.936941858533825389e-01 4.939676515085831832e-01 4.937658929416653408e-01 4.936868134342635717e-01 4.922972755319455773e-01 4.923713677974004832e-01 4.922295967166155917e-01 4.937182799744129769e-01 4.939785262043306369e-01 4.936831361230638593e-01 4.922296637046002510e-01 4.921446624104194867e-01 4.939143465516548925e-01 4.938461159262680367e-01 4.939406892108018088e-01 4.937586441302720952e-01 4.937591784379536941e-01 4.935784142918986372e-01 4.936338103587155635e-01 4.941668871303090960e-01 4.921891881839356442e-01 4.938761759293426312e-01 4.938784976126982529e-01 4.940054644756202706e-01 4.938253499669744695e-01 4.920655760890871311e-01 4.920455592582524407e-01 4.937672122217092174e-01 4.931568122596419745e-01 4.919537040500564506e-01 4.919759289028065030e-01 4.919863991546049031e-01 4.940982293977474460e-01 4.939414393512106538e-01 4.938430839802224193e-01 4.936659135330906389e-01 4.922686901614674038e-01 4.921664109779605445e-01 4.921707498518242963e-01 4.936825108154772601e-01 4.938454094240419812e-01 4.937981461642346193e-01 4.936290100669329384e-01 4.934288485193506490e-01 4.940834803706961043e-01 4.922826302319913139e-01 4.920632445035428848e-01 4.923034087062478914e-01 4.924799007272948614e-01 4.921485102765378317e-01 4.922366198180662122e-01 4.938764387884284623e-01 4.935780028083878168e-01 4.939825072155712427e-01 4.938429855230093701e-01 4.921010016966873568e-01 4.924625985771273751e-01 4.938748704901959052e-01 4.922736545191927493e-01 4.922976953111832255e-01 4.922464362113599945e-01 4.924644422873138416e-01 4.922535793893337841e-01 4.941119741839082868e-01 4.937165292280044637e-01 4.941433546900405038e-01 4.940364582765168766e-01 4.938239437963277689e-01 4.940124732913830918e-01 4.939840019954924721e-01 4.922630516853818139e-01 4.941669449331710373e-01 4.922303290570460566e-01 4.920713323827742292e-01 4.940839976487392260e-01 4.938950171240204523e-01 4.935754014644925247e-01 4.922584224866238811e-01 4.923366452326449760e-01 4.939679417007830087e-01 4.920819672416329449e-01 4.937260280653232858e-01 4.938342831302779401e-01 4.937817322511902085e-01 4.940183251874838422e-01 4.922675139434222746e-01 4.924452517638994165e-01 4.925787782851018815e-01 4.923335622041456472e-01 4.921024164305770610e-01 4.920531760589912373e-01 4.934627116682901438e-01 4.940993211796764206e-01 4.939466698781087017e-01 4.935375724702366629e-01 4.939496455866866365e-01 4.924527790742306843e-01 4.919715825400947651e-01 4.919326462050586657e-01 4.920248595240324097e-01 4.939374128610608539e-01 4.937041146312147744e-01 4.921888705579296475e-01 4.941672797829624875e-01 4.923581049068268545e-01 4.922523998607133966e-01 4.938745979809696096e-01 4.940577818778333907e-01 4.937777412217069783e-01 4.938516244359503760e-01 4.936048164411984684e-01 4.922801085545966959e-01 4.940317530269457413e-01 4.936327625170605637e-01 4.921590233507400214e-01 4.939104215451614044e-01 4.920309348153630302e-01 4.921823311807734802e-01 4.924184633505223063e-01 4.939403893289955327e-01 4.919686896059172754e-01 4.935867199649191517e-01 4.938097603364680066e-01 4.919817181680860019e-01 4.937814799706737312e-01 4.939332532589041924e-01 4.938056750220656821e-01 4.937478644768951153e-01 4.922410497895303161e-01 4.937867770294214753e-01 4.938183027731939401e-01 4.922870883820364418e-01 4.939475656057208397e-01 4.921119481037102839e-01 4.940566010435763489e-01 4.920191015290262260e-01 4.938526749256214599e-01 4.937667642989719274e-01 4.938975955908255777e-01 4.922446841832351927e-01 4.922305502280321376e-01 4.941154194259238519e-01 4.923764457302747255e-01 4.922325984437040391e-01 4.921772333007164435e-01 4.921360802494639253e-01 4.923585468610288118e-01 4.921542565057951957e-01 4.920893831036283195e-01 4.920956623651090989e-01 4.938811881303414308e-01 4.938633819350845000e-01 4.920684588613623567e-01 4.922618003844578816e-01 4.939973009978342877e-01 4.920258273407215333e-01 4.921376601543633877e-01 4.939368596558639246e-01 4.936217470938574214e-01 4.920467184700397234e-01 4.923075744217584315e-01 4.922087279193260168e-01 4.940584505903048984e-01 4.938400320040430835e-01 4.939509800968844289e-01 4.938887359554641199e-01 4.936685064549483082e-01 4.923026014219112345e-01 4.923250306667311116e-01 4.921564572381313396e-01 4.938330630241375974e-01 4.938456136509022931e-01 4.938272812114407606e-01 4.921338450278254228e-01 4.924425203954322927e-01 4.924286544203105298e-01 4.938906202566406001e-01 4.933614140438838946e-01 4.938420345412486423e-01 4.937477270670609930e-01 4.940289110917369664e-01 4.938720534259309347e-01 4.937746542860690924e-01 4.920468369301414513e-01 4.940081050067091084e-01 4.922667752186293821e-01 4.939139443248190542e-01 4.938664639135196266e-01
4.000000000000000000e+00 1.816893290215285450e+00 8.978668490445554373e-03 1.816000000000000059e+00 1.817720255477257574e+00 1.817614034585279370e+00 1.816795607756018782e+00 1.817597856615126517e+00 1.817262586054066320e+00 1.817596851876728259e+00 1.815773405865015899e+00 1.816801746830836617e+00 1.816773642110999898e+00 1.816603677149471352e+00 1.816407643899708546e+00 1.816602441657107159e+00 1.816360190435639455e+00 1.816187385987839020e+00 1.817887112169588537e+00 1.817422534013448221e+00 1.816365669371400982e+00 1.816843220990620456e+00 1.817724724234178080e+00 1.817330336538497848e+00 1.817123352745329212e+00 1.816195411932655102e+00 1.817213411172632576e+00 1.816348800043152023e+00 1.817267062445945047e+00 1.816455938443363172e+00 1.816563869403740483e+00 1.816046920702766965e+00 1.817078032487899231e+00 1.817354977108959879e+00 1.816026221958106035e+00 1.818083162078756754e+00 1.816052417852130230e+00 1.817707003358729256e+00 1.818164704475083937e+00 1.817617843998287963e+00 1.817239317736947690e+00 1.816874554415889520e+00 1.815881083278516162e+00 1.817138448113253979e+00 1.816847422719617633e+00 1.817097260906530787e+00 1.817370739674957880e+00 1.816847454547507956e+00 1.816963224683163514e+00 1.815921059892843026e+00 1.816833889618886921e+00 1.816847701803971926e+00 1.816533957189678361e+00 1.817684781439086183e+00 1.817433681688168434e+00 1.817781726690764543e+00 1.817111771313430602e+00 1.817113737652226391e+00 1.816448496321197759e+00 1.816652362818107047e+00 1.816613496009395368e+00 1.816698304353713711e+00 1.817544307367499945e+00 1.817552851538229319e+00 1.816020088031834900e+00 1.817357259595060004e+00 1.816242045076792877e+00 1.818168347015249875e+00 1.817143303277464206e+00 1.816893518851312450e+00 1.815829119014029436e+00 1.815911152210359036e+00 1.815949798505614776e+00 1.816361102401436112e+00 1.815784724416596108e+00 1.817422523635717324e+00 1.816770507698701964e+00 1.816991750677286133e+00 1.816614232390195705e+00 1.816630247420554678e+00 1.816831588385703800e+00 1.817431081645563218e+00 1.817257145195503076e+00 1.816634696966971774e+00 1.817895757702870929e+00 1.816306883306040731e+00 1.817043204270927248e+00 1.816233439061857524e+00 1.817119898801923483e+00 1.815769390079904122e+00 1.816548159882505509e+00 1.816873377214650809e+00 1.817545274731503735e+00 1.816446981995241128e+00 1.815935694541452206e+00 1.817422161297228778e+00 1.816372803010537051e+00 1.815705597192904586e+00 1.817539503140032542e+00 1.817010074404174835e+00 1.817098810335586734e+00 1.816909610080954751e+00 1.817714282914150159e+00 1.816935975957378435e+00 1.816411629793476701e+00 1.816956781652858455e+00 1.816526988091323069e+00 1.816134024757398047e+00 1.817352084659360045e+00 1.816045853233100527e+00 1.815941189521891319e+00 1.816970938741165442e+00 1.816613708499268398e+00 1.816850157657714737e+00 1.816263291884386177e+00 1.816308784878766014e+00 1.817613646015119766e+00 1.816437408628436057e+00 1.816953852105099410e+00 1.817242576712364333e+00 1.815882150057939182e+00 1.816302545753669673e+00 1.816991738912464793e+00 1.817390135082682878e+00 1.817196739337375799e+00 1.816067365466539796e+00 1.816987409189542380e+00 1.817643449600084171e+00 1.816133950831656074e+00 1.817231197078716498e+00 1.816378024873837260e+00 1.816196275860016307e+00 1.818020516672647968e+00 1.816365115915571593e+00 1.817803736514983060e+00 1.816298191803421558e+00 1.817814687604446089e+00 1.817671233330900415e+00 1.817894994020106347e+00 1.817751119513814295e+00 1.816091757917973393e+00 1.815769922582361140e+00 1.816911093926211418e+00 1.816697131978049162e+00 1.816614939445060584e+00 1.817321785591051952e+00 1.816931622250112621e+00 1.817538500261949075e+00 1.816212412733087866e+00 1.817182051702557199e+00 1.817453953895865837e+00 1.816545660506272863e+00 1.817033896616153665e+00 1.816116727726585944e+00 1.816648506591125756e+00 1.816586964237690838e+00 1.817670336779561691e+00 1.816114182164022983e+00 1.816672994764806148e+00 1.817544572041765338e+00 1.817780623077153601e+00 1.815884431553548284e+00 1.816479062542961653e+00 1.817299887230159561e+00 1.815932520717975951e+00 1.817195810904220332e+00 1.817754361183578693e+00 1.817284852611569690e+00 1.817072100443310356e+00 1.816889728491437150e+00 1.817215304938235576e+00 1.817331324780701696e+00 1.817059659556459650e+00 1.817807032937652778e+00 1.816413206821825277e+00 1.816208071852499106e+00 1.816070504830714860e+00 1.817457819867975388e+00 1.817141654849252941e+00 1.817623135190528316e+00 1.816903143245437224e+00 1.816850974012411246e+00 1.816424294893679514e+00 1.817389482614184981e+00 1.816858534093021449e+00 1.816654178199392344e+00 1.816502279945175768e+00 1.817323416869163211e+00 1.816569369541715551e+00 1.816329918122335574e+00 1.816353095233817383e+00 1.817562753078867832e+00 1.817497223396727923e+00 1.816252685553321200e+00 1.816966320118243106e+00 1.815990078162079024e+00 1.816095330184451795e+00 1.816508111464073316e+00 1.817767633308422282e+00 1.816607968049864130e+00 1.816172440531691246e+00 1.817135274694945846e+00 1.816770426629056967e+00 1.816214870995938702e+00 1.817411291869130308e+00 1.817819598818088966e+00 1.817590530297639395e+00 1.816780050071044705e+00 1.817116919069493575e+00 1.817199706688584993e+00 1.816577492570012886e+00 1.817385644894498276e+00 1.817431833233482674e+00 1.817364366887447957e+00 1.816494029614900363e+00 1.817633367963628066e+00 1.817582187860333098e+00 1.817597464831118614e+00 1.817647314898519495e+00 1.817418661530344259e+00 1.817071594752868169e+00 1.816106280450595856e+00 1.817529135887332892e+00 1.817170691279501371e+00 1.816172877774668404e+00 1.816029794923449181e+00 1.816984682514290572e+00 1.817683301179192412e+00 1.817508565576474888e+00
5.000000000000000000e+00 4.963973743190088328e+00 1.684061901337854245e-02 4.964000000000000412e+00 4.965235857370770667e+00 4.962946131837913555e+00 4.966174778029116332e+00 4.962901958326450647e+00 4.965449863436275812e+00 4.964898771408048361e+00 4.962847048665241623e+00 4.962726883807444089e+00 4.964113883345143918e+00 4.963649474678235585e+00 4.965114286518807596e+00 4.963646098845025278e+00 4.964984573415481606e+00 4.965980945148666947e+00 4.963691762821692777e+00 4.964422609411871967e+00 4.964999549977772375e+00 4.962840173509032837e+00 4.965248064107221637e+00 4.964170765264125151e+00 4.963605373890707106e+00 4.966534369855486908e+00 4.963851375073319083e+00 4.962953053862401376e+00 4.963460699191567294e+00 4.965246298696505356e+00 4.965541325837096842e+00 4.964128256810867335e+00 4.964945593174535432e+00 4.962238782381120039e+00 4.964604138136297529e+00 4.962767664399595269e+00 4.964143283159677900e+00 4.965199658239520808e+00 4.962990248259459669e+00 4.960956953751102461e+00 4.963922140749000178e+00 4.964924524938469474e+00 4.963674943499204240e+00 4.965645660190675770e+00 4.962851650839176010e+00 4.964998132499012229e+00 4.965745380103051332e+00 4.964315566885867170e+00 4.963167972374361803e+00 4.963784218781978730e+00 4.962814684184484015e+00 4.964316242484200004e+00 4.965459561392931320e+00 4.963139304215414604e+00 4.962453683113349001e+00 4.963404010612186390e+00 4.963573738362208942e+00 4.965578134574401226e+00 4.963760247372777989e+00 4.964317347898985489e+00 4.963676303523469002e+00 4.965908801107838499e+00 4.964755242237075983e+00 4.964778581264493340e+00 4.964054910236799678e+00 4.964244307562744041e+00 4.964661625419163116e+00 4.964459666987734110e+00 4.963659870228760873e+00 4.961516916863199178e+00 4.965532712017439287e+00 4.965757038478327168e+00 4.965862719922292889e+00 4.962986668566037984e+00 4.963411548460343603e+00 4.966421945776811953e+00 4.962641551832647657e+00 4.964709838579677736e+00 4.963678315594797219e+00 4.963722074725105848e+00 4.964807112816378876e+00 4.962446583767094133e+00 4.961971654978260204e+00 4.962270574883378416e+00 4.964253799880916418e+00 4.964838859433472251e+00 4.962849280387554352e+00 4.964638101047941454e+00 4.963058754436970865e+00 4.964838023592240468e+00 4.963497780471912257e+00 4.964386397433424136e+00 4.962758384910443077e+00 4.963756109214718215e+00 4.963824222303837352e+00 4.962422226996393348e+00 4.963018639062932280e+00 4.964663595411690444e+00 4.962742625735490520e+00 4.962758793526821144e+00 4.965002366126201494e+00 4.964485399351154626e+00 4.964682182408692412e+00 4.964557440914378006e+00 4.965125181880406302e+00 4.963150372765729124e+00 4.963439931117370918e+00 4.964366354017468730e+00 4.964230171847294315e+00 4.964125338903695450e+00 4.963839242723936174e+00 4.964652972485497529e+00 4.963676884126305033e+00 4.964322952807037836e+00 4.964719703146527330e+00 4.962843717273368149e+00 4.964944645825679181e+00 4.961731667353583397e+00 4.964606285322413548e+00 4.965395190334114695e+00 4.963677859519608937e+00 4.962826669619883724e+00 4.961246970275840162e+00 4.964334109362267711e+00 4.961806718410745276e+00 4.963334110636061780e+00 4.964697975990368661e+00 4.962486907002872982e+00 4.963832485238892644e+00 4.965364096863761567e+00 4.965033323498748707e+00 4.964536516172423752e+00 4.964594487836846426e+00 4.962997635007194930e+00 4.963464107843990725e+00 4.963349514235092741e+00 4.963494009498607973e+00 4.962562761483813034e+00 4.963713284002094106e+00 4.965320164744555953e+00 4.964250818449790437e+00 4.963371087939891346e+00 4.963025573398001100e+00 4.963904828675705261e+00 4.963680247536558454e+00 4.965611618999338894e+00 4.964545544936707522e+00 4.964739379703432043e+00 4.964580625995070662e+00 4.963765714386632943e+00 4.962509035830076520e+00 4.966024165410438229e+00 4.962823858599186622e+00 4.964319072926636878e+00 4.962308296882030234e+00 4.963603808671487982e+00 4.961100226127714841e+00 4.964312114681833421e+00 4.963838876664630639e+00 4.966220355986365576e+00 4.963400997224967526e+00 4.963684095942628716e+00 4.961845448068397779e+00 4.964087590750810186e+00 4.965815472403892095e+00 4.963803298652561757e+00 4.965329019602668481e+00 4.963196856954986913e+00 4.963465374478261083e+00 4.964431075316360520e+00 4.961857411283498109e+00 4.962174200336304963e+00 4.963894807852200941e+00 4.963473108637243669e+00 4.965129492656133792e+00 4.964568760284033822e+00 4.964192723557085962e+00 4.962519591762722726e+00 4.963655367426507148e+00 4.964970566202509872e+00 4.964467729506530702e+00 4.964325183397348518e+00 4.965159801680741225e+00 4.965796592913868324e+00 4.964345840401747090e+00 4.963787462679176699e+00 4.965372972273047303e+00 4.965616076269157020e+00 4.963555733296251660e+00 4.964901824647177442e+00 4.962964789950551570e+00 4.964805628047116670e+00 4.962627182035950213e+00 4.964690710950818264e+00 4.964640352657886169e+00 4.963972878852731085e+00 4.964260583169394003e+00 4.964538674786753703e+00 4.963365529011555921e+00 4.962197562890882097e+00 4.964471362774953711e+00 4.965102000570661644e+00 4.965055500461547311e+00 4.962587108965775151e+00 4.964391900672223024e+00 4.963507419435089218e+00 4.964881503552297737e+00 4.962667617520795993e+00 4.965051846047812134e+00 4.963276731924769258e+00 4.963577928487007185e+00 4.962322519942953924e+00 4.964448010911701736e+00 4.963164106248250995e+00 4.965350420158791245e+00 4.964461181222244335e+00 4.964321394155975398e+00 4.962900888570777269e+00 4.961577945283431212e+00 4.964412031440972761e+00 4.963463993147823494e+00 4.962290398455867724e+00 4.964713800229095142e+00 4.963734682559957534e+00 4.966472748363988998e+00 4.964081443832599305e+00 4.964690525680567568e+00 4.961135610809214391e+00 4.962658151552047592e+00
6.000000000000000000e+00 2.981703083176281445e-03 2.638450724333079737e-05 2.994955096879286811e-03 2.981111754115226258e-03 2.980991190843621397e-03 2.983027370541838173e-03 2.980851873285322168e-03 2.983678412208504768e-03 2.981176054526748880e-03 2.984608088991769388e-03 2.979624807098765586e-03 2.983000578703703855e-03 2.982802319101508781e-03 2.982397762345679118e-03 2.982906807270233312e-03 2.982097693758573552e-03 2.985382373113854449e-03 2.981435935356652970e-03 2.980755422668038453e-03 2.982086977023319565e-03 2.979785558127571923e-03 2.981216242283950789e-03 2.980720593278463754e-03 2.980208869170095955e-03 2.981527027606309908e-03 2.980353545096021961e-03 2.981939621913580387e-03 2.983681091392318373e-03 2.982188786008230490e-03 2.982604059499314141e-03 2.981695816186557060e-03 2.983627507716049305e-03 2.980267811213991799e-03 2.978341478052126332e-03 2.978577246227709276e-03 2.981819058641975093e-03 2.981154621056241339e-03 2.978596000514403212e-03 2.981047453703703637e-03 2.980208869170095955e-03 2.979806991598079463e-03 2.981559177812071436e-03 2.980203510802469178e-03 2.979860575274348531e-03 2.983204196673525273e-03 2.983967764060356780e-03 2.983193479938271719e-03 2.979895404663923230e-03 2.981725287208504983e-03 2.979493527091906738e-03 2.983070237482853253e-03 2.982729981138545778e-03 2.980884023491083695e-03 2.980878665123456919e-03 2.981409143518518653e-03 2.980345507544581579e-03 2.980050797325102790e-03 2.979236325445816253e-03 2.979437264231824499e-03 2.982663001543209985e-03 2.982837148491083480e-03 2.980669688786008291e-03 2.980857231652949378e-03 2.981561856995884607e-03 2.980431241426611741e-03 2.982170031721536555e-03 2.982036072530864102e-03 2.980393732853223437e-03 2.976307977537722728e-03 2.981580611282578976e-03 2.981264467592592646e-03 2.981484160665294827e-03 2.982411158264746277e-03 2.980961719821673475e-03 2.980701838991769385e-03 2.979705182613168538e-03 2.983346193415637674e-03 2.982780885631001241e-03 2.983217592592592431e-03 2.979512281378600674e-03 2.980466070816186440e-03 2.980358903463648738e-03 2.979300625857338874e-03 2.978111068244170163e-03 2.982081618655692788e-03 2.983407814643347124e-03 2.982202181927297649e-03 2.983528377914951984e-03 2.984573259602194689e-03 2.982625492969821681e-03 2.982818394204389545e-03 2.981058170438957624e-03 2.979030028292181231e-03 2.981532385973936685e-03 2.980854552469135773e-03 2.982314707647462128e-03 2.984592013888889058e-03 2.980717914094650148e-03 2.983619470164608923e-03 2.983386381172839583e-03 2.983206875857338878e-03 2.984766160836762553e-03 2.982896090534979325e-03 2.982561192558299060e-03 2.979865933641975308e-03 2.982673718278463539e-03 2.981794945987654381e-03 2.980530371227709061e-03 2.981711891289437390e-03 2.981331447187928873e-03 2.983354230967078056e-03 2.982756772976680529e-03 2.982804998285322386e-03 2.981998563957475798e-03 2.982127164780521474e-03 2.980967078189300252e-03 2.979169345850480027e-03 2.983252421982167564e-03 2.983528377914951984e-03 2.981634194958847611e-03 2.982140560699588633e-03 2.979868612825788913e-03 2.980610746742112446e-03 2.980340149176954802e-03 2.981658307613168756e-03 2.983204196673525273e-03 2.984214248971193278e-03 2.985208226165980954e-03 2.983689128943758755e-03 2.982218257030178413e-03 2.981891396604938096e-03 2.978274498456790105e-03 2.982314707647462128e-03 2.980996549211248174e-03 2.978882673182441619e-03 2.981251071673525488e-03 2.984487525720164527e-03 2.981395747599451494e-03 2.981417181069959035e-03 2.981918188443072847e-03 2.981192129629629643e-03 2.979758766289437606e-03 2.982936278292181234e-03 2.982518325617283979e-03 2.983729316700960230e-03 2.983514981995884826e-03 2.980865269204389760e-03 2.982081618655692788e-03 2.980214227537722731e-03 2.980790252057613152e-03 2.979335455246913573e-03 2.983439964849108218e-03 2.981926225994513228e-03 2.979263117283950570e-03 2.982266482338820270e-03 2.981604723936899688e-03 2.981923546810699623e-03 2.982539759087791519e-03 2.984487525720164527e-03 2.981060849622770795e-03 2.981395747599451494e-03 2.978813014403292221e-03 2.980554483882030207e-03 2.981599365569272912e-03 2.980554483882030207e-03 2.980996549211248174e-03 2.980586634087791301e-03 2.979892725480109625e-03 2.983394418724279965e-03 2.980166002229080874e-03 2.980117776920439016e-03 2.983809692215363615e-03 2.981347522290809203e-03 2.982180748456790109e-03 2.981894075788751701e-03 2.981813700274348316e-03 2.980945644718792711e-03 2.980259773662551417e-03 2.981017982681755715e-03 2.983051483196159318e-03 2.983102387688614347e-03 2.982328103566529286e-03 2.984305341220850651e-03 2.983289930555555435e-03 2.982705868484225066e-03 2.982542438271605124e-03 2.983659657921810832e-03 2.982282557441701034e-03 2.982237011316872348e-03 2.982250407235939507e-03 2.981042095336076860e-03 2.981189450445816038e-03 2.981859246399177002e-03 2.983439964849108218e-03 2.981449331275720128e-03 2.981859246399177002e-03 2.982515646433470374e-03 2.980932248799725553e-03 2.979279192386831334e-03 2.981698495370370232e-03 2.983635545267489687e-03 2.983062199931412872e-03 2.982073581104252406e-03 2.980736668381344517e-03 2.981537744341563895e-03 2.980784893689986375e-03 2.979774841392318369e-03 2.983375664437585596e-03 2.983598036694101382e-03 2.982906807270233312e-03 2.980661651234567909e-03 2.980570558984910971e-03 2.980600030006858893e-03 2.982392403978052341e-03 2.984650955932784469e-03 2.984203532235939725e-03 2.981192129629629643e-03 2.977465384945130345e-03 2.980626821844993210e-03 2.979967742626886233e-03 2.981843171296296238e-03 2.980535729595336272e-03 2.980476787551440427e-03 2.981869963134430555e-03 2.981510952503429145e-03 2.983174725651577350e-03 2.981157300240054944e-03 2.980910815329218012e-03
