# vvf statistics with RF=500
# gcat file: /disk2/salam/Abacus/AbacusCosmos_720box_products/GCAT_derivative/AbacusCosmos_720box_planck_rockstar_halos_z0.100_Mr21_hod-alpha-neg_real-0.gcat.rsd_zz.1pz0.100by100
# stats order in row: stdvvf,p2.5,p16,p50,p84,p97.5,rho
# columns: numbers, mean, sigma,All, jnrealizations
0.000000000000000000e+00 1.455203181151437652e+00 4.664386561470217941e-03 1.455203412648503836e+00 1.455422590447623676e+00 1.454713506079762020e+00 1.455054278169237936e+00 1.455315044008101966e+00 1.455549487098030337e+00 1.455304461398041704e+00 1.455481408576201341e+00 1.454359858902394054e+00 1.454044909006768860e+00 1.454957409883391728e+00 1.455855362690614108e+00 1.455530502074318777e+00 1.455224905383831757e+00 1.454840102894734866e+00 1.455508119811125933e+00 1.455085571386688592e+00 1.455443166704692093e+00 1.455143823295140582e+00 1.455398690329401834e+00 1.455413602725607491e+00 1.455387262423343708e+00 1.455628204062080933e+00 1.455249858001389285e+00 1.455330478443066289e+00 1.455019803482513252e+00 1.455589708008439676e+00 1.455566766391072964e+00 1.455199533779814702e+00 1.455572790204836764e+00 1.454971376377533820e+00 1.455269149555577402e+00 1.454677218452130161e+00 1.455231551799238243e+00 1.455124847741978256e+00 1.454716087654492007e+00 1.454563706309419224e+00 1.455352290212814426e+00 1.455146300662905068e+00 1.455176961515542322e+00 1.455506639294694926e+00 1.455128739732466592e+00 1.455191662270944430e+00 1.455501372986194975e+00 1.455311248288460702e+00 1.454547572178043868e+00 1.455340020496224351e+00 1.454744089514055316e+00 1.455581547943511245e+00 1.455224375869390130e+00 1.455006315791453453e+00 1.454338069554447221e+00 1.455305742308923067e+00 1.454977119028762811e+00 1.455270982848458461e+00 1.454660666557531012e+00 1.455082820827693579e+00 1.455139049273919571e+00 1.455383081429139969e+00 1.455269113681493476e+00 1.454696796032715289e+00 1.455486436843422826e+00 1.455476989630810181e+00 1.455556182059569714e+00 1.455351085475511841e+00 1.455248459107046255e+00 1.454601380683274270e+00 1.455843661361128749e+00 1.455670724631013657e+00 1.455564774802995620e+00 1.454960335890937539e+00 1.455271440464391830e+00 1.455620079597155891e+00 1.454826187306212493e+00 1.455129961423732521e+00 1.454814110351988266e+00 1.455357852952191777e+00 1.455319985431373420e+00 1.454881658238309061e+00 1.455105507486172955e+00 1.454928241754280593e+00 1.454994486942757126e+00 1.455221917417468980e+00 1.454452769756209074e+00 1.455111965184433087e+00 1.454938818910680220e+00 1.455695044083926026e+00 1.455238943923568451e+00 1.455495967011252167e+00 1.455003416401997374e+00 1.454584504802586498e+00 1.455508302119091990e+00 1.455274175081322729e+00 1.455398720126484635e+00 1.455327071053040378e+00 1.454864229675536969e+00 1.454908038134368642e+00 1.455544088988273144e+00 1.455065769677441834e+00 1.455390505117853728e+00 1.455203941588781413e+00 1.455097917119026363e+00 1.454747727804631685e+00 1.455282635746541819e+00 1.454949364174779269e+00 1.455254854934387110e+00 1.455453427824121571e+00 1.455097524804611409e+00 1.455171318677957570e+00 1.455100152990782325e+00 1.455188861142058698e+00 1.455689187732289946e+00 1.455290386323322194e+00 1.455241016373348684e+00 1.454715245288152436e+00 1.455457789642788269e+00 1.455524336021632781e+00 1.455604957959705015e+00 1.455205205653173461e+00 1.454862773045840107e+00 1.455366458303931188e+00 1.455152151794381732e+00 1.454947982988498811e+00 1.455276542547575103e+00 1.455095791738359123e+00 1.454853589291372984e+00 1.455318523214246484e+00 1.455698462870868015e+00 1.455614615834337711e+00 1.455209775223700319e+00 1.455269292927569902e+00 1.455618988457380025e+00 1.454767456557398919e+00 1.455203485387303264e+00 1.454962840238569033e+00 1.455263201497703163e+00 1.455230607269151877e+00 1.455539411374754843e+00 1.454781817889711837e+00 1.454299675769691769e+00 1.454576249281005929e+00 1.455107774270317345e+00 1.455485405270367627e+00 1.455407657927182186e+00 1.455526460662776023e+00 1.455478338140794303e+00 1.455197007164477085e+00 1.455280216845369567e+00 1.455268608348913917e+00 1.454969496153333930e+00 1.455027183385438239e+00 1.454915214350391395e+00 1.455059633417722154e+00 1.454628020656480114e+00 1.455500093121110616e+00 1.455318116424690666e+00 1.455802631306456263e+00 1.455312254889939538e+00 1.455527448424539516e+00 1.454843639683538470e+00 1.455214837256087357e+00 1.455488577918879756e+00 1.455321911361699971e+00 1.455339970690277651e+00 1.455378187041174165e+00 1.455161699740940451e+00 1.454896745411522474e+00 1.454843108070097424e+00 1.454979916094482295e+00 1.455271552953895098e+00 1.455091748526971651e+00 1.455163689991814557e+00 1.455127203794520652e+00 1.455672057246482520e+00 1.454903642550058995e+00 1.455094523586396127e+00 1.455389481431035748e+00 1.455626858879394359e+00 1.455152949622173786e+00 1.455055938159918183e+00 1.455563099468358157e+00 1.455488062459194154e+00 1.455324229699253458e+00 1.455563187518832624e+00 1.455757519828225988e+00 1.455557171211462775e+00 1.455522715376657672e+00 1.455516774171866423e+00 1.455036139518576910e+00 1.454735522586513286e+00 1.455502390194553408e+00 1.455030667419889623e+00 1.455606718253423137e+00 1.455451043492717700e+00 1.455046306205881379e+00 1.454859387779349644e+00 1.455136755924200553e+00 1.455542296946504166e+00 1.455317796308338796e+00 1.455335598346989778e+00 1.455216746338033662e+00 1.455364409868352915e+00 1.454976764937508271e+00 1.455303468615184892e+00 1.454877024968790566e+00 1.455109373423931096e+00 1.455469408066462300e+00 1.455211814053216424e+00 1.455268817946588911e+00 1.455122739796755216e+00 1.455069853112501477e+00 1.455411753800899044e+00 1.455129786553894800e+00 1.454999423773531531e+00 1.454821043526344670e+00 1.454740459002646258e+00 1.455214117938481877e+00 1.455353575954369871e+00 1.454982521723631184e+00 1.455341547145828196e+00 1.455239210210135470e+00 1.455806056032204587e+00 1.455675122034064017e+00 1.455448946063622406e+00 1.454690248199383307e+00 1.455301053949948242e+00
1.000000000000000000e+00 2.399999987783636018e-02 1.721519317313417914e-04 2.400000000000000050e-02 2.399287704067297466e-02 2.399455083342038123e-02 2.400866058875239170e-02 2.399761338473619179e-02 2.401619685598584825e-02 2.399321946943393929e-02 2.402276854057024125e-02 2.398820960120418358e-02 2.400856353217476619e-02 2.400835013233445364e-02 2.400619251616037050e-02 2.400919644442782094e-02 2.400623746273058967e-02 2.403058604599423928e-02 2.399976952547185766e-02 2.398985914560287230e-02 2.400718593398368586e-02 2.398799699744013150e-02 2.399424618046431396e-02 2.399100973950496138e-02 2.398882768959985021e-02 2.399822722220647242e-02 2.399077245457405597e-02 2.400461696994223362e-02 2.401432700301443096e-02 2.400653248081243557e-02 2.400392791738971063e-02 2.399793394128428917e-02 2.401312595486951654e-02 2.399080103444009571e-02 2.397699196789554454e-02 2.397297838212302662e-02 2.400185677729761019e-02 2.399556501572748524e-02 2.398221120362259429e-02 2.399618819169065803e-02 2.398949953857345760e-02 2.398833729562772910e-02 2.400079353357224832e-02 2.398883590026620535e-02 2.398558353038716950e-02 2.401228818766303064e-02 2.401643565282138640e-02 2.401291242069035492e-02 2.398500909845793783e-02 2.399705040729636918e-02 2.398276146187029029e-02 2.400870257964772547e-02 2.400545076366422670e-02 2.399606269399988043e-02 2.399141376890363136e-02 2.399756856443465911e-02 2.398685335719514394e-02 2.399057928437894893e-02 2.398131703867538780e-02 2.398088602835012420e-02 2.400813035916206373e-02 2.401036346105144687e-02 2.399046668376554961e-02 2.399098025404194229e-02 2.400147678221436348e-02 2.399369917229318694e-02 2.400237906856761763e-02 2.400476041908036068e-02 2.398934855634023144e-02 2.396169713466480070e-02 2.399807001585043884e-02 2.399970169170570489e-02 2.399766982769857560e-02 2.400423992266150983e-02 2.399268885930083001e-02 2.399157972949116438e-02 2.398598504866621822e-02 2.401045320640595240e-02 2.400869925621014478e-02 2.401045397194894598e-02 2.398756483649263846e-02 2.399396357343340849e-02 2.399027032637541385e-02 2.398409910810972781e-02 2.397276241456360729e-02 2.400406801118594793e-02 2.401209257417110179e-02 2.399991610509914775e-02 2.401196258493750596e-02 2.402391444289317043e-02 2.400965449936006552e-02 2.401240958270869572e-02 2.399307523338920986e-02 2.397904719838804544e-02 2.399943921285201121e-02 2.399304845871371925e-02 2.400921545786173505e-02 2.402142650471326621e-02 2.399520589014202468e-02 2.401164486358692285e-02 2.401362714690484512e-02 2.401169772825739387e-02 2.401988919249367291e-02 2.400961861534641958e-02 2.400441706551645002e-02 2.398751639648025527e-02 2.400718120392442145e-02 2.400234868719719819e-02 2.399269010983575215e-02 2.400139634773479358e-02 2.399934196560677552e-02 2.401228090814058053e-02 2.400752728052798698e-02 2.400788230230387413e-02 2.400609931421002208e-02 2.400564849429747544e-02 2.399374113450489926e-02 2.398130738882415375e-02 2.401052264556913229e-02 2.401943194836043960e-02 2.399974489793414711e-02 2.400524816987579038e-02 2.398942378019922050e-02 2.399194338321842396e-02 2.399032816115667308e-02 2.400079326930586870e-02 2.401359778362438871e-02 2.401924531705260796e-02 2.402821364967398093e-02 2.401650148887450945e-02 2.400647035048366490e-02 2.400197427960813756e-02 2.397360070056575934e-02 2.400459845586058044e-02 2.399625218102926366e-02 2.397847615500321716e-02 2.399815282638165584e-02 2.402169307050597627e-02 2.399661115620629545e-02 2.399488019807304029e-02 2.400345592315918791e-02 2.399870438301184711e-02 2.398642947031235859e-02 2.400999451935655754e-02 2.400949990364027384e-02 2.401538887782038098e-02 2.401168755019273196e-02 2.399483803647353697e-02 2.400388651382165048e-02 2.398871246377564520e-02 2.399578041153299993e-02 2.398133396140799539e-02 2.401468751957944528e-02 2.400194091955788062e-02 2.398214303363416233e-02 2.400666609440852556e-02 2.399796568304241734e-02 2.400193634404798257e-02 2.400637461969347408e-02 2.401903371710206389e-02 2.399660139623699395e-02 2.399874577465481440e-02 2.398034065220420660e-02 2.399013954183757888e-02 2.399816822842179218e-02 2.398850226950111075e-02 2.399845690246085392e-02 2.399092580202479702e-02 2.399051782054511042e-02 2.401296694998802245e-02 2.399346089793724657e-02 2.399209112053338200e-02 2.401020756354411978e-02 2.399609435125667212e-02 2.400428357236279384e-02 2.400013328195209350e-02 2.400049944767980101e-02 2.399386046827655175e-02 2.398927260222278798e-02 2.399248338106195824e-02 2.401133726246307623e-02 2.401034111114528496e-02 2.400830801781490484e-02 2.402037996474930964e-02 2.400772237313743979e-02 2.400695364399493478e-02 2.400979430850220392e-02 2.401593249028088559e-02 2.400474452091052105e-02 2.400519980240823498e-02 2.400372509280957953e-02 2.399514670248157830e-02 2.399499756367353548e-02 2.400385376430371961e-02 2.401179028335858473e-02 2.400110971325614476e-02 2.400112326455116837e-02 2.400699853689465188e-02 2.399817156587696204e-02 2.398136586369627177e-02 2.400308078704722209e-02 2.401613140169988475e-02 2.400950450943632047e-02 2.400059357948710823e-02 2.399392349124501722e-02 2.399788784711049186e-02 2.399216308369838888e-02 2.398424868794461762e-02 2.401198490389806761e-02 2.401893546136657162e-02 2.400684514429784686e-02 2.399519160505704171e-02 2.398977664253790221e-02 2.399128887587606562e-02 2.400604899750245769e-02 2.402117515167567774e-02 2.402014989254906696e-02 2.399307747143082648e-02 2.396912505032536278e-02 2.399084717246300832e-02 2.398865913092762883e-02 2.400332444794048975e-02 2.399166780256605999e-02 2.398708437115221193e-02 2.399895941694714721e-02 2.400091253247094505e-02 2.401330093080705080e-02 2.399444990010069292e-02 2.399637155007356207e-02
2.000000000000000000e+00 1.041503354045686808e-01 7.605071492241409666e-03 1.039999999999999813e-01 1.039691338429162282e-01 1.039763869448216554e-01 1.040375292179270272e-01 1.039896580005234966e-01 1.040701863759386780e-01 1.039706177008804105e-01 1.040986636758043787e-01 1.059479257386518186e-01 1.040371086394239752e-01 1.040361839067826255e-01 1.040268342366949400e-01 1.040398512591872160e-01 1.040270290051658886e-01 1.041325395326417047e-01 1.039990012770447281e-01 1.039560562976124536e-01 1.040311390472626468e-01 1.039479869889072400e-01 1.039750667820120295e-01 1.039610422045215005e-01 1.039515866549326900e-01 1.039923179628947092e-01 1.039600139698209080e-01 1.040200068697496871e-01 1.040620836797292031e-01 1.040283074168538852e-01 1.040170209753554093e-01 1.039910470788985852e-01 1.040568791377678992e-01 1.039601378159070860e-01 1.039002985275473551e-01 1.058806545210433658e-01 1.040080460349563224e-01 1.039807817348191027e-01 1.039229152156979086e-01 1.059831645133004069e-01 1.039544980004849795e-01 1.039494616143868261e-01 1.040034386454797288e-01 1.039516222344868818e-01 1.039375286316777391e-01 1.040532488132064615e-01 1.040712211622260019e-01 1.040559538229915426e-01 1.039350394266510547e-01 1.039872184316176090e-01 1.039252996681045982e-01 1.040377111784734770e-01 1.040236199758783064e-01 1.039829383406661450e-01 1.039627929985824095e-01 1.039894637792168619e-01 1.039430312145122881e-01 1.039591768989754500e-01 1.059174835874829579e-01 1.059155799585463908e-01 1.040352315563689428e-01 1.040449083312229295e-01 1.039586889629840472e-01 1.039609144341817615e-01 1.040063993895955774e-01 1.039726964132704767e-01 1.040103092971263465e-01 1.040206284826815653e-01 1.039538437441410029e-01 1.058308290114362005e-01 1.039916367353519028e-01 1.039987073307247212e-01 1.039899025866938276e-01 1.040183729981998678e-01 1.039683183903035990e-01 1.039635121611283686e-01 1.059381006316091334e-01 1.040452972277591259e-01 1.040376967769106181e-01 1.040453005451121016e-01 1.039461142914680780e-01 1.039738421515447875e-01 1.039578380809601243e-01 1.039310961351421481e-01 1.038819704631089580e-01 1.040176280484724353e-01 1.040524011547414446e-01 1.039996364554296171e-01 1.040518378680625189e-01 1.041036292525370638e-01 1.040418361638936195e-01 1.040537748584043354e-01 1.039699926780199152e-01 1.059074584595472018e-01 1.039975699223587152e-01 1.039698766544261133e-01 1.040399336507341899e-01 1.040928481870908168e-01 1.039792255239487678e-01 1.040504610755433323e-01 1.040590509699210048e-01 1.040506901557820413e-01 1.040861865008059078e-01 1.040416806665011434e-01 1.040191406172379512e-01 1.059448640844544570e-01 1.040311185503391550e-01 1.040101776445211956e-01 1.039683238092882628e-01 1.040060508401841055e-01 1.039971485176293675e-01 1.040532172686091800e-01 1.040326182156212781e-01 1.040341566433167914e-01 1.040264303615767577e-01 1.040244768086223959e-01 1.039728782495212278e-01 1.059174409673066808e-01 1.040455981307995825e-01 1.040842051095619003e-01 1.039988945577146190e-01 1.040227420694617572e-01 1.059532883625465549e-01 1.039650879939464923e-01 1.039580886983455799e-01 1.040034375003254241e-01 1.040589237290390212e-01 1.040833963738946322e-01 1.041222591485872484e-01 1.040715064517895305e-01 1.040280381854292169e-01 1.040085552116352674e-01 1.038856030357849514e-01 1.040199266420625129e-01 1.039837594511268115e-01 1.039067300050139364e-01 1.039919955809871649e-01 1.040940033055259006e-01 1.039853150102272722e-01 1.039778141916498366e-01 1.040149756670231546e-01 1.039943856597180111e-01 1.059400634938795771e-01 1.040433095838784183e-01 1.040411662491078498e-01 1.040666851372216567e-01 1.040506460508351938e-01 1.039776314913853361e-01 1.040168415598938245e-01 1.039510873430277982e-01 1.039817151166430031e-01 1.039191138327679731e-01 1.040636459181775997e-01 1.040084106514174850e-01 1.059211317318842216e-01 1.040288864091036131e-01 1.039911846265171441e-01 1.040083908242079302e-01 1.040276233520050497e-01 1.040824794407756160e-01 1.039852727170269830e-01 1.039945650235041819e-01 1.059131712139019105e-01 1.039572713479628430e-01 1.039920623231611052e-01 1.039501765011714846e-01 1.039933132439970209e-01 1.039606784754407848e-01 1.039589105556954773e-01 1.040561901166147663e-01 1.059711189658895242e-01 1.039657281889779794e-01 1.040442327753578478e-01 1.039830755221122505e-01 1.040185621469054411e-01 1.040005775551257478e-01 1.040021642732791296e-01 1.039733953625317231e-01 1.039535146096320917e-01 1.039674279846018179e-01 1.040491281373399912e-01 1.040448114816295705e-01 1.040360014105312508e-01 1.040883131805803441e-01 1.040334636169289034e-01 1.040301324573114083e-01 1.040424420035095388e-01 1.040690407912171767e-01 1.040205595906122660e-01 1.040225324771023585e-01 1.040161420688415078e-01 1.039789690440868358e-01 1.059779059062247869e-01 1.040166996453161241e-01 1.040510912278871936e-01 1.040048087574432928e-01 1.040048674797217354e-01 1.040303269932101454e-01 1.039920767854668332e-01 1.039192520760171684e-01 1.040133500772046360e-01 1.040699027406994936e-01 1.040411862075573957e-01 1.040025721777774748e-01 1.039736684620617413e-01 1.039908473374787923e-01 1.039660400293596770e-01 1.039317443144266717e-01 1.040519345835582976e-01 1.040820536659218115e-01 1.040296622919573422e-01 1.039791636219138532e-01 1.039556987843309466e-01 1.039622517954629510e-01 1.040262123225106639e-01 1.040917589905946128e-01 1.040873162010459568e-01 1.039700023762002573e-01 1.058636356389370259e-01 1.039603377473397039e-01 1.039508562340197284e-01 1.040144059410754440e-01 1.039638938111195898e-01 1.039440322749929091e-01 1.039954908067709516e-01 1.040039543073740941e-01 1.040576373668305743e-01 1.039759495671030154e-01 1.039842767169854437e-01
3.000000000000000000e+00 4.719999975974484840e-01 3.385654657383110281e-03 4.719999999999999751e-01 4.718599151332351638e-01 4.718928330572674801e-01 4.721703249121304014e-01 4.719530632331450648e-01 4.723185381677217354e-01 4.718666495655341464e-01 4.724477812978814528e-01 4.717681221570156347e-01 4.721684161327704410e-01 4.721642192692442341e-01 4.721217861511539660e-01 4.721808634070804311e-01 4.721226701003682913e-01 4.726015255712200380e-01 4.719954673342798834e-01 4.718005631968564817e-01 4.721413233683458555e-01 4.717639409496559577e-01 4.718868415491315194e-01 4.718231915435975310e-01 4.717802778954637288e-01 4.719651353700606289e-01 4.718185249399564074e-01 4.720908004088639753e-01 4.722817643926171538e-01 4.721284721226445824e-01 4.720772490419976597e-01 4.719593675119243548e-01 4.722581437791005254e-01 4.718190870106552248e-01 4.715475087019456724e-01 4.714685748484194749e-01 4.720365166201864193e-01 4.719127786426405291e-01 4.716501536712443543e-01 4.719250344365829020e-01 4.717934909252780029e-01 4.717706334806786583e-01 4.720156061602541753e-01 4.717804393719020051e-01 4.717164760976143567e-01 4.722416676907062461e-01 4.723232345054872994e-01 4.722539442735769755e-01 4.717051789363394532e-01 4.719419913434953484e-01 4.716609754167823687e-01 4.721711507330719759e-01 4.721071983520631066e-01 4.719225663153309713e-01 4.718311374551047432e-01 4.719521817672149844e-01 4.717414493581711388e-01 4.718147259261193383e-01 4.716325684272826280e-01 4.716240918908857771e-01 4.721598970635205728e-01 4.722038147340117953e-01 4.718125114473891157e-01 4.718226116628249089e-01 4.720290433835491184e-01 4.718760837217660375e-01 4.720467883484965044e-01 4.720936215752470910e-01 4.717905216080245379e-01 4.712467103150744241e-01 4.719620436450586154e-01 4.719941332702122239e-01 4.719541732780719867e-01 4.720833851456763264e-01 4.718562142329162934e-01 4.718344013466595488e-01 4.717243726237689838e-01 4.722055797259837595e-01 4.721710853721328149e-01 4.722055947816625743e-01 4.717554417843551895e-01 4.718812836108570163e-01 4.718086497520497802e-01 4.716872824594913194e-01 4.714643274864175893e-01 4.720800042199903013e-01 4.722378206253650124e-01 4.719983500669499010e-01 4.722352641704375964e-01 4.724703173768989850e-01 4.721898718207479528e-01 4.722440551266043340e-01 4.718638129233211354e-01 4.715879282349649260e-01 4.719889711860895121e-01 4.718632863547030931e-01 4.721812373379474792e-01 4.724213879260275584e-01 4.719057158394597828e-01 4.722290156505427605e-01 4.722680005557953198e-01 4.722300553223954256e-01 4.723911541190422003e-01 4.721891661018128850e-01 4.720868689551568353e-01 4.717544891307783872e-01 4.721412303438469182e-01 4.720461908482115887e-01 4.718562388267698027e-01 4.720274615054509404e-01 4.719870586569333004e-01 4.722415245267647665e-01 4.721480365170504512e-01 4.721550186119762293e-01 4.721199531794637583e-01 4.721110870545169869e-01 4.718769089785962989e-01 4.716323786468750168e-01 4.722069453628596203e-01 4.723821616510886501e-01 4.719949829927048146e-01 4.721032140075572259e-01 4.717920010105846607e-01 4.718415532032956272e-01 4.718097871694145184e-01 4.720156009630153693e-01 4.722674230779463356e-01 4.723784912353679588e-01 4.725548684435882940e-01 4.723245292811986684e-01 4.721272502261787407e-01 4.720388274989600341e-01 4.714808137777932728e-01 4.720904362985914315e-01 4.719262928935755164e-01 4.715766977150632200e-01 4.719636722521725614e-01 4.724266303866175298e-01 4.719333527387237770e-01 4.718993105621031026e-01 4.720679664887973970e-01 4.719745195325663611e-01 4.717331129161430048e-01 4.721965588806789627e-01 4.721868314382586806e-01 4.723026479304675007e-01 4.722298551537904565e-01 4.718984813839796066e-01 4.720764347718258147e-01 4.717780117875876589e-01 4.719170147601490228e-01 4.716329012410238608e-01 4.722888545517290870e-01 4.720381714179716637e-01 4.716488129948052110e-01 4.721310998567010420e-01 4.719599917665008859e-01 4.720380814329436792e-01 4.721253675206383282e-01 4.723743297696739174e-01 4.719331607926608441e-01 4.719753335682113637e-01 4.716133661600160898e-01 4.718060776561390779e-01 4.719639751589618792e-01 4.717738779668551596e-01 4.719696524150634453e-01 4.718215407731543021e-01 4.718135171373871728e-01 4.722550166830977725e-01 4.718713976594325898e-01 4.718444587038231330e-01 4.722007487497010270e-01 4.719231889080478526e-01 4.720842435898016110e-01 4.720026212117245379e-01 4.720098224710361223e-01 4.718792558761055189e-01 4.717890278437148477e-01 4.718521731608851799e-01 4.722229661617738383e-01 4.722033751858572548e-01 4.721633910170264792e-01 4.724008059734031151e-01 4.721518733383696653e-01 4.721367549985670542e-01 4.721926214005432998e-01 4.723133389755240774e-01 4.720933089112402392e-01 4.721022627806953365e-01 4.720732601585884147e-01 4.719045518154710295e-01 4.719016187522461769e-01 4.720757906979731744e-01 4.722318755727187845e-01 4.720218243607041675e-01 4.720220908695063056e-01 4.721376378922614303e-01 4.719640407955802419e-01 4.716335286526933124e-01 4.720605888119286941e-01 4.723172509000976849e-01 4.721869220189143235e-01 4.720116737299131504e-01 4.718804953278186720e-01 4.719584609931729569e-01 4.718458739794016421e-01 4.716902241962441233e-01 4.722357031099952973e-01 4.723723974068759213e-01 4.721346211711909824e-01 4.719054348994551895e-01 4.717989406365788452e-01 4.718286812255625962e-01 4.721189636175483484e-01 4.724164446496216807e-01 4.723962812201316641e-01 4.718638569381395920e-01 4.713927926563988291e-01 4.718199943917724681e-01 4.717769629082433358e-01 4.720653808094962822e-01 4.718361334504658777e-01 4.717459926326601494e-01 4.719795351999605537e-01 4.720179464719285733e-01 4.722615849725387838e-01 4.718908480353136703e-01 4.719286404847800598e-01
4.000000000000000000e+00 1.820808385050244560e+00 8.827453433801504129e-03 1.820000000000000062e+00 1.821459248671089881e+00 1.821586317437163816e+00 1.820656761313723004e+00 1.819819015009161101e+00 1.821228261578927032e+00 1.821485244721193553e+00 1.819724716948195820e+00 1.821104912224751127e+00 1.820649401189919914e+00 1.820633218368695960e+00 1.820469599142161554e+00 1.820697397035776266e+00 1.820473007590403203e+00 1.820316892984063628e+00 1.821982503142071996e+00 1.821230140137017894e+00 1.820544933327096215e+00 1.821088772055663441e+00 1.821563189200249289e+00 1.821317489390751554e+00 1.821151835435455446e+00 1.821865416619174560e+00 1.821299475509747356e+00 1.820350120220619594e+00 1.821086464395260895e+00 1.820495379794943025e+00 1.820297867068719766e+00 1.819843323880725228e+00 1.820995384910938375e+00 1.821301645197910712e+00 1.820253306896070011e+00 1.821946357041349884e+00 1.820140805611735857e+00 1.821663310777311473e+00 1.820649533875015269e+00 1.821710620219182397e+00 1.821202839970034848e+00 1.821114606359738319e+00 1.820060176295895449e+00 1.821152458761875703e+00 1.820905549681892666e+00 1.820931854231113034e+00 1.821246370338955201e+00 1.820979191902351912e+00 1.820861940724598504e+00 1.819776322553308345e+00 1.820691307646986168e+00 1.820659945623285925e+00 1.820413349577870488e+00 1.819701420961657323e+00 1.821348161955934186e+00 1.821815413516664650e+00 1.821001950700398053e+00 1.821284810672435306e+00 1.820581651852773319e+00 1.820548930985580238e+00 1.820616552236456576e+00 1.820785895796401377e+00 1.821276262409201596e+00 1.821315250952684206e+00 1.820111989317922507e+00 1.821521662163257727e+00 1.820180412699711425e+00 1.820360998446927336e+00 1.821191377902162456e+00 1.821088982234524867e+00 1.819853642868658250e+00 1.819977378287682690e+00 1.819823295267142038e+00 1.820321527468497624e+00 1.821444962568588011e+00 1.821360761130537576e+00 1.820936031611243733e+00 1.820792701485784759e+00 1.820659693595935824e+00 1.820792759539461736e+00 1.821055963837066027e+00 1.819542237652033378e+00 1.821261355610666710e+00 1.820792857290663536e+00 1.821929943506833904e+00 1.820308490848267624e+00 1.820917020207975190e+00 1.819993637970018563e+00 1.820907162691093983e+00 1.819811519049157500e+00 1.820732132868138287e+00 1.820941060022075897e+00 1.821474294801464167e+00 1.820409333144292541e+00 1.819957473641277357e+00 1.821472262157349808e+00 1.820698838887848225e+00 1.821624843274089356e+00 1.821636047159948646e+00 1.820883068822008122e+00 1.821033391973617466e+00 1.820887077726185854e+00 1.821508263764103353e+00 1.820729411663770003e+00 1.820334960801664126e+00 1.821052286432792711e+00 1.820544574630935220e+00 1.820178108779120896e+00 1.821445057505030940e+00 1.820105889703221846e+00 1.819950099058514015e+00 1.820931302200660573e+00 1.820570818773372457e+00 1.820597741258044078e+00 1.820462531327593281e+00 1.820428344150891720e+00 1.821524847794496749e+00 1.820580919268233844e+00 1.820797967288992680e+00 1.821473589417333283e+00 1.819980654760005923e+00 1.820397986215580799e+00 1.821197088646790974e+00 1.821388368509331945e+00 1.821265746234477234e+00 1.820060156255694839e+00 1.821031165258182760e+00 1.821459436543156230e+00 1.820137183962803995e+00 1.821251362906316729e+00 1.820490668245011268e+00 1.820149716203617096e+00 1.820155677189204013e+00 1.820348716236094067e+00 1.819715790394719424e+00 1.820365981433994085e+00 1.819859922667275365e+00 1.821645057846703164e+00 1.819743012678977312e+00 1.821611321703711539e+00 1.820262074172905198e+00 1.819901749045065298e+00 1.820969770621213124e+00 1.820757917717872099e+00 1.820720409359387393e+00 1.821166989901378930e+00 1.820886305889615642e+00 1.819608551099243243e+00 1.820294727298141790e+00 1.821143087874967703e+00 1.821679662908880282e+00 1.820582936570223520e+00 1.821113803568107814e+00 1.820147186399805994e+00 1.820644358636726912e+00 1.820505512159313222e+00 1.821845561437636984e+00 1.820146839423638641e+00 1.820483408660088509e+00 1.821443390213573155e+00 1.820382181918435816e+00 1.819904887911323321e+00 1.820507527846502605e+00 1.821251426884503033e+00 1.819861090655319202e+00 1.821127130626292612e+00 1.819882981769948005e+00 1.821311117137049074e+00 1.821280144543049317e+00 1.820983327040758271e+00 1.821503573168403278e+00 1.821399584233825752e+00 1.820774073568762308e+00 1.821703496166235725e+00 1.820324837570845178e+00 1.820010107214700579e+00 1.820037874782385101e+00 1.821533907216661641e+00 1.821185611718746600e+00 1.821429363345620445e+00 1.820859742403449832e+00 1.820784200928517116e+00 1.820630024684297021e+00 1.821545480660156091e+00 1.820585613296255900e+00 1.820527318002949091e+00 1.820742735061416706e+00 1.821208213846300605e+00 1.820359792835714474e+00 1.820394318349291218e+00 1.820282486204726435e+00 1.821631553830059813e+00 1.821620231708882542e+00 1.820292243793032227e+00 1.820894096488025804e+00 1.820084153255257853e+00 1.820085180895130161e+00 1.820530722381177746e+00 1.821861191376159317e+00 1.820585358485608429e+00 1.820233626351081213e+00 1.821223297962241361e+00 1.820720758632254466e+00 1.820045013111105892e+00 1.821538691710350877e+00 1.821839652393137943e+00 1.821405047437435920e+00 1.820804212893128771e+00 1.820908855212270083e+00 1.821435939153631889e+00 1.820519090109253391e+00 1.821634962683913894e+00 1.821223876779336059e+00 1.821338680493591156e+00 1.820458715643936465e+00 1.821605782335405710e+00 1.821528033518304168e+00 1.821474464706123619e+00 1.821653503824727682e+00 1.821305147842816385e+00 1.821139039022922290e+00 1.820252103968820645e+00 1.821367447344806934e+00 1.821019488509971973e+00 1.819921089118492041e+00 1.820069200379046626e+00 1.821008653919535147e+00 1.821578654915977813e+00 1.819724842547245203e+00
5.000000000000000000e+00 5.103093481969048995e+00 1.716900399756433881e-02 5.104000000000000092e+00 5.104484590403175481e+00 5.100841598004615562e+00 5.101840375109883752e+00 5.103492446487230438e+00 5.103441831896993186e+00 5.102558007166284604e+00 5.102836417492795817e+00 5.101492575189423562e+00 5.101819750587138103e+00 5.101774403121071444e+00 5.105316941770105643e+00 5.101954244440911168e+00 5.103325980618810931e+00 5.102494437099443836e+00 5.103950985750349112e+00 5.103842533227011202e+00 5.103527609799365372e+00 5.103446361205388193e+00 5.104775874893783261e+00 5.104087322079680078e+00 5.103623090962368103e+00 5.105622841524425581e+00 5.104036839710630602e+00 5.102981490860219793e+00 5.101043294223648772e+00 5.103388696546043768e+00 5.104835337098212023e+00 5.103560618179791675e+00 5.104790359239345321e+00 5.104042920077130674e+00 5.103103123833768073e+00 5.100251150796673905e+00 5.102394719907184850e+00 5.103056826678044722e+00 5.102215433570706615e+00 5.101189673083572629e+00 5.103766026831502600e+00 5.102419294185323473e+00 5.102168692011900042e+00 5.103624837781635115e+00 5.102932896089870773e+00 5.104612263894032331e+00 5.101491206586810101e+00 5.102743889396700538e+00 5.100811934938721315e+00 5.105372474152303219e+00 5.102332501012904586e+00 5.103850023390112511e+00 5.103158741508953433e+00 5.103162666257307301e+00 5.102173994853505867e+00 5.103482914703104889e+00 5.103203051743267160e+00 5.101996527811256676e+00 5.102025199978188930e+00 5.101933502531489140e+00 5.101727701321938646e+00 5.104203099095186325e+00 5.103971786971120750e+00 5.104081049047423768e+00 5.104314062350921333e+00 5.104659498905375514e+00 5.104355933712962035e+00 5.103011985756166879e+00 5.103733905361384160e+00 5.101844681589047248e+00 5.105589395872180525e+00 5.105936534910388680e+00 5.105504255842872041e+00 5.102901336892458950e+00 5.102445164077976436e+00 5.104208587449244661e+00 5.101019487016348997e+00 5.102221306361265363e+00 5.101848591944655453e+00 5.102221469039150747e+00 5.103354418963808925e+00 5.101816479649594172e+00 5.103930011936369304e+00 5.102617085250344964e+00 5.102552536684926032e+00 5.102864791377946574e+00 5.100568664296845078e+00 5.103982158351085374e+00 5.100541052417141508e+00 5.103079826244557360e+00 5.102051581114014134e+00 5.104638070457490073e+00 5.102527332967438767e+00 5.101542291457056955e+00 5.103880739266527300e+00 5.102521638886450717e+00 5.101958284795618859e+00 5.102551346709509161e+00 5.102980452636870723e+00 5.102474533512221022e+00 5.104896904312854922e+00 5.102485767254696825e+00 5.102224795972197136e+00 5.102043955761113914e+00 5.102938994511038828e+00 5.101345153651467790e+00 5.101526005833939337e+00 5.102499291753337829e+00 5.104444820867557020e+00 5.104296956618266101e+00 5.101860112855240992e+00 5.102609692979873657e+00 5.101599547112197541e+00 5.101674989239572966e+00 5.105297120821997936e+00 5.103200775746071116e+00 5.104668426365917000e+00 5.102023146972339163e+00 5.104236939070571744e+00 5.102127669697563483e+00 5.103945748293994278e+00 5.103115673446095180e+00 5.101750790589034246e+00 5.102286626164451278e+00 5.101943122272651898e+00 5.102168635833272070e+00 5.102889529020182557e+00 5.102088026097258755e+00 5.101990698280775227e+00 5.103506566385832777e+00 5.105376027869525934e+00 5.104419863463330209e+00 5.102381349103745301e+00 5.102977555075028704e+00 5.103202963832223382e+00 5.103419008323184514e+00 5.103607167743831496e+00 5.102607969726644654e+00 5.105279023482888867e+00 5.104910762140038472e+00 5.104734959658521198e+00 5.101724573421935638e+00 5.101114000686427730e+00 5.102123835363268078e+00 5.104019521182194374e+00 5.103270136536830925e+00 5.103534115746089839e+00 5.104901792259744830e+00 5.102826208063252267e+00 5.103598576668268549e+00 5.103102634186018172e+00 5.104027244786334627e+00 5.101119873950667127e+00 5.102412607149346080e+00 5.102200930405667911e+00 5.101416545061812080e+00 5.101567538120100664e+00 5.102411634472200141e+00 5.103355137903171190e+00 5.102743633890899133e+00 5.103277230266400899e+00 5.103733268076590335e+00 5.101817473756445231e+00 5.103902187525944711e+00 5.105610290596735545e+00 5.103553857836361729e+00 5.103671834590008061e+00 5.104069464380775578e+00 5.103982666320971973e+00 5.102755476872454565e+00 5.100609895886494272e+00 5.102318044966765775e+00 5.102169107253125446e+00 5.103169398700585724e+00 5.104910973055821088e+00 5.102028333521649195e+00 5.104106215873238206e+00 5.102694326253479851e+00 5.103717746122898191e+00 5.104400839320931915e+00 5.104410113045275921e+00 5.104198347877635378e+00 5.101765453785667148e+00 5.102329044178832262e+00 5.103641647822800387e+00 5.101477649348924004e+00 5.102081290556718329e+00 5.103385654184688036e+00 5.103008606070228659e+00 5.103105391328617735e+00 5.104792203070837253e+00 5.102967865394415270e+00 5.102936148541238559e+00 5.103169302262388740e+00 5.102505435213698703e+00 5.104235999019139491e+00 5.104238880927881361e+00 5.103487772301520842e+00 5.103611153009834034e+00 5.103134733436894166e+00 5.104655180712042828e+00 5.103427922861225596e+00 5.104020500297671958e+00 5.104126234570925291e+00 5.104707222762377761e+00 5.103550815485498049e+00 5.104332696056832042e+00 5.102648908360217561e+00 5.102546792078339166e+00 5.102022207585283020e+00 5.103455163591983812e+00 5.102977414675464729e+00 5.103824980699939395e+00 5.102147434269642901e+00 5.103285916052398008e+00 5.102497955135108398e+00 5.102280173008963970e+00 5.102527808924289587e+00 5.103426208631775651e+00 5.104052735941504437e+00 5.103587230104852601e+00 5.102706722224682245e+00 5.104227324995929571e+00 5.103252199962632574e+00 5.103778702670759948e+00 5.104194065238821132e+00 5.102826447796499743e+00 5.100820141263072927e+00 5.103228349648977868e+00
6.000000000000000000e+00 3.056729713789194634e-03 2.633948041887556259e-05 3.070315179183813296e-03 3.055740419238683198e-03 3.055871699245542045e-03 3.058060592421124775e-03 3.056222672325103074e-03 3.058719671639231752e-03 3.055689514746227735e-03 3.059587727194787356e-03 3.055124206961591302e-03 3.057899841392318439e-03 3.057787315672153526e-03 3.057337212791495177e-03 3.058090063443072697e-03 3.057337212791495177e-03 3.060584383573388204e-03 3.056600437242798420e-03 3.055472500857338725e-03 3.057422946673525339e-03 3.054933984910836609e-03 3.055968149862825761e-03 3.055775248628257897e-03 3.055317108196159166e-03 3.055968149862825761e-03 3.055488575960219489e-03 3.057168424211248459e-03 3.058398169581618645e-03 3.057219328703703488e-03 3.057256837277091792e-03 3.056627229080932737e-03 3.058347265089163183e-03 3.055370691872427800e-03 3.053755144032921885e-03 3.053372020747599329e-03 3.056967485425240213e-03 3.056086033950617450e-03 3.054296339163237173e-03 3.056265539266118155e-03 3.055247449417009768e-03 3.055295674725651625e-03 3.056895147462277210e-03 3.055239411865569386e-03 3.055054548182441904e-03 3.057870370370370516e-03 3.058727709190672134e-03 3.058553562242798205e-03 3.054583011831275580e-03 3.056517382544581430e-03 3.054108796296296086e-03 3.057974858539094613e-03 3.057567622599451345e-03 3.056053883744855922e-03 3.055512688614540635e-03 3.056520061728395035e-03 3.055228695130315399e-03 3.055335862482853101e-03 3.054427619170096021e-03 3.054365997942387004e-03 3.057993612825788549e-03 3.057969500171467837e-03 3.055156357167352395e-03 3.055630572702331890e-03 3.056584362139917656e-03 3.055617176783264732e-03 3.057173782578875235e-03 3.057227366255143870e-03 3.055595743312757191e-03 3.051402820644718780e-03 3.056680812757201805e-03 3.056463798868312796e-03 3.056423611111111320e-03 3.057382758916323863e-03 3.055456425754457962e-03 3.055451067386831185e-03 3.054979531035665295e-03 3.058274927126200179e-03 3.057723015260630905e-03 3.058518732853223506e-03 3.054856288580246829e-03 3.055713627400548880e-03 3.055359975137174246e-03 3.054588370198902791e-03 3.053181798696845070e-03 3.057181820130315617e-03 3.058355302640603565e-03 3.056552211934156563e-03 3.058272247942387008e-03 3.059724365569272981e-03 3.057931991598079532e-03 3.058009687928669312e-03 3.055927962105624285e-03 3.053945366083676144e-03 3.056790659293552679e-03 3.056064600480109909e-03 3.057688185871056206e-03 3.059630594135802437e-03 3.055775248628257897e-03 3.058773255315500820e-03 3.058055234053497998e-03 3.058111496913580238e-03 3.059510030864197577e-03 3.057779278120713144e-03 3.057152349108367695e-03 3.055022397976680376e-03 3.057806069958847895e-03 3.056796017661179889e-03 3.055662722908093418e-03 3.057002314814814912e-03 3.056273576817558103e-03 3.058299039780521325e-03 3.057570301783264950e-03 3.057530114026063041e-03 3.057350608710562336e-03 3.057430984224965721e-03 3.055957433127572207e-03 3.054258830589849302e-03 3.058092742626886303e-03 3.059022419410150923e-03 3.056921939300411527e-03 3.057093407064471850e-03 3.055376050240055010e-03 3.055563593106996097e-03 3.055322466563785942e-03 3.056616512345679184e-03 3.058475865912208425e-03 3.059217999828532392e-03 3.060286994170095809e-03 3.058620541838134432e-03 3.057382758916323863e-03 3.056921939300411527e-03 3.053433641975308779e-03 3.057195216049382776e-03 3.056238747427983404e-03 3.053546167695473258e-03 3.056375385802469029e-03 3.059418938614540638e-03 3.056303047839506026e-03 3.056096750685871003e-03 3.057345250342935559e-03 3.056198559670781929e-03 3.054805384087791367e-03 3.057950745884773468e-03 3.057784636488340355e-03 3.058545524691357823e-03 3.058395490397805040e-03 3.056037808641975159e-03 3.057189857681755999e-03 3.055110811042524143e-03 3.056254822530864168e-03 3.054486561213991865e-03 3.058542845507544652e-03 3.057045181755829993e-03 3.054379393861454163e-03 3.057361325445816323e-03 3.056916580932784750e-03 3.056962127057613002e-03 3.057195216049382776e-03 3.059485918209876431e-03 3.056075317215363463e-03 3.056380744170095805e-03 3.053921253429355432e-03 3.055467142489711949e-03 3.056453082133058809e-03 3.055365333504801023e-03 3.056359310699588265e-03 3.055775248628257897e-03 3.055140282064472065e-03 3.058588391632372904e-03 3.055547518004115334e-03 3.055199224108367476e-03 3.058497299382715966e-03 3.056335198045267553e-03 3.057101444615912232e-03 3.056750471536351203e-03 3.056680812757201805e-03 3.055919924554183903e-03 3.055220657578875017e-03 3.055729702503429211e-03 3.058186514060356846e-03 3.058317794067215260e-03 3.057581018518518504e-03 3.059678819444444295e-03 3.057728373628257681e-03 3.057484567901234355e-03 3.057961462620027455e-03 3.058569637345678969e-03 3.057004993998628083e-03 3.057347929526749164e-03 3.057058577674897151e-03 3.056094071502057398e-03 3.056335198045267553e-03 3.056932656035665080e-03 3.058288323045267338e-03 3.056648662551440278e-03 3.056755829903977980e-03 3.057489926268861565e-03 3.055984224965706524e-03 3.054320451817558318e-03 3.056887109910836828e-03 3.058765217764060438e-03 3.057819465877915054e-03 3.057050540123456769e-03 3.055906528635116744e-03 3.056458440500686019e-03 3.055785965363511450e-03 3.054633916323731043e-03 3.058215985082304335e-03 3.058995627572016606e-03 3.057899841392318439e-03 3.056134259259259307e-03 3.055373371056241405e-03 3.055622535150891508e-03 3.057342571159121954e-03 3.059743119855966916e-03 3.059108153292181085e-03 3.056061921296296304e-03 3.052445023148148313e-03 3.055483217592592712e-03 3.055199224108367476e-03 3.057066615226337533e-03 3.055389446159122169e-03 3.055231374314129004e-03 3.056503986625514271e-03 3.056549532750342957e-03 3.058108817729766633e-03 3.056021733539094828e-03 3.056193201303155152e-03
