# vvf statistics with RF=500
# gcat file: /disk2/salam/Abacus/AbacusCosmos_720box_products/GCAT_derivative/AbacusCosmos_720box_23_rockstar_halos_z0.100_Mr21_hod-default_real-7.gcat.rsd_zz.1pz0.100by100
# stats order in row: stdvvf,p2.5,p16,p50,p84,p97.5,rho
# columns: numbers, mean, sigma,All, jnrealizations
0.000000000000000000e+00 1.374129101527654440e+00 4.520614797796471303e-03 1.374129295848042442e+00 1.374296504666485674e+00 1.373786342721592613e+00 1.373962330767362294e+00 1.374187459593491312e+00 1.374653016014550033e+00 1.374254333203019041e+00 1.374304510674669633e+00 1.373307119092673112e+00 1.373161942192806517e+00 1.373959144577206581e+00 1.374610156694964003e+00 1.374167077341218901e+00 1.373994303461922417e+00 1.374257986729505276e+00 1.374548315484261485e+00 1.374128928165980090e+00 1.374292354445963094e+00 1.373916700945347014e+00 1.374356826861106384e+00 1.374396036156257273e+00 1.374090174938979558e+00 1.374780134406581755e+00 1.374256289484218518e+00 1.374182777329874039e+00 1.373997188881216358e+00 1.374449291682968699e+00 1.374494448686102599e+00 1.373949590718832825e+00 1.374639721020763705e+00 1.374080698881763096e+00 1.374045546514066629e+00 1.373672713201379958e+00 1.373999432503152818e+00 1.374233344502006515e+00 1.373867294905624092e+00 1.373683036048352957e+00 1.374297898487599756e+00 1.374224126310766403e+00 1.373937230031030632e+00 1.374213861826794725e+00 1.374102340010834755e+00 1.374132298574758160e+00 1.374342732137212586e+00 1.373931322951796208e+00 1.373366262600248300e+00 1.374237938963360106e+00 1.373849841890214529e+00 1.374380697120374695e+00 1.374303969017201199e+00 1.373952983841461251e+00 1.373569834065521356e+00 1.374015134320837106e+00 1.374004042359604938e+00 1.374320033211166026e+00 1.373612384677012299e+00 1.373867004128379365e+00 1.374106719976737390e+00 1.374309936039981972e+00 1.374283562404197134e+00 1.373762965387535617e+00 1.374231527744254278e+00 1.374274937641577932e+00 1.374449658691711429e+00 1.374118941829767904e+00 1.374099627069579999e+00 1.373506200004251276e+00 1.374693445068565945e+00 1.374392632969307693e+00 1.374456745169441385e+00 1.373877487982601897e+00 1.373991805151207224e+00 1.374529113449677098e+00 1.373754131726277139e+00 1.374200141323547175e+00 1.374034670039799622e+00 1.374411196623174458e+00 1.374335436246572284e+00 1.373798637018519120e+00 1.373996607628060085e+00 1.373935421936981705e+00 1.373616754008635032e+00 1.374311311686846171e+00 1.373296254041407094e+00 1.374245254222165924e+00 1.373761582183480323e+00 1.374593855045612933e+00 1.374272502811086261e+00 1.374345196277797276e+00 1.373684003160200895e+00 1.373893716923703101e+00 1.374208476516548760e+00 1.374084822067290323e+00 1.374288780188760439e+00 1.374631447672597151e+00 1.374008920388801736e+00 1.374011685400513771e+00 1.374601936935289537e+00 1.374447550875612878e+00 1.374145177550270880e+00 1.373859967836003726e+00 1.374269799348349474e+00 1.373784508588923758e+00 1.373773245202771554e+00 1.373850266913467344e+00 1.374252789165088640e+00 1.374288430677761852e+00 1.374000277389057167e+00 1.374046228111479584e+00 1.373970762934088041e+00 1.374217166295318426e+00 1.374523438035025524e+00 1.374261682749050584e+00 1.374159289166233977e+00 1.373543186050485421e+00 1.374477530754545374e+00 1.374488667846104573e+00 1.374297203557535374e+00 1.374028990265754091e+00 1.373612826554867716e+00 1.374313257247864684e+00 1.374047458039676650e+00 1.373761233653368219e+00 1.374210231361958190e+00 1.374154688945333769e+00 1.373881965466267507e+00 1.374329047835273432e+00 1.374667690177567181e+00 1.374309072691476841e+00 1.374071201874129899e+00 1.374132174982802157e+00 1.374284527411890888e+00 1.373917695704976349e+00 1.374138185799307132e+00 1.374172026647091371e+00 1.374193808153978846e+00 1.374362061260239631e+00 1.374452337871025165e+00 1.373701740670004279e+00 1.373227958535138793e+00 1.373699394865131929e+00 1.374068911809760207e+00 1.374523489607294646e+00 1.374402069708547280e+00 1.374399593751306492e+00 1.374457409705612143e+00 1.374136167468277714e+00 1.374076769388726138e+00 1.374297206608530386e+00 1.373858945709431012e+00 1.373983517442879165e+00 1.373800023526002168e+00 1.373939475805485033e+00 1.373329531462151420e+00 1.374370737439551293e+00 1.374423426751789634e+00 1.374473416200474141e+00 1.374277900310234779e+00 1.374319862718965890e+00 1.373791793859924448e+00 1.374171841967772201e+00 1.374429149868925171e+00 1.374303823614242859e+00 1.374315756800494448e+00 1.374145783948569344e+00 1.374038357133877897e+00 1.373656371121594999e+00 1.373727557546366773e+00 1.373961642477215417e+00 1.374376318693350196e+00 1.374123890754815447e+00 1.374406458317493973e+00 1.373592561544956459e+00 1.374543619808952677e+00 1.373930020481358705e+00 1.374018709984565989e+00 1.374406882265384766e+00 1.374470091275034056e+00 1.373925663753199133e+00 1.373969803980658488e+00 1.374528475626711987e+00 1.374340922480347782e+00 1.374441025045636255e+00 1.374377654626876666e+00 1.374651692927363333e+00 1.374388044839397693e+00 1.374462037108065138e+00 1.374511147287834856e+00 1.374120147588731911e+00 1.373487765158728502e+00 1.374489260569405458e+00 1.374043593706101740e+00 1.374259795788927985e+00 1.374401071066314151e+00 1.373943688643725958e+00 1.373778400251869369e+00 1.374088761282131754e+00 1.374302060706529938e+00 1.374273687871486294e+00 1.374471062083501449e+00 1.373980818509351831e+00 1.374185260107368078e+00 1.374106943264439495e+00 1.374124903895476812e+00 1.373881859517731341e+00 1.374230312056550662e+00 1.374311849899969129e+00 1.373926971931972663e+00 1.374051188575907245e+00 1.373928144844631438e+00 1.374096374330262771e+00 1.374247399527528168e+00 1.374005679692440696e+00 1.373904276551385806e+00 1.373774294111544725e+00 1.373619321748554167e+00 1.374359154904395419e+00 1.374397833151657311e+00 1.374026939225249766e+00 1.374100172523857299e+00 1.374009370766818172e+00 1.374785191714013921e+00 1.374509148439839956e+00 1.374316451044711007e+00 1.373689762478136123e+00 1.374313373575783315e+00
1.000000000000000000e+00 2.799999989063520905e-02 1.900586139786048304e-04 2.800000000000000058e-02 2.799494659574857172e-02 2.798980649225292147e-02 2.800767877249290411e-02 2.799703464962207886e-02 2.801737185772231256e-02 2.799553093787409547e-02 2.802366691188029266e-02 2.798410470600405653e-02 2.800993665003820993e-02 2.800478226877891469e-02 2.800546805231245162e-02 2.801117384949020767e-02 2.800207349620870492e-02 2.802829907092938347e-02 2.799790806668161353e-02 2.798929879425470987e-02 2.800711081285300191e-02 2.798369270285711377e-02 2.799647542548278772e-02 2.799016775937139198e-02 2.798524883506522259e-02 2.799879986044079283e-02 2.798981548288900778e-02 2.800209903371041198e-02 2.801436164308324442e-02 2.801074191469579006e-02 2.800986942381079176e-02 2.799866228965449538e-02 2.801311651516852352e-02 2.799147486451074307e-02 2.797404754141661481e-02 2.797038214508099085e-02 2.800062532275175362e-02 2.799506039529181534e-02 2.797830578828762807e-02 2.799190814510786954e-02 2.799139461953387489e-02 2.798631274836430038e-02 2.800134762307406044e-02 2.798563369107752441e-02 2.798169109947771030e-02 2.801768323804271210e-02 2.801880416139902394e-02 2.800929788357058720e-02 2.798072185933941219e-02 2.799473854356705760e-02 2.798369013983413589e-02 2.801215816797218011e-02 2.800905269774705414e-02 2.799825622151575627e-02 2.799624893437053369e-02 2.799781021672578113e-02 2.798759560703232424e-02 2.799338504971087688e-02 2.798157000830432672e-02 2.798226279593955812e-02 2.800716696486435855e-02 2.800918512991187187e-02 2.799401143857836033e-02 2.799376982050702511e-02 2.799999054362829060e-02 2.799324763891170714e-02 2.800330334497596815e-02 2.800161427703697775e-02 2.798502433206195156e-02 2.795449311027983080e-02 2.800022692369079358e-02 2.799903613518298431e-02 2.799793612564135253e-02 2.800344049069194985e-02 2.799235758571368832e-02 2.799131680531686747e-02 2.798687631054135039e-02 2.801391911563997500e-02 2.800770766778889684e-02 2.801127703119462783e-02 2.798666241894546061e-02 2.799058684260689878e-02 2.798876259165745256e-02 2.798162017029269186e-02 2.796593614269684419e-02 2.800333127398735994e-02 2.801555076014735843e-02 2.799748430791450249e-02 2.801666861955195639e-02 2.802333664931685314e-02 2.800799358714327336e-02 2.801343640224135054e-02 2.799541601356398193e-02 2.797840922951927434e-02 2.799903651486075271e-02 2.799104547729560494e-02 2.800561450496538013e-02 2.802430197304169729e-02 2.799434186255624762e-02 2.801321373217379590e-02 2.801605452331160789e-02 2.801454622264499747e-02 2.802352810343760811e-02 2.801052113146849237e-02 2.800318539290452130e-02 2.798892512798861754e-02 2.800299072279980456e-02 2.799760443995157055e-02 2.799379014519479125e-02 2.800188501478041367e-02 2.799582807669728432e-02 2.801264028388336658e-02 2.800845866960944772e-02 2.801081348181561070e-02 2.800417097322277157e-02 2.800506923255327574e-02 2.799469835719881408e-02 2.797522397400168184e-02 2.801302185169404768e-02 2.801636384209845246e-02 2.800050115379483159e-02 2.800533440042858591e-02 2.797904284245451151e-02 2.799021706487438491e-02 2.799108445666909084e-02 2.799902056098444586e-02 2.801487136075985276e-02 2.802371143780193682e-02 2.803179936796340935e-02 2.801845882922702341e-02 2.801041868975669841e-02 2.800026502875833240e-02 2.797521570308056371e-02 2.800579940769726967e-02 2.799675312946563882e-02 2.797610193113359012e-02 2.800130260715152919e-02 2.802183754099224489e-02 2.799691595932263244e-02 2.799470564167146763e-02 2.800664787553350243e-02 2.799604645025840707e-02 2.798617204649813534e-02 2.801190612034042821e-02 2.801001823899591098e-02 2.801748551311718238e-02 2.801511734669800968e-02 2.799211304571263756e-02 2.800476692740660328e-02 2.798490260812109068e-02 2.799032212215198795e-02 2.797976506356548293e-02 2.800942323843112411e-02 2.800656814056567967e-02 2.798072548114169736e-02 2.800637018486448748e-02 2.799717565017752902e-02 2.800441698306820049e-02 2.800625282155818838e-02 2.802200580447334471e-02 2.799709283426115095e-02 2.799561181654654923e-02 2.797639576255667518e-02 2.799117490537159428e-02 2.799619327634840851e-02 2.798774082665000593e-02 2.799888130709688588e-02 2.798952441358265250e-02 2.798677650196908923e-02 2.801313712917378670e-02 2.799248170631620999e-02 2.798814546502240153e-02 2.801661165433146083e-02 2.799814846814015906e-02 2.800562044454168661e-02 2.799956309451518202e-02 2.800324956072491184e-02 2.799344247095603491e-02 2.799005353932845427e-02 2.799620094279062221e-02 2.801270169296364229e-02 2.801424025269964868e-02 2.800941850206374595e-02 2.802260708427887353e-02 2.801074546505359988e-02 2.800600617632139494e-02 2.800846149686509606e-02 2.801889904987004895e-02 2.800404288137749859e-02 2.800760327942985323e-02 2.800601490374611535e-02 2.799803835251746253e-02 2.798947044016893496e-02 2.800458592460765977e-02 2.801382393213030716e-02 2.800363198149362701e-02 2.800226266418899546e-02 2.800922995900655826e-02 2.799849952513361329e-02 2.798146163042011109e-02 2.800076531051579748e-02 2.801500278970875044e-02 2.801064157375790509e-02 2.799860437826190429e-02 2.798898819868046034e-02 2.800132751202121656e-02 2.799491707377392558e-02 2.798363536605526225e-02 2.801582563186970701e-02 2.801828077968948616e-02 2.800949159563172197e-02 2.799260889398243191e-02 2.799215014634353835e-02 2.799335417049975822e-02 2.800735207810280472e-02 2.802457313197977140e-02 2.802065013132820290e-02 2.799594557650902926e-02 2.796575501959301657e-02 2.799327617678680491e-02 2.798797361719141535e-02 2.800193141984994027e-02 2.799330517712510583e-02 2.798974645640104827e-02 2.799986411993685143e-02 2.800118571818960289e-02 2.801255696603332027e-02 2.799596129777713258e-02 2.799628307041840403e-02
2.000000000000000000e+00 1.199999995312937690e-01 8.145369170511607398e-04 1.199999999999999956e-01 1.199783425532081615e-01 1.199563135382268192e-01 1.200329090249695890e-01 1.199872913555232179e-01 1.200744508188099080e-01 1.199808468766032921e-01 1.201014296223441163e-01 1.199318773114459585e-01 1.200425856430209215e-01 1.200204954376239141e-01 1.200234345099105010e-01 1.200478879263866261e-01 1.200088864123230181e-01 1.201212817325545135e-01 1.199910345714926274e-01 1.199541376896630512e-01 1.200304749122271530e-01 1.199301115836733517e-01 1.199848946806405248e-01 1.199578618258773932e-01 1.199367807217081028e-01 1.199948565447462590e-01 1.199563520695243191e-01 1.200089958587589045e-01 1.200615498989281993e-01 1.200460367772676618e-01 1.200422975306176671e-01 1.199942669556621350e-01 1.200562136364365373e-01 1.199634637050460417e-01 1.198887751774997401e-01 1.198730663360613735e-01 1.200026799546503736e-01 1.199788302655363514e-01 1.199070248069469824e-01 1.199653206218908585e-01 1.199631197980023239e-01 1.199413403501327219e-01 1.200057755274602650e-01 1.199384301046179518e-01 1.199215332834759062e-01 1.200757853058973396e-01 1.200805892631386651e-01 1.200398480724453876e-01 1.199173793971688995e-01 1.199774509010016754e-01 1.199301005992891578e-01 1.200521064341664723e-01 1.200387972760587896e-01 1.199925266636389515e-01 1.199839240044451444e-01 1.199906152145390620e-01 1.199468383158528301e-01 1.199716502130466211e-01 1.199210143213042534e-01 1.199239834111695269e-01 1.200307155637043849e-01 1.200393648424794568e-01 1.199743347367644153e-01 1.199732992307444013e-01 1.199999594726926799e-01 1.199710613096215961e-01 1.200141571927541562e-01 1.200069183301584741e-01 1.199358185659798043e-01 1.198049704726278641e-01 1.200009725301034169e-01 1.199958691507841957e-01 1.199911548241772291e-01 1.200147449601083466e-01 1.199672467959158190e-01 1.199627863085008517e-01 1.199437556166057794e-01 1.200596533527427401e-01 1.200330328619524101e-01 1.200483301336912612e-01 1.199428389383376814e-01 1.199596578968867289e-01 1.199518396785319435e-01 1.199212293012543729e-01 1.198540120401293402e-01 1.200142768885172490e-01 1.200666461149172415e-01 1.199892184624907071e-01 1.200714369409369570e-01 1.201000142113579361e-01 1.200342582306140327e-01 1.200575845810343684e-01 1.199803543438456299e-01 1.199074681265111797e-01 1.199958707779746475e-01 1.199616234741240212e-01 1.200240621641373295e-01 1.201041513130358535e-01 1.199757508395267874e-01 1.200566302807448416e-01 1.200688050999068890e-01 1.200623409541928394e-01 1.201008347290183215e-01 1.200450905634364018e-01 1.200136516838765238e-01 1.199525362628083708e-01 1.200128173834277279e-01 1.199897333140781674e-01 1.199733863365490955e-01 1.200080786347732104e-01 1.199821203287026461e-01 1.200541726452144242e-01 1.200362514411833503e-01 1.200463434934954665e-01 1.200178755995261609e-01 1.200217252823711916e-01 1.199772786737092062e-01 1.198938170314357843e-01 1.200558079358316210e-01 1.200701307518505095e-01 1.200021478019778487e-01 1.200228617161225031e-01 1.199101836105193331e-01 1.199580731351759522e-01 1.199617905285818298e-01 1.199958024042190458e-01 1.200637344032565168e-01 1.201016204477225874e-01 1.201362830055574676e-01 1.200791092681158106e-01 1.200446515275287174e-01 1.200011358375357023e-01 1.198937815846309873e-01 1.200248546044168640e-01 1.199860848405670255e-01 1.198975797048582592e-01 1.200055826020779842e-01 1.200935894613953253e-01 1.199867826828112799e-01 1.199773098928777204e-01 1.200284908951435858e-01 1.199830562153931801e-01 1.199407373421348399e-01 1.200510262300304026e-01 1.200429353099824736e-01 1.200749379133593531e-01 1.200647886287057736e-01 1.199661987673398822e-01 1.200204296888854189e-01 1.199352968919475404e-01 1.199585233806513829e-01 1.199132788438520697e-01 1.200403853075619615e-01 1.200281491738529049e-01 1.199173949191787020e-01 1.200273007922763729e-01 1.199878956436179755e-01 1.200189299274351390e-01 1.200267978066779512e-01 1.200943105906000508e-01 1.199875407182620785e-01 1.199811934994852031e-01 1.198988389823857359e-01 1.199621781658782721e-01 1.199836854700646049e-01 1.199474606856428816e-01 1.199952056018437907e-01 1.199551046296399304e-01 1.199433278655818169e-01 1.200563019821733746e-01 1.199677787413551827e-01 1.199491948500960026e-01 1.200711928042777071e-01 1.199920648634578424e-01 1.200240876194643702e-01 1.199981275479222037e-01 1.200139266888210487e-01 1.199718963040972974e-01 1.199573723114076701e-01 1.199837183262455198e-01 1.200544358269870354e-01 1.200610296544270539e-01 1.200403650088446433e-01 1.200968875040523270e-01 1.200460519930868636e-01 1.200257407556631212e-01 1.200362635579932530e-01 1.200809959280144945e-01 1.200173266344749939e-01 1.200325854832708095e-01 1.200257781589119249e-01 1.199915929393605418e-01 1.199548733150097302e-01 1.200196539626042641e-01 1.200592454234156031e-01 1.200155656349726901e-01 1.200096971322385658e-01 1.200395569671709600e-01 1.199935693934297692e-01 1.199205498446576229e-01 1.200032799022105606e-01 1.200642976701803560e-01 1.200456067446767361e-01 1.199940187639795958e-01 1.199528065657733955e-01 1.200056893372338090e-01 1.199782160304596612e-01 1.199298658545225466e-01 1.200678241365844556e-01 1.200783461986692224e-01 1.200406782669930922e-01 1.199683238313532657e-01 1.199663577700437467e-01 1.199715178735703824e-01 1.200315089061548823e-01 1.201053134227704489e-01 1.200885005628351543e-01 1.199826238993244032e-01 1.198532357982557972e-01 1.199711836148005945e-01 1.199484583593918019e-01 1.200082775136425972e-01 1.199713079019647383e-01 1.199560562417187753e-01 1.199994176568722204e-01 1.200050816493840183e-01 1.200538155687142367e-01 1.199826912761877001e-01 1.199840703017931720e-01
3.000000000000000000e+00 5.080088331906238430e-01 3.543503885457104704e-03 5.080000000000000071e-01 5.079083168085812838e-01 5.078150606451601323e-01 5.081393148723712949e-01 5.079462000717148706e-01 5.083151751329619827e-01 5.079189184442872707e-01 5.084293854012567060e-01 5.077116139517878768e-01 5.081802792221218334e-01 5.080867640192745505e-01 5.080992060919544695e-01 5.082027255550367606e-01 5.080376191455008295e-01 5.085134260011474616e-01 5.079620463526520746e-01 5.078058495529068628e-01 5.081290104617616210e-01 5.077041390375505170e-01 5.079360541480448799e-01 5.078216150628809267e-01 5.077323717218976684e-01 5.079782260394257731e-01 5.078152237609863118e-01 5.080380824687460439e-01 5.082605612387960381e-01 5.081948890237665273e-01 5.081790595462815086e-01 5.079757301123030144e-01 5.082379710609146173e-01 5.078453296846948684e-01 5.075291482514155961e-01 5.074626474893265682e-01 5.080113451413532655e-01 5.079103814574371656e-01 5.076064050160755681e-01 5.078531906326713141e-01 5.078438738115431672e-01 5.077516741488952157e-01 5.080244497329150510e-01 5.077393541095492902e-01 5.076678242333813040e-01 5.083208244616320703e-01 5.083411612139536739e-01 5.081686901733520889e-01 5.076502394480150171e-01 5.079045421475737454e-01 5.077040925369907809e-01 5.082205839046380902e-01 5.081642418019822749e-01 5.079683628760714997e-01 5.079319449521511043e-01 5.079602710748820638e-01 5.077749488704436098e-01 5.078799859018973128e-01 5.076656272935213821e-01 5.076781964406177350e-01 5.081300292196818669e-01 5.081666444998296228e-01 5.078913503856359313e-01 5.078869667434846580e-01 5.079998284343990589e-01 5.078774928773981401e-01 5.080599321159925408e-01 5.080292875976708533e-01 5.077282985959811201e-01 5.091711245086684157e-01 5.080041170441044196e-01 5.079825127383198469e-01 5.079625554223502482e-01 5.080624203311253639e-01 5.078613447693769434e-01 5.078424620393202638e-01 5.077618987769644265e-01 5.082525325266109562e-01 5.081398391155985683e-01 5.082045975659597037e-01 5.077580181722961550e-01 5.078292184301538281e-01 5.077961213057852197e-01 5.076665373753102006e-01 5.073819843032142396e-01 5.080604388280564043e-01 5.082821352198163556e-01 5.079543581578773725e-01 5.083024163832997599e-01 5.084233934947486322e-01 5.081450265095994734e-01 5.082437747263788275e-01 5.079168333889465536e-01 5.076082817355639376e-01 5.079825196267593324e-01 5.078375393737917243e-01 5.081018631615147330e-01 5.084409072251850903e-01 5.078973452206634320e-01 5.082397348551531691e-01 5.082912749229392402e-01 5.082639100394164000e-01 5.084268670195108974e-01 5.081908833852141205e-01 5.080577921284106235e-01 5.077990701792221007e-01 5.080542602565106813e-01 5.079565376962642542e-01 5.078873354913912008e-01 5.080341995538733002e-01 5.079243093915078999e-01 5.082293308647410912e-01 5.081534644343428386e-01 5.081961874557975323e-01 5.080756733713274187e-01 5.080919703620380146e-01 5.079038130520355798e-01 5.075504920997447877e-01 5.082362535950205595e-01 5.082968868495004733e-01 5.080090923617062160e-01 5.080967812649186399e-01 5.076197772845317813e-01 5.078225096055781762e-01 5.078382465709964100e-01 5.079822301778605942e-01 5.082698089737859304e-01 5.084301932286922066e-01 5.085769313901932209e-01 5.083348959016902313e-01 5.081890247998714916e-01 5.080048083789011626e-01 5.075503420416045408e-01 5.081052178253647744e-01 5.079410924917338033e-01 5.075664207505665715e-01 5.080236330154634938e-01 5.083961953865735461e-01 5.079440466905676965e-01 5.079039452131823840e-01 5.081206114561078735e-01 5.079282713118311587e-01 5.077491214150375853e-01 5.082160110404621012e-01 5.081817594789258541e-01 5.083172371665546363e-01 5.082742718615210764e-01 5.078569081150721143e-01 5.080864856829483411e-01 5.077260901759111933e-01 5.078244156447574431e-01 5.076328804389736993e-01 5.081709644686789318e-01 5.081191648359771884e-01 5.076503051578564740e-01 5.081155733539699515e-01 5.079487582246494659e-01 5.080801366928088258e-01 5.081134440482699688e-01 5.083992481668735408e-01 5.079472557073094752e-01 5.079203858144873962e-01 5.075717516920996708e-01 5.078398875688846514e-01 5.079309351566068109e-01 5.077775835692215356e-01 5.079797037144720973e-01 5.078099429321424330e-01 5.077600879642962806e-01 5.082383450578672468e-01 5.078635966717369721e-01 5.077849248654063841e-01 5.083013828714423310e-01 5.079664079219715633e-01 5.081019709223991709e-01 5.079920732862039934e-01 5.080589563160091693e-01 5.078810276873452212e-01 5.078195427849591104e-01 5.079310742477727292e-01 5.082304450009118568e-01 5.082583588704079336e-01 5.081708785374423609e-01 5.084101571004882025e-01 5.081949534374010646e-01 5.081089691989738588e-01 5.081535157288381566e-01 5.083428827619280721e-01 5.080733494192775090e-01 5.081379452125130980e-01 5.081091275393937456e-01 5.079644101099596298e-01 5.078089637002078938e-01 5.080832017750247509e-01 5.082508056257927231e-01 5.080658945213843980e-01 5.080410511931432449e-01 5.081674578276904608e-01 5.079727770988526903e-01 5.076636610090505819e-01 5.080138849193580608e-01 5.082721934704301781e-01 5.081930685524649327e-01 5.079746794341802874e-01 5.078002144617740354e-01 5.080240848609564042e-01 5.079077811956126398e-01 5.077030987841454346e-01 5.082871221782074844e-01 5.083316655743663759e-01 5.081722046636041323e-01 5.078659042193954809e-01 5.078575812265184730e-01 5.078794256647812810e-01 5.081333877027223167e-01 5.084458268230614975e-01 5.083746523826687680e-01 5.079264411738066975e-01 5.073786982126161638e-01 5.078780106359891411e-01 5.077818070547586160e-01 5.080350414744203569e-01 5.078785367849840693e-01 5.078139714232762225e-01 5.079975347474257052e-01 5.080215123157256762e-01 5.082278192408902218e-01 5.079267264025278950e-01 5.079325642775910366e-01
4.000000000000000000e+00 1.820154325425741071e+00 8.868436117771247990e-03 1.820000000000000062e+00 1.819671528723657117e+00 1.819337421996439996e+00 1.820499120212038857e+00 1.819807252225435157e+00 1.821129170751950355e+00 1.819709510961816434e+00 1.819536658778513338e+00 1.820965670512121104e+00 1.820645882252483805e+00 1.820310847470629323e+00 1.820355423400309203e+00 1.820726300216863880e+00 1.820134777253565872e+00 1.819837418248200889e+00 1.819864024334304942e+00 1.819304421626556145e+00 1.820462202835445131e+00 1.820938860878773546e+00 1.819770902656381306e+00 1.819360904359140330e+00 1.819041174279239836e+00 1.819921990928651478e+00 1.819338006387785533e+00 1.820136437191176570e+00 1.820933506800410662e+00 1.820698224455226333e+00 1.820641512547701346e+00 1.819913048827542346e+00 1.820852573485954196e+00 1.819445866193198036e+00 1.820311236445038006e+00 1.820072723869198938e+00 1.820040645978864058e+00 1.819678925693967830e+00 1.820588326652144762e+00 1.819474029432011530e+00 1.819440650269701809e+00 1.821109350982848429e+00 1.820087595499813915e+00 1.821065163755116068e+00 1.820808613687442401e+00 1.821149410472776342e+00 1.819220927336550719e+00 1.820604362432088452e+00 1.820745543847014147e+00 1.819658005331858730e+00 1.820938694099207167e+00 1.820790280918191506e+00 1.820588425353558470e+00 1.819886654398524151e+00 1.819756180734084738e+00 1.819857664087175753e+00 1.821192828429031962e+00 1.819570028231206837e+00 1.820800734111803099e+00 1.820845814792924289e+00 1.820465852716182997e+00 1.820597033444271595e+00 1.819610743507593220e+00 1.819595038332956660e+00 1.819999385335838937e+00 1.819561096529260791e+00 1.820214717423437989e+00 1.820104928007403533e+00 1.819026581584027191e+00 1.821035551183943335e+00 1.820014750039901763e+00 1.819937348786893949e+00 1.819865848166687838e+00 1.820223631894976712e+00 1.819503243071389997e+00 1.819435592345596264e+00 1.819146960185187512e+00 1.820904742516598285e+00 1.820500998406278548e+00 1.820733007027650840e+00 1.819133057231454575e+00 1.819388144769448656e+00 1.821268765785709842e+00 1.820803998224045817e+00 1.819783416142630506e+00 1.820216532809178389e+00 1.821010799409578329e+00 1.819836480014442426e+00 1.821083460270877197e+00 1.819515215302072608e+00 1.820519583164312838e+00 1.820873366145687733e+00 1.819702040881658878e+00 1.820595057720861387e+00 1.819937373465948971e+00 1.819417956024214522e+00 1.820364942822749521e+00 1.819577892392493013e+00 1.819632221066156408e+00 1.820858892591296740e+00 1.819042397263589406e+00 1.820945504471924714e+00 1.819527646144627697e+00 1.820683873545452025e+00 1.820207050538793947e+00 1.819280133319260306e+00 1.820194396981987373e+00 1.819844288596852433e+00 1.819596359437661404e+00 1.820122525960726989e+00 1.819728824985323401e+00 1.820821618452418855e+00 1.820549813524614091e+00 1.820702876318014862e+00 1.820271113259480211e+00 1.820329500115962951e+00 1.819655393217922690e+00 1.820387788593966549e+00 1.820846420360112905e+00 1.819062480890535127e+00 1.820032574996663932e+00 1.820346736027858014e+00 1.820636287819718646e+00 1.819364109216835113e+00 1.819420489683490905e+00 1.819936336463988891e+00 1.820966638449390551e+00 1.819539549782997145e+00 1.820064687534195702e+00 1.819198505411954381e+00 1.820677214834185431e+00 1.820017226869291571e+00 1.820387250393313838e+00 1.820376961500322466e+00 1.819788953415266697e+00 1.820444918518764554e+00 1.820084669464849370e+00 1.821419440164495862e+00 1.819799537355970998e+00 1.819655866708645542e+00 1.820432111909677575e+00 1.819743019266796491e+00 1.821100195311414094e+00 1.820773897822127729e+00 1.820651185534734262e+00 1.819135309387394095e+00 1.820982627535371101e+00 1.819487347971321167e+00 1.820309850281429220e+00 1.821017591142736869e+00 1.819370937939879251e+00 1.820683283779153783e+00 1.820612510498023084e+00 1.820426929136768956e+00 1.820745779522863206e+00 1.820414062016191492e+00 1.819816417261539421e+00 1.820287103899433045e+00 1.820406433401282165e+00 1.819428805447590669e+00 1.819811034226974877e+00 1.819714768075525679e+00 1.820464038549223451e+00 1.819426368849153652e+00 1.819752562962646536e+00 1.821202278077011183e+00 1.819927284961297520e+00 1.819319086882872361e+00 1.821139528092417192e+00 1.820853913396296209e+00 1.819511310910553625e+00 1.821228608473957733e+00 1.819078570984807408e+00 1.819879650429110818e+00 1.820365328895209522e+00 1.819971601143486772e+00 1.820211221447119332e+00 1.819573760612142266e+00 1.819353480056349337e+00 1.819753061281390583e+00 1.820825610042636544e+00 1.820925616425477234e+00 1.820612202634143806e+00 1.819467845686392860e+00 1.820698455228483947e+00 1.820390401460890706e+00 1.820549997296231126e+00 1.820187736276806412e+00 1.820262787289537387e+00 1.820494213162940245e+00 1.820390968743497373e+00 1.819872492913634954e+00 1.819315578610980921e+00 1.820298085099498309e+00 1.820898555588470025e+00 1.820236078797085710e+00 1.820147073172284857e+00 1.820599947335426183e+00 1.819902469133684697e+00 1.820793681808051456e+00 1.820049745183526912e+00 1.820975181331069059e+00 1.820691702294263914e+00 1.819909284587023945e+00 1.819284232914229804e+00 1.820086288281379305e+00 1.819669609795305121e+00 1.820935129891167126e+00 1.821028666071530910e+00 1.819186944909838788e+00 1.820616953716061914e+00 1.819519578108857782e+00 1.819489759512330052e+00 1.819568021082484055e+00 1.820477885076682290e+00 1.819595498354972252e+00 1.819340783526952610e+00 1.819736462473086958e+00 1.819771630203517176e+00 1.819562951491142444e+00 1.821217426090098623e+00 1.820125542290246035e+00 1.819564836513131834e+00 1.821332787270096842e+00 1.819991167795895315e+00 1.820077071682324465e+00 1.820816202792165939e+00 1.819737484355513413e+00 1.819758399577196428e+00
5.000000000000000000e+00 4.865703373352959105e+00 1.566793378338590670e-02 4.865999999999999659e+00 4.867121429575144376e+00 4.866227785867400790e+00 4.865333912478766898e+00 4.865484664466466214e+00 4.867017739855761249e+00 4.865223340846263511e+00 4.866109590198642643e+00 4.863237624979133145e+00 4.863725428303063758e+00 4.864830748405022831e+00 4.866950269376871141e+00 4.865941057282871185e+00 4.866360344019698303e+00 4.866913931530667092e+00 4.865636451874025603e+00 4.864140283315836477e+00 4.867235757690811404e+00 4.865164859911015327e+00 4.865387479299973172e+00 4.866290594736425668e+00 4.865435404610625625e+00 4.867791347165206339e+00 4.866229348953702960e+00 4.864914673372527254e+00 4.866494822569888967e+00 4.865866024038583149e+00 4.867715164866546651e+00 4.865767525052099529e+00 4.868279462957501025e+00 4.866517844301367468e+00 4.865486125953531804e+00 4.864848608805158570e+00 4.864108627495161485e+00 4.865141567267499134e+00 4.864228306335149021e+00 4.862594329207309940e+00 4.866503893138960812e+00 4.865620373537050902e+00 4.866234197638513947e+00 4.865502314577335063e+00 4.864816866866338962e+00 4.867071831065705290e+00 4.867266551465887048e+00 4.863614511068578672e+00 4.864648357545151569e+00 4.865085634035618334e+00 4.865164414311163199e+00 4.866112047464881130e+00 4.867573229544183810e+00 4.865696956210559421e+00 4.865348118380250497e+00 4.865619446949558835e+00 4.863844293707831667e+00 4.866849943642590937e+00 4.864795814300909349e+00 4.864916260379777313e+00 4.865245004182151334e+00 4.865595588281833805e+00 4.864959273575796495e+00 4.864917283806684978e+00 4.865998356617688536e+00 4.864826536105155697e+00 4.866574074166180708e+00 4.866280538287925950e+00 4.865396373159914134e+00 4.864081801188691045e+00 4.868039452304528503e+00 4.867832425216812808e+00 4.867641180700789327e+00 4.866597908132393790e+00 4.866671311687651880e+00 4.866490364581517625e+00 4.863719290253364136e+00 4.864416955008627141e+00 4.865338932004471317e+00 4.865958981418952334e+00 4.865681166265232171e+00 4.864364127718756592e+00 4.864047098964469740e+00 4.864804535320886636e+00 4.864075321961915499e+00 4.866378904034373676e+00 4.864700278422730229e+00 4.867562628961706217e+00 4.864894386723628728e+00 4.866052242463519306e+00 4.865388600280889264e+00 4.866334095017926131e+00 4.865203368642940340e+00 4.864246290332136624e+00 4.865832560046872146e+00 4.866443192266964424e+00 4.864975319719699876e+00 4.866219864033169529e+00 4.865016696542811658e+00 4.864294470208178289e+00 4.866788900049559885e+00 4.866526886676616925e+00 4.864083806525242082e+00 4.865827670837955310e+00 4.866553575781193075e+00 4.864075345456879695e+00 4.864519531274937414e+00 4.865583685885868981e+00 4.866920372386008609e+00 4.866327588640053214e+00 4.865274979328892080e+00 4.866195797886024188e+00 4.865469391749298822e+00 4.865878456269683738e+00 4.866724855560786267e+00 4.866880960200151485e+00 4.865078650218908507e+00 4.863692510908578015e+00 4.866262081665708727e+00 4.866842633141674312e+00 4.866087093370201622e+00 4.864926661560165400e+00 4.864356448466733873e+00 4.866299166850303948e+00 4.864450605933993366e+00 4.863829857451012373e+00 4.866583367811996297e+00 4.866117321806893159e+00 4.865519461725077655e+00 4.867206562334294162e+00 4.867810619441288900e+00 4.866046058212072367e+00 4.863691072949864136e+00 4.865007439965697067e+00 4.865435740284993038e+00 4.865843443022164649e+00 4.866226374514262432e+00 4.865791933010867432e+00 4.865464037787996965e+00 4.867079537987739180e+00 4.867155305798072540e+00 4.865312929534193032e+00 4.863596899223567860e+00 4.866068263190565624e+00 4.865740311231289361e+00 4.867037483421499111e+00 4.866626099083540602e+00 4.866628796661753853e+00 4.866828423884303589e+00 4.865375210583337662e+00 4.864318123085412893e+00 4.866480566412996644e+00 4.865636951133177845e+00 4.865140979846836800e+00 4.864648987221348975e+00 4.865106592113602524e+00 4.863509370087982120e+00 4.866767608557495350e+00 4.867086651060790636e+00 4.865821150762478453e+00 4.865494776125527387e+00 4.867237082962449612e+00 4.865894548701821698e+00 4.866465694262460673e+00 4.867338173902287402e+00 4.865868655147579602e+00 4.865805587154765632e+00 4.864179492731899757e+00 4.865701000413769073e+00 4.866282107010760249e+00 4.864693427961952921e+00 4.865939004418894598e+00 4.864884495119984109e+00 4.865678230213215549e+00 4.866976752969280007e+00 4.865924072068245287e+00 4.866564727231693865e+00 4.864860395131144877e+00 4.864271447227580758e+00 4.865339778129256665e+00 4.866206465520541258e+00 4.866473735326110273e+00 4.865636128358502788e+00 4.865925558705853859e+00 4.865866640786453701e+00 4.867043787642139741e+00 4.865469882883993513e+00 4.867283034948854059e+00 4.866702595027961209e+00 4.865320798255242885e+00 4.867045304343878165e+00 4.865659093691069970e+00 4.864170112923644318e+00 4.866796968183603411e+00 4.865951192325255192e+00 4.864630927070892952e+00 4.866393218712273594e+00 4.865603375735996217e+00 4.863739346080353521e+00 4.864776972031610747e+00 4.866133000034638556e+00 4.866606198897977187e+00 4.865848593384230369e+00 4.865757460879372331e+00 4.866085519684873795e+00 4.866230702624831039e+00 4.865116660035139873e+00 4.865154891498464806e+00 4.866749138336222913e+00 4.865174326816081418e+00 4.865648825755453544e+00 4.864715531361374801e+00 4.864635807575274029e+00 4.864845049773278696e+00 4.865777292283253175e+00 4.866266948845916041e+00 4.865585747804203720e+00 4.865295399117605335e+00 4.864043819479213937e+00 4.864931471566602994e+00 4.865909127445993576e+00 4.864335515219646133e+00 4.866836057223036249e+00 4.866217348205725379e+00 4.867976376280449990e+00 4.866206060882522166e+00 4.866181324385216556e+00 4.865298131249411462e+00 4.866003964451754094e+00
6.000000000000000000e+00 3.221154543762973395e-03 2.659329264215998693e-05 3.235470786179698004e-03 3.220459319272976715e-03 3.219936878429355363e-03 3.222251693244170163e-03 3.220587920096021958e-03 3.223020618998628448e-03 3.220662937242798566e-03 3.223923503943758751e-03 3.219143840020575933e-03 3.222230259773662623e-03 3.221745327503429141e-03 3.221643518518518649e-03 3.222460669581618791e-03 3.221332733196159096e-03 3.224507566015089120e-03 3.220794217249656980e-03 3.219880615569273123e-03 3.221903399348422306e-03 3.218875921639231894e-03 3.220762067043895886e-03 3.219934199245541757e-03 3.219615376371742256e-03 3.220598636831275511e-03 3.219952953532236126e-03 3.221316658093278332e-03 3.222653570816186655e-03 3.222165959362140002e-03 3.222165959362140002e-03 3.220786179698216598e-03 3.222875943072702441e-03 3.219821673525377279e-03 3.218064128943758529e-03 3.217898019547324982e-03 3.221145190329218009e-03 3.220445923353909556e-03 3.218728566529492283e-03 3.220228909465020547e-03 3.219888653120713505e-03 3.219526963305898489e-03 3.221450617283950785e-03 3.219232253086419700e-03 3.219342099622771007e-03 3.222870584705075231e-03 3.223165294924554020e-03 3.222377614883401801e-03 3.218950938786008069e-03 3.220703125000000042e-03 3.218985768175583202e-03 3.222500857338820267e-03 3.222436556927297645e-03 3.220612032750343103e-03 3.220389660493827317e-03 3.221008551954732384e-03 3.219877936385459518e-03 3.220226230281206942e-03 3.219149198388203143e-03 3.219138481652949156e-03 3.222045396090535141e-03 3.222297239368998416e-03 3.220036008230452683e-03 3.220328039266117867e-03 3.220786179698216598e-03 3.220344114368998631e-03 3.221579218106996028e-03 3.221372920953360572e-03 3.219497492283950567e-03 3.215698409636488266e-03 3.221228245027434999e-03 3.220630787037037038e-03 3.220971043381344514e-03 3.221573859739368818e-03 3.219971707818930062e-03 3.220044045781893065e-03 3.219639489026062968e-03 3.222822359396433373e-03 3.221935549554183834e-03 3.222921489197530694e-03 3.219197423696845001e-03 3.219810956790123291e-03 3.219714506172839576e-03 3.218950938786008069e-03 3.216890646433470582e-03 3.221464013203017944e-03 3.223036694101508778e-03 3.220952289094650145e-03 3.222980431241426538e-03 3.223883316186556842e-03 3.222074867112483063e-03 3.222273126714677704e-03 3.220571844993141194e-03 3.218503515089163325e-03 3.220965685013717304e-03 3.220413773148148029e-03 3.221737289951989193e-03 3.224036029663923230e-03 3.220314643347050709e-03 3.223178690843621613e-03 3.222825038580246979e-03 3.222771454903977911e-03 3.224151234567901314e-03 3.222037358539094759e-03 3.221584576474622805e-03 3.219481417181069803e-03 3.221739969135802364e-03 3.220855838477366430e-03 3.220362868655692566e-03 3.221431862997256416e-03 3.220641503772291026e-03 3.222382973251029011e-03 3.222198109567901095e-03 3.222168638545953173e-03 3.221399712791495323e-03 3.221806948731138591e-03 3.220392339677640488e-03 3.218208804869684535e-03 3.222790209190672280e-03 3.222846472050754519e-03 3.221362204218107018e-03 3.221439900548696798e-03 3.218881280006858671e-03 3.219902049039780664e-03 3.220097629458161699e-03 3.220885309499313919e-03 3.222865226337448454e-03 3.223650227194787502e-03 3.224727259087791301e-03 3.223261745541838169e-03 3.222013245884773613e-03 3.221171982167352326e-03 3.218313293038408632e-03 3.221766760973937115e-03 3.220617391117969880e-03 3.218307934670781856e-03 3.221158586248285167e-03 3.223521626371742260e-03 3.220815650720164521e-03 3.220630787037037038e-03 3.221823023834019355e-03 3.220488790294924637e-03 3.219513567386831331e-03 3.222487461419753108e-03 3.222155242626886015e-03 3.222999185528120907e-03 3.222921489197530694e-03 3.220140496399176780e-03 3.221597972393689963e-03 3.219082218792866917e-03 3.220137817215363608e-03 3.218967013888888833e-03 3.222337427126200325e-03 3.221809627914952196e-03 3.218825017146776431e-03 3.221595293209876358e-03 3.221188057270233090e-03 3.221587255658436410e-03 3.221833740569272908e-03 3.223859203532236130e-03 3.220496827846365019e-03 3.220687049897119278e-03 3.218152542009602296e-03 3.220054762517146618e-03 3.220823688271604902e-03 3.219722543724279958e-03 3.220794217249656980e-03 3.219990462105623997e-03 3.219414437585734010e-03 3.222814321844992991e-03 3.220156571502057544e-03 3.219355495541838166e-03 3.223470721879286797e-03 3.220748671124828728e-03 3.221804269547324986e-03 3.221062135631001452e-03 3.221145190329218009e-03 3.220386981310013712e-03 3.219963670267489680e-03 3.220571844993141194e-03 3.222610703875171574e-03 3.222967035322359380e-03 3.222013245884773613e-03 3.223995841906721321e-03 3.222358860596707866e-03 3.221662272805212585e-03 3.222115054869684539e-03 3.223119748799725768e-03 3.221528313614540565e-03 3.222023962620027600e-03 3.221654235253772203e-03 3.221043381344307083e-03 3.220357510288065789e-03 3.221410429526748876e-03 3.222763417352537529e-03 3.221131794410150850e-03 3.221271111968450080e-03 3.222294560185185244e-03 3.220644182956104197e-03 3.218854488168724354e-03 3.221281828703703633e-03 3.222873263888888836e-03 3.222353502229081089e-03 3.220968364197530909e-03 3.219923482510288204e-03 3.221198774005487077e-03 3.220550411522633653e-03 3.219283157578875162e-03 3.222835755315500532e-03 3.223344800240054726e-03 3.222524969993141412e-03 3.220445923353909556e-03 3.219982424554183615e-03 3.220314643347050709e-03 3.221855174039780449e-03 3.224044067215363612e-03 3.223478759430727179e-03 3.220826367455418508e-03 3.216987097050754297e-03 3.220161929869684320e-03 3.219722543724279958e-03 3.221335412379972701e-03 3.220111025377229291e-03 3.220062800068587000e-03 3.220839763374485666e-03 3.221072852366255006e-03 3.222500857338820267e-03 3.220625428669410262e-03 3.220668295610425343e-03
