# vvf statistics with RF=500
# gcat file: /disk2/salam/Abacus/AbacusCosmos_720box_products/GCAT_derivative/AbacusCosmos_720box_37_rockstar_halos_z0.100_Mr21_hod-default_real-7.gcat.rsd_zz.1pz0.100by100
# stats order in row: stdvvf,p2.5,p16,p50,p84,p97.5,rho
# columns: numbers, mean, sigma,All, jnrealizations
0.000000000000000000e+00 1.402191251294338858e+00 5.308034979592970645e-03 1.402191508304279521e+00 1.402601204017709158e+00 1.401804062431620368e+00 1.401946891616967728e+00 1.402260221518002670e+00 1.402522147440421030e+00 1.402449805065789645e+00 1.402351962078218550e+00 1.401048102945454454e+00 1.400693178697503649e+00 1.401977137157210951e+00 1.402980667355002486e+00 1.402414110002495162e+00 1.402301107172743366e+00 1.402151167374197982e+00 1.402674012267747017e+00 1.402266360030106851e+00 1.402471174995555403e+00 1.402176776396883540e+00 1.402486816734374253e+00 1.402474782947271903e+00 1.402223335974295715e+00 1.402894360559832077e+00 1.402137300402572784e+00 1.402380862897861125e+00 1.402096252815754784e+00 1.402590620769096130e+00 1.402717116056751978e+00 1.402133733659873815e+00 1.402627307071223184e+00 1.401901620238451329e+00 1.402220538349245649e+00 1.401522543835842072e+00 1.402348005333434067e+00 1.402378494250072105e+00 1.401756722564500457e+00 1.401585999161888862e+00 1.402306896415934645e+00 1.402164908819142353e+00 1.402019580760716089e+00 1.402440665827042521e+00 1.402254719459565147e+00 1.402094044817346230e+00 1.402256163463721395e+00 1.402128235789925403e+00 1.401701976927214544e+00 1.402471359407892582e+00 1.401947204317003370e+00 1.402474534331458189e+00 1.402299843069249041e+00 1.402181150850676739e+00 1.401365281142524788e+00 1.402217191902186411e+00 1.401823108211250890e+00 1.402292717201353067e+00 1.401396561523115869e+00 1.401985355998581984e+00 1.401884075934765272e+00 1.402214725079877100e+00 1.402204892013428905e+00 1.401886189034599717e+00 1.402494614295078712e+00 1.402329536943081045e+00 1.402610121745171634e+00 1.402201396481768558e+00 1.402195689881753360e+00 1.401374860498717512e+00 1.402867190758829263e+00 1.402426384907951240e+00 1.402543307149990204e+00 1.401886362312421586e+00 1.402226248397672181e+00 1.402623493808200950e+00 1.401692601236463220e+00 1.402087500898356209e+00 1.402118749216123339e+00 1.402371331806689048e+00 1.402219336447835696e+00 1.402044268031432450e+00 1.401947678995562940e+00 1.402031856721222880e+00 1.401795324705696011e+00 1.402220832851561960e+00 1.401051618666046439e+00 1.402608574007166542e+00 1.401944270523640235e+00 1.402647397609908975e+00 1.402329128340195297e+00 1.402571334024910410e+00 1.401673062480077947e+00 1.401759643955081458e+00 1.402501157049636848e+00 1.402189797868388599e+00 1.402388014628520363e+00 1.402633405817122147e+00 1.401999493191132595e+00 1.402098837952039601e+00 1.402659783077564448e+00 1.402275527077710082e+00 1.402269941550859711e+00 1.402020490909132278e+00 1.402095004262497779e+00 1.401752466996689872e+00 1.402099859910702184e+00 1.401899660871295250e+00 1.402308160486399169e+00 1.402467020407973441e+00 1.402176628765118727e+00 1.402158569727410597e+00 1.401876902314689977e+00 1.402186806052353907e+00 1.402574434061087283e+00 1.402211979602961067e+00 1.402539462327608843e+00 1.401749312690539817e+00 1.402548646792740605e+00 1.402284581914071460e+00 1.402437184591985186e+00 1.402245795330284484e+00 1.401368127368306293e+00 1.402261887057068224e+00 1.402110003796394055e+00 1.402238493109079887e+00 1.402194077265268346e+00 1.401899971632257769e+00 1.402237739141892758e+00 1.402438701917428698e+00 1.402804067684341183e+00 1.402606851522625764e+00 1.402073273398252162e+00 1.402133796742018657e+00 1.402380795458719076e+00 1.401968758662149872e+00 1.401997275542220756e+00 1.402350667325486411e+00 1.402344640986425972e+00 1.402438039874154940e+00 1.402562336372297658e+00 1.401755064229369463e+00 1.401633251499613264e+00 1.401564003771498257e+00 1.402329152282004276e+00 1.402224158152017619e+00 1.402411846615576829e+00 1.402366510023158819e+00 1.402357403700147165e+00 1.402126795206134480e+00 1.402001259047347403e+00 1.402206196288041662e+00 1.402052688733991470e+00 1.402099336764896620e+00 1.401673665826419057e+00 1.402028461853323416e+00 1.401356061309559253e+00 1.402418180254658031e+00 1.402259621374437604e+00 1.402724805737115332e+00 1.402582540935982669e+00 1.402344698931991873e+00 1.401613526892530714e+00 1.402414481810482005e+00 1.402657641044652292e+00 1.402348330881286520e+00 1.402438908859845013e+00 1.402153263414783524e+00 1.402139678482359875e+00 1.401852090896314351e+00 1.401660459016291327e+00 1.401884522843946712e+00 1.402266766102646001e+00 1.402076817378887785e+00 1.402528145306737084e+00 1.402032242834144293e+00 1.402614712694892685e+00 1.401982357085204356e+00 1.402250891544340572e+00 1.402453190009067097e+00 1.402811330304526427e+00 1.402161882139353777e+00 1.401962193684899827e+00 1.402672340796992989e+00 1.402363961380931334e+00 1.402348165408348057e+00 1.402436971639331453e+00 1.402750879086724689e+00 1.402629045982371814e+00 1.402584807197841066e+00 1.402359049328966600e+00 1.402194915904857009e+00 1.401307014790603045e+00 1.402571454079297952e+00 1.402348919093206137e+00 1.402361418309210128e+00 1.402699870263361293e+00 1.401816219598404967e+00 1.401850217144490429e+00 1.402199685096996440e+00 1.402396472977996522e+00 1.402153353070083597e+00 1.402624704172456660e+00 1.402045585498731484e+00 1.402445198483917022e+00 1.402040528671350872e+00 1.402076261559472847e+00 1.401917529841407717e+00 1.402263517321677533e+00 1.402471027822953964e+00 1.401920273792529370e+00 1.402203457074177484e+00 1.401844932826878498e+00 1.401904774883934390e+00 1.402400657414262231e+00 1.402237796079331744e+00 1.402010842030953164e+00 1.401899159571736497e+00 1.401536621586982001e+00 1.402124675150845823e+00 1.402298373575859625e+00 1.402132816936022763e+00 1.402507271672805533e+00 1.402096792000143033e+00 1.403022170013348502e+00 1.402721248610332205e+00 1.402369306696964690e+00 1.401641276942063197e+00 1.401880553802652196e+00
1.000000000000000000e+00 2.279623195237708358e-02 1.450946100320232163e-02 2.199999999999999872e-02 2.199616763069151340e-02 2.199634216324276859e-02 2.400919376692422016e-02 2.399594491772645902e-02 2.201616034660910243e-02 2.399435888811965456e-02 2.201844157070441399e-02 2.398665840777629288e-02 2.400565887016635480e-02 2.200478613031430289e-02 2.200716939029026542e-02 2.200769347175144872e-02 2.200542242105263391e-02 2.202804329763177402e-02 2.199670345546414496e-02 2.199350945483017489e-02 2.200398790856586406e-02 2.398603295371889293e-02 2.399756383500249030e-02 2.198990290360981065e-02 2.199030510194465576e-02 2.199839298471296598e-02 2.398761923101357454e-02 2.400164079036899711e-02 2.201476684662276653e-02 2.200867374106536475e-02 2.200642903041515400e-02 2.400074936622195385e-02 2.201475884253398588e-02 2.398926116095414368e-02 2.397350925062045196e-02 2.396993175364750539e-02 2.199946258948701910e-02 2.199509182877028984e-02 2.397666831570285928e-02 2.399156670927044335e-02 2.199282865424297476e-02 2.398728303511666118e-02 2.199689897796542129e-02 2.198814429705600940e-02 2.398560414973286217e-02 2.201260880686274277e-02 2.201833950705759171e-02 2.401497625484995402e-02 2.398307047295107977e-02 2.199508480105306571e-02 2.198563025136918148e-02 2.401083839925882701e-02 2.400986867060420082e-02 2.399473045971548327e-02 2.399261294865963692e-02 2.199721813337340848e-02 2.273724295976432830e-02 2.199154264351115690e-02 2.198094656638356972e-02 2.398058284830660580e-02 2.400617792447804974e-02 2.400766776512341591e-02 2.399360585600565643e-02 2.199428143086111856e-02 2.399969250934605447e-02 2.199262712951033025e-02 2.200463539974278210e-02 2.400392452379816050e-02 2.398577921631490223e-02 2.395236812024206102e-02 2.199876363792632392e-02 2.199856905329072854e-02 2.199675786244947862e-02 2.200442500276761706e-02 2.399484253058385003e-02 2.199464027719163703e-02 2.398303635073973164e-02 2.201057601572538672e-02 2.200729832506230846e-02 2.201099600417486674e-02 2.398465151191041256e-02 2.399435715452336026e-02 2.198959340682514474e-02 2.198429159380973358e-02 2.396993334738293374e-02 2.200424096181743949e-02 2.401338416872916826e-02 2.199996660822294003e-02 2.201567197301013482e-02 2.202158687964437395e-02 2.200593901065392086e-02 2.200949187323958389e-02 2.199546476435029069e-02 2.397915981548000980e-02 2.399937594692094084e-02 2.399250899900092632e-02 2.400819190232690234e-02 2.202199310345812414e-02 2.399601070380243464e-02 2.201146711273241005e-02 2.201331634377340363e-02 2.201411786675789781e-02 2.201971402612860895e-02 2.201019704903530230e-02 2.200771669551391738e-02 2.398565834294489815e-02 2.400586834061392214e-02 2.200028811885750696e-02 2.398859550318310080e-02 2.400501532377417174e-02 2.399710666334631259e-02 2.200922036709715077e-02 2.200853215018438655e-02 2.400988894670199811e-02 2.200656298738912220e-02 2.200582462593349969e-02 2.199731718391229746e-02 2.397981261479009696e-02 2.201105253988060867e-02 2.201616692592932648e-02 2.200051789224284973e-02 2.200272590026676120e-02 2.398574546501825583e-02 2.398748583142747484e-02 2.398945712488559021e-02 2.200059832086446662e-02 2.201338955441917503e-02 2.202033470227336004e-02 2.202705146651801754e-02 2.201756987433293664e-02 2.200715811323716506e-02 2.400544930152608003e-02 2.397507328954187611e-02 2.400463996690981733e-02 2.399586527516010814e-02 2.197752701624769781e-02 2.399651609314146228e-02 2.201892056908902676e-02 2.199711218566746673e-02 2.199582320760205822e-02 2.200485625535547954e-02 2.399338484213841410e-02 2.198927720692222740e-02 2.201034145760081065e-02 2.401012164593126913e-02 2.201408405375807759e-02 2.200954982951292341e-02 2.398998590362521471e-02 2.400371832955242382e-02 2.323623156473322848e-02 2.399020923868942431e-02 2.397629453442311556e-02 2.201052175914982451e-02 2.200330406301207256e-02 2.397970434848660168e-02 2.200844666749860248e-02 2.399790313206602230e-02 2.200452766661354503e-02 2.200919240344285238e-02 2.201946665103576145e-02 2.199700518343271002e-02 2.199855785823284782e-02 2.397969191752867199e-02 2.398910111955070146e-02 2.199693320451689277e-02 2.198855387593901672e-02 2.199871106992566661e-02 2.399370102498459001e-02 2.398721518601355449e-02 2.201261646686824766e-02 2.399083745770040979e-02 2.399136547289530685e-02 2.201306860645554225e-02 2.199933855818456824e-02 2.200688794959017314e-02 2.200340880265328619e-02 2.200221476009993002e-02 2.199443255820860560e-02 2.199368930652578075e-02 2.199746141281399073e-02 2.201161843036484114e-02 2.401359086176551097e-02 2.200591241027668316e-02 2.201862621276282073e-02 2.201005460068038849e-02 2.200806854402664881e-02 2.400486889227119308e-02 2.201783698190837649e-02 2.200476034868388553e-02 2.200205053146779902e-02 2.200318636963295021e-02 2.199378126833191963e-02 2.398958719145407106e-02 2.200474794040671242e-02 2.201189399903034916e-02 2.400142243988953594e-02 2.200340626207024364e-02 2.200734317927923941e-02 2.199633984364803355e-02 2.398177928143883919e-02 2.200442964670040052e-02 2.201402501108429277e-02 2.201145499358009988e-02 2.399915537200161819e-02 2.399410497152819691e-02 2.399915261069691594e-02 2.399247797356284309e-02 2.198695796325544904e-02 2.201255752863778489e-02 2.201420617640259189e-02 2.400596248720722470e-02 2.399439124278037599e-02 2.399059095812141468e-02 2.399377943690696527e-02 2.200481777780410181e-02 2.202203930706785051e-02 2.201910698607197764e-02 2.199742907941629882e-02 2.396779300413344471e-02 2.399180226772214611e-02 2.198801811209363452e-02 2.400220516434254867e-02 2.199683586038924180e-02 2.198884718261646595e-02 2.200352992357472795e-02 2.400277915571713203e-02 2.201044628501331105e-02 2.199528195206028325e-02 2.399395216699904895e-02
2.000000000000000000e+00 1.079999992450482033e-01 8.353153441639775845e-04 1.079999999999999849e-01 1.079811865506674212e-01 1.079820433468281354e-01 1.080413719511589959e-01 1.079817521297690708e-01 1.080793326106264940e-01 1.079746149965384455e-01 1.080905313470943985e-01 1.079399628349933249e-01 1.080254649157485897e-01 1.080234955488156706e-01 1.080351951886976830e-01 1.080377679522343815e-01 1.080266191578947571e-01 1.081376670974650567e-01 1.079838169631876371e-01 1.079681373237117714e-01 1.080195770056869703e-01 1.079371482917350356e-01 1.079890372575112029e-01 1.079504324359027156e-01 1.079524068640919515e-01 1.079921110158636455e-01 1.079442865395610907e-01 1.080073835566604801e-01 1.080724917925117712e-01 1.080425801834117849e-01 1.080315606947652995e-01 1.080033721479987940e-01 1.080724524997122987e-01 1.079516752242936500e-01 1.078807916277920581e-01 1.078646928914137881e-01 1.079973618029362731e-01 1.079759053412359671e-01 1.078950074206628668e-01 1.079620501917169934e-01 1.079647952117382403e-01 1.079427736580249736e-01 1.079847768009211673e-01 1.079417992764567791e-01 1.079352186737978780e-01 1.080618977791443641e-01 1.080900303073736302e-01 1.080673931468247861e-01 1.079238171282798503e-01 1.079758708415332336e-01 1.079294575976305348e-01 1.080487727966647216e-01 1.080444090177189176e-01 1.079762870687196730e-01 1.079667582689683714e-01 1.079863435638330760e-01 1.079394391056943681e-01 1.079584820681456780e-01 1.079064649622466093e-01 1.079126228173797331e-01 1.080278006601512186e-01 1.080345049430553594e-01 1.079712263520254401e-01 1.079719270242273099e-01 1.079986162920572590e-01 1.079638059085052670e-01 1.080227555987372939e-01 1.080176603570917188e-01 1.079360064734170566e-01 1.077856565410892781e-01 1.079939305861837701e-01 1.079929753525181169e-01 1.079840840520247258e-01 1.080217227408592079e-01 1.079767913876273355e-01 1.079736886334862200e-01 1.079236635783287906e-01 1.080519186226518991e-01 1.080358281412149846e-01 1.080539803841311652e-01 1.079309318035968496e-01 1.079746071953551212e-01 1.079489130880507131e-01 1.079228860059750494e-01 1.078647000632231984e-01 1.080208192671038014e-01 1.080602287592812571e-01 1.079998360767307902e-01 1.080769351402315614e-01 1.081059719546178244e-01 1.080291551432101538e-01 1.080465964686306846e-01 1.079777361159014321e-01 1.079062191696600476e-01 1.079971917611442234e-01 1.079662904955041580e-01 1.080368635604710692e-01 1.081079661442489737e-01 1.079820481671109472e-01 1.080562930988681891e-01 1.080653711421603325e-01 1.080693058913569510e-01 1.080967779464495349e-01 1.080500582407187549e-01 1.080378819597956064e-01 1.079354625432520365e-01 1.080264075327626444e-01 1.080014144016641225e-01 1.079486797643239571e-01 1.080225689569837694e-01 1.079869799850583928e-01 1.080452636202951094e-01 1.080418851009051495e-01 1.080445002601589932e-01 1.080322183017284193e-01 1.080285936182189960e-01 1.079868298119330966e-01 1.079091567665554502e-01 1.080542579230502481e-01 1.080793649091076059e-01 1.080025423801012491e-01 1.080133816922186352e-01 1.079358545925821478e-01 1.079436862414236420e-01 1.079525570619851577e-01 1.080029372115164782e-01 1.080657305398759482e-01 1.080998249020692081e-01 1.081327981083611695e-01 1.080862521103616858e-01 1.080351398286188147e-01 1.080245218568673671e-01 1.078878298029384425e-01 1.080208798510941676e-01 1.079813937382204797e-01 1.078896780797614363e-01 1.079843224191365803e-01 1.080928827937097658e-01 1.079858234569130160e-01 1.079794957464101091e-01 1.080238397990178068e-01 1.079702317896228392e-01 1.079473608339818480e-01 1.080507671554948868e-01 1.080455474066907146e-01 1.080691399002669528e-01 1.080468809812452635e-01 1.079549365663134697e-01 1.080167324829859055e-01 1.079360433974704825e-01 1.079559415741024042e-01 1.078933254049040252e-01 1.080516522721900463e-01 1.080162199456956296e-01 1.079086695681897023e-01 1.080414654586295126e-01 1.079905640942971090e-01 1.080222267270119357e-01 1.080451263441739862e-01 1.080955635596300979e-01 1.079852981732151440e-01 1.079929203949612504e-01 1.079086136288790188e-01 1.079509550379781496e-01 1.079849448221738423e-01 1.079438099364278952e-01 1.079936725250896373e-01 1.079716546124306620e-01 1.079424683370610039e-01 1.080619353828077556e-01 1.079587685596518354e-01 1.079611446280288878e-01 1.080641549771453880e-01 1.079967529219969524e-01 1.080338135707153979e-01 1.080167341221161259e-01 1.080108724586723856e-01 1.079726689221149893e-01 1.079690202320356396e-01 1.079875378447232304e-01 1.080570359308819506e-01 1.080611588779447907e-01 1.080290245595400683e-01 1.080914377717447500e-01 1.080493589487946243e-01 1.080396092161308302e-01 1.080219100152203654e-01 1.080875633657320395e-01 1.080233689844481704e-01 1.080100662453873650e-01 1.080156421781981180e-01 1.079694716809021515e-01 1.079531423615433111e-01 1.080233080710875093e-01 1.080583887225126244e-01 1.080064009795029117e-01 1.080167216501630167e-01 1.080360483346435446e-01 1.079820319597267070e-01 1.079180067664747972e-01 1.080217455383474245e-01 1.080688500544138009e-01 1.080562336048477567e-01 1.079961991740072819e-01 1.079734723718768913e-01 1.079961867481361165e-01 1.079661508810327991e-01 1.079359754559812978e-01 1.080616460496763992e-01 1.080697394114309012e-01 1.080268311924325042e-01 1.079747605925116954e-01 1.079576593115463695e-01 1.079720074660813489e-01 1.080236509092201425e-01 1.081081929619694681e-01 1.080937979316260594e-01 1.079873791171345465e-01 1.078550685186005081e-01 1.079631102047496627e-01 1.079411798230051206e-01 1.080099232395414638e-01 1.079844669510017230e-01 1.079452498055717413e-01 1.080173287157304707e-01 1.080125062007270820e-01 1.080512817627926198e-01 1.079768386737504915e-01 1.079727847514957290e-01
3.000000000000000000e+00 4.939291318413272514e-01 5.489337673788889649e-03 4.939999999999999947e-01 4.939139458891639856e-01 4.939178649382693909e-01 4.941892383691902091e-01 4.939165328898696417e-01 4.943628732374952817e-01 4.938838871137962161e-01 4.944140970876355068e-01 4.937253855600620689e-01 4.941164784109240982e-01 4.941074703806938584e-01 4.941609854001541846e-01 4.941727534111461373e-01 4.941217580000000775e-01 4.926271501106742057e-01 4.939259775908767525e-01 4.938542577584594251e-01 4.940895466741607733e-01 4.937125116307139461e-01 4.939498556038012800e-01 4.937732742901475569e-01 4.937823054709390980e-01 4.939639152021911284e-01 4.937451625050294224e-01 4.940337729350952056e-01 4.943315828287112579e-01 4.941947649130131737e-01 4.941443609556857575e-01 4.940154244547351747e-01 4.923300613875782328e-01 4.937789588963061305e-01 4.934547320752710742e-01 4.933810952625778956e-01 4.939879326912085533e-01 4.938897892460237804e-01 4.935197561648838604e-01 4.938264147658166237e-01 4.938389706907286292e-01 4.937382424728179453e-01 4.939303679597690233e-01 4.937337855793485497e-01 4.937036854153347698e-01 4.942831250268270304e-01 4.944118052948386355e-01 4.943082612456615732e-01 4.936515339015764003e-01 4.938896314418279032e-01 4.936773338261988830e-01 4.942230903847441570e-01 4.942031301366031082e-01 4.938915352958103688e-01 4.938479498599108730e-01 4.939375344493847075e-01 4.937229899834539304e-01 4.938100939042959769e-01 4.935721638087947061e-01 4.936003302943109960e-01 4.941271622788398488e-01 4.941578281654570026e-01 4.938683872027830879e-01 4.938715921293360123e-01 4.939936708173729984e-01 4.938344455444592662e-01 4.941040857942242681e-01 4.940807797815121583e-01 4.937072888691484418e-01 4.930195771416491235e-01 4.939722380516183287e-01 4.939678687420736569e-01 4.939271992750019491e-01 4.940993614257819244e-01 4.938938420878509206e-01 4.938796498605758645e-01 4.936508315527260993e-01 4.942374796258336977e-01 4.941638805718536753e-01 4.942469102755629451e-01 4.936840769534893147e-01 4.938838514306058136e-01 4.937663246805282791e-01 4.936472748791821408e-01 4.933811280669653798e-01 4.940952288699007044e-01 4.942754908063420327e-01 4.939992502028242027e-01 4.943519070303184493e-01 4.924827611265923388e-01 4.941333577846834801e-01 4.942131356991070201e-01 4.938981633449565645e-01 4.935710395352969071e-01 4.939871549074559831e-01 4.938458102294357444e-01 4.941686166562287430e-01 4.924918457682453399e-01 4.939178869866001076e-01 4.942574888040822678e-01 4.942990124465482249e-01 4.943170102808364108e-01 4.944426694957969048e-01 4.942289701010654235e-01 4.941732748901761507e-01 4.937048008922824693e-01 4.941207900109699236e-01 4.940064695779822213e-01 4.937652574405188011e-01 4.941032320810183620e-01 4.939404454872115546e-01 4.942070391520905770e-01 4.941915855541403335e-01 4.942035474862827571e-01 4.941473688986466883e-01 4.941307893277794849e-01 4.939397585842125182e-01 4.935844763210961994e-01 4.942481797591372628e-01 4.943630209731403324e-01 4.940116290349075845e-01 4.940612088514444999e-01 4.937065941549590997e-01 4.937424166968821804e-01 4.937829924872284559e-01 4.940134350230475646e-01 4.943006563583214330e-01 4.944566064965017493e-01 4.926049691603119896e-01 4.943945235418396034e-01 4.941607321790527085e-01 4.941121647897451785e-01 4.934869252097369707e-01 4.940955059855604015e-01 4.939148935803788776e-01 4.934953793648346743e-01 4.939282895838284504e-01 4.924231327269000258e-01 4.939351554418058288e-01 4.939062120252462051e-01 4.941090450066185080e-01 4.938638380006822315e-01 4.937592245554354720e-01 4.942322127297636425e-01 4.942083372120852913e-01 4.943162510252951392e-01 4.942144370808811416e-01 4.937938765162857013e-01 4.940765356166207378e-01 4.937074577625039096e-01 4.937984734963573041e-01 4.935120625002091255e-01 4.942362613190915410e-01 4.940741912330893215e-01 4.935822478396825197e-01 4.941896660792868268e-01 4.939568394683589991e-01 4.941016666957767645e-01 4.942064112409439991e-01 4.924353451049816033e-01 4.939327527552617725e-01 4.939676173621375677e-01 4.935819919691318280e-01 4.937756647107519048e-01 4.939311365014247834e-01 4.937429824869942752e-01 4.939710576610581438e-01 4.938703460975994997e-01 4.937368459121123654e-01 4.942832970287688310e-01 4.938114043376667373e-01 4.938222726504283844e-01 4.942934496176835113e-01 4.939851476246898687e-01 4.941546657771611617e-01 4.940765431141237451e-01 4.940497314313347932e-01 4.938749856252295789e-01 4.938582962465333792e-01 4.939429971786414297e-01 4.942608865727378120e-01 4.942797452380067735e-01 4.941327604853036348e-01 4.944182431411288103e-01 4.942257714880050612e-01 4.941811754885984120e-01 4.941002180325820281e-01 4.923988997772237308e-01 4.941068914659018096e-01 4.940460437520496351e-01 4.940715484817581049e-01 4.938603612070894822e-01 4.937856696907629295e-01 4.941066128436780169e-01 4.942670743418632884e-01 4.940292785543929366e-01 4.940764860664864089e-01 4.941648877529065675e-01 4.939178128528240452e-01 4.936249568762828277e-01 4.940994657031816950e-01 4.943149252488927559e-01 4.942572166740258899e-01 4.939826147403666434e-01 4.938786606639554155e-01 4.939825579035114766e-01 4.938451716225018551e-01 4.937071469930996437e-01 4.942819735975939044e-01 4.943189932337672676e-01 4.941227278616820429e-01 4.938845530805627271e-01 4.938063305546658288e-01 4.938719600763350481e-01 4.941081810106921490e-01 4.944948826223417582e-01 4.944290386872525755e-01 4.939422711468932636e-01 4.933370726684134233e-01 4.938312633439475019e-01 4.937309521533752577e-01 4.940453896327174355e-01 4.939289506832856835e-01 4.937495685551151481e-01 4.940792628293597666e-01 4.940572042885109094e-01 4.942345665816624822e-01 4.938940583780809246e-01 4.938755154373971057e-01
4.000000000000000000e+00 1.832520535469831513e+00 9.282353015198079038e-03 1.831999999999999851e+00 1.831680868155765918e+00 1.831695401957306846e+00 1.832701790875215453e+00 1.831690462053119806e+00 1.831344247013393378e+00 1.831569395126466882e+00 1.831534003381321440e+00 1.832980479994238410e+00 1.832431960422698403e+00 1.832398554124354595e+00 1.832597014682353143e+00 1.832640656374938892e+00 1.832451539789473838e+00 1.832332692484825110e+00 1.831725487745923697e+00 1.833458924552661129e+00 1.832332084022393559e+00 1.832932684880019147e+00 1.831814039405190053e+00 1.833158269328199586e+00 1.833191798043931842e+00 1.831866179454279653e+00 1.833053902903287513e+00 1.832125246998166812e+00 1.833229675591496299e+00 1.832722286074170315e+00 1.832535362896389186e+00 1.832057201621609011e+00 1.833229009069193616e+00 1.833179373716245841e+00 1.831975665234913286e+00 1.833699779154034371e+00 1.831955248360919164e+00 1.833590836998395979e+00 1.832217070458293406e+00 1.831356258807643744e+00 1.833402170540073595e+00 1.833028211933498408e+00 1.831741769437848166e+00 1.833011665490941855e+00 1.832899917108753218e+00 1.833049969735115692e+00 1.831525513541608863e+00 1.833143187453546430e+00 1.832706301974678320e+00 1.831590697978600968e+00 1.832802085500503608e+00 1.832827331143423777e+00 1.832753308522787172e+00 1.831597758424948541e+00 1.833435506160074002e+00 1.831768346379094581e+00 1.832971586294847466e+00 1.833294964009066552e+00 1.832411636488521234e+00 1.832516205991430169e+00 1.832471581568491104e+00 1.832585306071087494e+00 1.831511913675098135e+00 1.833523279281786156e+00 1.831976528213415722e+00 1.833385370705542972e+00 1.832386002378580736e+00 1.832299571983259323e+00 1.832913295113397290e+00 1.832356161198517963e+00 1.831897044758228343e+00 1.831880841164936990e+00 1.831730018363975088e+00 1.832368482048648772e+00 1.831606313167900568e+00 1.833553194016793730e+00 1.832703694469027811e+00 1.832880693673132111e+00 1.832607751432461018e+00 1.832915667256743486e+00 1.832827119701820662e+00 1.831569262795283093e+00 1.833132468550787042e+00 1.832690490138502160e+00 1.831702406629179158e+00 1.832353156456797860e+00 1.833021658212993454e+00 1.831997219375655739e+00 1.833305047934298493e+00 1.831795635897691010e+00 1.832494557614453790e+00 1.832790414171587168e+00 1.833621926264474400e+00 1.832407462566264078e+00 1.831952363948298412e+00 1.833427562673654254e+00 1.832625315210953509e+00 1.831829426333107413e+00 1.831695483723585482e+00 1.832954897751171597e+00 1.833108888263312419e+00 1.833175633268202986e+00 1.831639848537061521e+00 1.832849136083303243e+00 1.832642590280977313e+00 1.832904058373372447e+00 1.832447950000196002e+00 1.832023992443043259e+00 1.831129456742976558e+00 1.832382836381428515e+00 1.831779141968768343e+00 1.832767805114635440e+00 1.832710495415354357e+00 1.832754856264918963e+00 1.832546517858948842e+00 1.832485032486825816e+00 1.831776594587605889e+00 1.832457347313543483e+00 1.832920375139148739e+00 1.833346264013751004e+00 1.832043126299495395e+00 1.832226993149486560e+00 1.832910715951811653e+00 1.833043708951582973e+00 1.833194348626673964e+00 1.832049823810168343e+00 1.833114984713451134e+00 1.831691477507283894e+00 1.832250190169453230e+00 1.831461494092239795e+00 1.832596075611385711e+00 1.832415963349824262e+00 1.832095183875825040e+00 1.832354184140782660e+00 1.831684382670554889e+00 1.832126570354467354e+00 1.831734061776465028e+00 1.833575567389595262e+00 1.831759523824672664e+00 1.831652187105771379e+00 1.832404393627783623e+00 1.833494491686743499e+00 1.833106108977062387e+00 1.832861161378394721e+00 1.832772618972753564e+00 1.833172817567491286e+00 1.832795240348530807e+00 1.831235590643391475e+00 1.832283832489168374e+00 1.832913922138526663e+00 1.833251822656516872e+00 1.832188507338833094e+00 1.832876175580112621e+00 1.832275138338096188e+00 1.832449073963517971e+00 1.832703377038974679e+00 1.831839939081039814e+00 1.832377031147091273e+00 1.832765476504877533e+00 1.831619271427065598e+00 1.831750613456760268e+00 1.831879908921935307e+00 1.832448124031149206e+00 1.833167143885666039e+00 1.831744619576133992e+00 1.833045809476006927e+00 1.831892667277446485e+00 1.833518653325905801e+00 1.833023027131202465e+00 1.833050607604665316e+00 1.833299829059273023e+00 1.833340178220416394e+00 1.833088258501207157e+00 1.831944919936096650e+00 1.832573578347690857e+00 1.832283860293673516e+00 1.832184429113775881e+00 1.833295938542764514e+00 1.833473917644012685e+00 1.831788604921601449e+00 1.832967498383108573e+00 1.833037435781434077e+00 1.832492342528494467e+00 1.831549362243452883e+00 1.832837274020294061e+00 1.832671889666219300e+00 1.832371658776700940e+00 1.833485334129824951e+00 1.832396407217676160e+00 1.832170753347682091e+00 1.832265337689434892e+00 1.831482149253821801e+00 1.833204287880281669e+00 1.832395373946595463e+00 1.832990445737436414e+00 1.832108579578234586e+00 1.832283648732394798e+00 1.832611486565434822e+00 1.833694876056840561e+00 1.832607633423284810e+00 1.832368868761596881e+00 1.833167900923019289e+00 1.832953888556306588e+00 1.831935526729456809e+00 1.831550012826652196e+00 1.831935315949864584e+00 1.833425191813093935e+00 1.832912768391386171e+00 1.833045699657473770e+00 1.833182987053161073e+00 1.832455136523484684e+00 1.831571864865568777e+00 1.833280992383111485e+00 1.833524645303640677e+00 1.832401189497141702e+00 1.831833269633371231e+00 1.831589353841441614e+00 1.831785912431393992e+00 1.833536164816208514e+00 1.833373556625100598e+00 1.833001146253623981e+00 1.832168327544814623e+00 1.831736513465140437e+00 1.833070260587208899e+00 1.832293946363131809e+00 1.832212142219741047e+00 1.832869890642926602e+00 1.833606686367207139e+00 1.833537844761510716e+00
5.000000000000000000e+00 4.944682427047584206e+00 1.865137721377733981e-02 4.943999999999999950e+00 4.945138413700010283e+00 4.945177651790851669e+00 4.943893149839145629e+00 4.945164315128128152e+00 4.945630201497372092e+00 4.944837460859992539e+00 4.945091767216860390e+00 4.943250520202564502e+00 4.943165255681755355e+00 4.943075138909694743e+00 4.945611157527049606e+00 4.945728932924507326e+00 4.945218565894737850e+00 4.942291896232292814e+00 4.945258876851166718e+00 4.946090350147548165e+00 4.944896191815892905e+00 4.945120460625045844e+00 4.945497946996763261e+00 4.945729071230061002e+00 4.943820410646284635e+00 4.947638567652715480e+00 4.943448529858048168e+00 4.944338002816013322e+00 4.945317170727714817e+00 4.945949226173961932e+00 4.945444778471478564e+00 4.944154369441722707e+00 4.945315372718316560e+00 4.945786009350046086e+00 4.944536282940469540e+00 4.943448862684965306e+00 4.945879180345581716e+00 4.944896553868084688e+00 4.943189784420739308e+00 4.942262742109710949e+00 4.944387751085716154e+00 4.945378185739885524e+00 4.945302833864408498e+00 4.945333544628778277e+00 4.945032055536591642e+00 4.944832396523439755e+00 4.945519220007833283e+00 4.943082612456615621e+00 4.942511106634001727e+00 4.944894973909475411e+00 4.944768112898850099e+00 4.944231807047380300e+00 4.946032946144465647e+00 4.942914474701389338e+00 4.942478267423885185e+00 4.945374585802948530e+00 4.943226535340411232e+00 4.944098632491190415e+00 4.943714709566632060e+00 4.943996830559211908e+00 4.943272137615438488e+00 4.945229447793756172e+00 4.944682273491832092e+00 4.944714361683595349e+00 4.945936631301066200e+00 4.944342444661732117e+00 4.945041700742196511e+00 4.944808451902421353e+00 4.945068148430255661e+00 4.942171955476612588e+00 4.947721930929975365e+00 4.945678297162542592e+00 4.947270813790910715e+00 4.944994418803776881e+00 4.943387464597675418e+00 4.946794549615646019e+00 4.942504074614945786e+00 4.944375757714311703e+00 4.943639469202633308e+00 4.944470102392372723e+00 4.944835653372196660e+00 4.942837573831812215e+00 4.943660408643507864e+00 4.944467036644116575e+00 4.943798752897730076e+00 4.942952674240990163e+00 4.944105660922772039e+00 4.945992492921393868e+00 4.945520495028003616e+00 4.944847235701963939e+00 4.945334657666953682e+00 4.946133082786205115e+00 4.942980808861265452e+00 4.943703448624795271e+00 4.945871393061290533e+00 4.944456229544107906e+00 4.945687531879341847e+00 4.942936452039828232e+00 4.943178204983301072e+00 4.944575930505616945e+00 4.944991335042188574e+00 4.945171386250796886e+00 4.944426694957969382e+00 4.944290628015111544e+00 4.943733450419535380e+00 4.944743407641139399e+00 4.943208389138083803e+00 4.944064748165068579e+00 4.945648772906249491e+00 4.945033156697479448e+00 4.945403731537951764e+00 4.946072067951287288e+00 4.943916631191419775e+00 4.944036298941719920e+00 4.945474882256901239e+00 4.945308952300691452e+00 4.945396854165010403e+00 4.941839716364659907e+00 4.946483807144078426e+00 4.943630209731403546e+00 4.946116431592415097e+00 4.944612584132675792e+00 4.941063565793760937e+00 4.945419995579297456e+00 4.943827289153505333e+00 4.944134459016087391e+00 4.945007780815434906e+00 4.942564216355719964e+00 4.946074283845409703e+00 4.945946832679698701e+00 4.945608623265661308e+00 4.945122556114372792e+00 4.944858865968011941e+00 4.942955446519512464e+00 4.945147902122578820e+00 4.944943578655732530e+00 4.943282315187141229e+00 4.944248527786354153e+00 4.945350766832331324e+00 4.947060601418862724e+00 4.945091333021704116e+00 4.942637277480512736e+00 4.943589321156242278e+00 4.944323067430145713e+00 4.944084215591347586e+00 4.947165070989997915e+00 4.944145238975130141e+00 4.943936261638762986e+00 4.944765975887799314e+00 4.943071024480453879e+00 4.945681593760938632e+00 4.945110747724767108e+00 4.944363569714473883e+00 4.944742513069622092e+00 4.943815713179653848e+00 4.943897428671731653e+00 4.941568219944595164e+00 4.945017490169879792e+00 4.946015762863647858e+00 4.946372917700851524e+00 4.947326438528411252e+00 4.945675780309985115e+00 4.943813150330494288e+00 4.945753014147369342e+00 4.947310249815890515e+00 4.945425662643010867e+00 4.945710225084197553e+00 4.944701886232240717e+00 4.943365262917627234e+00 4.944834117239222060e+00 4.942112516286284674e+00 4.944020639826947061e+00 4.944935684231967166e+00 4.943851355984750562e+00 4.947548536303318478e+00 4.944766050923537826e+00 4.946497918338829791e+00 4.942748843990152352e+00 4.944581241367114188e+00 4.945429279444454096e+00 4.946610978169262651e+00 4.944798584951881182e+00 4.943328142344880050e+00 4.944182431411287659e+00 4.946259542989265512e+00 4.945062946829987816e+00 4.947003397548887627e+00 4.946006834754145487e+00 4.945069780176960528e+00 4.944460810344399881e+00 4.944716064157513635e+00 4.944601916053167123e+00 4.941854961439538840e+00 4.945066991698672254e+00 4.944671824691272199e+00 4.944293022617244127e+00 4.945865650298204130e+00 4.945650212652570765e+00 4.943177463045267395e+00 4.946241976796761364e+00 4.944995462422125954e+00 4.945150527489935222e+00 4.946574249466364037e+00 4.943826006632333403e+00 4.946784641630063817e+00 4.943825437803564427e+00 4.946449208882873094e+00 4.943067913011883974e+00 4.944820877569451767e+00 4.945191223808254932e+00 4.943227775490754539e+00 4.944844128616322720e+00 4.944060953286188109e+00 4.944718045622577662e+00 4.945082686066522015e+00 4.944948826223417804e+00 4.944290386872525644e+00 4.943422244028826462e+00 4.943357307102522746e+00 4.944310584006405662e+00 4.945305164483604798e+00 4.944454263854565212e+00 4.947288356236634321e+00 4.943492643873683257e+00 4.946793591000027135e+00 4.946572737674038933e+00 4.944346615478899309e+00 4.942939725953911179e+00 4.942754146401804327e+00
6.000000000000000000e+00 2.464342612224134244e-03 2.251521526788952311e-05 2.475295246056241540e-03 2.463855131172839556e-03 2.463793509945130106e-03 2.465473358196159075e-03 2.463785472393690158e-03 2.465899348422496713e-03 2.463897998113854636e-03 2.466515560699588609e-03 2.462815607853223628e-03 2.464937521433470564e-03 2.464950917352537723e-03 2.465036651234567885e-03 2.465366190843621373e-03 2.464784807956104176e-03 2.467402370541838148e-03 2.464023919753086274e-03 2.463697059327846391e-03 2.464629415294924616e-03 2.462791495198902482e-03 2.463956940157750481e-03 2.463214806241426514e-03 2.463161222565157880e-03 2.463772076474622565e-03 2.463005829903977886e-03 2.464431155692729976e-03 2.465853802297668027e-03 2.465181327160493891e-03 2.464924125514403406e-03 2.464436514060356753e-03 2.466143154149520039e-03 2.462995113168724333e-03 2.461510845336076832e-03 2.461226851851852030e-03 2.464401684670782054e-03 2.463761359739369012e-03 2.461717142489711855e-03 2.463555062585733989e-03 2.463284465020576346e-03 2.463019225823045479e-03 2.464176633230452662e-03 2.462745949074074230e-03 2.462920096021947725e-03 2.465553733710562460e-03 2.466277113340192059e-03 2.465829689643346881e-03 2.462574481310013906e-03 2.464002486282578733e-03 2.462563764574759919e-03 2.465368870027434978e-03 2.465347436556927438e-03 2.463782793209876552e-03 2.463461291152263446e-03 2.464270404663923206e-03 2.463070130315500508e-03 2.463335369513031375e-03 2.462226187414266049e-03 2.462411051097393531e-03 2.465125064300411652e-03 2.465192043895747444e-03 2.463399669924553996e-03 2.463753322187928630e-03 2.464160558127571898e-03 2.463351444615912138e-03 2.464910729595336247e-03 2.464693715706447238e-03 2.462981717249657174e-03 2.459134409293553016e-03 2.464214141803840966e-03 2.463881923010973873e-03 2.464007844650205944e-03 2.464950917352537723e-03 2.463434499314129129e-03 2.463568458504801148e-03 2.462662894375857239e-03 2.465500150034293392e-03 2.465063443072702202e-03 2.465990440672153651e-03 2.462499464163237298e-03 2.463664909122084863e-03 2.463021905006858650e-03 2.462478030692729757e-03 2.461323302469135745e-03 2.464749978566529477e-03 2.465743955761316719e-03 2.464168595679012280e-03 2.466140474965706434e-03 2.466770083161865489e-03 2.465071480624142584e-03 2.465149176954732364e-03 2.463804226680384093e-03 2.462086869855967253e-03 2.464163237311385504e-03 2.463710455246913549e-03 2.465039330418381490e-03 2.467083547668038213e-03 2.463423782578875142e-03 2.466001157407407204e-03 2.465706447187928849e-03 2.465789501886145405e-03 2.466810270919067398e-03 2.465505508401920603e-03 2.464948238168724118e-03 2.462831682956104391e-03 2.465001821844993186e-03 2.464348100994512986e-03 2.462965642146776411e-03 2.464875900205761115e-03 2.463857810356653161e-03 2.465492112482853011e-03 2.465259023491083671e-03 2.465264381858710448e-03 2.464774091220850623e-03 2.465023255315500726e-03 2.464010523834019115e-03 2.462311921296296210e-03 2.465430491255143994e-03 2.466129758230452881e-03 2.464302554869684300e-03 2.464717828360768383e-03 2.462772740912208547e-03 2.463051376028806572e-03 2.463196051954732579e-03 2.464257008744856047e-03 2.465808256172839340e-03 2.466424468449931236e-03 2.467493462791495087e-03 2.466293188443072822e-03 2.464932163065843788e-03 2.464583869170095930e-03 2.461990419238683104e-03 2.464696394890260843e-03 2.463774755658436171e-03 2.461725180041152237e-03 2.464015882201645892e-03 2.466389639060356537e-03 2.463889960562414255e-03 2.463903356481481413e-03 2.464958954903978105e-03 2.463654192386831310e-03 2.462979038065843569e-03 2.465272419410150830e-03 2.465288494513031593e-03 2.465717163923182402e-03 2.465668938614540544e-03 2.463321973593964216e-03 2.464747299382715872e-03 2.462668252743484016e-03 2.463367519718792902e-03 2.461993098422496709e-03 2.465642146776406227e-03 2.464685678155006856e-03 2.462119020061728347e-03 2.465165252057613127e-03 2.464267725480109601e-03 2.464929483882030183e-03 2.465175968792867114e-03 2.466727216220850408e-03 2.463927469135802559e-03 2.464125728737997199e-03 2.461730538408779013e-03 2.463220164609053291e-03 2.464163237311385504e-03 2.462989754801097556e-03 2.464031957304526656e-03 2.463705096879286773e-03 2.462879908264746249e-03 2.465918102709190648e-03 2.463327331961591427e-03 2.462933491941014883e-03 2.466253000685870913e-03 2.464214141803840966e-03 2.464854466735253574e-03 2.464851787551440403e-03 2.464372213648834131e-03 2.463798868312757316e-03 2.463547025034293608e-03 2.464074824245541737e-03 2.465553733710562460e-03 2.465776105967078247e-03 2.465090234910836953e-03 2.466491448045267463e-03 2.465441207990397982e-03 2.465213477366254985e-03 2.464835712448559639e-03 2.466258359053498123e-03 2.464674961419753303e-03 2.464575831618655549e-03 2.464610661008230248e-03 2.463697059327846391e-03 2.463423782578875142e-03 2.464782128772291005e-03 2.465668938614540544e-03 2.464232896090534902e-03 2.464578510802469154e-03 2.465299211248285147e-03 2.463713134430727154e-03 2.462368184156378450e-03 2.464682998971193251e-03 2.465888631687242726e-03 2.465674296982167321e-03 2.464350780178326591e-03 2.463675625857338850e-03 2.464211462620027361e-03 2.463372878086419679e-03 2.462799532750342864e-03 2.465687692901234480e-03 2.465907385973937094e-03 2.465245627572016512e-03 2.463672946673525245e-03 2.463268389917695582e-03 2.463477366255144210e-03 2.464792845507544558e-03 2.466954946844992971e-03 2.466491448045267463e-03 2.464120370370370423e-03 2.460605281207132924e-03 2.463423782578875142e-03 2.462952246227709252e-03 2.464629415294924616e-03 2.463999807098765562e-03 2.462952246227709252e-03 2.464693715706447238e-03 2.464294517318244351e-03 2.465304569615912357e-03 2.463868527091906714e-03 2.463828339334705238e-03
