# vvf statistics with RF=500
# gcat file: /disk2/salam/Abacus/AbacusCosmos_720box_products/GCAT_derivative/AbacusCosmos_720box_planck_rockstar_halos_z0.100_Mr21_hod-alpha-pos_real-2.gcat.rsd_zz.1pz0.100by100
# stats order in row: stdvvf,p2.5,p16,p50,p84,p97.5,rho
# columns: numbers, mean, sigma,All, jnrealizations
0.000000000000000000e+00 1.481080212660660811e+00 6.020569299981738155e-03 1.481080478369424913e+00 1.481576288749659742e+00 1.480566221057153076e+00 1.480943128105759010e+00 1.481142992754950871e+00 1.481700267111311309e+00 1.481207628444558333e+00 1.481260438042255823e+00 1.480106340808880372e+00 1.479308577253131585e+00 1.481029278964573814e+00 1.481659131745635793e+00 1.481237436592781176e+00 1.481226208901404329e+00 1.481045371093161034e+00 1.481328873022967674e+00 1.481243825069088693e+00 1.481319453263515440e+00 1.480954121241596422e+00 1.481326200135674842e+00 1.481359354238151571e+00 1.481141423411140190e+00 1.481820205338633123e+00 1.481006927909169324e+00 1.481280225549896246e+00 1.481334062830827136e+00 1.481440713318169511e+00 1.481780921851405086e+00 1.480769524250965974e+00 1.481750870074263648e+00 1.480468302896648991e+00 1.480972622630568836e+00 1.480278224829881140e+00 1.481154578351029594e+00 1.481275105088564858e+00 1.480196410031048515e+00 1.480476933517349547e+00 1.481368760462927536e+00 1.480963570538139207e+00 1.481141019085630672e+00 1.481371108037932149e+00 1.480837479137408152e+00 1.480925673527315078e+00 1.481249882058729428e+00 1.480850272177053562e+00 1.480363721921340803e+00 1.481408721816981799e+00 1.480741484261858698e+00 1.481669709561212800e+00 1.481319845691749570e+00 1.481017982671312794e+00 1.480193184733991751e+00 1.481059990774893365e+00 1.480673923796579583e+00 1.481124323144505706e+00 1.480601389925921385e+00 1.480822464031869012e+00 1.481039901406163484e+00 1.481180632947656228e+00 1.481340956613891535e+00 1.480798062232122181e+00 1.481127721180099721e+00 1.481298346337500460e+00 1.481450452154735808e+00 1.481232244256360353e+00 1.481121651294359909e+00 1.479997435525004290e+00 1.481800590141515439e+00 1.481562108401517808e+00 1.481597487979633643e+00 1.480991194820838963e+00 1.481219001638353294e+00 1.481602606606186923e+00 1.480681081110922115e+00 1.481083119568701312e+00 1.481117114406582225e+00 1.481357455495335262e+00 1.480910793879673282e+00 1.480794350229129419e+00 1.481153137239399120e+00 1.480785665072630986e+00 1.480495190775330538e+00 1.481006718316143500e+00 1.480204616183507182e+00 1.481279813718231475e+00 1.480841086914589821e+00 1.481814658209499758e+00 1.481209369661186992e+00 1.481448239873353501e+00 1.481132263459299825e+00 1.480744044009062454e+00 1.481363397599776643e+00 1.481029601975517807e+00 1.481179992138908164e+00 1.481340099321531101e+00 1.480695354094991867e+00 1.480901742857554382e+00 1.481694832284018659e+00 1.480949986831779697e+00 1.480969463377062700e+00 1.481169755224887030e+00 1.481128889253517267e+00 1.480573304706681359e+00 1.481113421260205731e+00 1.480748959770624928e+00 1.480951478849147573e+00 1.481176881407975321e+00 1.480687078937572343e+00 1.481128572965946910e+00 1.480913940232372328e+00 1.481047732593317123e+00 1.481301364921590036e+00 1.481217437652600610e+00 1.481271746091488151e+00 1.480317164756575377e+00 1.481390124066750191e+00 1.481380383571779147e+00 1.481045434533625027e+00 1.481161126942275086e+00 1.480158944902294271e+00 1.481257802463304518e+00 1.480996628380888858e+00 1.480813097941472867e+00 1.481375766115567760e+00 1.480913496867293455e+00 1.480721305712867419e+00 1.481263664044183193e+00 1.481544269003601810e+00 1.481412732968465207e+00 1.480809889884902919e+00 1.480647731825760038e+00 1.481015186829988339e+00 1.480839362853827224e+00 1.480984509327743615e+00 1.481074830036506418e+00 1.481403248186765609e+00 1.481287545119378990e+00 1.481617187020832338e+00 1.480721236694267251e+00 1.480100964167273325e+00 1.480578004852166618e+00 1.480968974410203920e+00 1.481624884210839710e+00 1.481390310061974525e+00 1.481183693783718613e+00 1.481313301290812179e+00 1.480959174342284079e+00 1.480930381987489719e+00 1.481150435489650530e+00 1.480746836051985094e+00 1.480856463514004240e+00 1.480314736013955468e+00 1.481057567037365574e+00 1.480056610080485280e+00 1.481523327865764017e+00 1.481319121098556124e+00 1.481723498683675366e+00 1.481258773577706966e+00 1.481520365372405168e+00 1.480425272548830939e+00 1.481304003066210573e+00 1.481573627244912039e+00 1.481163134856276598e+00 1.481276239017314644e+00 1.480852338124508671e+00 1.481130128937563351e+00 1.480899004503487770e+00 1.480323265646655395e+00 1.480787611721379404e+00 1.481263540889436126e+00 1.480872953602151432e+00 1.481180957059538228e+00 1.481048132692157626e+00 1.481640878798284433e+00 1.481044135945388751e+00 1.481094990844827874e+00 1.481245433779559084e+00 1.481848176086155489e+00 1.480967607116623341e+00 1.481117811380252780e+00 1.481575324247431213e+00 1.481354577364285996e+00 1.481292109580148786e+00 1.481090730597936833e+00 1.481624687773175353e+00 1.481508956525700249e+00 1.481588640658962230e+00 1.481609450238873027e+00 1.481111055758415507e+00 1.480166464328585230e+00 1.481452965928826915e+00 1.480976549193723013e+00 1.481381523437493408e+00 1.481658711694594732e+00 1.480946784537705785e+00 1.480477252152220480e+00 1.481129982361506281e+00 1.481395457299094609e+00 1.481203232442060980e+00 1.481375573190948369e+00 1.480842836221475167e+00 1.481178616978119589e+00 1.481305604899866735e+00 1.481128066926962417e+00 1.480938811957296153e+00 1.481383883109919308e+00 1.481269713391942577e+00 1.480765671515241744e+00 1.480853025724439442e+00 1.480949274957272799e+00 1.480840448414084687e+00 1.481219821079182486e+00 1.481228380807295464e+00 1.481035634315726046e+00 1.480459564703320519e+00 1.480060716694546974e+00 1.481186683780371327e+00 1.481474452624055971e+00 1.480845113510412814e+00 1.481218725957957005e+00 1.481238499517113061e+00 1.482003984969660459e+00 1.481581819374307774e+00 1.481360075437792245e+00 1.480538028545433260e+00 1.481063918568964466e+00
1.000000000000000000e+00 1.199999991079100242e-02 9.841699138583739730e-05 1.200000000000000025e-02 1.199840916358423278e-02 1.199661794415886502e-02 1.200541446566352581e-02 1.199706149770878028e-02 1.200846772278370451e-02 1.199782359743243806e-02 1.201273758332568019e-02 1.198975395006993648e-02 1.200280022177751052e-02 1.200433188543073570e-02 1.200396927002465863e-02 1.200396596592660792e-02 1.200417571448340881e-02 1.201481220864097053e-02 1.199731653607261431e-02 1.199679359470560633e-02 1.200259519475965937e-02 1.199323808859280305e-02 1.199811889334625320e-02 1.199706127837547875e-02 1.199457494862217824e-02 1.200225688437241665e-02 1.199557097562630945e-02 1.200169129318071071e-02 1.200930287196434396e-02 1.200438951298189033e-02 1.200515757131082571e-02 1.199846438342460145e-02 1.200754313562645351e-02 1.199315638994833885e-02 1.198730877298284647e-02 1.198231244988190967e-02 1.200204137279596746e-02 1.199848747125149655e-02 1.198510927492963361e-02 1.199438867721625522e-02 1.199461351991272517e-02 1.199344146844601340e-02 1.200062256324618132e-02 1.199376155303425590e-02 1.199054245741850919e-02 1.200722553317236027e-02 1.200975394371877648e-02 1.200530565556158849e-02 1.199234696799373820e-02 1.199884285133085045e-02 1.199199651725452176e-02 1.200691734315017037e-02 1.200460293926179298e-02 1.199822364486922109e-02 1.199733360716649135e-02 1.199886557140481674e-02 1.199363558415960512e-02 1.199546078880719784e-02 1.199154210514984283e-02 1.199202903726278267e-02 1.200326359547420133e-02 1.200298186467714523e-02 1.199865483419849943e-02 1.199892334853955994e-02 1.199823438692425651e-02 1.199677952751589984e-02 1.200213607181922423e-02 1.200253369477118776e-02 1.199343584463613555e-02 1.197557864687622334e-02 1.200144333567508895e-02 1.200114287263037358e-02 1.200075600447932100e-02 1.200141041092017864e-02 1.199842552832287509e-02 1.199803720633795499e-02 1.199068143336133249e-02 1.200596744308508358e-02 1.200614001615343471e-02 1.200541437881539990e-02 1.199236292708289429e-02 1.199441918576872601e-02 1.199522449817701231e-02 1.199076201449808012e-02 1.198435865815636325e-02 1.200202047539708321e-02 1.200489940184465074e-02 1.200124950700445781e-02 1.200801135898710292e-02 1.201337008924994662e-02 1.200381563746114044e-02 1.200584366582174191e-02 1.199786394473626588e-02 1.198922505770664247e-02 1.199866128178589050e-02 1.199615224298921680e-02 1.200204079441704805e-02 1.201272719409164288e-02 1.199662613495751720e-02 1.200580887034772420e-02 1.200833191567616046e-02 1.200911293973980914e-02 1.201144894197014867e-02 1.200536638805506547e-02 1.200355153684709054e-02 1.199343779916207768e-02 1.200242113024246708e-02 1.200100174121597127e-02 1.199350557406241198e-02 1.200137823587757793e-02 1.199444111477418647e-02 1.200534668586970659e-02 1.200439387661287986e-02 1.200721804619273372e-02 1.200039941554908486e-02 1.200326609294534268e-02 1.199830229319308328e-02 1.198624727628667432e-02 1.200595691541958381e-02 1.200847197517285539e-02 1.199846990970736965e-02 1.200316959499963393e-02 1.198872963686960919e-02 1.199672796530946821e-02 1.199455736959754298e-02 1.200077766912123305e-02 1.200749044295038211e-02 1.201093342163343618e-02 1.201523525990980286e-02 1.200745118448919707e-02 1.200280902823301632e-02 1.200125577021281600e-02 1.198553058717944514e-02 1.199877083416723070e-02 1.199635742871882349e-02 1.198848435822705803e-02 1.200013813162084143e-02 1.201183628504324044e-02 1.199895501203264436e-02 1.199981288740025603e-02 1.200358899692537812e-02 1.199684519826417148e-02 1.199329550899598529e-02 1.200488299180293809e-02 1.200309072590518070e-02 1.200969520153127856e-02 1.200647630621589496e-02 1.199427451906072070e-02 1.200175694202242418e-02 1.199192621277760974e-02 1.199621779166301118e-02 1.198899851430793376e-02 1.200490509092940611e-02 1.200335864331222510e-02 1.198849395299216025e-02 1.200454067352560439e-02 1.199634625047364331e-02 1.200241265921698705e-02 1.200525592638657102e-02 1.201011706017627093e-02 1.199867208200931790e-02 1.199977894190974378e-02 1.198816642599323176e-02 1.199502346776646668e-02 1.199918933765723242e-02 1.199527584547457719e-02 1.199907324642080116e-02 1.199389539677651190e-02 1.199364477381945938e-02 1.200648483695821930e-02 1.199397552404058223e-02 1.199508626441411936e-02 1.200720951427959073e-02 1.199772162952394451e-02 1.200471315834571520e-02 1.200118333877208190e-02 1.200196369750070394e-02 1.199810196194311604e-02 1.199492412756617520e-02 1.199760212427380957e-02 1.200717403663683659e-02 1.200447333829801275e-02 1.200236324438927644e-02 1.201062255626634927e-02 1.200698554746686478e-02 1.200340059189618919e-02 1.200002571176137997e-02 1.201141817267737354e-02 1.200289355091811554e-02 1.200296462916883647e-02 1.200312637574290145e-02 1.199697177562365248e-02 1.199336522755991598e-02 1.200421168695460158e-02 1.200710145033098177e-02 1.200131427703746666e-02 1.200033945831547808e-02 1.200519725465116344e-02 1.199782734208815378e-02 1.199126791562391339e-02 1.200228197151513056e-02 1.200884788630534120e-02 1.200678175198492334e-02 1.200027961395879091e-02 1.199618193417374516e-02 1.200044794221746293e-02 1.199814809467676484e-02 1.199344928072897977e-02 1.200793624839715558e-02 1.200788483331655630e-02 1.200285913523495632e-02 1.199559826004457409e-02 1.199463691052761460e-02 1.199506392767107736e-02 1.200460760614360106e-02 1.201192839738758102e-02 1.201128704624465117e-02 1.199800947920935494e-02 1.197949260427939693e-02 1.199805308030251275e-02 1.199549245889115420e-02 1.200074950388597787e-02 1.199651386215309402e-02 1.199549802821299298e-02 1.200139137803645645e-02 1.200070234373074203e-02 1.200742759625619133e-02 1.199753589503004501e-02 1.199692328962837645e-02
2.000000000000000000e+00 8.799999934580068905e-02 7.217246034961500569e-04 8.799999999999999489e-02 8.798833386628437947e-02 8.797519825716501596e-02 8.803970608153252608e-02 8.797845098319773127e-02 8.806209663374715835e-02 8.798403971450452499e-02 8.809340894438832947e-02 8.792486230051285712e-02 8.802053495970174612e-02 8.803176715982539979e-02 8.802910798018083460e-02 8.802908375012846731e-02 8.803062190621166461e-02 8.810862286336712534e-02 8.798032126453250723e-02 8.797648636117444410e-02 8.801903142823749859e-02 8.795041264968053718e-02 8.798620521787252347e-02 8.797844937475350624e-02 8.796021628989597607e-02 8.801655048539772097e-02 8.796752048792626233e-02 8.801240281665853593e-02 8.806822106107183024e-02 8.803218976186719114e-02 8.803782218961271611e-02 8.798873881178038980e-02 8.805531632792733265e-02 8.794981352628780669e-02 8.790693100187420284e-02 8.787029129913401237e-02 8.801497006717043381e-02 8.798890812251097815e-02 8.789080134948397405e-02 8.795885029958587509e-02 8.796049914602664666e-02 8.795190410193742814e-02 8.800456546380532041e-02 8.795425138891788119e-02 8.793064468773573172e-02 8.805298724326397763e-02 8.807152892060435279e-02 8.803890814078497995e-02 8.794387776528742040e-02 8.799151424309289982e-02 8.794130779319982161e-02 8.805072718310125168e-02 8.803375488791981285e-02 8.798697339570762943e-02 8.798044645255427565e-02 8.799168085696867925e-02 8.795332761717043757e-02 8.796671245125278760e-02 8.793797543776550596e-02 8.794154627326040974e-02 8.802393303347748332e-02 8.802186700763239835e-02 8.799013545078901433e-02 8.799210455595678215e-02 8.798705217077787410e-02 8.797638320178326199e-02 8.801566452667430873e-02 8.801858042832204354e-02 8.795186286066498937e-02 8.782091007709230679e-02 8.801058446161734439e-02 8.800838106595607058e-02 8.800554403284835403e-02 8.801034301341463528e-02 8.798845387436775300e-02 8.798560617981165954e-02 8.793166384464977392e-02 8.804376124929061409e-02 8.804502678512519942e-02 8.803970544464627401e-02 8.794399479860788571e-02 8.795907402897065741e-02 8.796497965329809487e-02 8.793225477298592663e-02 8.788529682647999719e-02 8.801481681957860903e-02 8.803592894686078363e-02 8.800916305136602391e-02 8.805874996590541681e-02 8.809804732116627290e-02 8.802798134138169195e-02 8.804285354935943719e-02 8.798433559473262111e-02 8.792098375651535846e-02 8.799018273309652804e-02 8.797178311525424843e-02 8.801496582572501670e-02 8.809333275667205476e-02 8.797525832302179050e-02 8.804259838254997750e-02 8.806110071495851233e-02 8.806682822475860040e-02 8.808395890778107640e-02 8.803935351240381457e-02 8.802604460354532256e-02 8.795187719385523517e-02 8.801775495511143799e-02 8.800734610225045829e-02 8.795237420979101772e-02 8.801010706310223586e-02 8.795923484167736395e-02 8.803920902971117124e-02 8.803222176182778913e-02 8.805293233874672554e-02 8.800292904735995680e-02 8.802395134826584977e-02 8.798755015008259683e-02 8.789914669276895076e-02 8.804368404641027546e-02 8.806212781793426592e-02 8.798877933785405336e-02 8.802324369666397752e-02 8.791735067037714790e-02 8.797600507893610366e-02 8.796008737704863467e-02 8.800570290688904118e-02 8.805492991496946531e-02 8.808017842531186414e-02 8.811172523933856471e-02 8.805464201958744519e-02 8.802059954037544376e-02 8.800920898156064376e-02 8.789389097264926898e-02 8.799098611722634689e-02 8.797328781060470559e-02 8.791555196033175312e-02 8.800101296521950500e-02 8.808679942365044147e-02 8.799233675490605866e-02 8.799862784093519241e-02 8.802631931078611083e-02 8.797686478727059778e-02 8.795083373263722082e-02 8.803580860655488283e-02 8.802266532330466076e-02 8.807109814456270946e-02 8.804749291224989172e-02 8.795801313977862079e-02 8.801288424149777967e-02 8.794079222703581056e-02 8.797226380552874980e-02 8.791932243825817395e-02 8.803597066681564942e-02 8.802463005095631510e-02 8.791562232194249926e-02 8.803329827252109885e-02 8.797320583680671990e-02 8.801769283425792123e-02 8.803854346016819210e-02 8.807419177462598447e-02 8.799026193473499791e-02 8.799837890733810952e-02 8.791322045728369727e-02 8.796350543028742808e-02 8.799405514281971596e-02 8.796535620014689361e-02 8.799320380708587630e-02 8.795523290969442520e-02 8.795339500800936072e-02 8.804755547102693924e-02 8.795582050963093868e-02 8.796396593903686723e-02 8.805286977138367110e-02 8.798329194984225166e-02 8.803456316120192304e-02 8.800867781766193165e-02 8.801440044833849785e-02 8.798608105424951531e-02 8.796277693548529286e-02 8.798241557800794144e-02 8.805260960200347875e-02 8.803280448085208654e-02 8.801733045885469509e-02 8.807789874595323143e-02 8.805122734809034402e-02 8.802493767390538737e-02 8.800018855291680264e-02 8.808373326630074274e-02 8.802121937339951740e-02 8.802174061390480309e-02 8.802292675544794165e-02 8.797779302124011935e-02 8.795134500210605166e-02 8.803088570433374727e-02 8.805207730242720077e-02 8.800963803160809229e-02 8.800248936098017949e-02 8.803811320077520319e-02 8.798406717531313814e-02 8.793596471457537644e-02 8.801673445777762061e-02 8.806488449957251829e-02 8.804973284788944476e-02 8.800205050236446780e-02 8.797200085060746799e-02 8.800328490959472005e-02 8.798641936096293636e-02 8.795196139201252872e-02 8.805819915491247540e-02 8.805782211098807377e-02 8.802096699172301530e-02 8.796772057366021580e-02 8.796067067720250710e-02 8.796380213625455691e-02 8.803378911171974575e-02 8.808747491417559528e-02 8.808277167246077177e-02 8.798540284753526841e-02 8.784961243138225684e-02 8.798572258888509579e-02 8.796694469853512388e-02 8.800549636183051250e-02 8.797443498912269066e-02 8.796698554022860939e-02 8.801020343893400932e-02 8.800515052069211863e-02 8.805446903921207435e-02 8.798192989688699561e-02 8.797743745727475140e-02
3.000000000000000000e+00 4.598981039886273492e-01 6.262439180612726884e-03 4.600000000000000200e-01 4.599390179373956111e-01 4.598703545260898196e-01 4.602075545171018245e-01 4.598873574121699059e-01 4.583231847529113390e-01 4.599165712349100876e-01 4.584861510969301390e-01 4.596072347526808932e-01 4.601073418348045618e-01 4.601660556081781928e-01 4.601521553509452245e-01 4.601520286938532989e-01 4.601600690551973516e-01 4.585653326297970400e-01 4.598971338827835265e-01 4.598770877970482229e-01 4.600994824657869686e-01 4.597407933960574455e-01 4.599278909116063518e-01 4.598873490043933754e-01 4.597920396971835189e-01 4.600865139009426286e-01 4.598302207323418100e-01 4.600648329052605678e-01 4.603566100919664339e-01 4.601682646643057706e-01 4.601977069002483045e-01 4.599411346979429549e-01 4.602891535323473948e-01 4.597376616146863215e-01 4.595135029643424573e-01 4.593219772454732452e-01 4.600782526238454406e-01 4.599420197313073833e-01 4.594291888723026074e-01 4.597848992932898060e-01 4.597935182633211548e-01 4.597485896237638592e-01 4.600238649244369205e-01 4.597608595329798487e-01 4.596374608677095130e-01 4.602769787716071703e-01 4.603739011758864463e-01 4.602033834631942266e-01 4.597066337730933427e-01 4.599556426343492377e-01 4.596931998280899823e-01 4.602651648207565782e-01 4.601764460050354333e-01 4.599319063866534885e-01 4.598977882747155022e-01 4.599565135705179775e-01 4.597560307261182033e-01 4.598259969042759465e-01 4.596757806974106075e-01 4.596944464284066778e-01 4.601251044931777834e-01 4.601143048126238866e-01 4.599484353109424828e-01 4.599587283606831889e-01 4.599323181654297876e-01 4.598765485547761656e-01 4.600818827530702704e-01 4.600971249662288431e-01 4.597483740443851774e-01 4.610597779047345690e-01 4.600553278675451607e-01 4.600438101174976757e-01 4.600289801717072913e-01 4.600540657519401333e-01 4.599396452523769052e-01 4.599247595762882557e-01 4.596427882788510777e-01 4.602287519849281860e-01 4.602353672858817690e-01 4.602075511879236691e-01 4.597072455381776002e-01 4.597860687878011499e-01 4.598169390967854486e-01 4.596458772224263911e-01 4.594004152293272303e-01 4.600774515568881728e-01 4.601878104040449946e-01 4.600478977685041881e-01 4.603071020945056491e-01 4.585102917397063105e-01 4.601462661026770595e-01 4.602240071898334728e-01 4.599181178815568982e-01 4.595869605454213080e-01 4.599486824684591024e-01 4.598525026479199918e-01 4.600782304526535027e-01 4.584857545744976948e-01 4.598706685067048272e-01 4.602226733633293931e-01 4.583180014483067555e-01 4.603493293566927047e-01 4.604388761088556437e-01 4.602057115421108735e-01 4.601361422458051242e-01 4.597484489678796415e-01 4.600928099926279158e-01 4.600384000799456197e-01 4.597510470057257770e-01 4.600528323753071414e-01 4.597869093996771461e-01 4.602049562916720737e-01 4.601684319368271048e-01 4.602766917707215022e-01 4.600153109293815823e-01 4.601252002295714849e-01 4.599349212390681507e-01 4.594728122576558493e-01 4.602283484244173994e-01 4.603247590482927865e-01 4.599413465387825473e-01 4.601215011416526224e-01 4.595679694133349980e-01 4.598745720035296025e-01 4.597913658345724186e-01 4.600298106496473194e-01 4.602871336464313123e-01 4.604191144959484117e-01 4.585814790865574975e-01 4.602856287387525058e-01 4.601076794155989358e-01 4.600481378581579572e-01 4.594453391752120752e-01 4.599528819764104881e-01 4.598603681008882060e-01 4.595585670653705712e-01 4.600052950454656120e-01 4.594527379029039738e-01 4.599599421279180200e-01 4.599928273503430809e-01 4.601375782154728533e-01 4.598790659334599518e-01 4.597429945115127370e-01 4.601871813524459620e-01 4.601184778263652797e-01 4.583700335251104652e-01 4.602482584049426562e-01 4.597805232306609868e-01 4.600673494441929745e-01 4.596905048231417212e-01 4.598550153470821189e-01 4.595782763818040961e-01 4.601880284856272318e-01 4.601287479936352898e-01 4.595589348646994532e-01 4.601740591518148071e-01 4.598599396014896867e-01 4.600924852699845857e-01 4.602014771781519076e-01 4.583861344633943236e-01 4.599490964770238111e-01 4.599915261065401495e-01 4.595463796630738784e-01 4.598092329310479176e-01 4.599689246101939522e-01 4.598189074098588125e-01 4.599644744461307000e-01 4.597659902097662732e-01 4.597563829964125826e-01 4.602485854167317481e-01 4.597690617548889636e-01 4.598116401358745553e-01 4.602763647140509784e-01 4.599126624650845541e-01 4.601806710699191116e-01 4.600453613195964464e-01 4.600752750708603234e-01 4.599272418744860813e-01 4.598054248900367291e-01 4.599080814304960518e-01 4.582738090649726148e-01 4.601714779680904366e-01 4.600905910349222805e-01 4.604071979902100709e-01 4.602677793195631417e-01 4.601303560226872591e-01 4.600009856175196199e-01 4.584357935905197801e-01 4.601109194518611112e-01 4.601136441181387648e-01 4.601198444034779178e-01 4.598839180655733272e-01 4.597456670564634695e-01 4.601614479999264207e-01 4.602722222626876580e-01 4.600503806197695500e-01 4.600130125687599825e-01 4.601992280949612768e-01 4.599167147800459210e-01 4.596652700989167228e-01 4.600874755747466627e-01 4.603391689750381821e-01 4.602599671594220787e-01 4.600107185350870154e-01 4.598536408099935802e-01 4.600171711183360657e-01 4.599290102959426307e-01 4.597488890946109241e-01 4.603042228552243209e-01 4.603022519438013105e-01 4.601096001840066507e-01 4.598312666350420352e-01 4.597944149035584904e-01 4.598107838940579395e-01 4.601766249021713717e-01 4.584552671669593349e-01 4.604326701060449389e-01 4.599236967030252976e-01 4.592138831640436014e-01 4.599253680782630083e-01 4.598272109241609007e-01 4.600287309822958526e-01 4.598663647158686141e-01 4.598274244148313761e-01 4.600533361580641523e-01 4.600269231763451372e-01 4.602847245231539985e-01 4.599055426428184101e-01 4.598820594357543867e-01
4.000000000000000000e+00 1.841043657005944301e+00 8.867324133767706326e-03 1.842000000000000082e+00 1.841755806610180013e+00 1.841480854428385827e+00 1.840830218068407298e+00 1.841548939898297821e+00 1.841298384160168000e+00 1.841665922205879102e+00 1.841953096109937738e+00 1.840427231335735270e+00 1.842429834042847769e+00 1.840664222432712771e+00 1.840608621403780898e+00 1.840608114775413195e+00 1.840640276220789406e+00 1.840268736623508650e+00 1.841588088287146263e+00 1.841507816787310681e+00 1.840397929863147874e+00 1.840962046598995094e+00 1.841711250128649890e+00 1.841548906230636051e+00 1.841167254613504500e+00 1.840346055603770514e+00 1.841320144758638477e+00 1.840259331621042271e+00 1.841426440367865958e+00 1.840673058657223082e+00 1.840790827600993218e+00 1.841764282855675949e+00 1.841156614129389357e+00 1.840949505857069957e+00 1.842049781448364065e+00 1.841282013131853468e+00 1.840313010495381763e+00 1.841767826837104716e+00 1.841711791914186991e+00 1.841138661952695266e+00 1.841173175306603405e+00 1.840993265406463131e+00 1.840095459697747682e+00 1.841042398390758450e+00 1.840548267213740985e+00 1.841107915086428681e+00 1.841495604703545785e+00 1.840813533852776906e+00 1.840825259587038687e+00 1.841822377679285472e+00 1.840771465398569173e+00 1.841060659283026313e+00 1.840705784020141733e+00 1.841727329487425457e+00 1.841590708700056478e+00 1.841825865210639179e+00 1.841023062168499536e+00 1.841303231081905079e+00 1.840701713140500795e+00 1.840776457219837292e+00 1.840500417972711134e+00 1.840457219250495546e+00 1.841793517049469919e+00 1.841834734000822538e+00 1.839729272661719151e+00 1.841505657473690327e+00 1.840327531012281082e+00 1.840388499864915595e+00 1.840992402151646612e+00 1.840247252069979522e+00 1.840221311470180643e+00 1.842175430948762349e+00 1.840115920686829165e+00 1.840216263007760533e+00 1.841758318597561450e+00 1.841698711172875980e+00 1.840569600020964591e+00 1.840915007939712744e+00 1.840941469143527076e+00 1.840830204751694676e+00 1.840827709307224280e+00 1.841143345015499255e+00 1.841266960470171465e+00 1.840581969225455250e+00 1.841596447136694348e+00 1.840309806227552691e+00 1.840751241616179978e+00 1.840191591074016753e+00 1.841228408378022596e+00 1.840047852003450224e+00 1.840585064410708238e+00 1.840896028759333891e+00 1.841672115517017039e+00 1.840346046357969723e+00 1.841794506754134142e+00 1.841409369298844689e+00 1.840312921810614011e+00 1.841951503094051867e+00 1.841482111715979197e+00 1.840890693453317573e+00 1.841277560403677960e+00 1.841397317426770819e+00 1.841755504435422353e+00 1.840822846168443494e+00 1.840544568983220497e+00 1.840992702171378781e+00 1.840371239970511663e+00 1.842153767276651699e+00 1.841003105618579827e+00 1.840211329501228565e+00 1.841146711117837675e+00 1.840819825166688073e+00 1.840673727747308419e+00 1.841106767082886009e+00 1.840061243717526107e+00 1.840500800918285940e+00 1.841739402005138082e+00 1.841886664789385675e+00 1.840913393697669598e+00 1.841299036193171146e+00 1.841765131140081335e+00 1.840486004566610490e+00 1.840269999259485090e+00 1.841497742675003435e+00 1.841164556233222616e+00 1.842119372210109463e+00 1.841148534585725249e+00 1.841676457983793647e+00 1.840333533976184821e+00 1.841142514955010023e+00 1.840430717662395743e+00 1.840192551432631829e+00 1.841776533563241447e+00 1.839811527905641952e+00 1.841440865308339392e+00 1.842230429714224460e+00 1.840021180181862448e+00 1.841814897039963705e+00 1.841839594347010944e+00 1.841971278215938979e+00 1.840550312861891413e+00 1.841515737933550501e+00 1.840970860630883665e+00 1.840748725409783848e+00 1.840473911305461119e+00 1.841486597568129380e+00 1.840993033619770625e+00 1.841121138675820612e+00 1.840269397776771898e+00 1.840760673661363089e+00 1.841419431020272279e+00 1.840311271946267757e+00 1.840752113942508927e+00 1.840514991974541159e+00 1.840233821784296397e+00 1.840696236607259229e+00 1.841439149447704704e+00 1.840369941079938343e+00 1.840805908712607630e+00 1.841551282560361491e+00 1.841796164588430207e+00 1.839966104426160598e+00 1.842181574127626620e+00 1.841236102302152844e+00 1.839875698440775587e+00 1.841274842280347546e+00 1.841857743325592933e+00 1.841062943405194607e+00 1.841024472781287002e+00 1.840994341666926992e+00 1.841075242940229284e+00 1.841245741587567375e+00 1.841105458856203914e+00 1.841650270131925726e+00 1.840722684279676447e+00 1.840181445278385786e+00 1.840301100283441293e+00 1.841708651158268317e+00 1.841220853581408079e+00 1.841631926076030101e+00 1.841100018950981632e+00 1.840685911872361746e+00 1.840362364139689122e+00 1.841628791960840283e+00 1.841071117278252567e+00 1.840521424090749036e+00 1.840003942470078480e+00 1.841750786477197366e+00 1.840443677807444445e+00 1.840454576472554837e+00 1.840479377613911671e+00 1.841535167558230546e+00 1.840981562430447083e+00 1.840645791999705683e+00 1.841088889050750854e+00 1.840201522479078200e+00 1.840052050275039930e+00 1.840796912379845107e+00 1.841666497010531645e+00 1.840659625048270964e+00 1.840349902298986873e+00 1.841356675900152728e+00 1.841039868637688315e+00 1.842042920742674506e+00 1.841413926895669739e+00 1.840068684473344263e+00 1.841715732532883454e+00 1.840994464591898527e+00 1.841216891420897284e+00 1.841209007775205242e+00 1.840438400736026603e+00 1.841324332916842277e+00 1.841176765765988321e+00 1.841242312897510169e+00 1.840706499608685487e+00 1.841829020932762573e+00 1.841730680424179756e+00 1.841694455058636049e+00 1.840848696857600775e+00 1.841701147826435569e+00 1.841308092439791988e+00 1.842115048846497682e+00 1.841464877840499836e+00 1.841308947330694501e+00 1.840213344632256609e+00 1.840107692705380549e+00 1.841138898092615994e+00 1.841621759887111853e+00 1.841527724957955581e+00
5.000000000000000000e+00 5.167592242044499962e+00 1.956112920896520280e-02 5.168000000000000149e+00 5.169314614644207495e+00 5.168542897608443987e+00 5.166330025057203734e+00 5.166734485013249056e+00 5.169645354658384484e+00 5.167062695960902730e+00 5.169481406691151193e+00 5.165585660155130654e+00 5.165205028771588047e+00 5.165864154697026756e+00 5.167708770745615077e+00 5.167707348331404660e+00 5.167797645085107305e+00 5.166369249715617507e+00 5.168843874291284557e+00 5.168618573718998910e+00 5.169117663876493296e+00 5.167086743168732177e+00 5.169189556550010778e+00 5.168733900766769196e+00 5.167662707031388969e+00 5.168971964869720992e+00 5.168091828665668075e+00 5.168728383596492115e+00 5.168003335901989459e+00 5.167889685338703742e+00 5.168220334449310727e+00 5.167338661128193955e+00 5.169247319887188219e+00 5.167051544669408969e+00 5.166530081155606524e+00 5.166373717974083846e+00 5.166878810988664306e+00 5.167348604285645131e+00 5.165582097494671565e+00 5.165583390321134338e+00 5.169678427082384786e+00 5.167174365988824292e+00 5.168268117238021375e+00 5.169311229357764326e+00 5.167923799147377650e+00 5.169110592030701667e+00 5.168197447113646703e+00 5.166283200443336554e+00 5.166702818710636080e+00 5.169501461781707441e+00 5.166551832850490023e+00 5.168977916226149105e+00 5.167981565352201656e+00 5.167234983057011455e+00 5.166851673486369201e+00 5.167511439418341013e+00 5.167257997508763800e+00 5.168044356511101611e+00 5.168354647319581829e+00 5.166565843554049131e+00 5.165404433919065674e+00 5.167283692743510848e+00 5.169420457733853169e+00 5.168936196494940738e+00 5.167239609302046510e+00 5.168612513104767103e+00 5.168919934930145565e+00 5.169091177881457888e+00 5.167171943064068351e+00 5.165466256352610586e+00 5.170621837120018327e+00 5.170492387624918251e+00 5.170325711929840473e+00 5.166607181901136769e+00 5.167971842247076175e+00 5.171154035931658122e+00 5.165985250873173840e+00 5.166567989674280881e+00 5.166642253618029201e+00 5.168330890080030215e+00 5.166709694418212706e+00 5.165596529337730836e+00 5.167942554631262730e+00 5.166019967912922617e+00 5.165258581665391979e+00 5.166869814658443971e+00 5.168109192494122262e+00 5.168538121016585052e+00 5.167447554817449884e+00 5.167751366725685358e+00 5.167642631927020780e+00 5.168515698136260106e+00 5.167080072199752294e+00 5.167355999871563021e+00 5.168423347129271761e+00 5.168342258021187519e+00 5.166878561996538721e+00 5.167474814658421955e+00 5.166546988788370598e+00 5.166499750539637503e+00 5.167585501045975249e+00 5.167921601734698278e+00 5.166924953204158122e+00 5.166309335659696522e+00 5.167528936612672652e+00 5.167172785138994584e+00 5.167042296569381854e+00 5.168431416550344437e+00 5.167201984825221750e+00 5.166593330545296681e+00 5.165605973429416409e+00 5.168301748266908469e+00 5.167891563881845229e+00 5.167106165878273316e+00 5.168172014963139382e+00 5.167406053012969736e+00 5.167268854268487033e+00 5.166072576079557166e+00 5.168564452088130423e+00 5.167645773316051461e+00 5.167341041113973965e+00 5.167364510647342257e+00 5.165044445804256590e+00 5.168590298387496063e+00 5.166255768375247470e+00 5.166334786556690872e+00 5.167223387282981584e+00 5.166703193539316175e+00 5.168553700971200371e+00 5.167206493058517758e+00 5.169209754825685899e+00 5.168540818371652357e+00 5.165763683074341195e+00 5.165470844108992488e+00 5.166431265968239650e+00 5.167036758395862073e+00 5.166059465662772965e+00 5.167091575282768190e+00 5.169549784350730981e+00 5.167919416840375035e+00 5.169545661342529463e+00 5.166641332052436475e+00 5.165112599207604127e+00 5.166101314139197598e+00 5.167330557502180177e+00 5.170173784259215033e+00 5.166786970441573423e+00 5.167533271961993968e+00 5.167206429425700520e+00 5.166521543338353339e+00 5.166371128942870428e+00 5.167258359666718981e+00 5.168111641645109167e+00 5.165445336172027169e+00 5.165042811414122248e+00 5.165954003173851561e+00 5.164427060828903571e+00 5.169039051902783122e+00 5.168262676309418602e+00 5.168353708229188825e+00 5.167428109985346296e+00 5.167904797649129023e+00 5.164901701865416861e+00 5.167855944029386528e+00 5.169650739640657910e+00 5.167964676758630027e+00 5.169350742973661816e+00 5.167369933444547314e+00 5.167261956720550664e+00 5.166790641504353410e+00 5.163406463099470933e+00 5.166883408396381938e+00 5.167102494311651029e+00 5.167018781781645309e+00 5.168029014667831156e+00 5.166509427341381411e+00 5.168845699056969778e+00 5.167182578276834803e+00 5.167813144959760407e+00 5.168966915207966473e+00 5.169088422772158076e+00 5.167925772137293983e+00 5.167017376709583054e+00 5.168571240046619053e+00 5.169007278184484910e+00 5.167463954811309712e+00 5.168011073198567118e+00 5.170915523337609621e+00 5.169246155928734154e+00 5.169276766962045855e+00 5.167345904757318920e+00 5.166695844701919782e+00 5.165142624669137206e+00 5.167813131233956803e+00 5.167055990792432496e+00 5.166565796264629640e+00 5.169546232984576051e+00 5.168237418127326066e+00 5.165064670768950705e+00 5.168236471633907314e+00 5.168982769065848970e+00 5.167807540406732514e+00 5.168919544229510166e+00 5.168120420411585592e+00 5.168355049973189175e+00 5.168192913781654241e+00 5.167202446107459934e+00 5.167177731780736138e+00 5.169416554934975316e+00 5.167393106603891617e+00 5.167230857718648984e+00 5.168103583702537307e+00 5.167689402285646771e+00 5.167873375504955291e+00 5.167983574444820150e+00 5.167131198942890968e+00 5.168857192233947906e+00 5.167142749046162109e+00 5.165157894545133743e+00 5.169161202096999475e+00 5.168058001038938976e+00 5.166322661422913853e+00 5.168498055610958097e+00 5.170059650159799958e+00 5.170599452037373034e+00 5.168302476033373338e+00 5.167196342255580888e+00 5.164939202810434615e+00 5.168674450614891391e+00
6.000000000000000000e+00 3.116112459712663211e-03 2.973228939639569482e-05 3.129961848422496435e-03 3.115668402777777967e-03 3.115073623971193612e-03 3.117629565329218134e-03 3.115151320301783391e-03 3.118296682098765493e-03 3.115537122770919119e-03 3.119480881344307427e-03 3.113396454903978247e-03 3.116868677126200231e-03 3.117149991426611862e-03 3.117112482853223558e-03 3.117291988168724264e-03 3.117018711419753015e-03 3.119963134430726870e-03 3.115285279492455411e-03 3.115437992969821799e-03 3.116544495884773520e-03 3.114173418209876480e-03 3.115665723593964362e-03 3.115290637860082187e-03 3.114778913751714822e-03 3.116110468106995934e-03 3.114912872942386841e-03 3.116244427297667954e-03 3.118481545781892975e-03 3.117155349794238639e-03 3.117313421639231804e-03 3.115767532578875287e-03 3.118141289437585933e-03 3.114189493312757243e-03 3.112531078532235814e-03 3.111660343792867038e-03 3.116624871399176905e-03 3.115641610939643216e-03 3.112072938100137083e-03 3.114693179869684660e-03 3.114529749657064285e-03 3.114368998628257949e-03 3.116426611796982264e-03 3.114232360253772324e-03 3.113715277777777748e-03 3.117728695130315454e-03 3.118543167009601991e-03 3.117653677983539279e-03 3.113792974108367528e-03 3.115896133401920530e-03 3.113873349622770913e-03 3.117910879629629765e-03 3.117326817558298963e-03 3.115349579903978032e-03 3.115368334190671967e-03 3.115906850137174083e-03 3.114642275377229198e-03 3.114661029663923133e-03 3.114009987997256538e-03 3.114026063100137302e-03 3.116986561213991921e-03 3.116898148148148154e-03 3.115470143175582893e-03 3.115925604423868452e-03 3.115480859910836880e-03 3.115020040294924544e-03 3.116732038751714607e-03 3.116659700788751604e-03 3.114489561899862809e-03 3.109425904492455622e-03 3.116504308127572044e-03 3.116091713820301999e-03 3.116196201989026096e-03 3.116431970164609041e-03 3.115429955418381417e-03 3.115488897462277262e-03 3.113766182270233211e-03 3.117910879629629765e-03 3.117517039609053655e-03 3.118071630658436101e-03 3.113766182270233211e-03 3.114545824759945049e-03 3.114719971707818977e-03 3.113656335733881904e-03 3.111885395233195996e-03 3.116515024862825597e-03 3.117637602880658516e-03 3.116316765260630957e-03 3.118403849451303195e-03 3.119606802983539064e-03 3.117042824074074160e-03 3.117294667352537869e-03 3.115526406035665132e-03 3.113166045096022079e-03 3.115732703189300588e-03 3.115194187242798472e-03 3.116531099965706361e-03 3.119612161351165841e-03 3.114864647633744984e-03 3.118039480452675007e-03 3.118334190672153797e-03 3.118152006172839486e-03 3.119304055212619893e-03 3.117329496742112568e-03 3.116911544067215312e-03 3.114350244341563580e-03 3.116919581618655694e-03 3.116233710562414400e-03 3.114312735768175709e-03 3.116434649348422646e-03 3.114594050068586906e-03 3.117273233882030328e-03 3.117310742455418199e-03 3.117653677983539279e-03 3.115992584019204245e-03 3.116986561213991921e-03 3.115486218278463657e-03 3.112665037722908267e-03 3.117943029835390858e-03 3.118168081275720250e-03 3.115719307270232996e-03 3.116849922839506296e-03 3.113112461419753011e-03 3.115132566015089022e-03 3.114468128429355269e-03 3.116295331790123416e-03 3.118218985768175713e-03 3.118674447016460839e-03 3.119896154835391077e-03 3.118050197187928561e-03 3.116761509773662529e-03 3.116394461591220737e-03 3.112410515260630953e-03 3.115606781550068517e-03 3.114963777434842304e-03 3.112946352023319464e-03 3.116099751371741947e-03 3.118993269890260774e-03 3.115780928497942446e-03 3.116129222393689870e-03 3.117005315500685856e-03 3.115266525205761475e-03 3.114135909636488175e-03 3.117479531035665351e-03 3.116705246913580290e-03 3.118366340877914891e-03 3.117900162894375778e-03 3.114401148834019042e-03 3.116512345679012426e-03 3.113983196159122221e-03 3.115137924382716233e-03 3.113182120198902409e-03 3.117629565329218134e-03 3.116930298353909681e-03 3.112959747942386623e-03 3.117034786522633778e-03 3.115494255829904038e-03 3.116718642832647448e-03 3.117176783264746179e-03 3.119014703360768314e-03 3.115657686042523980e-03 3.115802361968449986e-03 3.112697187928669361e-03 3.114915552126200447e-03 3.115890775034293753e-03 3.114859289266117773e-03 3.115585348079560977e-03 3.114569937414266194e-03 3.114213605967078389e-03 3.118106460048010800e-03 3.114251114540466259e-03 3.114125192901234622e-03 3.118636938443072534e-03 3.115467463991769721e-03 3.117144633058985086e-03 3.116544495884773520e-03 3.116515024862825597e-03 3.115507651748971197e-03 3.114733367626886136e-03 3.115293317043895793e-03 3.118122535150891564e-03 3.117289308984910658e-03 3.116643625685870840e-03 3.119095078875171265e-03 3.117934992283950477e-03 3.116943694272976840e-03 3.116024734224965773e-03 3.118835198045267609e-03 3.116627550582990510e-03 3.116790980795610452e-03 3.116724001200274225e-03 3.115344221536351255e-03 3.114719971707818977e-03 3.116994598765432303e-03 3.118093064128943642e-03 3.116003300754458232e-03 3.116247106481481559e-03 3.117409872256515953e-03 3.115167395404663721e-03 3.113650977366255127e-03 3.116440007716049423e-03 3.118647655178326521e-03 3.117913558813442936e-03 3.116279256687242653e-03 3.114998606824417003e-03 3.116217635459533637e-03 3.115679119513031520e-03 3.114229681069958719e-03 3.118248456790123635e-03 3.118200231481481344e-03 3.117219650205761260e-03 3.114894118655692906e-03 3.114733367626886136e-03 3.114741405178326518e-03 3.117088370198902413e-03 3.119547860939643220e-03 3.118910215192043783e-03 3.115815757887517145e-03 3.110430598422496418e-03 3.115435313786008194e-03 3.114963777434842304e-03 3.116281935871056258e-03 3.114848572530864220e-03 3.115006644375857385e-03 3.116212277091906860e-03 3.115944358710562388e-03 3.117854616769547525e-03 3.115448709705075352e-03 3.115274562757201857e-03
