# vvf statistics with RF=500
# gcat file: /disk2/salam/Abacus/AbacusCosmos_720box_products/GCAT_derivative/AbacusCosmos_720box_planck_rockstar_halos_z0.100_Mr21_hod-LMcut-pos_real-9.gcat.rsd_zz.1pz0.100by100
# stats order in row: stdvvf,p2.5,p16,p50,p84,p97.5,rho
# columns: numbers, mean, sigma,All, jnrealizations
0.000000000000000000e+00 1.412638103753201646e+00 5.454150234899617609e-03 1.412638374649506146e+00 1.412993578420477458e+00 1.412264546465725967e+00 1.412602935309147600e+00 1.412861688004411809e+00 1.413012125493368965e+00 1.412659065170614570e+00 1.412725075716871892e+00 1.411617890934179442e+00 1.411513769206547142e+00 1.412311335454502270e+00 1.413398941842444412e+00 1.412936492789442333e+00 1.412704691473590124e+00 1.412566646013436955e+00 1.413140984569038139e+00 1.412863204888431090e+00 1.413040233564364589e+00 1.412584824539261374e+00 1.412863505963201538e+00 1.412934750389971184e+00 1.412745615702429181e+00 1.413270777037746395e+00 1.412490554309759228e+00 1.412697395832000380e+00 1.412557268645769470e+00 1.412797659058659727e+00 1.412952821741500387e+00 1.412547063948267567e+00 1.413090863197491220e+00 1.412215482919122911e+00 1.412579792975317883e+00 1.412001912566145378e+00 1.412885178858467539e+00 1.412836493698844009e+00 1.412218863217491682e+00 1.411850859461662555e+00 1.413016766059738583e+00 1.412817955507917222e+00 1.412608545836611995e+00 1.412871927634403058e+00 1.412506238599121833e+00 1.412825829723724613e+00 1.413023424036703002e+00 1.412218872458857799e+00 1.411978952077642901e+00 1.412800085228586688e+00 1.412419085439382771e+00 1.412858267651572630e+00 1.412593109959231708e+00 1.412518275662936862e+00 1.411609314891418610e+00 1.412784556620793941e+00 1.412495767212298858e+00 1.412754918866909515e+00 1.411990371160447788e+00 1.412471225686621867e+00 1.412402681056434073e+00 1.412591751486991898e+00 1.412753733905377507e+00 1.412242401538675862e+00 1.412893083977887043e+00 1.412802120339199163e+00 1.413063573069832879e+00 1.412840949564398096e+00 1.412719295360231220e+00 1.411732065537025349e+00 1.413184262332592089e+00 1.413054792570114904e+00 1.412937819816237228e+00 1.412627407847654615e+00 1.412708681566483326e+00 1.413268963362390274e+00 1.412391979151691013e+00 1.412747033423562115e+00 1.412646520796251748e+00 1.412850221744854418e+00 1.412579169849185412e+00 1.412220407923944432e+00 1.412592056820081599e+00 1.412311567533604206e+00 1.412281017712551767e+00 1.412497665661540003e+00 1.411618581167394915e+00 1.412872740192671284e+00 1.412396550709679843e+00 1.413136617599883627e+00 1.412549706736624611e+00 1.412915205258811646e+00 1.412608785421056723e+00 1.412182397930643818e+00 1.412912226481823019e+00 1.412653073155775818e+00 1.412678600411612972e+00 1.412952568492012340e+00 1.412181551070319729e+00 1.412119021585696022e+00 1.412897466532823998e+00 1.412786290372329834e+00 1.412807277577391663e+00 1.412660553762114857e+00 1.412676660394702299e+00 1.412053800921049262e+00 1.412420778354720685e+00 1.412390078300423957e+00 1.412767411367475301e+00 1.412828815384769232e+00 1.412591262541181836e+00 1.412711883678304581e+00 1.412477824344630761e+00 1.412827558164753139e+00 1.413084676206335377e+00 1.412660031928444582e+00 1.412863306338214997e+00 1.412145928041774523e+00 1.412978316954449642e+00 1.412969977203110350e+00 1.412802607321609116e+00 1.412498464017108102e+00 1.411971402908008599e+00 1.412584255850213077e+00 1.412455833904376901e+00 1.412466709354579297e+00 1.412847327638016681e+00 1.412401374214780292e+00 1.412375912436082848e+00 1.412896070442215324e+00 1.413175560275420128e+00 1.413060422581380760e+00 1.412597784426171676e+00 1.412641471861010523e+00 1.412737277953160175e+00 1.412520769682356514e+00 1.412467817616306132e+00 1.412698715763978985e+00 1.412690142446273445e+00 1.412898993519472679e+00 1.413209855214747845e+00 1.412159751809731079e+00 1.411628895360384606e+00 1.411850652341338108e+00 1.412368638392574205e+00 1.412963272263305869e+00 1.412977996606147757e+00 1.412885381176707922e+00 1.413055374058201474e+00 1.412477274860807652e+00 1.412628379885623175e+00 1.412780932951138491e+00 1.412531111968097441e+00 1.412389596655624802e+00 1.411903585579625586e+00 1.412356442436333515e+00 1.411419179751979947e+00 1.413004069951202535e+00 1.412790831514174394e+00 1.413299353788471713e+00 1.412758681736892008e+00 1.412939910670457211e+00 1.412140846773748626e+00 1.412627897629374241e+00 1.413142039510547843e+00 1.412720096330684960e+00 1.412798954718293087e+00 1.412549383925818525e+00 1.412567893840816824e+00 1.412493745246919286e+00 1.412045827018479471e+00 1.412290634867793049e+00 1.413041842015874350e+00 1.412510418336890838e+00 1.412854739378333946e+00 1.412605380192824001e+00 1.413194068268795123e+00 1.412518927630980858e+00 1.412535573721445781e+00 1.413081710379604727e+00 1.413148198231246155e+00 1.412625335016630457e+00 1.412303322808218686e+00 1.413034209129902186e+00 1.412993249117457051e+00 1.412868934990581193e+00 1.412650763091807926e+00 1.413297465840211542e+00 1.413209125063842775e+00 1.412975345265754967e+00 1.412868483982379519e+00 1.412643229270813316e+00 1.411789011205241362e+00 1.412854470998535339e+00 1.412586700520448435e+00 1.412944463572329612e+00 1.413144784443180368e+00 1.412680853590440266e+00 1.412175209520689867e+00 1.412533880076684678e+00 1.412876149648263580e+00 1.412710664533909366e+00 1.412921788193966188e+00 1.412627439434781085e+00 1.412743609452645099e+00 1.412639935001531066e+00 1.412456354224363997e+00 1.412344173299650896e+00 1.412689056413155786e+00 1.412823553199507254e+00 1.412490463356318227e+00 1.412594955968198729e+00 1.412497244861800727e+00 1.412459700613325930e+00 1.412989209560230108e+00 1.412457040128900276e+00 1.412494768882160301e+00 1.412504187537994893e+00 1.412011915456427458e+00 1.412500392941929972e+00 1.412893903022267361e+00 1.412232689840171140e+00 1.412716810425455494e+00 1.412750281076270875e+00 1.413296789976378198e+00 1.412942076843175521e+00 1.413195079106386753e+00 1.412085026071332239e+00 1.412595587567433197e+00
1.000000000000000000e+00 1.999999982472792232e-02 1.602698345987543576e-04 2.000000000000000042e-02 1.999498978382678593e-02 1.999461508115803893e-02 2.000842234703001377e-02 1.999668874892837622e-02 2.001135128262315072e-02 1.999583947803728820e-02 2.001928325883746765e-02 1.998854421926687941e-02 2.000405804876437613e-02 2.000565180528030007e-02 2.000673980792622153e-02 2.000726045870291139e-02 2.000508599135740473e-02 2.002632049255556948e-02 1.999885519501270678e-02 1.999335687026672706e-02 2.000481399465002530e-02 1.998802570093766509e-02 1.999830320884631030e-02 1.999204154185318938e-02 1.998939964042505818e-02 2.000091465568043514e-02 1.999222120943525832e-02 2.000236333987440163e-02 2.001525358085037148e-02 2.000666258351582044e-02 2.000830204483217134e-02 1.999668835567626132e-02 2.001549411639963125e-02 1.999039638555181672e-02 1.997812252455940032e-02 1.997531218461875979e-02 2.000287140727551038e-02 1.999588125810587355e-02 1.997624935883187194e-02 1.999355801721048806e-02 1.999150157075668677e-02 1.998975360915777183e-02 1.999857846943768613e-02 1.998903177841719961e-02 1.998401195590626678e-02 2.001380523113705998e-02 2.001511869019520842e-02 2.000979822741043648e-02 1.998457107463892310e-02 1.999554856937051442e-02 1.998767224996113312e-02 2.001159492945110696e-02 2.000648112936186801e-02 1.999364687017238587e-02 1.999194531072240322e-02 1.999855681389086856e-02 1.998967188093457234e-02 1.999261290316965353e-02 1.998494448817121280e-02 1.998447026807860863e-02 2.000734853018107037e-02 2.000801592595398068e-02 1.999331997629701790e-02 1.999576396970184286e-02 1.999995979796082360e-02 1.999264100003587952e-02 2.000395271399631539e-02 2.000335976343005709e-02 1.999085627606693449e-02 1.995895545863321865e-02 1.999912586011021870e-02 1.999986882421962708e-02 1.999626819215062981e-02 2.000274448098931027e-02 1.999612288394829462e-02 1.999381394836947934e-02 1.998680922197883583e-02 2.001151482662214334e-02 2.000897405016417371e-02 2.000879001554024469e-02 1.998858107805169537e-02 1.999081058227537844e-02 1.999244730414138915e-02 1.998662892208907457e-02 1.997483926959769257e-02 2.000354077692188814e-02 2.000935149650497416e-02 1.999944119495867395e-02 2.001360895195844480e-02 2.001997180319583028e-02 2.000955081004160419e-02 2.001108112111480222e-02 1.999341043053544376e-02 1.998208293090494164e-02 1.999891611661697849e-02 1.999431139554526740e-02 2.000717147375560487e-02 2.001954771096521243e-02 1.999468394395886514e-02 2.001044956871822489e-02 2.001420750247819014e-02 2.001254477678027915e-02 2.001746339944114605e-02 2.000931797851812979e-02 2.000693750473508600e-02 1.998706565935728929e-02 2.000612385148139646e-02 2.000315689879175393e-02 1.999321329571333156e-02 2.000338633714065714e-02 1.999708165533599369e-02 2.001066864492019245e-02 2.000679706441018876e-02 2.001016176005804975e-02 2.000457549606274310e-02 2.000538711913762632e-02 1.999675527986233964e-02 1.997889282942786823e-02 2.001426838806896757e-02 2.001674625014721390e-02 1.999857697237599624e-02 2.000333694452676933e-02 1.998878967662462425e-02 1.999172427639370198e-02 1.998967785825376056e-02 1.999957329876958165e-02 2.001276049418440270e-02 2.001539319764612107e-02 2.002604598268888786e-02 2.001616712971112169e-02 2.000690750982643540e-02 2.000124655367117518e-02 1.997918484643763232e-02 2.000277550966421403e-02 1.999376721330868925e-02 1.998015914149477504e-02 1.999667999763701451e-02 2.001860706197859316e-02 1.999880144847777236e-02 1.999419844454559253e-02 2.000447756071146652e-02 1.999520388961810446e-02 1.998824339372636330e-02 2.000687119660395780e-02 2.001065925737675541e-02 2.001578169536222945e-02 2.001220672990469338e-02 1.999479148454710517e-02 2.000317870061929168e-02 1.998854039618108008e-02 1.999656249371115427e-02 1.998046315040066800e-02 2.000783151692875350e-02 2.000171111902919463e-02 1.998508117780179241e-02 2.000533559429105990e-02 1.999537867188603060e-02 2.000108479994407162e-02 2.000550741585144926e-02 2.002002039008178233e-02 1.999753711237019921e-02 1.999860279960048032e-02 1.998121563872551007e-02 1.999226421961722983e-02 1.999795867939001617e-02 1.998999330365622620e-02 1.999794014243455598e-02 1.999250310515071627e-02 1.999091610135298250e-02 2.001015639341151980e-02 1.999379774229283202e-02 1.999189950405867375e-02 2.001200168736594689e-02 1.999489624397181309e-02 2.000550023083858681e-02 1.999962338959767813e-02 2.000160398866791117e-02 1.999430296201473375e-02 1.999321231420491535e-02 1.999460871769250317e-02 2.001232438216937054e-02 2.000922786089714966e-02 2.000596964801737779e-02 2.001781149124039205e-02 2.000905451014499403e-02 2.000644219255211589e-02 2.000397621691418770e-02 2.001667803820041808e-02 2.000481289334326424e-02 2.000203235476352009e-02 2.000465646161327105e-02 1.999438665931014755e-02 1.999390721431035592e-02 2.000788489245651156e-02 2.001090189071599162e-02 2.000386130583960143e-02 2.000120763882105857e-02 2.000590173652265491e-02 1.999735235621133422e-02 1.998274837998404926e-02 2.000334476425376026e-02 2.001448167527951003e-02 2.000930620815578181e-02 1.999850323239400415e-02 1.999513117603672965e-02 1.999793874129502866e-02 1.999852924918054178e-02 1.998532713390210186e-02 2.001168666465097043e-02 2.001485688743718377e-02 2.000367390059470257e-02 1.999489562832990064e-02 1.999451436225354109e-02 1.999278729483133440e-02 2.000609202584706717e-02 2.002235037833590553e-02 2.001879799528898454e-02 1.999769377138845353e-02 1.996988430525713926e-02 1.999354400341379553e-02 1.999055387695145361e-02 1.999874573062598859e-02 1.999295666675485195e-02 1.999132205153551431e-02 2.000228755142658896e-02 2.000114159258283009e-02 2.000961989019928861e-02 1.999274181077116339e-02 1.999563693718272445e-02
2.000000000000000000e+00 1.019999991061124045e-01 8.173761564536686803e-04 1.019999999999999934e-01 1.019744478975166124e-01 1.019725369139060089e-01 1.020429539698530647e-01 1.019831126195347160e-01 1.020578915413780652e-01 1.019787813379901681e-01 1.020983446200710854e-01 1.019415755182610794e-01 1.020206960486983172e-01 1.020288242069295331e-01 1.020343730204237437e-01 1.020370283393848415e-01 1.020259385559227766e-01 1.021342345120333922e-01 1.019941614945648056e-01 1.019661200383603084e-01 1.020245513727151276e-01 1.019389310747820937e-01 1.019913463651161700e-01 1.019594118634512686e-01 1.019459381661678016e-01 1.020046647439702414e-01 1.019603281681198126e-01 1.020120530333594594e-01 1.020777932623368883e-01 1.020339791759306836e-01 1.020423404286440877e-01 1.019831106139489352e-01 1.020790199936381232e-01 1.019510215663142622e-01 1.018884248752529448e-01 1.018740921415556833e-01 1.020146441771050960e-01 1.019789944163399659e-01 1.018788717300425362e-01 1.019671458877734888e-01 1.019566580108591247e-01 1.019477434067046356e-01 1.019927501941321896e-01 1.019440620699277184e-01 1.019184609751219439e-01 1.020704066787990055e-01 1.020771053199955730e-01 1.020499709597932209e-01 1.019213124806585130e-01 1.019772977037896183e-01 1.019371284748017692e-01 1.020591341402006386e-01 1.020330537597455289e-01 1.019675990378791641e-01 1.019589210846842398e-01 1.019926397508434252e-01 1.019473265927663130e-01 1.019623258061652382e-01 1.019232168896731933e-01 1.019207983672008877e-01 1.020374775039234599e-01 1.020408812223653067e-01 1.019659318791147906e-01 1.019783962454793996e-01 1.019997949696001965e-01 1.019624691001829869e-01 1.020201588413812144e-01 1.020171347934932943e-01 1.019533670079413590e-01 1.017906728390294141e-01 1.019955418865621105e-01 1.019993310035200995e-01 1.019809677799682207e-01 1.020139968530454772e-01 1.019802267081362929e-01 1.019684511366843460e-01 1.019327270320920659e-01 1.020587256157729494e-01 1.020457676558372828e-01 1.020448290792552448e-01 1.019417634980636644e-01 1.019531339696044259e-01 1.019614812511210888e-01 1.019318075026542786e-01 1.018716802749482231e-01 1.020180579623016365e-01 1.020476926321753769e-01 1.019971500942892378e-01 1.020694056549880796e-01 1.021018561962987459e-01 1.020487091312121952e-01 1.020565137176854958e-01 1.019663931957307534e-01 1.019086229476151850e-01 1.019944721947465827e-01 1.019709881172808641e-01 1.020365745161535831e-01 1.020996933259225858e-01 1.019728881141902105e-01 1.020532928004629497e-01 1.020724582626387905e-01 1.020639783615794188e-01 1.020890633371498435e-01 1.020475216904424554e-01 1.020353812741489341e-01 1.019340348627221782e-01 1.020312316425551202e-01 1.020161001838379433e-01 1.019653878081379916e-01 1.020172703194173469e-01 1.019851164422135720e-01 1.020544100890929812e-01 1.020346650284919554e-01 1.020518249762960572e-01 1.020233350299200037e-01 1.020274743076018953e-01 1.019834519272979356e-01 1.018923534300821276e-01 1.020727687791517374e-01 1.020854058757507954e-01 1.019927425591175829e-01 1.020170184170865330e-01 1.019428273507855948e-01 1.019577938096078717e-01 1.019473570770941667e-01 1.019978238237248674e-01 1.020650785203404548e-01 1.020785053079952265e-01 1.021328345117133302e-01 1.020824523615267154e-01 1.020352283001148275e-01 1.020063574237229931e-01 1.018938427168319255e-01 1.020141550992874901e-01 1.019682127878742961e-01 1.018988116216233558e-01 1.019830679879487889e-01 1.020948960160908414e-01 1.019938873872366369e-01 1.019704120671825198e-01 1.020228355596284886e-01 1.019755398370523342e-01 1.019400413080044504e-01 1.020350431026801896e-01 1.020543622126214439e-01 1.020804866463473626e-01 1.020622543225139373e-01 1.019734365711902346e-01 1.020162113731583886e-01 1.019415560205235161e-01 1.019824687179268774e-01 1.019003620670433929e-01 1.020399407363366401e-01 1.020087267070488857e-01 1.019239140067891292e-01 1.020272115308844124e-01 1.019764312266187578e-01 1.020055324797147639e-01 1.020280878208423975e-01 1.021021039894171034e-01 1.019874392730880236e-01 1.019928742779624420e-01 1.019041997575001052e-01 1.019605475200478645e-01 1.019895892648890884e-01 1.019489658486467526e-01 1.019894947264162466e-01 1.019617658362686474e-01 1.019536721169002069e-01 1.020517976063987503e-01 1.019683684856934336e-01 1.019586874706992219e-01 1.020612086055663337e-01 1.019739708442562454e-01 1.020280511772767851e-01 1.019980792869481512e-01 1.020081803422063504e-01 1.019709451062751349e-01 1.019653828024450759e-01 1.019725044602317748e-01 1.020628543490638002e-01 1.020470620905754716e-01 1.020304452048886312e-01 1.020908386053260009e-01 1.020461780017394710e-01 1.020328551820157970e-01 1.020202787062623601e-01 1.020850579948221343e-01 1.020245457560506608e-01 1.020103650092939462e-01 1.020237479542276809e-01 1.019713719624817383e-01 1.019689267929828197e-01 1.020402129515282086e-01 1.020555996426515677e-01 1.020196926597819603e-01 1.020061589579873973e-01 1.020300988562655303e-01 1.019864970166777934e-01 1.019120167379186648e-01 1.020170582976941825e-01 1.020738565439255063e-01 1.020474616615944657e-01 1.019923664852094153e-01 1.019751689977873160e-01 1.019894875806046375e-01 1.019924991708207745e-01 1.019251683829007216e-01 1.020596019897199586e-01 1.020757701259296379e-01 1.020187368930329797e-01 1.019739677044824988e-01 1.019720232474930627e-01 1.019632152036397954e-01 1.020310693318200457e-01 1.021139869295131092e-01 1.020958697759738187e-01 1.019882382340811106e-01 1.018464099568114067e-01 1.019670744174103472e-01 1.019518247724524179e-01 1.019936032261925390e-01 1.019640790004497366e-01 1.019557424628311226e-01 1.020116665122756117e-01 1.020058221221724348e-01 1.020490614400163670e-01 1.019629832349329412e-01 1.019777483796318884e-01
3.000000000000000000e+00 4.838582754154965859e-01 6.814405067116852815e-03 4.839999999999999858e-01 4.838787527686082002e-01 4.838696849640245490e-01 4.842038207981262943e-01 4.839198677240666990e-01 4.822735659112179496e-01 4.838993153685023918e-01 4.844666548638667525e-01 4.837227701062584706e-01 4.840982047800978516e-01 4.841367736877832950e-01 4.841631033518146165e-01 4.841757031006104217e-01 4.841230809908492194e-01 4.826343238705891880e-01 4.839722957193074993e-01 4.838392362604548302e-01 4.841164986705305817e-01 4.837102219626915334e-01 4.839589376540807120e-01 4.838074053128472163e-01 4.837434712982863760e-01 4.840221346674665748e-01 4.838117532683332001e-01 4.840571928249605693e-01 4.843691366565789913e-01 4.841612345210828949e-01 4.842009094849386019e-01 4.839198582073655497e-01 4.823734082052311134e-01 4.837675925303540070e-01 4.834705650943375010e-01 4.834025548677740036e-01 4.840694880560673652e-01 4.839003264461621545e-01 4.834252344837312587e-01 4.838441040164938034e-01 4.837943380123118087e-01 4.837520373416180353e-01 4.839655989603919850e-01 4.837345690376962382e-01 4.836130893329316227e-01 4.823327060704031832e-01 4.823643604337045643e-01 4.842371171033325594e-01 4.836266200062619425e-01 4.838922753787663900e-01 4.837016684490593743e-01 4.842805972927167746e-01 4.841568433305571961e-01 4.838462542581717374e-01 4.838050765194821246e-01 4.839650748961590310e-01 4.837500595186166041e-01 4.838212322567056467e-01 4.836356566137433588e-01 4.836241804875023309e-01 4.841778344303818704e-01 4.841939854080863359e-01 4.838383434263878180e-01 4.838974880667846201e-01 4.839990271106519026e-01 4.838219122008682871e-01 4.840956556787108789e-01 4.840813062750073947e-01 4.837787218808197731e-01 4.830067220989238685e-01 4.839788458146672689e-01 4.839968255461150060e-01 4.839096902500452657e-01 4.840664164399413050e-01 4.839061737915487105e-01 4.838502975505414305e-01 4.836807831718877848e-01 4.842786588042558571e-01 4.842171720139729629e-01 4.842127183760738807e-01 4.837236620888510918e-01 4.837776160910641776e-01 4.838172247602216536e-01 4.836764199145555665e-01 4.833911103242641838e-01 4.840856868015097070e-01 4.842263062154203990e-01 4.839864769179998971e-01 4.843293366373944142e-01 4.824813204570195246e-01 4.842311296030068490e-01 4.842681631309782020e-01 4.838405324189576917e-01 4.835664069278995392e-01 4.839737700221308780e-01 4.838623357721954510e-01 4.841735496648856829e-01 4.824710998342616186e-01 4.838713514438044982e-01 4.842528795629810756e-01 4.843438215599722985e-01 4.843035835980827319e-01 4.844226142664757040e-01 4.842254950801387348e-01 4.841678876145890653e-01 4.836869889564464065e-01 4.841481972058497840e-01 4.840763969507604347e-01 4.838357617562625834e-01 4.840819493588038869e-01 4.839293760591310556e-01 4.842581812070687053e-01 4.841644889587265466e-01 4.842459145934048248e-01 4.841107270047184108e-01 4.841303682831306077e-01 4.839214777726686401e-01 4.834892064721543758e-01 4.843452949912690486e-01 4.824035846285478768e-01 4.839655627314991548e-01 4.840807540575478574e-01 4.837287101743159567e-01 4.837997274887275712e-01 4.837502041697409605e-01 4.839896738302238988e-01 4.843088039592625127e-01 4.843725153830361618e-01 4.826277081828022064e-01 4.843912445390091137e-01 4.841671617377997228e-01 4.840301665988424040e-01 4.834962732837907451e-01 4.840671673338740044e-01 4.838491665620702764e-01 4.835198512241735691e-01 4.839196559428157185e-01 4.824484301936841080e-01 4.839709950531621563e-01 4.838596023580033489e-01 4.841083569692175015e-01 4.838839341287581308e-01 4.837154901281779940e-01 4.841662829578157745e-01 4.842579540285174566e-01 4.823803388582297291e-01 4.842954028636935471e-01 4.838739539260399902e-01 4.840769245549868538e-01 4.837226775875820839e-01 4.839168123478099215e-01 4.835272082396961379e-01 4.841895227096758014e-01 4.840414090805064684e-01 4.836389645028033590e-01 4.841291213818436634e-01 4.838881638596418955e-01 4.840262521586464750e-01 4.841332794636050707e-01 4.824824914009709920e-01 4.839403981193588500e-01 4.839661877503316778e-01 4.835454184571573721e-01 4.838127941147369326e-01 4.839506000412384101e-01 4.837578379484806512e-01 4.839501514469162768e-01 4.838185751446473226e-01 4.837801696527421758e-01 4.842457847205587917e-01 4.838499053634865432e-01 4.838039679982198416e-01 4.842904408342559308e-01 4.838764891041179017e-01 4.841331055862937993e-01 4.839908860282637892e-01 4.840388165257634712e-01 4.838621316807565353e-01 4.838357380037589528e-01 4.838695309681586010e-01 4.822970176102818751e-01 4.842233142337110663e-01 4.841444654820205584e-01 4.824292569388934360e-01 4.842191191455088584e-01 4.841559010597611956e-01 4.840962244493233202e-01 4.824019407206300847e-01 4.841164720189070070e-01 4.840491829852771599e-01 4.841126863710411565e-01 4.838641571553055076e-01 4.838525545863106569e-01 4.841908143974475442e-01 4.842638257553270043e-01 4.840934436013183406e-01 4.840292248594696423e-01 4.841428220238482294e-01 4.839359270203142382e-01 4.835825107956140401e-01 4.840809432949410573e-01 4.843504565417641183e-01 4.842252102373698075e-01 4.839637782239348818e-01 4.838821744600888541e-01 4.839501175393396970e-01 4.839644078301691410e-01 4.836449166404308553e-01 4.842828172845535240e-01 4.843595366759798071e-01 4.840889083943917814e-01 4.838764742055836066e-01 4.838672475665356520e-01 4.838254525349182655e-01 4.841474270254990664e-01 4.825386441178952657e-01 4.844549114859934558e-01 4.839441892676005219e-01 4.832712001872227492e-01 4.838437648826138249e-01 4.837714038222251656e-01 4.839696466811488906e-01 4.838295513354674005e-01 4.837899936471594109e-01 4.840553587445234895e-01 4.840276265405044631e-01 4.842328013428227607e-01 4.838243518206621907e-01 4.838944138798219052e-01
4.000000000000000000e+00 1.845258905162602048e+00 8.755413256481417786e-03 1.846000000000000085e+00 1.845537557047212340e+00 1.845502971990887087e+00 1.844776540396167119e+00 1.845694371526089395e+00 1.845046588257854614e+00 1.845615983822841866e+00 1.845777916464814261e+00 1.844942631438332814e+00 1.846374557900951840e+00 1.844521096446843700e+00 1.844621410290797847e+00 1.844669414292408272e+00 1.844468928403152796e+00 1.844424117364367843e+00 1.845894334499672773e+00 1.845386839125618961e+00 1.844443850306732191e+00 1.844894772196546517e+00 1.845843386176514445e+00 1.845265434313049457e+00 1.845021586811232961e+00 1.846084422719304285e+00 1.845282017630874183e+00 1.846218136270407317e+00 1.845406380154404280e+00 1.844614290200158990e+00 1.844765448533526309e+00 1.845694335228919014e+00 1.845428557532045932e+00 1.845113586386432747e+00 1.845978521269288741e+00 1.845718845858773438e+00 1.846265030891529602e+00 1.845619840123172040e+00 1.845805440756064897e+00 1.845405404988528009e+00 1.845215594980842200e+00 1.845054258125262248e+00 1.845868792729098207e+00 1.844987633147907591e+00 1.844524303530148401e+00 1.845272842310836880e+00 1.845393943235998258e+00 1.844903396567242115e+00 1.844575910189172552e+00 1.845589132952898392e+00 1.844862148671412516e+00 1.845069052495391881e+00 1.844597560127164249e+00 1.845413606116911076e+00 1.845256552179677545e+00 1.845866793922127158e+00 1.845046714610260707e+00 1.845318170962559012e+00 1.846608870707020289e+00 1.844566605743655607e+00 1.844677534482694670e+00 1.844739068372956980e+00 1.845383433812214813e+00 1.845609014403480241e+00 1.845996289351784281e+00 1.845320764303311600e+00 1.844364440230460644e+00 1.846310106164594345e+00 1.845156034280977853e+00 1.844207484377708983e+00 1.845919316888173123e+00 1.845987892475471348e+00 1.845655554135503085e+00 1.846253315595313360e+00 1.845642142188427481e+00 1.845429027434503100e+00 1.844782491188646567e+00 1.845061667014561646e+00 1.844827407425136734e+00 1.844810439432810423e+00 1.844946033504171634e+00 1.845151816744017736e+00 1.845302886172250245e+00 1.844765849508821720e+00 1.845675148510827146e+00 1.844326459632198212e+00 1.844862207977759017e+00 1.843948478175189587e+00 1.845254745370568772e+00 1.845841400254655706e+00 1.844880584685836045e+00 1.845021679366785072e+00 1.845391782738421416e+00 1.846344462815616705e+00 1.844700022596796440e+00 1.845474941808828095e+00 1.844661209880266828e+00 1.845802298950992792e+00 1.845509328027403084e+00 1.844963450235820535e+00 1.845309931728489783e+00 1.845156628419141631e+00 1.845610125428473580e+00 1.844859117619371602e+00 1.844639637936574816e+00 1.844806160358677616e+00 1.844564619106584757e+00 1.846291381758478956e+00 1.845373587194340415e+00 1.844312220284368697e+00 1.845730636787512369e+00 1.844983649061641806e+00 1.844626689338619396e+00 1.844936914277352180e+00 1.844421860736984886e+00 1.844496692384489211e+00 1.845700512331293952e+00 1.846049697439134940e+00 1.845315545379958788e+00 1.845544004263573346e+00 1.845868654550304466e+00 1.846307999979820869e+00 1.844965287152452893e+00 1.845236150711138556e+00 1.845047266316822032e+00 1.845960615476432531e+00 1.845176517563801966e+00 1.845419252822972478e+00 1.844398835005646609e+00 1.845490609359365264e+00 1.844636872405997607e+00 1.844114932248482219e+00 1.846076679810837451e+00 1.844255901991040503e+00 1.845424713788391902e+00 1.846166704674117254e+00 1.845693563781896307e+00 1.845715571114426412e+00 1.845889373694498570e+00 1.845464516431558177e+00 1.846253243033033620e+00 1.845557319011750907e+00 1.844914865240943058e+00 1.846634211446545271e+00 1.844982783530136894e+00 1.845455072312397471e+00 1.845125460497212710e+00 1.845519254023697986e+00 1.844293076197098591e+00 1.844942278567513583e+00 1.845682718169539438e+00 1.844196748781981476e+00 1.844722065860830984e+00 1.846157936286394463e+00 1.844622992711105303e+00 1.846492475353064933e+00 1.845573451415080557e+00 1.846100127034837612e+00 1.846508334483088820e+00 1.845845879965540171e+00 1.845772675471769597e+00 1.845871038403124498e+00 1.844266203454364650e+00 1.845285987470670186e+00 1.845811586107698687e+00 1.845076381927469811e+00 1.845809875146709578e+00 1.845308036605410873e+00 1.845161556154880200e+00 1.844936419472542166e+00 1.845427531613628602e+00 1.845252324224615492e+00 1.845106555575140250e+00 1.845528923318598302e+00 1.844507121283317730e+00 1.845965238859865742e+00 1.844147887755181348e+00 1.845474163393959754e+00 1.845373496601113716e+00 1.845502384643018079e+00 1.845136308036016137e+00 1.844850808774717299e+00 1.844550401547202290e+00 1.845642219492364067e+00 1.844834825835368397e+00 1.844593970153305174e+00 1.844366607199487973e+00 1.845537715122078648e+00 1.844443748766249058e+00 1.846187586344672837e+00 1.844429325760743588e+00 1.845481888654326497e+00 1.845437635880846194e+00 1.844726987084490233e+00 1.845005154324014462e+00 1.844356012398411293e+00 1.846111465063183799e+00 1.844544140107388763e+00 1.845755622478306268e+00 1.844407675472527819e+00 1.844308387264196991e+00 1.845335210460770980e+00 1.844858032391962777e+00 1.845861848349966472e+00 1.845550607548190003e+00 1.845809745821531012e+00 1.845864249699364246e+00 1.844645694459164043e+00 1.845077510480819472e+00 1.845369805021708220e+00 1.844338733634831362e+00 1.845528866494849929e+00 1.845493675636001862e+00 1.845334267312932042e+00 1.844561684783099675e+00 1.846060704882570347e+00 1.845733175165644280e+00 1.845787135099154153e+00 1.845217309805759598e+00 1.845404111515092982e+00 1.845128122842619289e+00 1.845884230936778669e+00 1.845349900341472615e+00 1.845199025356727862e+00 1.844210912241531553e+00 1.844105254836136965e+00 1.844886953876374358e+00 1.845330069134178519e+00 1.845597289301965427e+00
5.000000000000000000e+00 4.992081401158094067e+00 2.073500475367301421e-02 4.991999999999999993e+00 4.994748447999930896e+00 4.990655924257046294e+00 4.992101375583988698e+00 4.991173511732522883e+00 4.992832145014475920e+00 4.990961533718107468e+00 4.992809244754064402e+00 4.989140637129012568e+00 4.991012483166711533e+00 4.991410125417434784e+00 4.995282795242879104e+00 4.991811484446376568e+00 4.991268954843672390e+00 4.990559066744847172e+00 4.993714142194672689e+00 4.990341874818575718e+00 4.993201573064646404e+00 4.993008820094228639e+00 4.993576311248923538e+00 4.994011977154927173e+00 4.993352030178179746e+00 4.994228389523405198e+00 4.992057635995983844e+00 4.992589889632650824e+00 4.991804243064082769e+00 4.991662314587197002e+00 4.994072190390109967e+00 4.993173082412362795e+00 4.993865782041708279e+00 4.990752385625810028e+00 4.992682654806235298e+00 4.991830514936228091e+00 4.990716416115239973e+00 4.990971962023226460e+00 4.992064714772084244e+00 4.988392725294017005e+00 4.993877092375020865e+00 4.992191091967038474e+00 4.991645185971646193e+00 4.993260138248616364e+00 4.992655666973859319e+00 4.993444405168696143e+00 4.993772113203704954e+00 4.991544216818530444e+00 4.990147397337339363e+00 4.992888477771817435e+00 4.990921760815294483e+00 4.992892934898050861e+00 4.991617041775786134e+00 4.990414258795027536e+00 4.991988744087383800e+00 4.991639780747160415e+00 4.993420035857456085e+00 4.992155441921462433e+00 4.994237627593986595e+00 4.992120672966036565e+00 4.990532980625668635e+00 4.991999973525517831e+00 4.994331330078995101e+00 4.992942263234550815e+00 4.991989965571021592e+00 4.994161721808962895e+00 4.992986597413480609e+00 4.992838596952141828e+00 4.991716812133913272e+00 4.989738864658304074e+00 4.993981718528075930e+00 4.993967245407641364e+00 4.993068167580012151e+00 4.990684748006833260e+00 4.993031884121888808e+00 4.994454724302696214e+00 4.990706262728115128e+00 4.992872949242224578e+00 4.992239025515961437e+00 4.992193108877290619e+00 4.993147553297314190e+00 4.989706321335934724e+00 4.993013751972698699e+00 4.990661241845641527e+00 4.991712333472463570e+00 4.990883423842011446e+00 4.992333198377991721e+00 4.993860466381180530e+00 4.991394072618436262e+00 4.992980967717040031e+00 4.992382927105381007e+00 4.992764739718142941e+00 4.990355243461646495e+00 4.991524316140053763e+00 4.991729462707597875e+00 4.990580124328098499e+00 4.991789282702023378e+00 4.992875199114723550e+00 4.990673112412132184e+00 4.992607167395197720e+00 4.993544771868309695e+00 4.993129921806679583e+00 4.992355371820621279e+00 4.990323903842421416e+00 4.991730907431403352e+00 4.991769648424483563e+00 4.991527900944608298e+00 4.990787646248542764e+00 4.992305359939618548e+00 4.990844891116593907e+00 4.991271581171863758e+00 4.992661826907588640e+00 4.991695867570341782e+00 4.990534342958477865e+00 4.993142043817260678e+00 4.991344086224837717e+00 4.991190117853640196e+00 4.990727428791081444e+00 4.993559962823207243e+00 4.992176514786715202e+00 4.991644812305048973e+00 4.990832567659428953e+00 4.989201903285506390e+00 4.991933551815507464e+00 4.991422561205963504e+00 4.989893538043010501e+00 4.991182467249589472e+00 4.991839063492943041e+00 4.992493263484339749e+00 4.994033698862924808e+00 4.993724114452678720e+00 4.994311264451692267e+00 4.992798293124764086e+00 4.990692489661221032e+00 4.992443673163179163e+00 4.993041769459543922e+00 4.991171327410198977e+00 4.990638740551263552e+00 4.991700841540052558e+00 4.992551351603034426e+00 4.993117599153581665e+00 4.988803370459717001e+00 4.989065551074100213e+00 4.991714363552687495e+00 4.990658418789762685e+00 4.993937532992876349e+00 4.993045579111220711e+00 4.994698912839867333e+00 4.992793403674575359e+00 4.993137390966033706e+00 4.991141998430303595e+00 4.994116764442646073e+00 4.991953963473723555e+00 4.990426924197783443e+00 4.988276261979327053e+00 4.991331230775619687e+00 4.988846978635564255e+00 4.992270766066040366e+00 4.991374100254936330e+00 4.992993085286396848e+00 4.991385263247602566e+00 4.993651119060240617e+00 4.991307666553632671e+00 4.994067602060384026e+00 4.993640266933689453e+00 4.993500327253324933e+00 4.993485653565908677e+00 4.990128775045618248e+00 4.992581364442006731e+00 4.992534020156174535e+00 4.988452536702062012e+00 4.991977306163450478e+00 4.992994420997804106e+00 4.990726102495364636e+00 4.991372307594227564e+00 4.991905998043580261e+00 4.993550447800766179e+00 4.989878218715253055e+00 4.990305793625546826e+00 4.994653257679587455e+00 4.993074933351258515e+00 4.992302351293838925e+00 4.991489427180336058e+00 4.994443967064477796e+00 4.992259100281176032e+00 4.991607327041752917e+00 4.990992066120089277e+00 4.994161170531004501e+00 4.993001250049592166e+00 4.992507275748974571e+00 4.993162252818672542e+00 4.990598910163812185e+00 4.990479240691865215e+00 4.991967280667899409e+00 4.990718931544568804e+00 4.992963781937564072e+00 4.993751514203504271e+00 4.991472483262402449e+00 4.989339412874727486e+00 4.993688820158014074e+00 4.992784844795781218e+00 4.993613177982237694e+00 4.992321898934866553e+00 4.989626556482303243e+00 4.991984449409283542e+00 4.991485509827239042e+00 4.991532907949125075e+00 4.992334718048745401e+00 4.992915822830417127e+00 4.991705307726833851e+00 4.990916638198378052e+00 4.992725438393976312e+00 4.992380304825180914e+00 4.990199708789901045e+00 4.991519960448843385e+00 4.991571949319141055e+00 4.992688220025073065e+00 4.993424134715696461e+00 4.990474087883758791e+00 4.992387937652424945e+00 4.993640358462473117e+00 4.989687059791184431e+00 4.992241279688686362e+00 4.993832248473570878e+00 4.994571201591219811e+00 4.994285055667933015e+00 4.992400162604722524e+00 4.990188355968482092e+00 4.992910543214525987e+00
6.000000000000000000e+00 2.028858472802633119e-03 1.914428441496841894e-05 2.037875621570644537e-03 2.028375235768175612e-03 2.028340406378600913e-03 2.029722865226337488e-03 2.028407385973936706e-03 2.030001500342935514e-03 2.028367198216735230e-03 2.030933856310013740e-03 2.027544688786008312e-03 2.029278120713305916e-03 2.029428155006858699e-03 2.029559435013717546e-03 2.029776448902606122e-03 2.029197745198902531e-03 2.031609010631001480e-03 2.028734246399177023e-03 2.028158221879286603e-03 2.029101294581618815e-03 2.027378579389574765e-03 2.028742283950617405e-03 2.028077846364883217e-03 2.027887624314128959e-03 2.028602966392318175e-03 2.028088563100137205e-03 2.028961977023319586e-03 2.030237268518518459e-03 2.029326346021947773e-03 2.029575510116597876e-03 2.028554741083676317e-03 2.030328360768175397e-03 2.027654535322359185e-03 2.026529278120713096e-03 2.026419431584362222e-03 2.029165594993141437e-03 2.028369877400548835e-03 2.026247963820301898e-03 2.028128750857338680e-03 2.027812607167352350e-03 2.027783136145404862e-03 2.029018239883401825e-03 2.027483067558298862e-03 2.027359825102880830e-03 2.029969350137174420e-03 2.030553412208504788e-03 2.029907728909464970e-03 2.027268732853223458e-03 2.028573495370370253e-03 2.027450917352537768e-03 2.029937199931412892e-03 2.029554076646090336e-03 2.028206447187928460e-03 2.028123392489711904e-03 2.028790509259259262e-03 2.027855474108367431e-03 2.027801890432098797e-03 2.027408050411522687e-03 2.027338391632373289e-03 2.029821995027434808e-03 2.029645168895747708e-03 2.028002829218107043e-03 2.028297539437585832e-03 2.028608324759944952e-03 2.028064450445816059e-03 2.029326346021947773e-03 2.029136123971193514e-03 2.027906378600822894e-03 2.024503815157750308e-03 2.028777113340192104e-03 2.028535986796982382e-03 2.028640474965706479e-03 2.029189707647462149e-03 2.028096600651577586e-03 2.028085883916323599e-03 2.027523255315500771e-03 2.030081875857338899e-03 2.029674639917695630e-03 2.030191722393689772e-03 2.027461634087791321e-03 2.027866190843621418e-03 2.027989433299039884e-03 2.027517896947873995e-03 2.026199738511659607e-03 2.029130765603566738e-03 2.030006858710562290e-03 2.028586891289437411e-03 2.030306927297667857e-03 2.031078532235939746e-03 2.029749657064471805e-03 2.029728223593964265e-03 2.028195730452674907e-03 2.027134773662551438e-03 2.028774434156378498e-03 2.028321652091906544e-03 2.029495134602194925e-03 2.030917781207132976e-03 2.027978716563785897e-03 2.030237268518518459e-03 2.030277456275720368e-03 2.029902370541838193e-03 2.030872235082304723e-03 2.029722865226337488e-03 2.029505851337448478e-03 2.027448238168724163e-03 2.029535322359396401e-03 2.029028956618655812e-03 2.028016225137174201e-03 2.029168274176954608e-03 2.028482403120713314e-03 2.029886295438957430e-03 2.029613018689986181e-03 2.029580868484225087e-03 2.029138803155006686e-03 2.029420117455418317e-03 2.028396669238683152e-03 2.026888288751714506e-03 2.030181005658436219e-03 2.030360510973936924e-03 2.028841413751714725e-03 2.029069144375857288e-03 2.027670610425239949e-03 2.027949245541837975e-03 2.027764381858710493e-03 2.028771754972565327e-03 2.030239947702332064e-03 2.030432848936899928e-03 2.031437542866941157e-03 2.030644504458161727e-03 2.029345100308642142e-03 2.028953939471879204e-03 2.026773083847736422e-03 2.029098615397805210e-03 2.028206447187928460e-03 2.026695387517146642e-03 2.028643154149520084e-03 2.030751671810699429e-03 2.028683341906721560e-03 2.028302897805212609e-03 2.029318308470507391e-03 2.028160901063100208e-03 2.027434842249657004e-03 2.029519247256515637e-03 2.029701431755829948e-03 2.030323002400548620e-03 2.030264060356652776e-03 2.028227880658436000e-03 2.029074502743484065e-03 2.027587555727023393e-03 2.028578853737997463e-03 2.026912401406035652e-03 2.029669281550068420e-03 2.029071823559670893e-03 2.027148169581618597e-03 2.029323666838134602e-03 2.028702096193415495e-03 2.029058427640603735e-03 2.029248649691357993e-03 2.031212491426611765e-03 2.028364519032921625e-03 2.028535986796982382e-03 2.026687349965706261e-03 2.028179655349794143e-03 2.028565457818929871e-03 2.027890303497942564e-03 2.028463648834019379e-03 2.028128750857338680e-03 2.027777777777777651e-03 2.030135459533607533e-03 2.028174296982167366e-03 2.027520576131687166e-03 2.030414094650205559e-03 2.028410065157750311e-03 2.029189707647462149e-03 2.028857488854595489e-03 2.028940543552812045e-03 2.028289501886145450e-03 2.028085883916323599e-03 2.028270747599451515e-03 2.030105988511659611e-03 2.029830032578875190e-03 2.029401363168724381e-03 2.030890989368998659e-03 2.029870220336076666e-03 2.029436192558299080e-03 2.029221857853223676e-03 2.030387302812071242e-03 2.029120048868312751e-03 2.029122728052126356e-03 2.029315629286694220e-03 2.028308256172839386e-03 2.028474365569272932e-03 2.029396004801097605e-03 2.030130101165980756e-03 2.028916430898490900e-03 2.028924468449931282e-03 2.029551397462277165e-03 2.028292181069959055e-03 2.026976701817558273e-03 2.029004843964334667e-03 2.030427490569273151e-03 2.029880937071330653e-03 2.028897676611796964e-03 2.028187692901234525e-03 2.028592249657064622e-03 2.028578853737997463e-03 2.027333033264746079e-03 2.030105988511659611e-03 2.030323002400548620e-03 2.029519247256515637e-03 2.028249314128943975e-03 2.028158221879286603e-03 2.028072487997256441e-03 2.029471021947873779e-03 2.031172303669410290e-03 2.030778463648834180e-03 2.028680662722907955e-03 2.025299532750342909e-03 2.028238597393689988e-03 2.027820644718792732e-03 2.028779792524005275e-03 2.027989433299039884e-03 2.028037658607681742e-03 2.028940543552812045e-03 2.028667266803840796e-03 2.029714827674897106e-03 2.028214484739368842e-03 2.028412744341563916e-03
