# vvf statistics with RF=500
# gcat file: /disk2/salam/Abacus/AbacusCosmos_720box_products/GCAT_derivative/AbacusCosmos_720box_23_rockstar_halos_z0.100_Mr21_hod-default_real-2.gcat.rsd_zz.1pz0.100by100
# stats order in row: stdvvf,p2.5,p16,p50,p84,p97.5,rho
# columns: numbers, mean, sigma,All, jnrealizations
0.000000000000000000e+00 1.376343018556258180e+00 4.553410657961379747e-03 1.376343222297621738e+00 1.376653357580841064e+00 1.375903042780737051e+00 1.375977931247011954e+00 1.376400121374721008e+00 1.376862465256736945e+00 1.376520701575290717e+00 1.376509970308653630e+00 1.375732289794497243e+00 1.375338091624832559e+00 1.376151439730068038e+00 1.376843470283527049e+00 1.376622278718094394e+00 1.376401983974269605e+00 1.376339140936302163e+00 1.376608780237946084e+00 1.376517117144966385e+00 1.376600610333043928e+00 1.376363885535842879e+00 1.376599527471606521e+00 1.376531448704757299e+00 1.376229940332694079e+00 1.376939982410799068e+00 1.376477243082697255e+00 1.376533577150137022e+00 1.376141150275990377e+00 1.376565967581961258e+00 1.376830819382215854e+00 1.376079312297727286e+00 1.376918313354086321e+00 1.376280325537519111e+00 1.376331565034391691e+00 1.375786601828161038e+00 1.376253170988713137e+00 1.376505482150243376e+00 1.375819797287713975e+00 1.375559819072380119e+00 1.376457935591019366e+00 1.376251371591495021e+00 1.376366778577287286e+00 1.376636217858208999e+00 1.376288118096924640e+00 1.376444239971535088e+00 1.376398695640079106e+00 1.376412092758188654e+00 1.375739964834583384e+00 1.376399488075553457e+00 1.376126499435075701e+00 1.376735493108108166e+00 1.376261434642533033e+00 1.376082271143271418e+00 1.375868808129076637e+00 1.376333074632515752e+00 1.376142069407247037e+00 1.376461191766833236e+00 1.375795833366979970e+00 1.376110356239133026e+00 1.376223211125845003e+00 1.376284853003475694e+00 1.376477005604427317e+00 1.375764749120632402e+00 1.376596251673069871e+00 1.376620922401321279e+00 1.376525417175405774e+00 1.376272215523844045e+00 1.376364974956445053e+00 1.375560948850876430e+00 1.376815151296375328e+00 1.376449946892957632e+00 1.376677103730556517e+00 1.376046820825064909e+00 1.376321386042159700e+00 1.376796171992537010e+00 1.376037755395209006e+00 1.376440155181731573e+00 1.376148578240615539e+00 1.376332514623600956e+00 1.376396188443712587e+00 1.376218184268695133e+00 1.376147559310481716e+00 1.376053834541020482e+00 1.376044273059207512e+00 1.376437197085820019e+00 1.375598230194349014e+00 1.376371915661298351e+00 1.376117849436767404e+00 1.376788674663237177e+00 1.376297500803032925e+00 1.376540900015912339e+00 1.376185988242099256e+00 1.375960127221852458e+00 1.376456634919946298e+00 1.376364287705559075e+00 1.376560042982208243e+00 1.376597729879650567e+00 1.376055538924403798e+00 1.376147447079201225e+00 1.376717543343470851e+00 1.376407096901141713e+00 1.376369263683246302e+00 1.376261397121230967e+00 1.376261831381481615e+00 1.376069494721028574e+00 1.375899247797908620e+00 1.376128093893050020e+00 1.376356640395228093e+00 1.376404260590954554e+00 1.376235359220220555e+00 1.376119641037341745e+00 1.376070263407926708e+00 1.376155254358282898e+00 1.376817356266739178e+00 1.376440799928817071e+00 1.376491295554464811e+00 1.375708842578056590e+00 1.376792478602878234e+00 1.376692156512438814e+00 1.376507835059705309e+00 1.376305862660959667e+00 1.375796832989189866e+00 1.376283649277762366e+00 1.376434149370806548e+00 1.376566977903335376e+00 1.376507960141382325e+00 1.376201068663091887e+00 1.376211134831032190e+00 1.376603517955007572e+00 1.376807995045444821e+00 1.376675026851180483e+00 1.376397577699612018e+00 1.376417780995673912e+00 1.376392004455938567e+00 1.376099818255922536e+00 1.376260891497931071e+00 1.376526738661042470e+00 1.376616445930384680e+00 1.376383826226443619e+00 1.376448050897780107e+00 1.376052576242055903e+00 1.375617402083200158e+00 1.375620827182101102e+00 1.376350794155010604e+00 1.376857026293708541e+00 1.376635914654260384e+00 1.376497600019559453e+00 1.376690822379982304e+00 1.376341659138703877e+00 1.376128664506500510e+00 1.376364428551613894e+00 1.375896429712565983e+00 1.376135054246822698e+00 1.376003658967664300e+00 1.376149010111726412e+00 1.375724801123692664e+00 1.376577163593935005e+00 1.376554105526698990e+00 1.376783460247942070e+00 1.376537741067074494e+00 1.376787518734806204e+00 1.375912354384530634e+00 1.376201208808631282e+00 1.376700587279387822e+00 1.376560275535239741e+00 1.376348531042325352e+00 1.376318556746845889e+00 1.376296103309325058e+00 1.376153344610985041e+00 1.375928355969413541e+00 1.376225031679330080e+00 1.376326237368875827e+00 1.376125892142785023e+00 1.376485346319176628e+00 1.376136887978565371e+00 1.376725902924254452e+00 1.376186761151870108e+00 1.376276724628737957e+00 1.376574356058144266e+00 1.376856023683870056e+00 1.376321041423939961e+00 1.376248771225513812e+00 1.376619104884489131e+00 1.376640289241232162e+00 1.376649219172133343e+00 1.376377846484953205e+00 1.376760405526181064e+00 1.376654897962479529e+00 1.376772654282403918e+00 1.376723150652904515e+00 1.376487879361717459e+00 1.375616286180814773e+00 1.376750876892481878e+00 1.376368690278153561e+00 1.376723239429401113e+00 1.376712662933660791e+00 1.376261910963526347e+00 1.375851326767437932e+00 1.376201482517885655e+00 1.376417224690213770e+00 1.376547702582788801e+00 1.376580067959529918e+00 1.376201870601519328e+00 1.376464608239778009e+00 1.376332539226858387e+00 1.376442895804446565e+00 1.376169335032547902e+00 1.376434290990659282e+00 1.376591570078920190e+00 1.376322919191392158e+00 1.376310951912378400e+00 1.376120017606362156e+00 1.376167650678525201e+00 1.376698956279756469e+00 1.376649199206806395e+00 1.375999853913847160e+00 1.376041636200019180e+00 1.375881017836170672e+00 1.376472087946440048e+00 1.376566702915595686e+00 1.376207155811688398e+00 1.376441162818958563e+00 1.376234291446925218e+00 1.376937424126594811e+00 1.376755551878586337e+00 1.376516058048092628e+00 1.375838147054050609e+00 1.376466846987075332e+00
1.000000000000000000e+00 2.799999990099341293e-02 1.935785992304857566e-04 2.800000000000000058e-02 2.799304243288430749e-02 2.799322689865037933e-02 2.800797951708134531e-02 2.799678160443538552e-02 2.801698805478421844e-02 2.799579995501700475e-02 2.802397144852015326e-02 2.798602983546521344e-02 2.801110583632566986e-02 2.801005686874860276e-02 2.800542897398260872e-02 2.800753741236535616e-02 2.800538743253336293e-02 2.803033866573261673e-02 2.799495435709216731e-02 2.799094400211153688e-02 2.800899700500120854e-02 2.798464739602440562e-02 2.799653623839392508e-02 2.799185133696351774e-02 2.798759776796517010e-02 2.799808899848368893e-02 2.799086549214900230e-02 2.800394460575402963e-02 2.801505480849540708e-02 2.800940031327426444e-02 2.800764736267129934e-02 2.799861695902176872e-02 2.801522679039467403e-02 2.799078954451252391e-02 2.797388038764229631e-02 2.796642934520785634e-02 2.800439004485428401e-02 2.799671369182532218e-02 2.797838459967412483e-02 2.799260587193267216e-02 2.798789091943440846e-02 2.798647442504367464e-02 2.800023389406045699e-02 2.798606334130460810e-02 2.798215339051294756e-02 2.801499870890913554e-02 2.802011983362331926e-02 2.801306965233922239e-02 2.798597288997827642e-02 2.799758648570686501e-02 2.798336713499308820e-02 2.801240250289607076e-02 2.801152135390837239e-02 2.799644077037727677e-02 2.799404247730787401e-02 2.799720047347690685e-02 2.798686596148866959e-02 2.799172504819628579e-02 2.798206148076098562e-02 2.798133702390935909e-02 2.800780335608744204e-02 2.800771281545813562e-02 2.799244211221739095e-02 2.798945636319607327e-02 2.799671275718394747e-02 2.799238189537779989e-02 2.800160662299520584e-02 2.799974729840313398e-02 2.798492183390347693e-02 2.795251100438294820e-02 2.799773372031044011e-02 2.799806462197253903e-02 2.799796092824579849e-02 2.800371561772537973e-02 2.799385714821140195e-02 2.799513733239851823e-02 2.798398157154472626e-02 2.801493068281980109e-02 2.800891106034670772e-02 2.801048006639104970e-02 2.798478881050552036e-02 2.799267104384786306e-02 2.798924168164480114e-02 2.798129419667863549e-02 2.796531806299190626e-02 2.800352438139182970e-02 2.801470538810355709e-02 2.800119866264382321e-02 2.801396839836504254e-02 2.802471792114837046e-02 2.801053423644331644e-02 2.800751639894500516e-02 2.799311303053852312e-02 2.797954707339399272e-02 2.800213295534337288e-02 2.799014546663681352e-02 2.800353100175329360e-02 2.802451688236802518e-02 2.799544536313311113e-02 2.801512359248060219e-02 2.801547282549323239e-02 2.801478921547613521e-02 2.802377666045696714e-02 2.800904362100433559e-02 2.800235805502157560e-02 2.798668902278539372e-02 2.800684860256084235e-02 2.800013136275149306e-02 2.799004817873597395e-02 2.800580813810615508e-02 2.799575023701861287e-02 2.801112926888022978e-02 2.800633000959849503e-02 2.800991275828776730e-02 2.800412897321986547e-02 2.800231705138831254e-02 2.799586784671027895e-02 2.797374478332279729e-02 2.801195414588827232e-02 2.801654830372145646e-02 2.800129236411150191e-02 2.800477742779235862e-02 2.798307356206985314e-02 2.798839297918943175e-02 2.798824229003599520e-02 2.800121869936757907e-02 2.801320307890860228e-02 2.802499924249484548e-02 2.802967742313918625e-02 2.801824227884325974e-02 2.800629940319927791e-02 2.800220662504774097e-02 2.797358228412812758e-02 2.800873615872488329e-02 2.799481282098159260e-02 2.797571744119071308e-02 2.800092333977251616e-02 2.802396738148473995e-02 2.799571153794105233e-02 2.799914563204215084e-02 2.800480680755226479e-02 2.799486625076798643e-02 2.798718496182965934e-02 2.801239073983351549e-02 2.801040640949774285e-02 2.801849118195462451e-02 2.801426128008644573e-02 2.798968573415869243e-02 2.800417672801437663e-02 2.798596172377011693e-02 2.799260160754830223e-02 2.797569247030252601e-02 2.801188887659749466e-02 2.800427333607130587e-02 2.797926999469640963e-02 2.800430602659413626e-02 2.799924681741164031e-02 2.800237149563966632e-02 2.800984946261705216e-02 2.802223689514738228e-02 2.799811295367767711e-02 2.799834268904398404e-02 2.797632082433188644e-02 2.798819908286773878e-02 2.799744678420608077e-02 2.798830651580137135e-02 2.800054999743684450e-02 2.798801893051345441e-02 2.798882874704111332e-02 2.801468673336764484e-02 2.799484942378384009e-02 2.798959281796255943e-02 2.801348658314776682e-02 2.799678853577700077e-02 2.800637268465983043e-02 2.799906680114080948e-02 2.800382627553058001e-02 2.799301092231668703e-02 2.798966506530268725e-02 2.799479044795191024e-02 2.801259939164520152e-02 2.801221347223933206e-02 2.800706980599257725e-02 2.802217373358139446e-02 2.800826229375028009e-02 2.800742641274361899e-02 2.801085605839803358e-02 2.802020913639931277e-02 2.800478918399124800e-02 2.800726779358171659e-02 2.800402677766977710e-02 2.799834029369386093e-02 2.798884655039680577e-02 2.800462615480678319e-02 2.801513012692936205e-02 2.800692383328660939e-02 2.800311245954513126e-02 2.800749794143557111e-02 2.799639128584204342e-02 2.797842372941290040e-02 2.800267865172318196e-02 2.801468448883832549e-02 2.801346271633631257e-02 2.799942391096644362e-02 2.798938398996111965e-02 2.800065465499617517e-02 2.799484896905393705e-02 2.798671153281427973e-02 2.801578258645474190e-02 2.801850808500475770e-02 2.801180967230427685e-02 2.799075668548333534e-02 2.799075297133481535e-02 2.799202747259761648e-02 2.800701741760842911e-02 2.802531870099863459e-02 2.802355479544493128e-02 2.799846864030074156e-02 2.796737983532938260e-02 2.799499557640119235e-02 2.798659290963284238e-02 2.800102787553291478e-02 2.799387542814726904e-02 2.798839335551227270e-02 2.799859868264602952e-02 2.800097642632209949e-02 2.801538749946088508e-02 2.799041970013149000e-02 2.799332232925583544e-02
2.000000000000000000e+00 1.199999995756860505e-01 8.296225681306557131e-04 1.199999999999999956e-01 1.199701818552184607e-01 1.199709724227873420e-01 1.200341979303486267e-01 1.199862068761516493e-01 1.200728059490752397e-01 1.199819998072157307e-01 1.201027347793720834e-01 1.199401278662795001e-01 1.200475964413957319e-01 1.200431008660654553e-01 1.200232670313540334e-01 1.200323031958515085e-01 1.200230889965715614e-01 1.201300228531397840e-01 1.199783758161092895e-01 1.199611885804780231e-01 1.200385585928623183e-01 1.199342031258188723e-01 1.199851553074025440e-01 1.199650771584150760e-01 1.199468475769935732e-01 1.199918099935015220e-01 1.199608521092100089e-01 1.200169054532315566e-01 1.200645206078374549e-01 1.200402870568897107e-01 1.200327744114484119e-01 1.199940726815218739e-01 1.200652576731200405e-01 1.199605266193393832e-01 1.198880588041812689e-01 1.198561257651765133e-01 1.200188144779469335e-01 1.199859158221085326e-01 1.199073625700319834e-01 1.199683108797114511e-01 1.199481039404331761e-01 1.199420332501871800e-01 1.200010024031162442e-01 1.199402714627340605e-01 1.199235145307697703e-01 1.200642801810391652e-01 1.200862278583856302e-01 1.200560127957395196e-01 1.199398838141926132e-01 1.199896563673151367e-01 1.199287162928275030e-01 1.200531535838403052e-01 1.200493772310358837e-01 1.199847461587597586e-01 1.199744677598908876e-01 1.199880020291867327e-01 1.199437112635228786e-01 1.199645359208412199e-01 1.199231206318327747e-01 1.199200158167543911e-01 1.200334429546604659e-01 1.200330549233920019e-01 1.199676090523602440e-01 1.199548129851260303e-01 1.199859118165026300e-01 1.199673509801905680e-01 1.200068855271222978e-01 1.199989169931563043e-01 1.199353792881577563e-01 1.197964757330697849e-01 1.199902873727590330e-01 1.199917055227394530e-01 1.199912611210534330e-01 1.200159240759659102e-01 1.199736734923345788e-01 1.199791599959936367e-01 1.199313495923345352e-01 1.200639886406562884e-01 1.200381902586287464e-01 1.200449145702473519e-01 1.199348091878807976e-01 1.199685901879194022e-01 1.199538929213348482e-01 1.199198322714798703e-01 1.198513631271081736e-01 1.200151044916792781e-01 1.200630230918723756e-01 1.200051371256163901e-01 1.200598645644216089e-01 1.201059339477787286e-01 1.200451467276142242e-01 1.200322131383357305e-01 1.199704844165936646e-01 1.199123446002599430e-01 1.200091412371858679e-01 1.199577662855863536e-01 1.200151328646569815e-01 1.201050723530058262e-01 1.199804801277133404e-01 1.200648153963454201e-01 1.200663121092567093e-01 1.200633823520405874e-01 1.201018999733870080e-01 1.200387583757328708e-01 1.200101059500924550e-01 1.199429529547945683e-01 1.200293511538321756e-01 1.200005629832207044e-01 1.199573493374399002e-01 1.200248920204549513e-01 1.199817867300797813e-01 1.200476968666295552e-01 1.200271286125649817e-01 1.200424832498047101e-01 1.200176955995136963e-01 1.200099302202356222e-01 1.199822907716154852e-01 1.198874776428119904e-01 1.200512320538068833e-01 1.200709213016633858e-01 1.200055387033349963e-01 1.200204746905386977e-01 1.199274581231565134e-01 1.199502556250975488e-01 1.199496098144399725e-01 1.200052229972896345e-01 1.200565846238940138e-01 1.201071396106921929e-01 1.201271889563108042e-01 1.200781811950425437e-01 1.200269974422826236e-01 1.200094569644903075e-01 1.198867812176919734e-01 1.200374406802495048e-01 1.199777692327782530e-01 1.198959318908173199e-01 1.200039571704536318e-01 1.201027173492203171e-01 1.199816208768902381e-01 1.199963384230377933e-01 1.200206006037954076e-01 1.199779982175770698e-01 1.199450784078413823e-01 1.200531031707150614e-01 1.200445988978474376e-01 1.200792479226626824e-01 1.200611197717990491e-01 1.199557960035372434e-01 1.200179002629187530e-01 1.199398359590147928e-01 1.199682926037784342e-01 1.198958248727250986e-01 1.200509523282749791e-01 1.200183142974484418e-01 1.199111571201274540e-01 1.200184543996891673e-01 1.199967720746213107e-01 1.200101635527414251e-01 1.200422119826445033e-01 1.200953009792030679e-01 1.199919126586186102e-01 1.199928972387599296e-01 1.198985178185652256e-01 1.199494246408617237e-01 1.199890576465974940e-01 1.199498850677201828e-01 1.200023571318721977e-01 1.199486525593433661e-01 1.199521232016047823e-01 1.200629431430041971e-01 1.199779261019307264e-01 1.199553977912680980e-01 1.200577996420618410e-01 1.199862365819014398e-01 1.200273115056849915e-01 1.199960005763177906e-01 1.200163983237024778e-01 1.199700468099286765e-01 1.199557074227258074e-01 1.199776733483653435e-01 1.200539973927651771e-01 1.200523434524542882e-01 1.200302991685396198e-01 1.200950302867774128e-01 1.200354098303583472e-01 1.200318274831869148e-01 1.200465259645630001e-01 1.200866105845684872e-01 1.200205250742481938e-01 1.200311476867787774e-01 1.200172576185847551e-01 1.199928869729736947e-01 1.199521995017005932e-01 1.200198263777433605e-01 1.200648434011258314e-01 1.200296735712283319e-01 1.200133391123362758e-01 1.200321340347238752e-01 1.199845340821801831e-01 1.199075302689124184e-01 1.200114799359565110e-01 1.200629335235928186e-01 1.200576973557270499e-01 1.199975310469990480e-01 1.199545028141190822e-01 1.200028056642693380e-01 1.199779241530883056e-01 1.199430494263468983e-01 1.200676396562346121e-01 1.200793203643061025e-01 1.200506128813040446e-01 1.199603857949285979e-01 1.199603698771492116e-01 1.199658320254183702e-01 1.200300746468932617e-01 1.201085087185655709e-01 1.201009491233354098e-01 1.199934370298603170e-01 1.198601992942688044e-01 1.199785524702908363e-01 1.199425410412836152e-01 1.200044051808553530e-01 1.199737518349168891e-01 1.199502572379097382e-01 1.199939943541972753e-01 1.200041846842375692e-01 1.200659464262609222e-01 1.199589415719920921e-01 1.199713814110964366e-01
3.000000000000000000e+00 5.085262666163488099e-01 1.100959826455213779e-02 5.080000000000000071e-01 5.078737698537580947e-01 5.098766327968461409e-01 5.081447712384759008e-01 5.079416091090419583e-01 5.083082118510851011e-01 5.079237991838799759e-01 5.084349105660085355e-01 5.097455434316878753e-01 5.082014916019085282e-01 5.081824603330103995e-01 5.080984970993988048e-01 5.081367501957714250e-01 5.080977434188196362e-01 5.085504300782918152e-01 5.079084576215292524e-01 5.078356983240235323e-01 5.081632313764504749e-01 5.097203632847302490e-01 5.079371574680041634e-01 5.078521599706238288e-01 5.097741022022227453e-01 5.079653289724898046e-01 5.078342739289890551e-01 5.080715664186802316e-01 5.082731372398452407e-01 5.081705485408331002e-01 5.081387450084648982e-01 5.079749076851092227e-01 5.082762574828748603e-01 5.098322381321923613e-01 5.095242499177704554e-01 5.093885345020002786e-01 5.080796479566419555e-01 5.079403769802594004e-01 5.096062909226358739e-01 5.098653212387737055e-01 5.077803066811671373e-01 5.097536413132954802e-01 5.080042435065255102e-01 5.077471491922408431e-01 5.096749367557715793e-01 5.082721194330657166e-01 5.083650312671659233e-01 5.082371208352972625e-01 5.097445062103186375e-01 5.079562119549674293e-01 5.096970442445168947e-01 5.082250168382572708e-01 5.082090302780519764e-01 5.079354254054162521e-01 5.098914879795362065e-01 5.079492085902238552e-01 5.097607728699721230e-01 5.078498687315612381e-01 5.096732626852893411e-01 5.096600672212061589e-01 5.081415751747292431e-01 5.081399325090261154e-01 5.078628783216583287e-01 5.098079551867856773e-01 5.079403600231944260e-01 5.078617858161400545e-01 5.080291487314844145e-01 5.079954152710284276e-01 5.097253619746704434e-01 5.091350218655465998e-01 5.079588832113465235e-01 5.079648867129303857e-01 5.079630054124595340e-01 5.080674119215889961e-01 5.078885511175497136e-01 5.079117773163730476e-01 5.097082357674217468e-01 5.082708852454449477e-01 5.081616720948616273e-01 5.081901383473804712e-01 5.097229390484934175e-01 5.098665082986575392e-01 5.098040449156731047e-01 5.096592871537893865e-01 5.093682932902097171e-01 5.080639423481089212e-01 5.082667977555931360e-01 5.080217471651093941e-01 5.082534266560514435e-01 5.084484537122633263e-01 5.081911211469002376e-01 5.081363689522878646e-01 5.098745587705231230e-01 5.096274645511047474e-01 5.080386979040868445e-01 5.078212106089822209e-01 5.080640624603811606e-01 5.084448062943912605e-01 5.099170405427816410e-01 5.082743851778623867e-01 5.082807212625201077e-01 5.082683186236384154e-01 5.084313765540049435e-01 5.081640771239358534e-01 5.080427818553914232e-01 5.097575500578768182e-01 5.081242532178895654e-01 5.080023832956342966e-01 5.078194455284955611e-01 5.081053762199260193e-01 5.079228971573376272e-01 5.082019167353984956e-01 5.081148444598584391e-01 5.081798457575066319e-01 5.080749113712746956e-01 5.080420379323308255e-01 5.079250309331722057e-01 5.095217799819509175e-01 5.082168823611158404e-01 5.083002335103750102e-01 5.080234471774515148e-01 5.080866761899471840e-01 5.096916970234152133e-01 5.097885864066645789e-01 5.077866815477959372e-01 5.080221106885260962e-01 5.082395415744846989e-01 5.084535576852635685e-01 5.085384332483824377e-01 5.083309670590133722e-01 5.081142891723297028e-01 5.080400344830089399e-01 5.095188201751909007e-01 5.081584988797228641e-01 5.079058897520946081e-01 5.095577105359736514e-01 5.080167520215870258e-01 5.084348367783659839e-01 5.079221950455019563e-01 5.079844993241933171e-01 5.080872092227338710e-01 5.099064924247026509e-01 5.097665832333259095e-01 5.082248034226938271e-01 5.081888020008875628e-01 5.083354828726053265e-01 5.082587403672825799e-01 5.078128697483076381e-01 5.080757777796893748e-01 5.097443028258128450e-01 5.088655077943602389e-01 5.095572557090817245e-01 5.082156981896973624e-01 5.080775305258651287e-01 5.096224177605417349e-01 5.080781236253507638e-01 5.099862813171406328e-01 5.080430257066053112e-01 5.081786973931951001e-01 5.084034408119596504e-01 5.079657635881521527e-01 5.079699316440836609e-01 5.095687007289022574e-01 5.077858976463146545e-01 5.079536773705960462e-01 5.077878467866820955e-01 5.080099785249255762e-01 5.097817733772093129e-01 5.097965236068202621e-01 5.082664593053843882e-01 5.099061859332056912e-01 5.098104406128893817e-01 5.082446851513952035e-01 5.099415054730811470e-01 5.081156187073997410e-01 5.079830691064118886e-01 5.080694195703404636e-01 5.098726989421967781e-01 5.098117565465847267e-01 5.079054838414133188e-01 5.082285889627058406e-01 5.082215872820564639e-01 5.081282664801510807e-01 5.084022948806909969e-01 5.081499016151836967e-01 5.081347363454913335e-01 5.081969599166500373e-01 5.083666514746733034e-01 5.080868894809840164e-01 5.081318585406968680e-01 5.080730572520087973e-01 5.079698881855886361e-01 5.097968478822275662e-01 5.080839316657802529e-01 5.082745037314326808e-01 5.081256181181998954e-01 5.080564689088902242e-01 5.081360340803310338e-01 5.099342698492658199e-01 5.096070036428778094e-01 5.080485983955491669e-01 5.082664185832096448e-01 5.082442521392445123e-01 5.079895480989625733e-01 5.078073952464374763e-01 5.080118773120735343e-01 5.079065455814072427e-01 5.097579600619743800e-01 5.082863412113931556e-01 5.083357895422291328e-01 5.082142611975204449e-01 5.098316396284464647e-01 5.098315719778842015e-01 5.098547861080281463e-01 5.081273160051814619e-01 5.084593535752609528e-01 5.084273512887866886e-01 5.079722167597420235e-01 5.094058470006423978e-01 5.079092054575645721e-01 5.097557994254553471e-01 5.080186485989542922e-01 5.078888827678148532e-01 5.077894223071512947e-01 5.079745760994350823e-01 5.080177151632723209e-01 5.082791732045046640e-01 5.098255016809664086e-01 5.078788479736415784e-01
4.000000000000000000e+00 1.819645643778873279e+00 8.744383403416993925e-03 1.819999999999999840e+00 1.819547758137479931e+00 1.819559748412274525e+00 1.820518668610287438e+00 1.819790804288299979e+00 1.819103010128489517e+00 1.819726997076105190e+00 1.819556431907487060e+00 1.819091939305239158e+00 1.820721879361168583e+00 1.820653696468659266e+00 1.820352883308869574e+00 1.820489931803748185e+00 1.820350183114668674e+00 1.819969846225067744e+00 1.819672033210990802e+00 1.819411360137249911e+00 1.820584805325078603e+00 1.819002080741586314e+00 1.819774855495605248e+00 1.819470336902628604e+00 1.819193854917735997e+00 1.819875784901439753e+00 1.819406256989685167e+00 1.820256399374011957e+00 1.818977487208737642e+00 1.818610348911879004e+00 1.820497078573634075e+00 1.819910102336415036e+00 1.818988653747768414e+00 1.819401320393314148e+00 1.820300359510152344e+00 1.819815509534596920e+00 1.820285352915528509e+00 1.819786389968645945e+00 1.820593455021652041e+00 1.819519381675623659e+00 1.819212909763236574e+00 1.819120837627838938e+00 1.820015203113929836e+00 1.819094117184799853e+00 1.818839970383341553e+00 1.818973844742743262e+00 1.819306352054542497e+00 1.818848593855453721e+00 1.819088237848587974e+00 1.819843121570946076e+00 1.818918863774550365e+00 1.818805276795180559e+00 1.818748065050193707e+00 1.819768650074522931e+00 1.819612761025011682e+00 1.819818030775998796e+00 1.819146287496763437e+00 1.819462128132758538e+00 1.818833996249463958e+00 1.818786906554108240e+00 1.820507218145683614e+00 1.820501333004778566e+00 1.819508737294130318e+00 1.819314663607744853e+00 1.819786329216956489e+00 1.819504823199556975e+00 1.820104430494688508e+00 1.819983574396204062e+00 1.819019919203725966e+00 1.818909823213776145e+00 1.819852691820178725e+00 1.819874200428214905e+00 1.819867460335977016e+00 1.820241515152149603e+00 1.819600714633740957e+00 1.819683926605903501e+00 1.818958802150407061e+00 1.818969427905942737e+00 1.820579218922535603e+00 1.820681204315418134e+00 1.819011272682858671e+00 1.819523617850110853e+00 1.819300709306912012e+00 1.818784122784111279e+00 1.819743196813258912e+00 1.820229084790468743e+00 1.818954799841866699e+00 1.820077913071848297e+00 1.818906948150987413e+00 1.819604899308847612e+00 1.820684725368815648e+00 1.820488565931425384e+00 1.819552346985004121e+00 1.820669098847280232e+00 1.820138642097318904e+00 1.819359455331392983e+00 1.820229515113964025e+00 1.819591846148038261e+00 1.819703948603652144e+00 1.818981953254633410e+00 1.819004628455239247e+00 1.818960242633414826e+00 1.819543784596813207e+00 1.818587189392353087e+00 1.820153273576402331e+00 1.819134786481050536e+00 1.820445159166454552e+00 1.820008538578847368e+00 1.819353131617838182e+00 1.820377528976900194e+00 1.819723765406209726e+00 1.820723402477214981e+00 1.820411450623902194e+00 1.820644329288704899e+00 1.820268383259291411e+00 1.820150608340240339e+00 1.819731410036168118e+00 1.820291535543361983e+00 1.818776165615174412e+00 1.819074457720200266e+00 1.820084003667247430e+00 1.820310532806503678e+00 1.818899781534540461e+00 1.819245543647312724e+00 1.819235748852339629e+00 1.820079215458892730e+00 1.818857257051994303e+00 1.819623165101986739e+00 1.819926912688108578e+00 1.819184445104894632e+00 1.820409461207952884e+00 1.820143430628103021e+00 1.820280961488623062e+00 1.818567226305779938e+00 1.819662833363803633e+00 1.820419899208910008e+00 1.820060017085213477e+00 1.819556167840687966e+00 1.819721249966168575e+00 1.819944466082739742e+00 1.820312442490897187e+00 1.819666306299918990e+00 1.819167022518928034e+00 1.820805398089178517e+00 1.818675673302388773e+00 1.819200606028339662e+00 1.818925964542755569e+00 1.819329572720314925e+00 1.820271487320934467e+00 1.819087512045057586e+00 1.819519104490639583e+00 1.818420010569664402e+00 1.818771927773366048e+00 1.820277766844634826e+00 1.818652549655266792e+00 1.820279891728618926e+00 1.819951043131756707e+00 1.820154147216578311e+00 1.820640215070108203e+00 1.819443809834926373e+00 1.819877341989048825e+00 1.819892274787858977e+00 1.820459162211881754e+00 1.819232940386402930e+00 1.819834040973395295e+00 1.819239923527089076e+00 1.820035749833394778e+00 1.819221230483374363e+00 1.819273868557672369e+00 1.818953588616513573e+00 1.819665212545949595e+00 1.819323533167565898e+00 1.818875664577237039e+00 1.819791254825505078e+00 1.820414224502888922e+00 1.819939342074152977e+00 1.820248707909487784e+00 1.819545709950584733e+00 1.819328229244674855e+00 1.819661379116874533e+00 1.818818060500392075e+00 1.818793003304682410e+00 1.820459537389517601e+00 1.819439708844677650e+00 1.820537049093768234e+00 1.820482716828335068e+00 1.818704868363129501e+00 1.819312150356212632e+00 1.820311296959431058e+00 1.820472406582811509e+00 1.820261740548535290e+00 1.819892119090100957e+00 1.819275025775792365e+00 1.820300700062440935e+00 1.818982377527056382e+00 1.818449554604109286e+00 1.820202309870433410e+00 1.820487366193312084e+00 1.819765433579732861e+00 1.818597542411838353e+00 1.820174112362006769e+00 1.818953442882431215e+00 1.818874114939264874e+00 1.819962554212818828e+00 1.819309959347472638e+00 1.820042552574751671e+00 1.819665182988506213e+00 1.819136249632928193e+00 1.819024740791954420e+00 1.819201703519237601e+00 1.818766785151756160e+00 1.819399184556417026e+00 1.819398943136762981e+00 1.819481785718845446e+00 1.820456132144547823e+00 1.819643907086268442e+00 1.819529379218531639e+00 1.819900461619548215e+00 1.819877359284647778e+00 1.819674712466077704e+00 1.819128539126134925e+00 1.820066811909639481e+00 1.819601902829572682e+00 1.819245568108297739e+00 1.819908914371991981e+00 1.820063467710936411e+00 1.818999088357853289e+00 1.819377280508546857e+00 1.819565951401629356e+00
5.000000000000000000e+00 4.836239160745808618e+00 1.659184181235251118e-02 4.836000000000000298e+00 4.836797831796223690e+00 4.834830188638330029e+00 4.835377606627544012e+00 4.836044068143385388e+00 4.838483806725236036e+00 4.835274592230794255e+00 4.836136787116049440e+00 4.835586155142168607e+00 4.833916550040201265e+00 4.835736246554669826e+00 4.838938049147423648e+00 4.837301818792816732e+00 4.836930486561834108e+00 4.835233419838876223e+00 4.837128184986139168e+00 4.836435252936271745e+00 4.837553911292351572e+00 4.835347289355930833e+00 4.837401511476778992e+00 4.836592027436767971e+00 4.835857071479124691e+00 4.837669806238002579e+00 4.836421687536316405e+00 4.836681289765231817e+00 4.834598029808922171e+00 4.837623568392655393e+00 4.837320808781370829e+00 4.835761129065331509e+00 4.838629884226737232e+00 4.836408564869699944e+00 4.835485038435311189e+00 4.834197072528787054e+00 4.836758223461261608e+00 4.837432172894675197e+00 4.834265167615122039e+00 4.834722928452371171e+00 4.835907723865131125e+00 4.835662973870046066e+00 4.836040396845584510e+00 4.837590948996940199e+00 4.834916360832201221e+00 4.838590491295877705e+00 4.835472108430995064e+00 4.834355495252534496e+00 4.835576315775532485e+00 4.835583151602799390e+00 4.835126078539161654e+00 4.836141203535699873e+00 4.835989079456895823e+00 4.835385270198018226e+00 4.836970625186267192e+00 4.835516481776225284e+00 4.835730625774363745e+00 4.836570206541915162e+00 4.834900480140058576e+00 4.834775304345480862e+00 4.835347193690239465e+00 4.836781961910686434e+00 4.836694104960990614e+00 4.834178963300579390e+00 4.837432011401998189e+00 4.836683700351349202e+00 4.838277601501814296e+00 4.835956354824199721e+00 4.835394708300893463e+00 4.833787795829366019e+00 4.837608419245068347e+00 4.837665594325112117e+00 4.837647677530470425e+00 4.834641474860159605e+00 4.836938602965955347e+00 4.837159800505143714e+00 4.835232244397620782e+00 4.836577675741104088e+00 4.835538430918427721e+00 4.835809308604797074e+00 4.835371723758060902e+00 4.834734184573152405e+00 4.836141116278483310e+00 4.834767904411830131e+00 4.834004979460029716e+00 4.836608711014674711e+00 4.836538780217592759e+00 4.838207111781100522e+00 4.834410546460709668e+00 4.838267372529686305e+00 4.837819413122852907e+00 4.837298189474929622e+00 4.836810030062334675e+00 4.834466026467146627e+00 4.836768422329288164e+00 4.834297981309130243e+00 4.836609854445676149e+00 4.836230913414367727e+00 4.835213349146847861e+00 4.834609899959509960e+00 4.838572322742861864e+00 4.836553252414701021e+00 4.836103172261716487e+00 4.835561316569106260e+00 4.836407269788726815e+00 4.835700053294133660e+00 4.835182362313539706e+00 4.836022688223794219e+00 4.836280467454451504e+00 4.837003148424334320e+00 4.835266005222214503e+00 4.835921388777394192e+00 4.835092830942826048e+00 4.835711366912966547e+00 4.836713132660403147e+00 4.836400187875495860e+00 4.837286022942297592e+00 4.833463473632702900e+00 4.838064651768417157e+00 4.836856946435339921e+00 4.836223209744400897e+00 4.836825130028709729e+00 4.835075353331927062e+00 4.835994472618516227e+00 4.835968435685504829e+00 4.836210486790772478e+00 4.836779653035129911e+00 4.836314154990538405e+00 4.835119355491509729e+00 4.837149399140296957e+00 4.837087996923989941e+00 4.838381273285035533e+00 4.835433509113576278e+00 4.837508859414055173e+00 4.837103729568176469e+00 4.835802586262966329e+00 4.836159473969281031e+00 4.836136085261937723e+00 4.837259015019958142e+00 4.837852377422140471e+00 4.838830547676352012e+00 4.835113328168356261e+00 4.835785744476138959e+00 4.836139172726971580e+00 4.835796592268287952e+00 4.837192370484594939e+00 4.836462108140638705e+00 4.836217842209276974e+00 4.836721380595625952e+00 4.835574386414279502e+00 4.836721663475667121e+00 4.835798269866579346e+00 4.834051680418538943e+00 4.836738066187172613e+00 4.834418151226472560e+00 4.834743404734144434e+00 4.833869968405995365e+00 4.836409591175478973e+00 4.835700439367529135e+00 4.835837452762576483e+00 4.837673945353307303e+00 4.837713640342671262e+00 4.835906885348797424e+00 4.835960970104075329e+00 4.837558840785322722e+00 4.835979532980251960e+00 4.838095031699980453e+00 4.835929842350860319e+00 4.836069767078032378e+00 4.836535559610686263e+00 4.835110421907809375e+00 4.836201787617959269e+00 4.835177808334581329e+00 4.835445334250628058e+00 4.837100653679105022e+00 4.835838823225606653e+00 4.838661125750605585e+00 4.836542449622769801e+00 4.836214270926229020e+00 4.837099863828262514e+00 4.838176094928435589e+00 4.836108568743033409e+00 4.835220551506004050e+00 4.835826552880903684e+00 4.835426425999601818e+00 4.837282647572433092e+00 4.835874220939145651e+00 4.837488963048366841e+00 4.836827160492202182e+00 4.837255251777184739e+00 4.836695482028964932e+00 4.835713345010839603e+00 4.834073639918534226e+00 4.836799003023057431e+00 4.834611027618667123e+00 4.837195844920501919e+00 4.838337766313650867e+00 4.837295001599372313e+00 4.835376723511861208e+00 4.836270387512801250e+00 4.836462641419046804e+00 4.836535172108731295e+00 4.836324241813204416e+00 4.835900501194061896e+00 4.836165705122567715e+00 4.836113068270054605e+00 4.837109975438677267e+00 4.835703942705553260e+00 4.836724750818651053e+00 4.835193966669392829e+00 4.836038855568530970e+00 4.836402887298871356e+00 4.836402245547065881e+00 4.836622461158117225e+00 4.837212008269798247e+00 4.836369284400907631e+00 4.836064884699640132e+00 4.837085438470050569e+00 4.834361371535507601e+00 4.837135307093892500e+00 4.835683446314417822e+00 4.836177528788470958e+00 4.836941761477732804e+00 4.835994537641727931e+00 4.837757872380053392e+00 4.838168712519511416e+00 4.836656541871211523e+00 4.834345345351281686e+00 4.836846193890704804e+00
6.000000000000000000e+00 3.217380273202775226e-03 2.683489404831391204e-05 3.231679741083676085e-03 3.216512881515775236e-03 3.216437864368998627e-03 3.218369555898490872e-03 3.216812950102880802e-03 3.219226894718792923e-03 3.216968342764060362e-03 3.220060120884773829e-03 3.215706447187928647e-03 3.218752679183813428e-03 3.218468685699588626e-03 3.217989111796982354e-03 3.218415102023319558e-03 3.217812285665294821e-03 3.220869234396433588e-03 3.216703103566529495e-03 3.216231567215363605e-03 3.218206125685870930e-03 3.215422453703703845e-03 3.216941550925926045e-03 3.216400355795610323e-03 3.215904706790123288e-03 3.216839741941015119e-03 3.216295867626886226e-03 3.217517575445816031e-03 3.219151877572016315e-03 3.218123070987654374e-03 3.218173975480109836e-03 3.217075510116598064e-03 3.219358174725651771e-03 3.216081532921810822e-03 3.214299875685870927e-03 3.213638117283950778e-03 3.217938207304526892e-03 3.216976380315500744e-03 3.214902692043895664e-03 3.216411072530864310e-03 3.215781464334705256e-03 3.215765389231824492e-03 3.217603309327846193e-03 3.215435849622771004e-03 3.215438528806584175e-03 3.218945580418381292e-03 3.219395683299039641e-03 3.218875921639231894e-03 3.215741276577503346e-03 3.217281807270233086e-03 3.215197402263374454e-03 3.218624078360768186e-03 3.218712491426611953e-03 3.216837062757201514e-03 3.216622728052126109e-03 3.217064793381344510e-03 3.215982403120713502e-03 3.216202096193415683e-03 3.215285815329218221e-03 3.215216156550068389e-03 3.218286501200274315e-03 3.218482081618655784e-03 3.216202096193415683e-03 3.216212812928669236e-03 3.216654878257887637e-03 3.216526277434842394e-03 3.217573838305898704e-03 3.217346107681755708e-03 3.215760030864197715e-03 3.211749292695473181e-03 3.217134452160493908e-03 3.216938871742112439e-03 3.217185356652949371e-03 3.217895340363511811e-03 3.216475372942386932e-03 3.216898683984910964e-03 3.215296532064471774e-03 3.219095614711934075e-03 3.218329368141289396e-03 3.219047389403292218e-03 3.215422453703703845e-03 3.216470014574760155e-03 3.215982403120713502e-03 3.215192043895747677e-03 3.213067451131687135e-03 3.217662251371742037e-03 3.219042031035665441e-03 3.217332711762688549e-03 3.219194744513031396e-03 3.220132458847736832e-03 3.218457968964334639e-03 3.218165937928669455e-03 3.216670953360767967e-03 3.214739261831275723e-03 3.217573838305898704e-03 3.216330697016460925e-03 3.217622063614540562e-03 3.220250342935528087e-03 3.216692386831275507e-03 3.219387645747599259e-03 3.219100973079560852e-03 3.218964334705075661e-03 3.220309284979423932e-03 3.218168617112483060e-03 3.217597950960219416e-03 3.215765389231824492e-03 3.218090920781892846e-03 3.217415766460905539e-03 3.216073495370370440e-03 3.217855152606309901e-03 3.216885288065843805e-03 3.218573173868312723e-03 3.218211484053498141e-03 3.218214163237311312e-03 3.217747985253772199e-03 3.217611346879286575e-03 3.216719178669410258e-03 3.214439193244170156e-03 3.218875921639231894e-03 3.219184027777777842e-03 3.217547046467763953e-03 3.217879265260631047e-03 3.215261702674897075e-03 3.216105645576131534e-03 3.216094928840877980e-03 3.217378257887517235e-03 3.218854488168724354e-03 3.219993141289437602e-03 3.220767425411522663e-03 3.219650205761316955e-03 3.217739947702331817e-03 3.217597950960219416e-03 3.214348100994513218e-03 3.218232917524005681e-03 3.216598615397805398e-03 3.214500814471879173e-03 3.217263052983539151e-03 3.220073516803840987e-03 3.216885288065843805e-03 3.217225544410150847e-03 3.217975715877914762e-03 3.216595936213991792e-03 3.215936856995884816e-03 3.218589248971193487e-03 3.218415102023319558e-03 3.219371570644718929e-03 3.219133123285322379e-03 3.216250321502057540e-03 3.217788173010974109e-03 3.215510866769547178e-03 3.216563786008230265e-03 3.214661565500685943e-03 3.218637474279835344e-03 3.217881944444444652e-03 3.214958954903977904e-03 3.217675647290809196e-03 3.217597950960219416e-03 3.217648855452674879e-03 3.218133787722907927e-03 3.220140496399176780e-03 3.216735253772291022e-03 3.217201431755829701e-03 3.214283800582990597e-03 3.216006515775034214e-03 3.217032643175582983e-03 3.216119041495198692e-03 3.217086226851852051e-03 3.216183341906721747e-03 3.215872556584362194e-03 3.219224215534979318e-03 3.216424468449931469e-03 3.215698409636488266e-03 3.219371570644718929e-03 3.217029963991769378e-03 3.218141825274348309e-03 3.217305919924554232e-03 3.217592592592592639e-03 3.216536994170095948e-03 3.216041345164608913e-03 3.216804912551440420e-03 3.218731245713305888e-03 3.218926826131687357e-03 3.218106995884773610e-03 3.219974387002743667e-03 3.218364197530864095e-03 3.218168617112483060e-03 3.218495477537722943e-03 3.219577867798353952e-03 3.217501500342935701e-03 3.218324009773662620e-03 3.217640817901234497e-03 3.217348786865569313e-03 3.216207454561042459e-03 3.217793531378600885e-03 3.219178669410151065e-03 3.217769418724279740e-03 3.217713155864197500e-03 3.218299897119341474e-03 3.216660236625514414e-03 3.214873221021947742e-03 3.217474708504800950e-03 3.219082218792866917e-03 3.218921467764060147e-03 3.217359503600822866e-03 3.216161908436214207e-03 3.217313957475994614e-03 3.216810270919067197e-03 3.215674296982167554e-03 3.219122406550068392e-03 3.219564471879286793e-03 3.218862525720164736e-03 3.216344092935528084e-03 3.216057420267489676e-03 3.216478052126200103e-03 3.218066808127572134e-03 3.220427169067215187e-03 3.220022612311385524e-03 3.217308599108367837e-03 3.213335369513031607e-03 3.216614690500685728e-03 3.215832368827160285e-03 3.217488104423868109e-03 3.216378922325102783e-03 3.216132437414266285e-03 3.216976380315500744e-03 3.217372899519890458e-03 3.218961655521262056e-03 3.216376243141289611e-03 3.216636123971193268e-03
