# vvf statistics with RF=500
# gcat file: /disk2/salam/Abacus/AbacusCosmos_720box_products/GCAT_derivative/AbacusCosmos_720box_planck_rockstar_halos_z0.100_Mr21_hod-fradsat-neg_real-4.gcat.rsd_zz.1pz0.100by100
# stats order in row: stdvvf,p2.5,p16,p50,p84,p97.5,rho
# columns: numbers, mean, sigma,All, jnrealizations
0.000000000000000000e+00 1.448171985803424100e+00 4.980906295633639319e-03 1.448172215481582592e+00 1.448315925522928094e+00 1.447751854317006037e+00 1.448207182198525400e+00 1.448182354105900460e+00 1.448426691921001819e+00 1.448309400799271840e+00 1.448083361374746358e+00 1.447374309203449227e+00 1.446984864433371154e+00 1.448049711790711180e+00 1.448667058435398003e+00 1.448583479619695247e+00 1.448241899364772101e+00 1.447880498540577987e+00 1.448323438448174239e+00 1.448281106968441145e+00 1.448436109142742456e+00 1.447957866388611903e+00 1.448390210914076714e+00 1.448418433816499817e+00 1.448245128959386507e+00 1.448913531496930140e+00 1.448236685080242614e+00 1.448344900729424456e+00 1.447952417922372170e+00 1.448446627779629958e+00 1.448396011839361064e+00 1.448011862905554725e+00 1.448791837141980343e+00 1.447808434421176127e+00 1.448070944613979671e+00 1.447598552178843034e+00 1.448241121041377033e+00 1.448213398601186697e+00 1.447515905095778876e+00 1.447753443711810029e+00 1.448198639381934161e+00 1.448130787338771430e+00 1.448126145928186226e+00 1.448370239751158195e+00 1.448200004653196871e+00 1.447995727505303920e+00 1.448360102873101019e+00 1.447984855872262555e+00 1.447582758423043625e+00 1.448490694663364664e+00 1.447738149343198888e+00 1.448658008701181332e+00 1.448372163008394331e+00 1.448021127796246477e+00 1.447313032647455922e+00 1.448248239794885706e+00 1.448046535891908793e+00 1.448204578586711699e+00 1.447683584482013064e+00 1.447928884217258183e+00 1.448141512001098086e+00 1.448212896732605781e+00 1.448321421058780256e+00 1.447788945529611349e+00 1.448428732425276477e+00 1.448447533407258625e+00 1.448579498654473996e+00 1.448219283793739987e+00 1.448132082428913003e+00 1.447503923342092325e+00 1.448783919576060120e+00 1.448464833526773798e+00 1.448538202571171274e+00 1.448190405101775990e+00 1.448322937193642135e+00 1.448626693926127862e+00 1.447659779124707002e+00 1.448244906486151118e+00 1.448267189027083512e+00 1.448360669923051125e+00 1.448149897115917684e+00 1.447968717396901583e+00 1.448087016590502873e+00 1.447938786568300440e+00 1.447756350246551582e+00 1.448358815308982583e+00 1.447032334545214960e+00 1.448403041517460466e+00 1.448053663127379043e+00 1.448760286760118587e+00 1.448204091329562182e+00 1.448593040382421204e+00 1.447857270502354021e+00 1.447814852468019664e+00 1.448290164984680439e+00 1.448058023538310923e+00 1.448376022291553600e+00 1.448423519319801622e+00 1.447844065991013451e+00 1.447812488761409666e+00 1.448556467482005061e+00 1.448190099226663419e+00 1.448336376912999768e+00 1.448132206576980385e+00 1.448280171845042874e+00 1.447779439427435255e+00 1.447674094735367012e+00 1.447795864492697371e+00 1.448268847211628962e+00 1.448373007871379903e+00 1.448047218966251881e+00 1.448204535641691493e+00 1.448140817564192773e+00 1.448132876827889159e+00 1.448347313318367746e+00 1.448340997087393944e+00 1.448238352806096030e+00 1.447608490503288881e+00 1.448708361108201448e+00 1.448491892042285123e+00 1.448435196758941723e+00 1.448032602960941162e+00 1.447681701460304504e+00 1.448362690874775538e+00 1.447943112222317863e+00 1.447812525091670244e+00 1.448201471675312879e+00 1.448175585378968400e+00 1.447790774433295846e+00 1.448371931715376482e+00 1.448765188493557288e+00 1.448565519290322401e+00 1.448134119413021059e+00 1.448076626818491475e+00 1.448234147365370150e+00 1.447797616313965863e+00 1.448193666637294985e+00 1.448288976968777675e+00 1.448443594508844967e+00 1.448476907008083847e+00 1.448652984138717681e+00 1.447684420510622738e+00 1.447310099797242788e+00 1.447852851313738975e+00 1.448182206891501345e+00 1.448322930363422634e+00 1.448061210170107582e+00 1.448463698560395363e+00 1.448487941946148494e+00 1.447988961307614453e+00 1.447975315532046503e+00 1.448326235344841173e+00 1.447929351368555606e+00 1.448045044859816111e+00 1.447819083259179518e+00 1.448066863796258152e+00 1.447505598486632294e+00 1.448435791215887836e+00 1.448256473880493944e+00 1.448805429799129518e+00 1.448412766405229757e+00 1.448544995919410772e+00 1.447603620140401892e+00 1.448261288670078528e+00 1.448658243531450340e+00 1.448249077884828262e+00 1.448282204882270774e+00 1.448336018037772677e+00 1.447945102480342694e+00 1.447978449139540436e+00 1.447646998673863150e+00 1.447730939545000650e+00 1.448464964546070322e+00 1.447931245469792128e+00 1.448266180831573102e+00 1.447828649420620062e+00 1.448776608215194939e+00 1.447957213991884151e+00 1.448245904457409416e+00 1.448367660704361626e+00 1.448680906585090078e+00 1.448137456686186653e+00 1.447851543846799593e+00 1.448552413647215653e+00 1.448542866048011968e+00 1.448367717738806348e+00 1.448387313487816241e+00 1.448689785658813234e+00 1.448569583853620335e+00 1.448520640722560815e+00 1.448472675832451761e+00 1.447964716682926367e+00 1.447510589315924578e+00 1.448486096885899244e+00 1.448288294117582309e+00 1.448489314963036234e+00 1.448420985926443860e+00 1.448083417429712583e+00 1.447750397657715515e+00 1.448148882895311962e+00 1.448499726285819245e+00 1.448300269427063247e+00 1.448551336018355062e+00 1.447957366599802453e+00 1.448329963168886625e+00 1.448280819623645632e+00 1.448082049722879239e+00 1.447857243004370797e+00 1.448482868342002128e+00 1.448571825665755597e+00 1.447865360851721350e+00 1.448171384249035798e+00 1.447991398688030618e+00 1.447875367274537917e+00 1.448327009565341328e+00 1.448209971305084220e+00 1.447989058984679778e+00 1.447968882269074609e+00 1.447668380032312019e+00 1.448124419291997533e+00 1.448506837035074213e+00 1.448003531763137453e+00 1.448228590044992936e+00 1.448020846892876135e+00 1.448766054108597601e+00 1.448653217777932767e+00 1.448472329412516135e+00 1.447706538314049496e+00 1.448147681602505177e+00
1.000000000000000000e+00 1.999999988298536979e-02 1.466982579276384594e-04 2.000000000000000042e-02 1.999476199036674326e-02 1.999482472427753857e-02 2.000843924187484940e-02 1.999787976322238772e-02 2.001303621243546299e-02 1.999533074941967775e-02 2.001958396969816950e-02 1.998978317743541414e-02 2.000470933933168327e-02 2.000395667017882545e-02 2.000566919429103488e-02 2.000616146732805273e-02 2.000513921350658558e-02 2.002391434220969837e-02 1.999860270437289408e-02 1.999207657060070309e-02 2.000482079865381624e-02 1.998925065182921221e-02 1.999619331003137448e-02 1.999196935482539655e-02 1.999120456008287791e-02 2.000108248523857490e-02 1.999311548059241883e-02 2.000215481984243121e-02 2.001392961161756190e-02 2.000515504102091599e-02 2.000562537292034995e-02 2.000088684028654765e-02 2.001018636684586890e-02 1.999143455572906930e-02 1.997920079138582050e-02 1.997505135784822389e-02 2.000313697315933212e-02 1.999779999289860721e-02 1.997863189685326543e-02 1.999388533672298920e-02 1.999185447476370045e-02 1.999068860603952016e-02 1.999934225351876482e-02 1.998892037533414948e-02 1.998804659597059122e-02 2.000920343915946198e-02 2.001346394576490953e-02 2.000981750675798893e-02 1.998818972094219479e-02 1.999802802934108614e-02 1.998711719624816918e-02 2.000791301115234858e-02 2.000552454823537746e-02 1.999596635069507411e-02 1.999637918957974936e-02 1.999908559794808666e-02 1.998893755640944112e-02 1.999110474407742033e-02 1.998446694446329858e-02 1.998561341928978621e-02 2.000529850922050726e-02 2.000612229044948162e-02 1.999556877016218231e-02 1.999453361588118816e-02 1.999951874392134898e-02 1.999599808302792575e-02 2.000418897334692303e-02 2.000388940853045291e-02 1.999144089934057691e-02 1.996476385599926795e-02 1.999976764620384206e-02 1.999999910128843345e-02 1.999910878164673153e-02 2.000520764779392668e-02 1.999443769506569629e-02 1.999348850104299899e-02 1.998769517669988019e-02 2.001006956762746772e-02 2.000843080383158529e-02 2.000850986234333634e-02 1.998846001554557827e-02 1.999381212204224406e-02 1.999217022950710437e-02 1.998631379120258122e-02 1.997603206843601154e-02 2.000585416382929041e-02 2.001064728140112409e-02 2.000252008432460565e-02 2.001147049740678238e-02 2.002067304540262882e-02 2.000562990254662818e-02 2.000816071500267218e-02 1.999308950525572823e-02 1.998360873487051853e-02 1.999774278860496149e-02 1.999272413193297487e-02 2.000402745219715533e-02 2.001953292771469634e-02 1.999578992485693749e-02 2.001240313182187092e-02 2.001256925525297936e-02 2.001032270850575806e-02 2.001772388802646602e-02 2.000869040385842151e-02 2.000433762357825551e-02 1.998894593684967871e-02 2.000679635890663041e-02 2.000055085440533703e-02 1.999224915149131268e-02 2.000342275477431583e-02 1.999471840543327189e-02 2.000816420712060381e-02 2.000623318049576244e-02 2.000667023198587219e-02 2.000369976035134070e-02 2.000485319130448914e-02 1.999625001566986485e-02 1.998263393416663605e-02 2.000829300561554960e-02 2.001320877170664411e-02 2.000102652495925823e-02 2.000475373544747387e-02 1.998896660343056977e-02 1.999418660712207890e-02 1.999131626711028384e-02 1.999808384934245384e-02 2.001325530794495142e-02 2.001558247134179944e-02 2.002374992511118598e-02 2.001184041018914256e-02 2.000660907972786479e-02 2.000275674883394972e-02 1.997877115500044584e-02 2.000378576533543007e-02 1.999759341910888749e-02 1.998136908797404701e-02 1.999768506840203519e-02 2.001548128051698627e-02 1.999738609345826437e-02 1.999730754846141406e-02 2.000374640830671069e-02 1.999702546373784140e-02 1.998885689801838464e-02 2.000736193367232477e-02 2.000688029025570261e-02 2.001328078279069472e-02 2.001118139869557597e-02 1.999301626691483633e-02 2.000357935084423958e-02 1.998939557243114423e-02 1.999530975236259861e-02 1.998578245342198453e-02 2.000815119477332427e-02 2.000283580212548068e-02 1.998415461731486292e-02 2.000793395293421276e-02 1.999769528540108407e-02 2.000369899377915997e-02 2.000713633820943096e-02 2.001617861067735496e-02 1.999938947705322961e-02 1.999867170239813183e-02 1.998111897695589376e-02 1.999265332612540011e-02 1.999989065942149244e-02 1.999015646268630791e-02 1.999835077266063840e-02 1.999307056123831444e-02 1.999125387023988065e-02 2.001081841873617734e-02 1.999273250351623482e-02 1.999339426115369356e-02 2.001057135884366442e-02 1.999745269779253445e-02 2.000441519213361913e-02 1.999955714569282006e-02 2.000211349935827540e-02 1.999506911913329077e-02 1.999229291966179295e-02 1.999548890262389453e-02 2.001154015085670687e-02 2.000927064279407058e-02 2.000558987090934188e-02 2.001553137866486989e-02 2.000705512520852686e-02 2.000645988226394667e-02 2.000576807270664989e-02 2.001556251556318999e-02 2.000320723571646572e-02 2.000438094192249702e-02 2.000266672029174866e-02 1.999316219709572698e-02 1.999431837366402037e-02 2.000477872315089764e-02 2.000953029202372918e-02 1.999954440609353137e-02 2.000081872132016339e-02 2.000542711036341556e-02 1.999843251467950389e-02 1.998457308875648680e-02 2.000177860762613474e-02 2.001452432783216648e-02 2.000889191028628472e-02 2.000026918988275296e-02 1.999507552135159488e-02 2.000036055240459951e-02 1.999298318667613178e-02 1.998739343267979737e-02 2.001033820419037546e-02 2.001310449681501652e-02 2.000646781780487590e-02 1.999446428906275636e-02 1.999169988471103526e-02 1.999410284263089185e-02 2.000480756860425688e-02 2.002125716963476174e-02 2.001692972564428352e-02 1.999676131044718017e-02 1.997316625628175676e-02 1.999521727931831069e-02 1.999171022301791945e-02 2.000152982030800608e-02 1.999425601509264086e-02 1.999056201968005611e-02 1.999988339350298322e-02 1.999916446757676880e-02 2.001271483290785122e-02 1.999634359577644530e-02 1.999614498453858649e-02
2.000000000000000000e+00 9.999999941492683508e-02 7.334912896381885023e-04 1.000000000000000056e-01 9.997380995183370589e-02 9.997412362138770325e-02 1.000421962093742401e-01 9.998939881611193514e-02 1.000651810621773219e-01 9.997665374709839570e-02 1.000979198484908406e-01 9.994891588717706721e-02 1.000235466966584164e-01 1.000197833508941203e-01 1.000283459714551848e-01 1.000308073366402706e-01 1.000256960675329349e-01 1.001195717110484884e-01 9.999301352186446001e-02 9.996038285300351545e-02 1.000241039932690812e-01 9.994625325914606451e-02 9.998096655015688283e-02 9.995984677412700359e-02 9.995602280041439303e-02 1.000054124261928745e-01 9.996557740296210803e-02 1.000107740992121630e-01 1.000696480580878234e-01 1.000257752051045695e-01 1.000281268646017463e-01 1.000044342014327486e-01 1.000509318342293341e-01 9.995717277864533956e-02 9.989600395692910251e-02 9.987525678924111250e-02 1.000156848657966641e-01 9.998899996449306382e-02 9.989315948426631675e-02 9.996942668361494255e-02 9.995927237381849184e-02 9.995344303019761123e-02 9.999671126759382411e-02 9.994460187667074391e-02 9.994023297985296650e-02 1.000460171957973099e-01 1.000673197288245442e-01 1.000490875337899516e-01 9.994094860471097741e-02 9.999014014670544459e-02 9.993558598124084591e-02 1.000395650557617394e-01 1.000276227411768942e-01 9.997983175347537055e-02 9.998189594789876067e-02 9.999542798974042634e-02 9.994468778204719517e-02 9.995552372038712940e-02 9.992233472231649982e-02 9.992806709644894148e-02 1.000264925461025328e-01 1.000306114522473977e-01 9.997784385081090464e-02 9.997266807940594080e-02 9.999759371960673104e-02 9.997999041513962182e-02 1.000209448667346152e-01 1.000194470426522680e-01 9.995720449670288110e-02 9.982381927999633975e-02 9.999883823101921032e-02 9.999999550644216029e-02 9.999554390823367500e-02 1.000260382389696334e-01 9.997218847532848840e-02 9.996744250521499842e-02 9.993847588349939748e-02 1.000503478381373351e-01 1.000421540191579195e-01 1.000425493117166609e-01 9.994230007772789137e-02 9.996906061021121337e-02 9.996085114753552880e-02 9.993156895601290612e-02 9.988016034218004380e-02 1.000292708191464486e-01 1.000532364070056135e-01 1.000126004216230352e-01 1.000573524870339154e-01 1.001033652270131441e-01 1.000281495127331444e-01 1.000408035750133817e-01 9.996544752627864461e-02 9.991804367435259959e-02 9.998871394302481785e-02 9.996362065966488131e-02 1.000201372609857836e-01 1.000976646385734747e-01 9.997894962428469090e-02 1.000620156591093685e-01 1.000628462762648968e-01 1.000516135425287972e-01 1.000886194401323231e-01 1.000434520192921145e-01 1.000216881178912776e-01 9.994472968424839010e-02 1.000339817945331278e-01 1.000027542720266921e-01 9.996124575745655993e-02 1.000171137738715826e-01 9.997359202716638027e-02 1.000408210356030086e-01 1.000311659024787914e-01 1.000333511599293540e-01 1.000184988017567000e-01 1.000242659565224318e-01 9.998125007834933464e-02 9.991316967083319067e-02 1.000414650280777584e-01 1.000660438585332102e-01 1.000051326247962807e-01 1.000237686772373624e-01 9.994483301715284540e-02 9.997093303561041533e-02 9.995658133555140878e-02 9.999041924671227266e-02 1.000662765397247606e-01 1.000779123567089868e-01 1.001187496255559473e-01 1.000592020509457197e-01 1.000330453986393309e-01 1.000137837441697486e-01 9.989385577500221880e-02 1.000189288266771503e-01 9.998796709554444440e-02 9.990684543987023158e-02 9.998842534201018983e-02 1.000774064025849175e-01 9.998693046729131839e-02 9.998653774230707725e-02 1.000187320415335535e-01 9.998512731868920700e-02 9.994428449009193360e-02 1.000368096683616204e-01 1.000344014512785096e-01 1.000664039139534667e-01 1.000559069934778694e-01 9.996508133457417122e-02 1.000178967542212083e-01 9.994697786215571422e-02 9.997654876181299999e-02 9.992891226710992614e-02 1.000407559738666213e-01 1.000141790106273965e-01 9.992077308657432155e-02 1.000396697646710603e-01 9.998847642700540994e-02 1.000184949688957964e-01 1.000356816910471791e-01 1.000808930533867852e-01 9.999694738526616888e-02 9.999335851199066261e-02 9.990559488477947225e-02 9.996326663062700402e-02 9.999945329710746567e-02 9.995078231343153263e-02 9.999175386330318160e-02 9.996535280619157915e-02 9.995626935119941714e-02 1.000540920936808797e-01 9.996366251758116717e-02 9.996697130576845391e-02 1.000528567942183117e-01 9.998726348896266880e-02 1.000220759606680887e-01 9.999778572846410030e-02 1.000105674967913805e-01 9.997534559566645385e-02 9.996146459830895781e-02 9.997744451311946223e-02 1.000577007542835378e-01 1.000463532139703460e-01 1.000279493545467163e-01 1.000776568933243460e-01 1.000352756260426274e-01 1.000322994113197472e-01 1.000288403635332529e-01 1.000778125778159500e-01 1.000160361785823321e-01 1.000219047096124886e-01 1.000133336014587399e-01 9.996581098547863142e-02 9.997159186832009492e-02 1.000238936157544917e-01 1.000476514601186528e-01 9.999772203046765340e-02 1.000040936066008274e-01 1.000271355518170813e-01 9.999216257339751945e-02 9.992286544378244095e-02 1.000088930381306807e-01 1.000726216391608220e-01 1.000444595514314305e-01 1.000013459494137613e-01 9.997537760675798135e-02 1.000018027620230010e-01 9.996491593338065196e-02 9.993696716339899033e-02 1.000516910209518773e-01 1.000655224840750757e-01 1.000323390890243830e-01 9.997232144531376097e-02 9.995849942355516937e-02 9.997051421315446273e-02 1.000240378430212879e-01 1.001062858481738121e-01 1.000846486282214176e-01 9.998380655223590430e-02 9.986583128140877341e-02 9.997608639659154306e-02 9.995855111508959723e-02 1.000076491015400304e-01 9.997128007546320083e-02 9.995281009840027708e-02 9.999941696751490916e-02 9.999582233788385788e-02 1.000635741645392596e-01 9.998171797888223689e-02 9.998072492269292899e-02
3.000000000000000000e+00 4.720884008732971759e-01 5.511830873401547815e-03 4.719999999999999751e-01 4.718763829726551062e-01 4.718778634929499671e-01 4.721991661082464709e-01 4.719499624120483405e-01 4.723076546134770126e-01 4.718898056863043977e-01 4.724621816848768030e-01 4.717588829874757583e-01 4.721111404082277696e-01 4.720933774162202612e-01 4.721337929852684190e-01 4.721454106289421082e-01 4.721212854387554225e-01 4.725643784761489052e-01 4.719670238232002712e-01 4.718130070661765707e-01 4.721137708482300854e-01 4.717463153831694123e-01 4.719101621167404725e-01 4.718104767738793837e-01 4.717924276179559229e-01 4.720255466516303788e-01 4.718375253419810900e-01 4.720508537482813738e-01 4.723287388341744775e-01 4.721216589680936049e-01 4.721327588009202603e-01 4.720209294307625703e-01 4.722403982575624770e-01 4.717978555152060327e-01 4.715091386767053527e-01 4.734087171810028583e-01 4.720740325665602755e-01 4.719480798324072190e-01 4.734935759554223522e-01 4.718556939466625466e-01 4.718077656044233348e-01 4.717802511025326884e-01 4.719844771830428720e-01 4.717385208578859235e-01 4.717178996649059597e-01 4.722172011641633249e-01 4.723177491200518663e-01 4.722316931594885414e-01 4.717212774142358067e-01 4.719534614924497107e-01 4.716959658314567871e-01 4.721867470631954111e-01 4.721303793383549441e-01 4.719048058764037656e-01 4.719145488740821293e-01 4.719784201115748146e-01 4.717389263312627978e-01 4.717900719602271531e-01 4.716334198893338825e-01 4.716604766952389727e-01 4.721250448176039782e-01 4.721444860546077371e-01 4.718954229758274832e-01 4.718709933347960406e-01 4.719886423565438083e-01 4.719055547594590561e-01 4.720988597709873669e-01 4.720917900413187374e-01 4.717980052244375999e-01 4.731649033871826449e-01 4.719945164504106838e-01 4.719999787904070043e-01 4.719789672468628905e-01 4.721229004879367031e-01 4.718687296035504186e-01 4.718463286246147859e-01 4.737083756877871754e-01 4.722376417960082451e-01 4.721989669704254045e-01 4.722008327513027015e-01 4.717276563668756362e-01 4.718539660801969182e-01 4.718152174163676715e-01 4.716770054723808947e-01 4.734319600219334401e-01 4.721381582663712329e-01 4.722512758410665201e-01 4.720594739900607073e-01 4.722707037388000906e-01 4.724878838715020346e-01 4.721328657001004347e-01 4.721925928740631773e-01 4.718369123240351848e-01 4.716131661429442401e-01 4.719467298110771036e-01 4.718282895136181598e-01 4.720950478718528576e-01 4.724609770940668141e-01 4.719006422266237011e-01 4.722927139109961980e-01 4.722966344239702963e-01 4.722436159207359374e-01 4.724182837574245619e-01 4.722050935310587727e-01 4.721023679164468301e-01 4.717391241096524079e-01 4.721603940701964430e-01 4.720130001639659678e-01 4.718170799751949529e-01 4.720807770126738134e-01 4.718753543682253082e-01 4.721926752880462042e-01 4.721471030596998686e-01 4.721574174748665587e-01 4.720873143442916864e-01 4.721145353147859214e-01 4.719115003698088340e-01 4.735884242397492838e-01 4.721957149325269332e-01 4.723117270122767497e-01 4.720242259890384817e-01 4.721121881565603640e-01 4.737385085013045005e-01 4.718628039280811093e-01 4.717950639038027139e-01 4.719547788444819481e-01 4.723128252675008465e-01 4.723677463236664598e-01 4.725604982326239711e-01 4.722794336804638227e-01 4.721559742815776284e-01 4.720650592724812133e-01 4.714989992580104761e-01 4.720893440619161607e-01 4.719432046909697309e-01 4.715603104761875164e-01 4.719453676142880694e-01 4.723653582202008705e-01 4.719383118056150184e-01 4.719364581436893968e-01 4.720884152360383945e-01 4.719298009442130515e-01 4.717370227932338733e-01 4.721737416346668548e-01 4.721623748500345386e-01 4.723134264738603760e-01 4.722638810092155692e-01 4.718351838991901026e-01 4.720844726799240942e-01 4.717497355093749900e-01 4.718893101557573577e-01 4.716644659007588891e-01 4.721923681966504471e-01 4.720669249301613357e-01 4.736244644303622686e-01 4.721872412892473836e-01 4.719456087354655383e-01 4.720872962531881822e-01 4.721684175817426055e-01 4.723818152119856340e-01 4.719855916584563271e-01 4.719686521765959486e-01 4.735525197538547060e-01 4.718266184965594356e-01 4.719974195623471980e-01 4.717676925193968751e-01 4.719610782347910538e-01 4.718364652452242680e-01 4.717935913376611889e-01 4.722553146821737435e-01 4.718284870829830835e-01 4.718441045632271735e-01 4.722494840687104234e-01 4.719398836679037923e-01 4.721041985343533698e-01 4.719895486383505201e-01 4.720498785848553092e-01 4.718836312115456955e-01 4.718181129040182609e-01 4.718935381019238595e-01 4.722723475602182974e-01 4.722187871699400352e-01 4.721319209534605155e-01 4.723665405364909087e-01 4.721665009549211867e-01 4.721524532214291803e-01 4.721361265158769971e-01 4.723672753672912838e-01 4.720756907629086174e-01 4.721033902293709228e-01 4.720629345988852088e-01 4.718386278514591359e-01 4.718659136184708558e-01 4.721127778663611885e-01 4.722249148917599948e-01 4.719892479838073140e-01 4.720193218231558685e-01 4.721280798045766058e-01 4.719630073464362585e-01 4.716359248946531135e-01 4.720419751399767549e-01 4.723427741368391164e-01 4.722098490827563722e-01 4.720063528812329379e-01 4.718837823038976587e-01 4.720085090367485692e-01 4.718344032055566961e-01 4.717024850112432333e-01 4.722439816188928607e-01 4.723092661248343704e-01 4.721526405001950644e-01 4.718693572218809473e-01 4.718041172791804239e-01 4.718608270860890630e-01 4.721134586190604554e-01 4.725016692033803811e-01 4.723995415252050800e-01 4.719235669265534616e-01 4.733640402738776287e-01 4.718871277919121088e-01 4.718043612632228934e-01 4.720361037592689657e-01 4.718644419561863201e-01 4.717772636644493311e-01 4.719972480866703735e-01 4.719802814348117992e-01 4.723000700566252763e-01 4.719137088603241326e-01 4.719090216351106148e-01
4.000000000000000000e+00 1.833312739626614229e+00 9.289300110061644161e-03 1.834000000000000075e+00 1.833519674516630449e+00 1.833525427216250669e+00 1.832773034555736480e+00 1.833805574287492801e+00 1.833194117059088857e+00 1.833571829721784452e+00 1.833793891624352135e+00 1.833063117370827388e+00 1.834431846416715528e+00 1.832362430988380364e+00 1.832519298197058610e+00 1.832564390407249721e+00 1.832470751957203214e+00 1.834190553746408714e+00 1.833871867990994220e+00 1.833273421524084457e+00 1.832441585156689534e+00 1.833014284772738867e+00 1.833650926529877045e+00 1.833263589837488716e+00 1.833193458159600109e+00 1.834099263896377341e+00 1.833368689570324728e+00 1.832197381497566724e+00 1.833275952424168853e+00 1.832472201757515684e+00 1.832515284159504043e+00 1.834081323254276530e+00 1.832933071203081576e+00 1.833214548760355722e+00 1.834090632649218122e+00 1.833709714650466838e+00 1.832287346741394929e+00 1.833798259348802695e+00 1.834038408131129616e+00 1.833439285377498118e+00 1.833253055335831272e+00 1.833146145173824015e+00 1.833939684647670543e+00 1.832983998418141303e+00 1.832903872850503380e+00 1.832843035027006628e+00 1.833233297432065534e+00 1.832899283619031872e+00 1.832916997410399595e+00 1.833819170290577949e+00 1.834817358615581817e+00 1.832724831821554989e+00 1.832506048618360861e+00 1.833630114358738350e+00 1.833667971684463271e+00 1.833916149331839440e+00 1.832985573922745637e+00 1.833184305031899664e+00 1.834574065501731077e+00 1.832680750548873583e+00 1.832485343444598458e+00 1.832560801805172446e+00 1.833593656223871715e+00 1.833498732576305024e+00 1.833955868817587653e+00 1.833633024213660700e+00 1.832383709958578244e+00 1.834356658762242631e+00 1.833215130469530774e+00 1.832765321980732720e+00 1.833978693156892437e+00 1.833999917588149398e+00 1.833918275277005350e+00 1.832477020537923718e+00 1.833489936637524353e+00 1.833402895545642952e+00 1.832871647703379070e+00 1.832922372394675925e+00 1.832772261630973176e+00 1.832779503390649545e+00 1.832941783425529492e+00 1.833432571591273597e+00 1.833282010045801380e+00 1.834743606032396945e+00 1.833799743882425393e+00 1.832536241406762967e+00 1.832975290976342819e+00 1.834231091732566599e+00 1.833050697562461195e+00 1.833893650958880794e+00 1.832515699073271165e+00 1.832747521494245024e+00 1.833366307631949965e+00 1.834495281861113547e+00 1.833793013715075082e+00 1.833332802898253622e+00 1.832368914621259393e+00 1.833789216178666193e+00 1.833613936109381060e+00 1.833136126874883587e+00 1.833151343781172837e+00 1.832945560099127569e+00 1.833623508143224168e+00 1.832796040993431408e+00 1.832397326319768371e+00 1.832986342409115288e+00 1.832622546475846992e+00 1.834050513348969513e+00 1.833289247191753457e+00 1.832313524337327193e+00 1.833515677778231323e+00 1.832747841372246889e+00 1.832570959333411409e+00 1.832610993249905951e+00 1.832338898048182951e+00 1.832444552323491127e+00 1.833656126436926659e+00 1.834405795156497376e+00 1.832759639314384348e+00 1.833209923488328563e+00 1.834094132338763838e+00 1.832435442166988615e+00 1.832988237534582954e+00 1.833466911873094851e+00 1.833203701694013255e+00 1.833824288984703177e+00 1.833214186207757557e+00 1.833427354374908669e+00 1.834175493140184576e+00 1.833084581573325655e+00 1.832605391703072462e+00 1.832252518193189905e+00 1.834051192029040767e+00 1.832346776104725405e+00 1.833779316532284875e+00 1.834289682276017519e+00 1.833787720772467100e+00 1.833418085295355882e+00 1.833760304770122751e+00 1.833753102193911744e+00 1.834343545641725637e+00 1.833727235024759983e+00 1.832978177548285847e+00 1.832674353124384981e+00 1.832630234587422358e+00 1.833216519703627423e+00 1.833024216120514582e+00 1.833359591676090306e+00 1.832327868537332538e+00 1.833027573991935943e+00 1.833569904291650232e+00 1.832696250978796071e+00 1.832746649441236331e+00 1.834260043054906530e+00 1.834545393869504659e+00 1.832726750088773837e+00 1.833788657671279410e+00 1.834339197729549120e+00 1.832653688579983786e+00 1.833481960738045924e+00 1.833944015045781750e+00 1.833878195109908793e+00 1.834266722084551215e+00 1.833326310005699122e+00 1.833989973468950652e+00 1.833097347628334539e+00 1.833848765852980289e+00 1.833364570465553678e+00 1.833197979900996977e+00 1.832990967156233442e+00 1.833333570572438731e+00 1.833394253747793634e+00 1.832968336470079507e+00 1.833766412387575206e+00 1.832404431599439443e+00 1.833959390260031519e+00 1.834193807891153938e+00 1.833547838224522719e+00 1.833293260732986596e+00 1.833586332370610972e+00 1.833057077818474490e+00 1.832849190879936696e+00 1.832512032175295902e+00 1.833422674285702048e+00 1.832646249469100930e+00 1.832591725215377387e+00 1.832528355459928981e+00 1.833425526425588092e+00 1.832293782791628356e+00 1.832401294280100679e+00 1.833044378247582262e+00 1.833372973473677892e+00 1.833478994864990774e+00 1.832437731040622353e+00 1.832872974749373718e+00 1.833958222038776897e+00 1.834075076745059096e+00 1.832497123309288822e+00 1.833856261596110482e+00 1.834583809547845501e+00 1.832162920458553890e+00 1.833330428429426284e+00 1.832814498982223705e+00 1.834024684712248332e+00 1.833548425307941265e+00 1.834033062655501922e+00 1.833356558218201204e+00 1.834842717120005462e+00 1.832946979503838225e+00 1.833200371908255466e+00 1.834593098892707275e+00 1.833492375307054445e+00 1.833238879428001677e+00 1.833459230669252982e+00 1.832440373284149882e+00 1.833947156738544138e+00 1.833550762869016415e+00 1.833703012168006463e+00 1.833536662326665123e+00 1.833561424513489246e+00 1.833239827450743320e+00 1.834140284522244091e+00 1.833473276583995171e+00 1.833134537204661241e+00 1.833989307184223483e+00 1.831923465230032244e+00 1.833164678694359173e+00 1.833664707732700183e+00 1.833646495082188022e+00
5.000000000000000000e+00 5.068484347444548455e+00 1.843670851543340733e-02 5.067999999999999616e+00 5.068672164557969317e+00 5.066688585131928768e+00 5.070138503891087112e+00 5.069462519976874582e+00 5.069302072609903398e+00 5.068816344977888022e+00 5.068958661127576093e+00 5.067410035479877450e+00 5.067192875652716033e+00 5.067002224556296675e+00 5.069436573833347559e+00 5.069561315820928726e+00 5.069302276702568832e+00 5.070055111447495655e+00 5.067645925288092101e+00 5.067991410647278094e+00 5.069221590378877096e+00 5.067275040238705230e+00 5.069035004092953933e+00 5.067964231448238266e+00 5.067770355981009445e+00 5.070274410007979071e+00 5.068254774330178236e+00 5.068546031348072134e+00 5.069528370622728985e+00 5.069306287394700128e+00 5.069425469498016312e+00 5.068224725328611235e+00 5.070581225358743005e+00 5.067828659877318564e+00 5.066725320695443457e+00 5.064824084667508330e+00 5.068794908998575544e+00 5.067442518200508061e+00 5.066581049041987583e+00 5.066450544325605598e+00 5.067935109352597500e+00 5.067639561631018807e+00 5.068133317175272268e+00 5.067191315147206332e+00 5.066969812078545132e+00 5.070332151483007976e+00 5.069410417462250962e+00 5.068486774461798738e+00 5.067006094258847071e+00 5.069500105437966475e+00 5.066734209248910936e+00 5.070005157026005627e+00 5.069399920522845271e+00 5.068977469901200905e+00 5.068832169818596967e+00 5.067768290520045404e+00 5.067195670549793363e+00 5.067745052623626734e+00 5.066062370421446026e+00 5.066353001789961397e+00 5.067942271340923455e+00 5.069551388399898606e+00 5.068876683236113401e+00 5.068614271625881074e+00 5.069878001584061877e+00 5.068985514047579244e+00 5.069061485846110493e+00 5.068985576121617598e+00 5.067830267982835757e+00 5.065060590267013829e+00 5.069941098312674477e+00 5.069999772176617903e+00 5.069774076147446351e+00 5.069319617950981183e+00 5.068589955699153826e+00 5.068349335014399770e+00 5.066880727293419540e+00 5.068550621480037321e+00 5.068135522610540455e+00 5.070156399117800916e+00 5.067074613940803829e+00 5.066431991725504069e+00 5.068015153180050802e+00 5.066530546069854424e+00 5.065921732555372259e+00 5.069483445114341791e+00 5.068496849905904433e+00 5.068638589367855829e+00 5.068805419640558085e+00 5.071236482400485635e+00 5.069426617305316185e+00 5.070067925181677815e+00 5.068248189582327257e+00 5.067843175163163849e+00 5.069427796911358364e+00 5.068155567445009169e+00 5.069020556386758969e+00 5.068945737297361198e+00 5.066933166958747847e+00 5.067140472977298415e+00 5.069183792355579143e+00 5.070615774335359482e+00 5.068487688448301220e+00 5.068201279297338324e+00 5.069099153814730307e+00 5.067197794991393778e+00 5.065720838075158383e+00 5.068139586506312355e+00 5.068035159903047315e+00 5.068867326059811163e+00 5.068661115777334913e+00 5.070068810084360500e+00 5.067578864619575185e+00 5.069690236785220350e+00 5.068937519273029935e+00 5.069229798676556875e+00 5.069049378972311004e+00 5.065597702311242401e+00 5.070101447622979762e+00 5.069345781873292545e+00 5.068260121424676079e+00 5.069204596562389753e+00 5.067203033969649439e+00 5.068526304905446978e+00 5.067798673712457180e+00 5.067514447423378421e+00 5.069357569502455974e+00 5.067945481743743485e+00 5.068011106045640979e+00 5.071000359941929325e+00 5.069674740803041146e+00 5.068698560154523136e+00 5.066616364908112402e+00 5.068959312935998440e+00 5.067390172402191695e+00 5.067275200710218641e+00 5.067413396333074971e+00 5.069921408354952419e+00 5.069337374691669673e+00 5.069317463534968482e+00 5.070949714505751160e+00 5.067246252511169224e+00 5.067175223647661042e+00 5.067864777799199416e+00 5.067742777521769604e+00 5.071365350359161361e+00 5.068832248289589337e+00 5.068229623662910299e+00 5.068907007503930195e+00 5.067311777611294588e+00 5.066811491248683019e+00 5.068394430187815658e+00 5.068064697636082805e+00 5.068718592258596445e+00 5.065983195489318192e+00 5.068009670278235568e+00 5.067415985320634420e+00 5.068937325023639140e+00 5.069808348102269768e+00 5.070098042084574708e+00 5.069845232432994564e+00 5.068263369538851926e+00 5.067211772556015070e+00 5.068137618172788628e+00 5.069972282163346833e+00 5.067504663290979039e+00 5.068831982715496842e+00 5.068243387273913214e+00 5.067782856105809586e+00 5.070741387307746706e+00 5.066158416391013830e+00 5.066326105776346012e+00 5.068677725195099626e+00 5.067354513620627721e+00 5.069118809686658622e+00 5.067887780718560720e+00 5.070535772087323423e+00 5.068100181954010353e+00 5.068046255134264655e+00 5.068856436815156741e+00 5.068923120212003752e+00 5.068348253819737970e+00 5.069416473288427483e+00 5.069934098215811424e+00 5.069787768727840316e+00 5.069636934165684394e+00 5.069461629623865484e+00 5.069941985192156331e+00 5.068812713530552294e+00 5.069110130683160520e+00 5.070676013593957698e+00 5.068266616963766680e+00 5.066560275886462961e+00 5.069210928446437947e+00 5.070014785393065715e+00 5.069884506944710267e+00 5.069557519246311372e+00 5.069375229766089674e+00 5.067602799219786291e+00 5.066089277999770601e+00 5.068450699172462492e+00 5.069679012239887150e+00 5.068252320875516581e+00 5.068068212716289267e+00 5.068751644662629730e+00 5.068091363979325692e+00 5.068221237822399416e+00 5.066804235184329208e+00 5.070619700941841224e+00 5.069319369043243206e+00 5.067638298249974582e+00 5.068596697277407692e+00 5.067895920774247109e+00 5.068505070606931007e+00 5.069218237884318690e+00 5.069382315351521839e+00 5.070288299505697260e+00 5.069178992198359879e+00 5.065194962593053241e+00 5.068787580307191121e+00 5.067898541535043044e+00 5.068387656466049052e+00 5.068543899825984411e+00 5.067607471988893941e+00 5.069970440253006139e+00 5.069788192530711335e+00 5.069220667175558859e+00 5.067073467169751488e+00 5.069022753580531671e+00
6.000000000000000000e+00 2.981591055357532809e-03 2.616459755716777150e-05 2.994842571159121898e-03 2.980790252057613152e-03 2.980827760631001456e-03 2.982949674211248393e-03 2.981181412894375656e-03 2.983450681584362205e-03 2.980870627572016537e-03 2.984490204903978133e-03 2.979935592421124706e-03 2.982397762345679118e-03 2.982105731310013934e-03 2.982392403978052341e-03 2.982853223593964244e-03 2.982121806412894264e-03 2.985189471879286585e-03 2.981205525548696802e-03 2.980474108367626822e-03 2.981944980281207164e-03 2.979844500171467767e-03 2.980881344307270090e-03 2.980471429183813650e-03 2.980350865912208356e-03 2.981285901063100187e-03 2.980691122256515831e-03 2.981513631687242750e-03 2.983512302812071221e-03 2.982242369684499125e-03 2.982255765603566717e-03 2.981540423525377067e-03 2.983338155864197726e-03 2.980048118141289618e-03 2.978279856824416882e-03 2.978014617626886015e-03 2.982116448045267487e-03 2.981058170438957624e-03 2.978357553155006662e-03 2.980608067558298841e-03 2.980069551611797159e-03 2.980007930384087709e-03 2.981703853737997442e-03 2.979790916495198699e-03 2.979957025891632246e-03 2.982654963991769603e-03 2.983761466906721324e-03 2.983131858710562270e-03 2.979635523834019140e-03 2.981524348422496737e-03 2.979362247085047891e-03 2.982711226851851843e-03 2.982550475823045073e-03 2.980897419410150854e-03 2.980768818587105611e-03 2.981650270061728374e-03 2.980141889574760162e-03 2.980021326303154867e-03 2.979482810356652751e-03 2.979402434842249800e-03 2.982437950102880594e-03 2.982376328875171578e-03 2.980618784293552828e-03 2.980878665123456919e-03 2.981202846364883197e-03 2.980924211248285171e-03 2.982116448045267487e-03 2.982076260288066012e-03 2.980305319787380103e-03 2.976099001200274534e-03 2.981784229252400394e-03 2.981138545953360575e-03 2.981419860253772206e-03 2.982279878257887429e-03 2.980541087962963048e-03 2.980624142661179605e-03 2.979638203017832745e-03 2.983222950960219642e-03 2.982716585219478619e-03 2.983453360768175376e-03 2.979579260973936900e-03 2.980581275720164524e-03 2.980321394890260434e-03 2.979603373628258046e-03 2.977872620884773613e-03 2.982253086419753112e-03 2.983230988511660024e-03 2.981867283950617384e-03 2.983439964849108218e-03 2.984559863683127531e-03 2.982408479080932671e-03 2.982558513374485454e-03 2.980490183470507586e-03 2.978952331961591017e-03 2.981267146776406252e-03 2.980640217764060369e-03 2.981950338648833940e-03 2.984669710219478838e-03 2.980557163065843812e-03 2.983788258744856075e-03 2.983255101165980736e-03 2.983217592592592431e-03 2.984458054698216605e-03 2.982764810528120911e-03 2.982025355795610549e-03 2.979970421810699405e-03 2.982397762345679118e-03 2.981717249657064601e-03 2.980439278978052123e-03 2.981904792524005688e-03 2.980629501028806382e-03 2.982885373799725771e-03 2.982598701131687364e-03 2.982504929698216820e-03 2.981821737825788698e-03 2.982411158264746277e-03 2.980849194101508996e-03 2.978973765432098558e-03 2.983027370541838173e-03 2.983405135459533519e-03 2.981765474965706458e-03 2.982421874999999830e-03 2.979847179355281372e-03 2.980591992455418511e-03 2.980182077331961638e-03 2.981484160665294827e-03 2.983155971364883415e-03 2.984005272633744651e-03 2.984800990226337252e-03 2.983656978737997227e-03 2.982338820301783273e-03 2.981894075788751701e-03 2.978440607853223652e-03 2.982073581104252406e-03 2.981122470850480245e-03 2.978601358882029988e-03 2.981310013717421332e-03 2.983798975480109628e-03 2.981092999828532323e-03 2.981312692901234504e-03 2.982095014574759947e-03 2.980894740226337249e-03 2.979772162208504764e-03 2.982638888888888840e-03 2.982317386831275733e-03 2.983485510973936904e-03 2.983383701989025978e-03 2.980393732853223437e-03 2.982062864368998419e-03 2.979782878943758751e-03 2.980977794924554239e-03 2.979456018518518434e-03 2.982804998285322386e-03 2.981969092935528309e-03 2.979185420953360790e-03 2.982395083161865513e-03 2.981835133744855856e-03 2.982062864368998419e-03 2.982325424382716115e-03 2.984404471021947971e-03 2.981173375342935708e-03 2.981259109224965870e-03 2.978467399691357969e-03 2.980468750000000045e-03 2.981521669238683132e-03 2.980198152434842401e-03 2.981117112482853035e-03 2.980533050411522666e-03 2.980112418552812240e-03 2.983381022805212807e-03 2.980316036522633657e-03 2.979946309156378693e-03 2.983699845679012308e-03 2.981312692901234504e-03 2.982111089677640711e-03 2.981521669238683132e-03 2.981784229252400394e-03 2.980897419410150854e-03 2.980372299382715896e-03 2.980800968792867139e-03 2.983292609739369040e-03 2.983190800754458114e-03 2.982282557441701034e-03 2.984042781207132955e-03 2.982727301954732606e-03 2.982625492969821681e-03 2.982389724794238736e-03 2.983721279149519848e-03 2.981529706790123514e-03 2.982322745198902510e-03 2.981827096193415474e-03 2.980632180212619987e-03 2.981060849622770795e-03 2.981971772119341481e-03 2.983134537894375875e-03 2.981181412894375656e-03 2.981540423525377067e-03 2.982496892146776438e-03 2.981063528806584401e-03 2.979021990740740849e-03 2.981789587620027604e-03 2.983643582818930069e-03 2.982794281550068399e-03 2.981888717421124924e-03 2.980835798182441838e-03 2.981577932098765371e-03 2.980658972050754304e-03 2.979493527091906738e-03 2.983166688100136969e-03 2.983675733024691162e-03 2.982829110939643532e-03 2.980774176954732388e-03 2.980168681412894479e-03 2.980554483882030207e-03 2.982456704389574963e-03 2.984774198388202935e-03 2.984179419581618579e-03 2.981133187585733799e-03 2.977165316358024779e-03 2.980833118998628233e-03 2.980216906721536337e-03 2.981861925582990607e-03 2.980433920610425346e-03 2.980208869170095955e-03 2.981385030864197507e-03 2.981205525548696802e-03 2.983091670953360794e-03 2.981197487997256420e-03 2.981028699417009702e-03
