# vvf statistics with RF=500
# gcat file: /disk2/salam/Abacus/AbacusCosmos_720box_products/GCAT_derivative/AbacusCosmos_720box_23_rockstar_halos_z0.100_Mr21_hod-default_real-8.gcat.rsd_zz.1pz0.100by100
# stats order in row: stdvvf,p2.5,p16,p50,p84,p97.5,rho
# columns: numbers, mean, sigma,All, jnrealizations
0.000000000000000000e+00 1.374510229869265077e+00 4.558350085203548285e-03 1.374510430362526403e+00 1.374952803973934934e+00 1.374142385280751055e+00 1.374384859071511311e+00 1.374483768510304849e+00 1.374996996965739182e+00 1.374503719957529624e+00 1.374901702946594195e+00 1.373976113683865963e+00 1.373559372501614639e+00 1.374531611936447018e+00 1.375100164491056542e+00 1.374659134699551144e+00 1.374516613189712189e+00 1.374400245860369907e+00 1.374725666828549908e+00 1.374673136819954289e+00 1.374827635577007490e+00 1.374439057674536668e+00 1.374658840661937331e+00 1.374721488230541411e+00 1.374656821348858138e+00 1.375060120040997758e+00 1.374372558859457305e+00 1.374739552110388452e+00 1.374398794972707671e+00 1.374844104559105773e+00 1.374921091156272590e+00 1.374451927521715300e+00 1.374929296297566994e+00 1.374438668163060484e+00 1.374474445316495208e+00 1.373928565116344203e+00 1.374491728534450230e+00 1.374626280137739576e+00 1.374014614352671693e+00 1.373952837020127049e+00 1.374594865309144431e+00 1.374392589937539100e+00 1.374418146410965935e+00 1.374615084949974086e+00 1.374407430001566510e+00 1.374534811537811319e+00 1.374767259978075584e+00 1.374383531639184142e+00 1.373767918225289320e+00 1.374535864668452234e+00 1.374241880820206596e+00 1.375030421472262399e+00 1.374441633239517513e+00 1.374440533518307639e+00 1.374074059972479001e+00 1.374413294427095256e+00 1.374241347558461612e+00 1.374483742571631861e+00 1.374077536374421094e+00 1.374325741324204930e+00 1.374394002926704550e+00 1.374525581393178930e+00 1.374622077134233011e+00 1.373889308567214584e+00 1.374722661275937119e+00 1.374770802375680168e+00 1.374814876243023010e+00 1.374634925670443097e+00 1.374351185747118009e+00 1.373787040393072756e+00 1.375133189754769614e+00 1.374697333024690549e+00 1.374916182815522081e+00 1.374250698503456380e+00 1.374470993726797374e+00 1.375080143114715714e+00 1.374068856071065436e+00 1.374532586355532660e+00 1.374078971644179692e+00 1.374676887057248553e+00 1.374624235443511866e+00 1.374190568927090350e+00 1.374266963916561890e+00 1.374292342563509850e+00 1.374162642721674876e+00 1.374682557117017367e+00 1.373571415680963526e+00 1.374602220769955974e+00 1.374528994003245908e+00 1.375065367513486070e+00 1.374436706848951362e+00 1.374918122905951057e+00 1.374383781475910560e+00 1.374231983197419238e+00 1.374717407116746948e+00 1.374415542713071092e+00 1.374775112359279960e+00 1.374802826106893860e+00 1.374065669336749451e+00 1.374438522092747306e+00 1.374839769701898140e+00 1.374798218567570451e+00 1.374606781270285127e+00 1.374599573011038300e+00 1.374513955389466080e+00 1.374143074028001843e+00 1.374210750075056664e+00 1.374209545383087372e+00 1.374639666341379796e+00 1.374515728514877022e+00 1.374465139777773182e+00 1.374511183178589668e+00 1.374319060649103807e+00 1.374207164825612670e+00 1.374807354297826967e+00 1.374335231217764353e+00 1.374684732284331412e+00 1.373843544982986886e+00 1.374873346004618968e+00 1.374869796301807279e+00 1.374730773964325969e+00 1.374491784570468944e+00 1.373939051188704186e+00 1.374727471027164194e+00 1.374499920886007365e+00 1.374309890610701856e+00 1.374589453515513648e+00 1.374373257936932546e+00 1.374277754987508260e+00 1.374733194496026378e+00 1.375112976584414781e+00 1.374842848073607682e+00 1.374487948399392812e+00 1.374628383204630877e+00 1.374527240815275553e+00 1.374139005788202361e+00 1.374645380147411666e+00 1.374428547860499839e+00 1.374516681402275786e+00 1.374734950582510606e+00 1.374749659609556973e+00 1.374103220248028778e+00 1.374104469957718067e+00 1.373947361247158661e+00 1.374456388592523615e+00 1.374791100892151618e+00 1.374562451414992559e+00 1.374737712360898589e+00 1.374780999201414611e+00 1.374529842014951431e+00 1.374430681432560863e+00 1.374585880433877305e+00 1.374353659305073583e+00 1.374397253015808174e+00 1.374062106170444775e+00 1.374424468363961038e+00 1.374028374734084457e+00 1.374567416466437209e+00 1.374748757498065244e+00 1.374959898852970763e+00 1.374684523844706741e+00 1.374792973778156568e+00 1.373988844633411199e+00 1.374466162832656879e+00 1.374907833204104035e+00 1.374752821873873376e+00 1.374686885977497219e+00 1.374392145949895339e+00 1.374483020360377505e+00 1.374248456900408977e+00 1.374035939149474528e+00 1.374366033329599723e+00 1.374616872645119336e+00 1.374396851083075743e+00 1.374665243718627305e+00 1.374086990257769036e+00 1.374945594997842857e+00 1.374330080818991995e+00 1.374420064515698980e+00 1.374698814597884011e+00 1.374880736913424162e+00 1.374262707817379026e+00 1.374501697784746845e+00 1.374882539240370294e+00 1.374918624601288109e+00 1.374558067787039262e+00 1.374698119599451873e+00 1.374817106893291507e+00 1.374825571475567276e+00 1.375006812273002366e+00 1.374832946787440946e+00 1.374726571938196917e+00 1.373821809338880984e+00 1.374831590020543004e+00 1.374518533379712304e+00 1.374814422809161885e+00 1.374767584239678486e+00 1.374367979932593853e+00 1.374070825789885486e+00 1.374510042967891588e+00 1.374818054922286592e+00 1.374643373515298084e+00 1.374886931987967076e+00 1.374330611477745157e+00 1.374677787212290614e+00 1.374549061682642570e+00 1.374436052706315081e+00 1.374331024959401404e+00 1.374458628396707072e+00 1.374682494514859687e+00 1.374418662812828984e+00 1.374453492501852558e+00 1.374203937481032867e+00 1.374324547783620787e+00 1.374714257543890650e+00 1.374487712592172173e+00 1.374247546712391577e+00 1.374239580060587329e+00 1.374122037021432208e+00 1.374667477968275930e+00 1.374738192269440162e+00 1.373946617611679910e+00 1.374696418693007072e+00 1.374646256042040937e+00 1.375077454688726775e+00 1.374925951910077382e+00 1.374736539328603069e+00 1.373882902503087644e+00 1.374589928563709540e+00
1.000000000000000000e+00 2.799999986916126837e-02 1.927093285799366977e-04 2.799999999999999711e-02 2.799497872630601555e-02 2.799173072532189221e-02 2.801047133933062122e-02 2.799767219220825748e-02 2.801676573185066244e-02 2.799605430152130731e-02 2.802483604994907007e-02 2.798433779631002982e-02 2.800905752376892099e-02 2.800755241713428004e-02 2.800369546924327130e-02 2.800748572822861493e-02 2.800294198196712908e-02 2.803138716321352739e-02 2.799693091572837828e-02 2.798994397811845058e-02 2.800968088852210172e-02 2.798468559628544336e-02 2.799476946318275525e-02 2.799120330225340209e-02 2.798999187948662121e-02 2.799965578876292133e-02 2.799271001051294519e-02 2.800596901187647758e-02 2.801460758100506043e-02 2.801028946934710009e-02 2.800606310268520874e-02 2.799756215104264728e-02 2.801484994924592631e-02 2.799078746962699663e-02 2.797470615635914981e-02 2.796834661796317179e-02 2.800202022236331079e-02 2.799608786296365476e-02 2.797726835143329524e-02 2.799159114768468362e-02 2.798717952973326512e-02 2.798825736421092433e-02 2.800121030185769022e-02 2.798247814390206201e-02 2.798023681176341204e-02 2.801429573498533110e-02 2.801936986527564163e-02 2.801367980960826898e-02 2.798478279174174826e-02 2.799379880603438536e-02 2.798479252143632953e-02 2.801119879075609706e-02 2.801119442496337320e-02 2.799446366451940199e-02 2.799031005745832024e-02 2.799820365646782383e-02 2.798598955482203138e-02 2.798576468374970594e-02 2.798216283383238301e-02 2.798209754742606720e-02 2.800899285904069266e-02 2.801212941077835597e-02 2.799174478944879002e-02 2.799133672698874212e-02 2.799944180233956970e-02 2.799520781744285411e-02 2.800346602536864932e-02 2.800282561047540836e-02 2.798757514898439491e-02 2.795450800471656339e-02 2.799888287782385451e-02 2.799749646138750478e-02 2.800023202016726359e-02 2.800609864946835420e-02 2.799237475993600691e-02 2.799493563335280627e-02 2.798333616585167716e-02 2.801091316294495800e-02 2.801222318575261050e-02 2.801213384752493027e-02 2.798491800665028548e-02 2.799491737012566733e-02 2.798630087097299379e-02 2.798309586942538188e-02 2.796897274749321136e-02 2.800301240171940501e-02 2.801587202082860689e-02 2.800068306006833763e-02 2.801467619355816480e-02 2.802510184711289043e-02 2.800987312730265216e-02 2.801380262472349947e-02 2.799182475364270228e-02 2.797663044554137696e-02 2.799677907611018354e-02 2.799056599725178660e-02 2.800695853528235510e-02 2.802794060784885577e-02 2.799480854064234636e-02 2.801375428056220376e-02 2.801567285684325448e-02 2.801352548016170299e-02 2.802472291081113676e-02 2.800953763420954354e-02 2.800361462103798799e-02 2.798692488658023614e-02 2.800327300476886452e-02 2.799821789230945435e-02 2.799200004082087398e-02 2.800487155789475532e-02 2.799704614449001483e-02 2.800962035621637480e-02 2.800884127266527884e-02 2.800943666455608938e-02 2.800666863413990570e-02 2.800272292505081098e-02 2.799489922181893492e-02 2.797488020472081380e-02 2.800986164909997911e-02 2.801761831265975680e-02 2.799952511764716018e-02 2.800450603166302829e-02 2.798182670231083233e-02 2.798875923931962509e-02 2.798962413269160537e-02 2.799832513204405723e-02 2.801229801837260003e-02 2.802213373821474396e-02 2.803268982905183018e-02 2.802022855424549097e-02 2.800893728472782229e-02 2.800313177337562451e-02 2.797531571413649706e-02 2.800966589736340884e-02 2.799372099009390588e-02 2.797321693032265438e-02 2.799775625340947607e-02 2.802457017221908486e-02 2.799637352432945286e-02 2.799554814705009290e-02 2.800733846923956355e-02 2.799758098796045064e-02 2.798612182349730082e-02 2.801155069676444093e-02 2.800841326514148105e-02 2.801940424380009245e-02 2.801590011794940355e-02 2.799255157755566395e-02 2.800461410402006746e-02 2.798512095143023196e-02 2.799293306940030604e-02 2.797791152474397511e-02 2.800866114399092749e-02 2.800571552256873528e-02 2.797722984510153318e-02 2.800552746840228799e-02 2.799798183134405427e-02 2.800150649765788258e-02 2.800751554328546195e-02 2.802139892468186178e-02 2.799637987233521280e-02 2.799693830006244263e-02 2.797884500251188178e-02 2.798941163984072084e-02 2.799553204772340861e-02 2.798867559504998603e-02 2.799677888157060812e-02 2.799034200760061250e-02 2.798377081416222184e-02 2.801117261628757044e-02 2.799304613946876352e-02 2.798883869364789806e-02 2.801456453935913596e-02 2.799649615102005329e-02 2.800553717002317658e-02 2.800048244778615900e-02 2.800189419572536587e-02 2.799713398493840211e-02 2.798903613721780842e-02 2.799473917291756681e-02 2.801233802357462610e-02 2.800964292269593134e-02 2.800952482809679345e-02 2.802396729131525349e-02 2.800985604636076556e-02 2.800387262548588441e-02 2.800644480295237659e-02 2.801896075050065021e-02 2.800308781485005838e-02 2.801136334965512176e-02 2.800430377042939165e-02 2.799826643238006313e-02 2.799238883828720353e-02 2.800436904838694147e-02 2.801363286073317582e-02 2.800431044322885046e-02 2.800322508489722431e-02 2.801025275864938574e-02 2.799768185026144107e-02 2.798174656865719950e-02 2.800254708927415320e-02 2.801370565462739382e-02 2.801431125403765210e-02 2.799991714186764180e-02 2.799125011585724271e-02 2.799971916234703095e-02 2.799234266863449491e-02 2.798205234901127159e-02 2.801346079653617427e-02 2.801771152794819281e-02 2.800802324627511483e-02 2.799364802550328990e-02 2.799174300809761234e-02 2.799147194744669789e-02 2.800810507657846074e-02 2.802379812347007004e-02 2.802098446331411849e-02 2.799810820568680858e-02 2.796592770605838343e-02 2.799282751831322358e-02 2.798916160054952876e-02 2.800294987535962773e-02 2.799652880404924007e-02 2.799067329580046115e-02 2.800164691979560583e-02 2.800239923504826631e-02 2.801276939714536507e-02 2.799489186869672658e-02 2.799485747648411751e-02
2.000000000000000000e+00 1.199999994392625807e-01 8.258971224854552880e-04 1.199999999999999956e-01 1.199784802555972085e-01 1.199645602513795400e-01 1.200448771685598132e-01 1.199900236808925102e-01 1.200718531365028430e-01 1.199830898636627396e-01 1.201064402140674392e-01 1.199328762699001238e-01 1.200388179590096693e-01 1.200323675020040642e-01 1.200158377253283115e-01 1.200320816924083517e-01 1.200126084941448429e-01 1.201345164137722632e-01 1.199868467816930379e-01 1.199569027633647922e-01 1.200414895222375739e-01 1.199343668412233277e-01 1.199775834136403985e-01 1.199622998668003204e-01 1.199571080549426544e-01 1.199985248089839446e-01 1.199687571879126113e-01 1.200255814794706222e-01 1.200626039185931221e-01 1.200440977257732772e-01 1.200259847257937607e-01 1.199895520758970657e-01 1.200636426396253925e-01 1.199605177269728318e-01 1.198915978129677790e-01 1.198643426484135854e-01 1.200086580958427684e-01 1.199832336984156533e-01 1.199025786489998358e-01 1.199639620615057800e-01 1.199450551274282573e-01 1.199496744180468255e-01 1.200051870079615335e-01 1.199249063310088292e-01 1.199153006218431905e-01 1.200612674356514309e-01 1.200830137083241794e-01 1.200586277554640119e-01 1.199347833931789231e-01 1.199734234544330841e-01 1.199348250918699788e-01 1.200479948175261213e-01 1.200479761069858931e-01 1.199762728479402962e-01 1.199584716748213764e-01 1.199923013848621101e-01 1.199399552349515591e-01 1.199389915017844560e-01 1.199235550021387903e-01 1.199232752032545757e-01 1.200385408244601104e-01 1.200519831890501099e-01 1.199646205262091259e-01 1.199628716870946021e-01 1.199976077243124356e-01 1.199794620747550861e-01 1.200148543944370844e-01 1.200121097591803354e-01 1.199467506385045457e-01 1.198050343059281347e-01 1.199952123335308041e-01 1.199892705488035949e-01 1.200009943721454253e-01 1.200261370691500795e-01 1.199673203997257409e-01 1.199782955715120170e-01 1.199285835679357592e-01 1.200467706983355393e-01 1.200523850817969140e-01 1.200520022036782875e-01 1.199353628856440895e-01 1.199782173005385644e-01 1.199412894470271163e-01 1.199275537261087765e-01 1.198670260606851945e-01 1.200129102930831693e-01 1.200680229464083371e-01 1.200029274002928636e-01 1.200628979723921408e-01 1.201075793447695383e-01 1.200423134027256561e-01 1.200591541059578549e-01 1.199649632298973034e-01 1.198998447666059092e-01 1.199861960404722122e-01 1.199595685596505090e-01 1.200298222940672371e-01 1.201197454622093819e-01 1.199777508884671967e-01 1.200589469166951639e-01 1.200671693864710787e-01 1.200579663435501487e-01 1.201059553320477230e-01 1.200408755751837531e-01 1.200154912330199386e-01 1.199439637996295993e-01 1.200140271632951228e-01 1.199923623956119512e-01 1.199657144606608994e-01 1.200208781052632401e-01 1.199873406192429187e-01 1.200412300980701757e-01 1.200378911685654748e-01 1.200404428480975061e-01 1.200285798605996018e-01 1.200116696787891929e-01 1.199781395220811536e-01 1.198923437345177645e-01 1.200422642104284759e-01 1.200755070542560976e-01 1.199979647899163948e-01 1.200193115642701203e-01 1.199221144384750026e-01 1.199518253113698169e-01 1.199555319972497452e-01 1.199928219944745300e-01 1.200527057930254327e-01 1.200948588780631765e-01 1.201400992673649776e-01 1.200866938039092668e-01 1.200383026488335281e-01 1.200134218858955326e-01 1.198942102034421253e-01 1.200414252744146093e-01 1.199730899575453119e-01 1.198852154156685168e-01 1.199903839431834540e-01 1.201053007380818161e-01 1.199844579614119389e-01 1.199809206302146769e-01 1.200314505824552763e-01 1.199896328055447964e-01 1.199405221007027178e-01 1.200495029861333163e-01 1.200360568506063375e-01 1.200831610448575421e-01 1.200681433626402950e-01 1.199680781895242770e-01 1.200197747315145808e-01 1.199362326489867014e-01 1.199697131545727491e-01 1.199053351060455908e-01 1.200371191885325206e-01 1.200244950967231522e-01 1.199024136218637127e-01 1.200236891502955150e-01 1.199913507057602247e-01 1.200064564185338023e-01 1.200322094712233806e-01 1.200917096772079889e-01 1.199844851671509061e-01 1.199868784288390389e-01 1.199093357250509279e-01 1.199546213136030992e-01 1.199808516331003216e-01 1.199514668359284997e-01 1.199861952067311777e-01 1.199586086040026339e-01 1.199304463464095222e-01 1.200478826412324507e-01 1.199701977405804032e-01 1.199521658299195492e-01 1.200624194543963019e-01 1.199849835043716589e-01 1.200237307286707578e-01 1.200020676333692499e-01 1.200081179816801513e-01 1.199877170783074098e-01 1.199530120166477365e-01 1.199774535982181534e-01 1.200528772438912567e-01 1.200413268115539805e-01 1.200408206918433945e-01 1.201027169627796598e-01 1.200422401986890042e-01 1.200165969663680859e-01 1.200276205840816179e-01 1.200812603592885108e-01 1.200132334922145438e-01 1.200487000699505119e-01 1.200184447304116914e-01 1.199925704244859809e-01 1.199673807355165767e-01 1.200187244930869257e-01 1.200584265459993250e-01 1.200184733281236399e-01 1.200138217924166667e-01 1.200439403942116512e-01 1.199900650725490292e-01 1.199217710085308530e-01 1.200109160968892280e-01 1.200587385198316898e-01 1.200613339458756340e-01 1.199996448937184629e-01 1.199625004965310382e-01 1.199987964100587001e-01 1.199671828655764078e-01 1.199230814957625985e-01 1.200576891280121794e-01 1.200759065483494037e-01 1.200343853411790507e-01 1.199727772521569508e-01 1.199646128918469140e-01 1.199634512033429939e-01 1.200347360424791204e-01 1.201019919577288597e-01 1.200899334142033620e-01 1.199918923100863205e-01 1.198539758831073387e-01 1.199692607927709542e-01 1.199535497166408504e-01 1.200126423229698341e-01 1.199851234459253096e-01 1.199600284105734049e-01 1.200070582276954456e-01 1.200102824359211423e-01 1.200547259877658285e-01 1.199781080087002488e-01 1.199779606135033538e-01
3.000000000000000000e+00 5.083316371730092209e-01 9.236055094210625371e-03 5.080000000000000071e-01 5.079088997486947976e-01 5.078499717308400108e-01 5.081899800135698531e-01 5.079577669157784303e-01 5.083041782778620066e-01 5.079284137561721479e-01 5.084505969062188546e-01 5.097147241470755263e-01 5.081643293598075983e-01 5.081370224251504641e-01 5.080670463705565520e-01 5.081358124978619939e-01 5.080533759585464937e-01 5.085694528183025698e-01 5.079443180425005089e-01 5.078175550315776610e-01 5.081756389774724214e-01 5.097210590751991566e-01 5.079051031177442832e-01 5.078404027694546352e-01 5.078184240992572596e-01 5.079937550246986788e-01 5.078677387621634010e-01 5.081082949297589524e-01 5.082650232553775904e-01 5.081866803724401915e-01 5.081100020058602063e-01 5.079557704546309171e-01 5.082694205077474825e-01 5.078328583775183480e-01 5.095392907051130571e-01 5.094234562557578005e-01 5.080366526057343846e-01 5.079290226566263167e-01 5.095859592582492326e-01 5.098468387613995789e-01 5.077674000394463150e-01 5.077869550363981466e-01 5.080219583337037825e-01 5.076821034679374067e-01 5.096400276428335596e-01 5.082593654775909853e-01 5.083514246985723073e-01 5.082481908314643304e-01 5.097228294210104371e-01 5.078874926237667564e-01 5.097230066404474513e-01 5.082031780608605720e-01 5.082030988529069315e-01 5.078995550562805938e-01 5.078241967567438397e-01 5.079674091959162086e-01 5.077458104946283024e-01 5.077417306908875716e-01 5.096751087590898344e-01 5.096739196138319050e-01 5.081631561568811239e-01 5.082200621669786811e-01 5.078502268942852726e-01 5.078428234753672443e-01 5.079898726995892844e-01 5.079130561164632018e-01 5.080628836031170215e-01 5.080512646471966320e-01 5.087741339583233824e-01 5.091713958001945484e-01 5.079797322119471437e-01 5.079545786566018739e-01 5.080042095087489162e-01 5.081106469260686653e-01 5.078616563588389532e-01 5.079081179194009366e-01 5.096964801637269282e-01 5.081979959562871185e-01 5.082217635129402389e-01 5.082201426622380280e-01 5.097252922639873285e-01 5.099074235272889055e-01 5.097504801498652371e-01 5.096921033359622655e-01 5.094348607579120003e-01 5.080546535740519953e-01 5.082879638064619066e-01 5.080123926612397645e-01 5.082662680831266933e-01 5.084554192261909744e-01 5.081791267382053112e-01 5.082504190485549467e-01 5.078516776732319160e-01 5.095743402580751313e-01 5.079415632379989942e-01 5.078288402358538400e-01 5.081262477115512377e-01 5.085069224566863832e-01 5.079058120945111332e-01 5.082495419473428422e-01 5.082843504027275694e-01 5.082453908543622667e-01 5.084485442390020982e-01 5.081730399349445593e-01 5.080655795531177077e-01 5.097618461484257901e-01 5.080593816579493938e-01 5.079676674747573006e-01 5.078548578834644056e-01 5.080883839789477330e-01 5.079464086214616758e-01 5.081745407484971055e-01 5.081604059469272405e-01 5.081712080569461554e-01 5.081209880765382714e-01 5.080494016402076207e-01 5.079074573101435286e-01 5.095424608717005199e-01 5.081789184908138690e-01 5.083196465296841993e-01 5.079913842773127186e-01 5.080817522887435267e-01 5.096689863635187612e-01 5.077960604847989723e-01 5.078117521216906072e-01 5.079696131099421530e-01 5.082231211904743029e-01 5.084015692504674222e-01 5.085930868985117925e-01 5.083670037698825306e-01 5.081621478800619762e-01 5.080568193169577862e-01 5.095503933646290395e-01 5.081753669950218599e-01 5.078860808202751986e-01 5.095121655165911756e-01 5.079592920261433164e-01 5.084457731245463075e-01 5.079342053699772430e-01 5.079192306679087832e-01 5.081331407990606897e-01 5.079561122101395876e-01 5.097472189279865784e-01 5.082095626412976852e-01 5.081526406675669350e-01 5.083520484232302294e-01 5.082884735685105904e-01 5.078648643356528103e-01 5.080837130300783766e-01 5.097289887581935020e-01 5.078717856876913128e-01 5.095976742006937954e-01 5.081571378981211140e-01 5.081036959094613614e-01 5.095852578929207510e-01 5.081002840695842959e-01 5.099632404994810519e-01 5.080273321717930779e-01 5.081363534281789773e-01 5.083882376335138176e-01 5.079343205409387885e-01 5.079444520154186016e-01 5.096146768314664399e-01 5.078078968942530969e-01 5.079189385801247125e-01 5.077945429387640264e-01 5.079415597084953049e-01 5.078247764236111239e-01 5.097043969722404588e-01 5.082027031812174078e-01 5.098733403974667899e-01 5.077975020133260742e-01 5.082642423569443402e-01 5.079364301685066474e-01 5.081004600847062180e-01 5.080087529812631342e-01 5.080343661224459018e-01 5.079480022981680554e-01 5.078010842038088724e-01 5.079045535657901178e-01 5.082238469991396945e-01 5.081749501689118986e-01 5.081728075954703439e-01 5.084348351424339274e-01 5.081788168411167650e-01 5.080702604909582698e-01 5.081169271392788067e-01 5.083440021876546311e-01 5.080560217837082337e-01 5.082061636294571416e-01 5.080780826920761051e-01 5.079685481303239936e-01 5.098613681259455133e-01 5.080792670207345818e-01 5.082473390447304062e-01 5.080782037557234343e-01 5.080585122545638876e-01 5.081860143354959281e-01 5.079579421404575301e-01 5.096675267862561531e-01 5.080462114768310444e-01 5.082486597339541667e-01 5.082596470375402298e-01 5.079984967167414656e-01 5.078412521019813886e-01 5.079949048025818037e-01 5.078610741309400600e-01 5.096730963569909845e-01 5.082442173085849335e-01 5.083213377213458006e-01 5.081455646109913626e-01 5.078847570341310513e-01 5.098496047903493533e-01 5.078452767608186980e-01 5.081470492464948974e-01 5.084317659543855505e-01 5.083807181201275283e-01 5.079656774460321600e-01 5.093793975032062660e-01 5.078698706893970405e-01 5.078033604671129408e-01 5.080535191672389539e-01 5.079370225877505307e-01 5.078307869380940254e-01 5.080298798305774577e-01 5.080435289787328390e-01 5.082316733482087345e-01 5.079073239034976872e-01 5.079066999304975294e-01
4.000000000000000000e+00 1.817536964092994589e+00 9.113292212798480493e-03 1.818000000000000060e+00 1.817673975872297509e+00 1.817463087808399935e+00 1.816679141150872034e+00 1.817848858765521936e+00 1.817087377465743003e+00 1.817743811434490375e+00 1.817610795239553934e+00 1.816983075488986854e+00 1.818588092078996521e+00 1.816489828196994782e+00 1.818239941538724036e+00 1.818486037639986730e+00 1.818191018686294402e+00 1.818035681728420228e+00 1.817800728742649863e+00 1.817347076864976430e+00 1.816627874769862316e+00 1.817005657644533478e+00 1.817660388716651809e+00 1.817428842982024673e+00 1.817350187032381381e+00 1.817977650856106742e+00 1.817526671396876070e+00 1.816387133055989089e+00 1.816947405968042606e+00 1.816667345583369286e+00 1.818393668595775114e+00 1.817841713949840621e+00 1.816963125279664304e+00 1.817401843563638542e+00 1.818355900163344696e+00 1.817942530167606208e+00 1.818131170152017750e+00 1.817745990530997169e+00 1.818522442843164111e+00 1.817454025231812764e+00 1.817167585180538003e+00 1.817237567433409584e+00 1.818078583170616991e+00 1.816862330914783774e+00 1.816716804420924314e+00 1.816927180526191510e+00 1.817256274119305903e+00 1.816887233366021981e+00 1.817011968406660793e+00 1.817597365334660875e+00 1.817012600141830303e+00 1.816726321571895397e+00 1.816726038419053335e+00 1.817640533646295520e+00 1.817370845873543805e+00 1.817883365980661026e+00 1.817090321809516240e+00 1.817075721252034537e+00 1.816841858282402633e+00 1.816837619329306763e+00 1.816583251143496280e+00 1.816786678927624799e+00 1.817464000972067950e+00 1.817437506059483621e+00 1.817963757023333127e+00 1.817688850432539471e+00 1.818225044075721719e+00 1.818183462851581833e+00 1.817193272173343921e+00 1.817043020306576606e+00 1.817927466852991447e+00 1.817837448814374479e+00 1.818015064738002895e+00 1.818395976597623642e+00 1.817504904055844861e+00 1.817671177908407154e+00 1.816918041054226940e+00 1.816707796568144406e+00 1.818793633989223224e+00 1.816786966682331528e+00 1.817020747717508211e+00 1.817669992103159160e+00 1.817110535122461012e+00 1.816902438950547927e+00 1.817983228587058964e+00 1.818195590940209883e+00 1.817029413922312431e+00 1.818044350114436991e+00 1.816951855982200881e+00 1.817628034084179056e+00 1.818641048051294007e+00 1.816895198803495592e+00 1.817469192932944066e+00 1.818480978960189676e+00 1.817790870013153981e+00 1.817387463678705295e+00 1.818451807755118610e+00 1.817812147994768646e+00 1.817662925960277676e+00 1.816892063339320185e+00 1.817016496715262441e+00 1.816877223999058932e+00 1.817603457358322183e+00 1.816618583704447509e+00 1.818234692180252132e+00 1.817151051564388275e+00 1.818212511523921382e+00 1.817884290293521055e+00 1.817480574079012534e+00 1.818316303294738034e+00 1.817808210381530287e+00 1.816623948817462031e+00 1.816573419684290869e+00 1.818612709148677009e+00 1.818432984888084025e+00 1.818176795633656306e+00 1.817668813759529378e+00 1.816369007577944172e+00 1.816639598384484078e+00 1.817142673421075605e+00 1.817969166567233508e+00 1.818292570198692282e+00 1.816820033742896134e+00 1.817270153467252847e+00 1.817326309758333647e+00 1.817891253216289194e+00 1.816797614334451527e+00 1.817435531021356132e+00 1.818120168912789936e+00 1.817311966232493692e+00 1.816579646752347621e+00 1.818203341571317466e+00 1.818395521418872285e+00 1.816626902486141226e+00 1.817592312856811443e+00 1.818259100470972500e+00 1.817854316739229592e+00 1.817593551169638166e+00 1.817764538115390849e+00 1.817710947547752420e+00 1.818476476324197399e+00 1.817842937004003678e+00 1.817098909825646036e+00 1.818749970239919911e+00 1.816545660339175861e+00 1.817258503812177350e+00 1.817031236221290147e+00 1.817516384571292720e+00 1.818299587182445887e+00 1.817033924632148523e+00 1.817541154291776984e+00 1.816565826856590959e+00 1.818562355706268008e+00 1.818371100715355793e+00 1.816521566371235075e+00 1.818358890626976976e+00 1.817868963192267540e+00 1.818097814740786911e+00 1.818487973489034459e+00 1.817387873115080765e+00 1.817764950282336311e+00 1.817801208196911489e+00 1.816626436234521247e+00 1.817312512901086752e+00 1.817709902241469999e+00 1.817264722564316815e+00 1.817790857381977432e+00 1.817372920350639909e+00 1.816946262148104285e+00 1.818725422014671578e+00 1.817548495769793160e+00 1.817275312323281211e+00 1.816944614409863989e+00 1.817772500091230592e+00 1.818359520539361895e+00 1.818031324645544178e+00 1.818122987422454262e+00 1.817813913736357367e+00 1.817288132052213179e+00 1.817658422013004760e+00 1.816800208957554341e+00 1.818626101195042866e+00 1.816617753136563485e+00 1.817554450036732216e+00 1.818639939010138429e+00 1.818251444040476672e+00 1.816417991505768548e+00 1.817229740103899260e+00 1.818200487407050314e+00 1.816736994391917825e+00 1.818279437665736964e+00 1.817887441930962522e+00 1.817505818143076102e+00 1.818283676070266974e+00 1.816884188396123090e+00 1.816279563032271005e+00 1.818209400155112565e+00 1.818105491917077821e+00 1.817849485849117874e+00 1.816814830779242662e+00 1.818165378867871773e+00 1.816888909600119284e+00 1.816928187047584631e+00 1.817994620139834705e+00 1.817431882522445363e+00 1.817981765612389333e+00 1.817502820413482434e+00 1.816834684660803223e+00 1.816873028803917656e+00 1.817148719098354182e+00 1.818520937918862934e+00 1.817587575370177788e+00 1.817463885311480620e+00 1.817446285730646149e+00 1.818526251043558695e+00 1.817543478293630166e+00 1.817360992334944081e+00 1.817877168497807894e+00 1.817785300893794975e+00 1.817534301010480080e+00 1.817296278207108706e+00 1.818191531192992816e+00 1.817774620205768521e+00 1.817394430420187001e+00 1.818106932149585964e+00 1.816155607530273386e+00 1.816828186614856344e+00 1.817668336331808687e+00 1.817666103294575786e+00
5.000000000000000000e+00 4.856534622738098328e+00 1.681439526402094681e-02 4.855999999999999872e+00 4.857128809014093385e+00 4.856565280843348376e+00 4.855815281468244038e+00 4.855596291620117633e+00 4.858907656923815210e+00 4.857315421313946224e+00 4.858305506659028161e+00 4.855282607659789917e+00 4.855570186441941161e+00 4.855309265456064338e+00 4.858641163913707928e+00 4.855297704457917973e+00 4.856510223729728182e+00 4.857438946996858853e+00 4.857467513878873433e+00 4.858254561916274028e+00 4.857678942666547428e+00 4.855342950955524373e+00 4.857092501862208422e+00 4.856473772940965716e+00 4.856263591090928422e+00 4.857940279350366986e+00 4.856735186823995853e+00 4.857035197202577592e+00 4.856532328507091378e+00 4.857784487969625253e+00 4.857051515237120753e+00 4.855577207337967494e+00 4.858575405483507303e+00 4.856401625980283576e+00 4.855609711425195485e+00 4.854505877260750779e+00 4.856350364278436693e+00 4.857321244224193535e+00 4.854056058973676535e+00 4.854541664755601005e+00 4.855775648408720890e+00 4.855962652690595682e+00 4.856859929018376931e+00 4.855659519920326517e+00 4.854571086840951288e+00 4.856478267772100565e+00 4.857357904501713008e+00 4.858372469837776819e+00 4.855359814367193216e+00 4.856924092846965912e+00 4.855361502469203394e+00 4.857942190282557249e+00 4.855940633527579209e+00 4.857039445794116617e+00 4.856318794969018526e+00 4.855688462707419717e+00 4.855569187761622274e+00 4.855530172630573738e+00 4.854905251669918265e+00 4.856892645731810454e+00 4.855558976349411360e+00 4.856102719997076100e+00 4.856567720969365176e+00 4.856496922132547134e+00 4.857903152705914884e+00 4.857168556326334929e+00 4.858601355401461319e+00 4.856490041588163997e+00 4.855844288348792226e+00 4.854100639961854924e+00 4.857806179302438743e+00 4.857565636050733104e+00 4.858040255499020077e+00 4.855057244447120723e+00 4.856677020848897186e+00 4.857121332386711288e+00 4.855108824775266285e+00 4.857892654259311271e+00 4.856118976558684963e+00 4.856103489138786422e+00 4.855383274153824757e+00 4.855118526761794229e+00 4.855623201113814069e+00 4.855067133345303709e+00 4.854614555457749780e+00 4.856522436526764963e+00 4.856751528182216227e+00 4.858118510921856092e+00 4.856544222983261605e+00 4.858351584495927966e+00 4.857712282363631395e+00 4.858393769487761027e+00 4.856581594757009235e+00 4.853945382301429134e+00 4.857441169705117190e+00 4.856363200523184709e+00 4.857206808833254286e+00 4.856841708188666118e+00 4.855099652619972339e+00 4.856384402780319576e+00 4.856717001682754997e+00 4.856344738596603428e+00 4.858285893181330195e+00 4.855653417016182694e+00 4.856626878562873451e+00 4.855731467821671643e+00 4.856567632541342938e+00 4.855690931609096594e+00 4.856612007082421911e+00 4.856844867326318926e+00 4.855487717058696973e+00 4.857668444635240057e+00 4.857533329287949897e+00 4.855635913205544441e+00 4.859157008023274216e+00 4.856472233001669636e+00 4.857115014985585510e+00 4.855639921247969504e+00 4.857710291715338968e+00 4.859055518795563522e+00 4.855917641831950071e+00 4.856781474634130902e+00 4.854846932850929164e+00 4.856049728021955225e+00 4.856199787021993508e+00 4.855709530043069044e+00 4.858132827757762229e+00 4.855835460636354739e+00 4.857664680377124178e+00 4.857506764368129559e+00 4.857549980522796851e+00 4.856543138982572394e+00 4.855715513239406533e+00 4.857676342771311440e+00 4.856910591781292474e+00 4.855351224334574667e+00 4.855610870234158050e+00 4.856257659843107533e+00 4.857370806471159597e+00 4.857227603513190495e+00 4.858423001638011662e+00 4.855580474197712881e+00 4.855592136376781554e+00 4.856002395789092319e+00 4.855458499607026468e+00 4.857363864264486963e+00 4.856756399018800074e+00 4.856707698705907461e+00 4.856800217468623337e+00 4.855418485073145440e+00 4.854774392321710152e+00 4.856166071794847383e+00 4.855501471176141060e+00 4.854990826662451298e+00 4.856047751685480307e+00 4.854958226129453713e+00 4.853650136048001329e+00 4.856261269736667607e+00 4.857303409935506799e+00 4.857709656443063295e+00 4.857371907850159154e+00 4.857468795060833955e+00 4.854329607935811808e+00 4.856162919512365228e+00 4.857224810280011518e+00 4.858034406855104237e+00 4.857441135952500488e+00 4.856324338318706246e+00 4.855184236257144903e+00 4.857687551126370629e+00 4.854794001902154044e+00 4.856063513347909755e+00 4.856524866930330475e+00 4.855392332476906603e+00 4.856960303486876462e+00 4.856083670230342264e+00 4.858328642958351651e+00 4.855502951102173448e+00 4.856097769807290021e+00 4.857087246501197164e+00 4.856489038740789965e+00 4.855671669527358958e+00 4.855651196985065532e+00 4.858154901144437154e+00 4.857709320040281220e+00 4.856671623905695512e+00 4.857117712969169609e+00 4.857286981533220249e+00 4.858535735876484907e+00 4.857970729497330886e+00 4.856746396757325890e+00 4.855699349844199375e+00 4.856679463442829636e+00 4.856757717820250342e+00 4.856363353785672743e+00 4.856747554011403345e+00 4.858559552229667844e+00 4.855777388945861084e+00 4.855597966602484661e+00 4.856831725845499825e+00 4.857391824472938602e+00 4.858376952102521962e+00 4.856480958110669377e+00 4.855985630032473743e+00 4.856481895101231849e+00 4.857951274667209773e+00 4.856671453008084782e+00 4.854886082553456106e+00 4.856333525228092363e+00 4.857070419880733070e+00 4.855390887050693216e+00 4.856897932424820929e+00 4.854568001690071632e+00 4.856520382882002274e+00 4.857405651852321427e+00 4.857575107226713484e+00 4.857637806604525821e+00 4.855671908814827020e+00 4.854086023265847594e+00 4.856755574427344513e+00 4.856119537695343880e+00 4.854511381964130123e+00 4.857397747502543162e+00 4.856381816821380148e+00 4.858285740584537216e+00 4.858416267280873946e+00 4.858214578304924203e+00 4.855114104085403781e+00 4.857107772169994675e+00
6.000000000000000000e+00 3.217684348710805192e-03 2.687515354574064575e-05 3.231985168038408861e-03 3.217051397462276918e-03 3.216705782750343100e-03 3.218862525720164736e-03 3.217163923182441831e-03 3.219733260459533512e-03 3.217088906035665222e-03 3.220550411522633653e-03 3.215829689643347113e-03 3.218715170610425124e-03 3.218599965706447040e-03 3.218058770576131752e-03 3.218637474279835344e-03 3.217935528120713286e-03 3.221198774005487077e-03 3.217303240740740627e-03 3.216652199074074032e-03 3.218618719993141409e-03 3.215516225137174389e-03 3.217289844821673468e-03 3.216539673353909553e-03 3.216662915809328019e-03 3.217179998285322161e-03 3.216630765603566491e-03 3.218310613854595461e-03 3.219240290637860082e-03 3.218570494684499118e-03 3.218399026920438794e-03 3.217225544410150847e-03 3.219604659636488269e-03 3.216301225994513003e-03 3.214629415294924415e-03 3.214048032407407218e-03 3.217964999142661209e-03 3.217121056241426750e-03 3.214964313271605114e-03 3.216700424382715889e-03 3.215942215363511592e-03 3.216368205589849229e-03 3.217881944444444652e-03 3.215521583504801165e-03 3.215513545953360783e-03 3.219127764917695603e-03 3.219674318415637667e-03 3.219326024519890243e-03 3.215835048010973890e-03 3.217121056241426750e-03 3.215714484739369029e-03 3.218891996742112658e-03 3.219033993484225059e-03 3.216992455418381507e-03 3.216545031721536330e-03 3.217397012174211170e-03 3.216100287208504757e-03 3.216161908436214207e-03 3.215687692901234712e-03 3.215502829218106796e-03 3.218771433470507363e-03 3.219111689814814839e-03 3.216536994170095948e-03 3.216786158264746051e-03 3.217273769718792704e-03 3.216954946844993203e-03 3.218147183641975519e-03 3.218064128943758529e-03 3.216263717421124699e-03 3.212344071502057537e-03 3.217533650548696795e-03 3.217174639917695384e-03 3.217723872599451487e-03 3.218222200788751694e-03 3.216721857853223430e-03 3.216893325617283753e-03 3.215733239026062965e-03 3.219031314300411454e-03 3.218776791838134574e-03 3.219481417181069803e-03 3.215709126371742253e-03 3.216842421124828724e-03 3.215891310871056129e-03 3.215693051268861489e-03 3.213806905864197497e-03 3.218082883230452464e-03 3.219607338820301874e-03 3.217514896262002860e-03 3.219765410665295039e-03 3.220411093964334857e-03 3.218814300411522444e-03 3.218916109396433370e-03 3.216818308470507579e-03 3.214857145919067412e-03 3.217268411351165928e-03 3.216700424382715889e-03 3.218224879972565299e-03 3.220952289094650145e-03 3.216893325617283753e-03 3.219551075960219635e-03 3.219253686556927240e-03 3.219084897976680522e-03 3.220764746227709058e-03 3.218541023662551629e-03 3.218168617112483060e-03 3.216065457818930058e-03 3.218109675068587215e-03 3.217423804012345488e-03 3.216657557441700808e-03 3.218182013031550218e-03 3.217276448902606310e-03 3.218800904492455286e-03 3.218822337962962826e-03 3.218597286522633868e-03 3.218299897119341474e-03 3.218066808127572134e-03 3.217099622770919209e-03 3.214688357338820260e-03 3.218693737139917584e-03 3.219580546982167557e-03 3.217793531378600885e-03 3.218074845679012516e-03 3.215559092078189470e-03 3.216405714163237100e-03 3.216344092935528084e-03 3.217244298696844782e-03 3.219240290637860082e-03 3.220076195987654159e-03 3.221359525034293413e-03 3.220119062928669239e-03 3.218393668552812018e-03 3.218042695473250989e-03 3.214961634087791509e-03 3.218562457133059170e-03 3.216874571330589818e-03 3.214318629972565296e-03 3.217418445644718711e-03 3.220349472736625408e-03 3.217078189300411669e-03 3.217311278292181009e-03 3.218605324074074250e-03 3.216853137860082278e-03 3.215960969650205961e-03 3.218634795096021739e-03 3.218532986111111247e-03 3.219730581275720340e-03 3.219567151063099965e-03 3.216762045610425339e-03 3.218163258744855849e-03 3.215904706790123288e-03 3.216751328875171352e-03 3.214999142661179813e-03 3.218996484910836755e-03 3.218184692215363390e-03 3.214862504286694189e-03 3.218023941186557053e-03 3.218098958333333228e-03 3.217973036694101591e-03 3.218412422839506386e-03 3.220330718449931472e-03 3.216877250514403423e-03 3.217321995027434996e-03 3.215012538580246972e-03 3.216518239883402012e-03 3.217064793381344510e-03 3.216411072530864310e-03 3.217260373799725546e-03 3.216443222736625404e-03 3.215676976165980725e-03 3.219323345336076638e-03 3.216502164780521249e-03 3.216011874142660990e-03 3.219730581275720340e-03 3.217209469307270083e-03 3.218267746913580380e-03 3.217823002400548808e-03 3.217780135459533727e-03 3.217067472565157682e-03 3.216539673353909553e-03 3.216925475823045281e-03 3.219184027777777842e-03 3.218897355109739435e-03 3.218565136316872341e-03 3.220668295610425343e-03 3.218725887345679111e-03 3.217951603223594050e-03 3.218393668552812018e-03 3.219725222908093130e-03 3.217831039951989189e-03 3.218830375514403208e-03 3.218106995884773610e-03 3.217514896262002860e-03 3.216997813786008284e-03 3.217841756687242743e-03 3.219561792695473188e-03 3.217756022805212581e-03 3.217951603223594050e-03 3.218862525720164736e-03 3.217107660322359591e-03 3.215561771262002641e-03 3.217758701989026186e-03 3.219336741255144230e-03 3.219184027777777842e-03 3.217670288923182419e-03 3.216646840706447255e-03 3.217686364026063183e-03 3.216713820301783048e-03 3.215486754115226466e-03 3.219224215534979318e-03 3.219650205761316955e-03 3.218921467764060147e-03 3.216847779492455501e-03 3.216496806412894472e-03 3.216732574588477417e-03 3.218428497942386717e-03 3.220625428669410262e-03 3.220169967421124702e-03 3.217463991769547397e-03 3.213581854423868105e-03 3.216705782750343100e-03 3.216344092935528084e-03 3.218023941186557053e-03 3.216965663580246756e-03 3.216780799897119274e-03 3.217565800754458322e-03 3.217723872599451487e-03 3.219050068587105823e-03 3.217107660322359591e-03 3.217115697873799540e-03
