# vvf statistics with RF=500
# gcat file: /disk2/salam/Abacus/AbacusCosmos_720box_products/GCAT_derivative/AbacusCosmos_720box_planck_rockstar_halos_z0.100_Mr21_hod-fconc-pos_real-4.gcat.rsd_zz.1pz0.100by100
# stats order in row: stdvvf,p2.5,p16,p50,p84,p97.5,rho
# columns: numbers, mean, sigma,All, jnrealizations
0.000000000000000000e+00 1.441560273905463596e+00 4.937684274121212184e-03 1.441560511318122240e+00 1.441948674748547043e+00 1.441092282607967512e+00 1.441472124243206254e+00 1.441634109429927202e+00 1.441756996329444762e+00 1.441685587074280850e+00 1.441783945061137606e+00 1.440609129259753818e+00 1.440469106557148216e+00 1.441444693194569471e+00 1.442155075943784892e+00 1.441732956141659638e+00 1.441581600600844393e+00 1.441490627987810580e+00 1.441858959420423192e+00 1.441644411473351095e+00 1.441844168552081307e+00 1.441543275253579948e+00 1.441786532857871395e+00 1.441878427726082990e+00 1.441455864759414895e+00 1.442337347616483578e+00 1.441549617654166004e+00 1.441633809717035364e+00 1.441477703227947771e+00 1.442058346040619554e+00 1.442017774937542018e+00 1.441073325904028035e+00 1.442022927908094054e+00 1.441362490430338594e+00 1.441578789182872633e+00 1.440966845972558197e+00 1.441647736212355868e+00 1.441424333643569922e+00 1.440942257313718056e+00 1.441127119945095902e+00 1.441747365280758419e+00 1.441503092882495451e+00 1.441526804386435545e+00 1.441870435335857348e+00 1.441421978778702595e+00 1.441659922182331188e+00 1.441778398072435019e+00 1.441225314644503097e+00 1.440983636643242027e+00 1.441759140808130724e+00 1.441190714982620191e+00 1.441930976644868245e+00 1.441761717798032194e+00 1.441337453559500936e+00 1.440902245391390002e+00 1.441379220336816980e+00 1.441053406504163581e+00 1.441568821505591957e+00 1.440952875852557158e+00 1.441275448830929840e+00 1.441459422125290102e+00 1.441700649704508841e+00 1.441674900792667025e+00 1.441197079259924907e+00 1.441782451509447061e+00 1.441673745445444910e+00 1.441926456693475522e+00 1.441706272011159529e+00 1.441670212826310804e+00 1.440802837570440476e+00 1.442130434285531004e+00 1.441960904353619233e+00 1.441986976405515097e+00 1.441531782590787847e+00 1.441646760168194596e+00 1.442001610485804886e+00 1.441033516281631677e+00 1.441609838966295021e+00 1.441381564369173862e+00 1.441555521354762393e+00 1.441755074912834278e+00 1.441337594634692021e+00 1.441395720936305525e+00 1.441358638138934056e+00 1.441181199355066500e+00 1.441676407076498245e+00 1.440751308258150676e+00 1.441658708543312351e+00 1.441163681016391473e+00 1.442082075003508379e+00 1.441626899589457222e+00 1.441726547741581266e+00 1.441233336476819504e+00 1.441011898584500628e+00 1.441712933868056323e+00 1.441429907428372070e+00 1.441802980531133871e+00 1.441965517269193198e+00 1.441320338259232114e+00 1.441561504480757483e+00 1.442060555045012071e+00 1.441539731053480322e+00 1.441663501665395808e+00 1.441611357982024444e+00 1.441572252650028085e+00 1.441089127923772084e+00 1.441384274167315960e+00 1.441537211438564725e+00 1.441646718517491710e+00 1.441664164712341156e+00 1.441505703678227945e+00 1.441476290776326108e+00 1.441256325719737053e+00 1.441524196592218310e+00 1.441977721117533751e+00 1.441612538646598551e+00 1.441844970646005031e+00 1.440959094853084821e+00 1.441935449484160969e+00 1.441736774790538300e+00 1.441909153220386042e+00 1.441491472191112067e+00 1.441084611613750788e+00 1.441715097622859876e+00 1.441435517873966621e+00 1.441398495349120124e+00 1.441626138405000424e+00 1.441216203951334096e+00 1.441320655270719842e+00 1.441596000300770175e+00 1.442130702513602314e+00 1.441923646968736428e+00 1.441547979778299515e+00 1.441493806823658463e+00 1.441747340575216363e+00 1.441253830226949972e+00 1.441623947238625858e+00 1.441383615957576581e+00 1.441709103463596708e+00 1.441653284871775131e+00 1.441725150370930297e+00 1.441239791387470826e+00 1.440799262043460205e+00 1.440723597426381897e+00 1.441680568517692773e+00 1.442003960934635121e+00 1.441589611222131806e+00 1.441885177274800478e+00 1.441918642615340973e+00 1.441484550100856854e+00 1.441569069156757532e+00 1.441653900099757690e+00 1.441245259627339959e+00 1.441355008525395442e+00 1.441152497618936934e+00 1.441304286079097219e+00 1.440800246872288914e+00 1.441837806778872855e+00 1.441768489130379249e+00 1.442128880579053751e+00 1.441743083510460988e+00 1.441805751612893260e+00 1.441001593108555801e+00 1.441806469426136550e+00 1.441898413385531708e+00 1.441647477154819335e+00 1.441778428300498405e+00 1.441587565700834572e+00 1.441538367702338119e+00 1.441440570383419884e+00 1.441107876057470261e+00 1.441501555399225198e+00 1.441890210810680140e+00 1.441488354058243937e+00 1.441682695776901113e+00 1.441454449216741152e+00 1.441962861223623271e+00 1.441247096381241377e+00 1.441701665880041450e+00 1.441867367741009653e+00 1.442100156923676879e+00 1.441654498073794866e+00 1.441308956885100967e+00 1.441992888799863204e+00 1.441813731347141081e+00 1.441722385399804907e+00 1.441648717321273532e+00 1.442153942050021120e+00 1.442038331291749742e+00 1.442059913619985423e+00 1.441885586655399898e+00 1.441691480624508692e+00 1.440879461129378480e+00 1.441856222471753490e+00 1.441577775004851736e+00 1.441862320973359424e+00 1.441734944336951596e+00 1.441404111325226500e+00 1.441270659511198149e+00 1.441493718404669888e+00 1.441868910397845704e+00 1.441506230907221742e+00 1.441523576871193368e+00 1.441331650799576591e+00 1.441759782739162388e+00 1.441557714512903932e+00 1.441554821578878931e+00 1.441356058021912689e+00 1.441669599536520074e+00 1.441811868460317614e+00 1.441350762886118630e+00 1.441438487250156442e+00 1.441445253592428477e+00 1.441491340860618697e+00 1.441791022135197053e+00 1.441524004818643068e+00 1.441367505414428596e+00 1.440855035510167914e+00 1.441083769055368835e+00 1.441651121472828923e+00 1.441730182837745344e+00 1.441359011825934511e+00 1.441741898782783693e+00 1.441540764640532268e+00 1.442364693715094459e+00 1.441916261503337626e+00 1.441876973205891144e+00 1.441028953683698655e+00 1.441435002625745199e+00
1.000000000000000000e+00 2.199999990279474793e-02 1.632875256789055943e-04 2.199999999999999872e-02 2.199449290646453975e-02 2.199515836320216355e-02 2.200799388211958224e-02 2.199692056110225460e-02 2.201261692342459594e-02 2.199453560866867705e-02 2.202203068283971332e-02 2.198934625462654543e-02 2.200758796383895516e-02 2.200673741508672385e-02 2.200490820628528757e-02 2.200884226735583954e-02 2.200561314162681123e-02 2.202572498200925863e-02 2.199858963087888281e-02 2.199332316023722145e-02 2.200744771241051889e-02 2.198802889588744730e-02 2.199534126082062016e-02 2.199122677886016994e-02 2.198899752078479694e-02 2.200197246078577570e-02 2.199128052784137671e-02 2.200302029781214461e-02 2.201384968559420494e-02 2.200705989289675549e-02 2.200697255622729651e-02 2.199978092786432707e-02 2.201278644659459757e-02 2.198795600481466550e-02 2.197768314587045246e-02 2.197482109776269926e-02 2.199988696936074767e-02 2.199575660015001127e-02 2.197942618988084004e-02 2.199377426784476439e-02 2.198929609671234839e-02 2.198559465993695297e-02 2.199905827501703881e-02 2.198745104457718730e-02 2.198472106783038588e-02 2.201205788073700917e-02 2.201528246314170614e-02 2.201245389226325760e-02 2.198528024697761138e-02 2.199600489946329507e-02 2.198446825796175619e-02 2.201026228439501020e-02 2.200410119303447196e-02 2.199603405873054238e-02 2.199255093119645288e-02 2.199867044291421367e-02 2.198950445076244126e-02 2.199046916557772027e-02 2.198111179956599090e-02 2.198217815521851665e-02 2.200676098492151261e-02 2.200848811375727410e-02 2.199295743003093148e-02 2.199384911066433468e-02 2.200044156751410074e-02 2.199414312869944765e-02 2.200251784236669991e-02 2.200466576352277936e-02 2.198974585561462233e-02 2.196120476364935362e-02 2.199954220788495618e-02 2.199854028327708280e-02 2.199949157713876682e-02 2.200423434290242272e-02 2.199421547247573314e-02 2.199294600508648959e-02 2.198422967276524378e-02 2.201036777959188007e-02 2.200941418896410623e-02 2.201057076226845335e-02 2.198949096164450404e-02 2.199238449422464062e-02 2.199048229028280343e-02 2.198391253082416369e-02 2.197279265700237405e-02 2.200470072822069065e-02 2.201134616347244846e-02 2.200114240492300269e-02 2.201345153120068399e-02 2.202214803832493184e-02 2.200819276369080438e-02 2.200896332079434539e-02 2.199430972933246950e-02 2.198230261184779682e-02 2.199886858186805502e-02 2.199221431822082420e-02 2.200594358638522513e-02 2.201986611248909348e-02 2.199489578373197557e-02 2.201245331143004968e-02 2.201346738127257091e-02 2.201319046010798489e-02 2.202012802125524055e-02 2.200877074137629757e-02 2.200749992179413736e-02 2.198882392425971499e-02 2.200721859748013334e-02 2.199977310698099722e-02 2.199159792834329968e-02 2.199979061250869478e-02 2.199914145817832151e-02 2.201091913836606198e-02 2.200759119901138025e-02 2.200792353049617692e-02 2.200176714230180769e-02 2.200238358283061052e-02 2.199611922552996771e-02 2.198297633476827342e-02 2.201039450576754847e-02 2.201545567897078906e-02 2.199829712471499527e-02 2.200444839671364394e-02 2.198904374196583231e-02 2.199457024134658656e-02 2.199128036515002327e-02 2.199946211883477623e-02 2.201564804017709306e-02 2.201897283598806127e-02 2.202564372709116952e-02 2.201552430201183033e-02 2.200614286077050286e-02 2.200299042614513659e-02 2.197839712334405393e-02 2.200597100891150959e-02 2.199687144104229761e-02 2.197684818971452209e-02 2.199763461366673403e-02 2.201950725796982325e-02 2.199562179459832109e-02 2.199728227128035923e-02 2.200414826635973750e-02 2.199573831483630365e-02 2.198600123450645052e-02 2.201005196790712867e-02 2.200758790650067520e-02 2.201396747191065872e-02 2.201064409193364060e-02 2.199437061817000397e-02 2.200373347697693466e-02 2.198824081046707110e-02 2.199530788678044982e-02 2.198273008856597988e-02 2.201279571138563956e-02 2.200338712103294680e-02 2.198394013511620684e-02 2.200702469505499970e-02 2.199696550400722858e-02 2.200296647370098696e-02 2.200759617825995273e-02 2.201826422625983645e-02 2.199704601264245232e-02 2.199851062399930945e-02 2.198014209704872782e-02 2.199385820255305921e-02 2.199684488674042565e-02 2.198933095759417200e-02 2.199819231908176770e-02 2.199083356427526323e-02 2.198890822658203584e-02 2.200947766438017192e-02 2.199186680474702477e-02 2.198978515611607620e-02 2.201173300737871430e-02 2.199662833263130168e-02 2.200675769138572824e-02 2.200312240674954720e-02 2.200136370652384585e-02 2.199475836551044450e-02 2.199120063567974737e-02 2.199465991365150835e-02 2.201171559613467055e-02 2.201040306105946087e-02 2.200395388623540768e-02 2.201814436886405726e-02 2.201085344163794880e-02 2.200761236239251115e-02 2.200897171273340919e-02 2.201479883787454267e-02 2.200520083597721360e-02 2.200433149163524144e-02 2.200501435339397363e-02 2.199387971175743861e-02 2.199186820174158299e-02 2.200472926201169424e-02 2.201154770590788012e-02 2.200198034102334582e-02 2.200211513248790177e-02 2.200638627265872477e-02 2.199849535555000596e-02 2.198531994171338405e-02 2.200143449224883918e-02 2.201387293913178306e-02 2.200728534906390074e-02 2.200110860243808739e-02 2.199485053779310501e-02 2.199798438546123405e-02 2.199529168013072272e-02 2.198845968523806607e-02 2.201162617900655899e-02 2.201437282763391012e-02 2.200660478020364727e-02 2.199266231083431278e-02 2.199257135193968815e-02 2.199185325813968889e-02 2.200808195361416211e-02 2.202124444233608674e-02 2.202027537872343690e-02 2.199667676674844918e-02 2.196972214606072657e-02 2.199425805584236809e-02 2.199059547792466679e-02 2.200221215054294285e-02 2.199472497529166362e-02 2.198951674861652356e-02 2.200152399495582459e-02 2.200048904594093316e-02 2.201171215574137044e-02 2.199407348778962754e-02 2.199576664253757863e-02
2.000000000000000000e+00 1.039999995404842781e-01 7.719046668457304507e-04 1.039999999999999952e-01 1.039739664669232649e-01 1.039771122624102290e-01 1.040377892609289229e-01 1.039854426524833841e-01 1.040596436380071821e-01 1.039741683318883003e-01 1.041041450461513834e-01 1.039496368400527476e-01 1.040358703745114244e-01 1.040318495985917829e-01 1.040232024297122609e-01 1.040417998093185054e-01 1.040265348513267490e-01 1.041216090058619537e-01 1.039933328005183538e-01 1.039684367574850443e-01 1.040352073677588141e-01 1.039434093260133973e-01 1.039779768693338408e-01 1.039585265909753475e-01 1.039479882800735944e-01 1.040093243600782175e-01 1.039587806770683187e-01 1.040142777714755939e-01 1.040654712409907895e-01 1.040333740391483075e-01 1.040329611748926630e-01 1.039989643862677254e-01 1.040604450202653602e-01 1.039430647500329680e-01 1.038945021441148725e-01 1.038809724621509445e-01 1.039994656733417289e-01 1.039799402916182364e-01 1.039027419885275999e-01 1.039705692661752612e-01 1.039493997299129197e-01 1.039319020287928635e-01 1.039955482091714511e-01 1.039406776652739839e-01 1.039277723206527282e-01 1.040570008907567706e-01 1.040722443712153444e-01 1.040588729452444905e-01 1.039304157129850720e-01 1.039811140701901310e-01 1.039265772194555848e-01 1.040485126171400571e-01 1.040193874579811439e-01 1.039812519139989289e-01 1.039647862202014161e-01 1.039937148210490075e-01 1.039503846763315531e-01 1.039549451463673974e-01 1.039107103252210479e-01 1.039157512792148186e-01 1.040319610196289574e-01 1.040401256286707238e-01 1.039667078510553011e-01 1.039709230685950392e-01 1.040020874100666404e-01 1.039723129720337286e-01 1.040119025275516862e-01 1.040220563366531376e-01 1.039515258629055000e-01 1.038166043372514835e-01 1.039978358918197954e-01 1.039930995209462222e-01 1.039975965464741692e-01 1.040200168937205488e-01 1.039726549607943723e-01 1.039666538422270303e-01 1.039254493621629694e-01 1.040490113217070745e-01 1.040445034387394163e-01 1.040499708761781494e-01 1.039503209095922059e-01 1.039639994272437556e-01 1.039550071904278006e-01 1.039239501457142195e-01 1.038713834694657556e-01 1.040222216243159997e-01 1.040536364091424748e-01 1.040054004596360077e-01 1.040635890565850402e-01 1.041046998175360339e-01 1.040387294283565273e-01 1.040423720619369080e-01 1.039731005386625856e-01 1.039163396196441380e-01 1.039946514779217235e-01 1.039631949588620680e-01 1.040280969538210643e-01 1.040939125317666275e-01 1.039758709776420625e-01 1.040588701994874937e-01 1.040636639841976130e-01 1.040623549023286520e-01 1.040951506459338732e-01 1.040414616865061315e-01 1.040354541757541051e-01 1.039471676419550239e-01 1.040341242789969978e-01 1.039989274148192533e-01 1.039602811158047008e-01 1.039990101682229245e-01 1.039959414386611575e-01 1.040516177450032109e-01 1.040358856680538013e-01 1.040374566896182934e-01 1.040083537636085353e-01 1.040112678461083268e-01 1.039816545206871112e-01 1.039195244916318317e-01 1.040491376636284160e-01 1.040730632096801000e-01 1.039919500441072453e-01 1.040210287844644949e-01 1.039482067802021126e-01 1.039743320500020607e-01 1.039587799079819130e-01 1.039974572890371290e-01 1.040739725535644311e-01 1.040896897701253654e-01 1.041212248917037092e-01 1.040733876095104732e-01 1.040290389781878266e-01 1.040141365599588363e-01 1.038978773103537145e-01 1.040282265875816792e-01 1.039852104485635975e-01 1.038905550786504706e-01 1.039888181736972894e-01 1.040922161285846165e-01 1.039793030290102477e-01 1.039871525551435139e-01 1.040196099864278551e-01 1.039798538519534493e-01 1.039338240176668621e-01 1.040475183937427661e-01 1.040358701034577310e-01 1.040660280490321998e-01 1.040503175255044765e-01 1.039733883768036438e-01 1.040176491638909601e-01 1.039444111040261631e-01 1.039778191011439534e-01 1.039183604186755400e-01 1.040604888174593845e-01 1.040160118448830162e-01 1.039240806387311533e-01 1.040332076493509089e-01 1.039856551098523457e-01 1.040140233302228462e-01 1.040359092063197766e-01 1.040863399786828708e-01 1.039860356961279514e-01 1.039929593134512886e-01 1.039061262769576111e-01 1.039709660484326448e-01 1.039850849191365501e-01 1.039495645268088131e-01 1.039914545992956241e-01 1.039566677583921434e-01 1.039475661620241631e-01 1.040448035043426422e-01 1.039615521678950161e-01 1.039517116470941721e-01 1.040554651257902807e-01 1.039840612088025196e-01 1.040319454501870827e-01 1.040147604682705729e-01 1.040064466126581766e-01 1.039752213642311934e-01 1.039584030050315355e-01 1.039747559554435041e-01 1.040553828180911661e-01 1.040491781068265398e-01 1.040186910985674007e-01 1.040857733800846369e-01 1.040513071786521304e-01 1.040359857131282345e-01 1.040424117329215720e-01 1.040699581426796361e-01 1.040245857700741045e-01 1.040204761422756641e-01 1.040237042160442327e-01 1.039710677283078866e-01 1.039615587718693002e-01 1.040223565113279902e-01 1.040545891552008828e-01 1.040093616121103570e-01 1.040099988081246152e-01 1.040301896525684944e-01 1.039928871353273110e-01 1.039306033608269064e-01 1.040067812360854216e-01 1.040655811668047964e-01 1.040344398319384411e-01 1.040052406660709472e-01 1.039756570877492237e-01 1.039904716403621948e-01 1.039777424878906842e-01 1.039454457847617530e-01 1.040549601189400958e-01 1.040679442760875789e-01 1.040312225973263338e-01 1.039653127421258372e-01 1.039648827546239829e-01 1.039614881293876303e-01 1.040382055989033105e-01 1.041004282728615060e-01 1.040958472448744315e-01 1.039842901700835792e-01 1.038568683268325382e-01 1.039728562639821025e-01 1.039555422592802481e-01 1.040104574389302816e-01 1.039750635195605954e-01 1.039504428116417439e-01 1.040072043397911733e-01 1.040023118535389618e-01 1.040553665544137474e-01 1.039719837604600600e-01 1.039799877647231002e-01
3.000000000000000000e+00 4.780088318400318448e-01 3.630986591345390299e-03 4.779999999999999805e-01 4.778803458768204337e-01 4.778948044368470649e-01 4.781736852569618001e-01 4.779330921912217089e-01 4.782741313362253721e-01 4.778812736792558136e-01 4.784786666544265099e-01 4.777685231687039957e-01 4.781648657597736274e-01 4.781463856550660640e-01 4.781066419365621600e-01 4.781921183543677567e-01 4.781219582589825157e-01 4.785589337000193400e-01 4.779693565254593546e-01 4.778549304815177812e-01 4.781618184787376213e-01 4.777399005560999945e-01 4.778987783032843661e-01 4.778093818315982122e-01 4.777609461334151320e-01 4.780428561934363940e-01 4.778105496503716743e-01 4.780656228342820557e-01 4.783009158960922491e-01 4.781533922183931473e-01 4.781514946307567349e-01 4.779952401599612544e-01 4.782778146123735086e-01 4.777383168318822815e-01 4.775151156239125783e-01 4.774529311241167973e-01 4.779975441524744739e-01 4.779078024941684766e-01 4.775529872165018563e-01 4.778647318195362592e-01 4.777674333740228318e-01 4.776870112477210606e-01 4.779795388844610415e-01 4.777273454230861471e-01 4.776680304737693228e-01 4.782619848632859161e-01 4.783320462446243870e-01 4.782705891137198906e-01 4.776801799116044411e-01 4.779131973610661333e-01 4.776625376048054261e-01 4.782229714518552166e-01 4.780891077395671984e-01 4.779138309124181250e-01 4.778381520505410873e-01 4.779711123505906434e-01 4.777719603392930336e-01 4.777929209611886385e-01 4.775896109178429105e-01 4.776127799179296085e-01 4.781468977632946649e-01 4.781844235625443140e-01 4.778469841615811120e-01 4.778663579498887426e-01 4.780095940578063529e-01 4.778727461599242554e-01 4.780547058477855882e-01 4.781013743165403729e-01 4.777772054083541109e-01 4.791535584796222658e-01 4.779900534258640366e-01 4.779682843366566680e-01 4.779889533578332017e-01 4.780920007230617386e-01 4.778743179928818252e-01 4.778467359286973082e-01 4.776573537991720686e-01 4.782252635747690217e-01 4.782045446511292153e-01 4.782296738347418530e-01 4.777716672575487711e-01 4.778345358290626566e-01 4.777932061252354590e-01 4.776504631697249814e-01 4.774088586385060728e-01 4.781021340040677581e-01 4.782465211881740674e-01 4.780248213433270776e-01 4.782922650869966263e-01 4.784812164690598890e-01 4.781780064111001982e-01 4.781947485154408040e-01 4.778763659373145845e-01 4.776154840210566910e-01 4.779754173696786346e-01 4.778308383686160621e-01 4.781291379223698845e-01 4.784316364440812097e-01 4.778890993010856403e-01 4.782705764937983384e-01 4.782926094658313532e-01 4.782865927241644055e-01 4.784373270072729833e-01 4.781905642899031972e-01 4.781629528462544854e-01 4.777571743543702065e-01 4.781568404361592473e-01 4.779950702334961887e-01 4.778174458976408023e-01 4.779954505808707288e-01 4.779813462276926161e-01 4.782372430972263166e-01 4.781649360512472691e-01 4.781721567080532975e-01 4.780383951827392730e-01 4.780517887542287125e-01 4.779156813546965310e-01 4.776301221826924626e-01 4.782258442616767469e-01 4.783358097521835384e-01 4.779630011642621579e-01 4.780966515285964280e-01 4.777619503936212375e-01 4.778820261528939906e-01 4.778105461155323641e-01 4.779883133092283076e-01 4.783399892365750028e-01 4.784122279819224000e-01 4.785571682522535841e-01 4.783373007437116131e-01 4.781334676112863891e-01 4.780649738044261410e-01 4.775306284072026730e-01 4.781297337390773006e-01 4.779320249462826742e-01 4.774969743037973391e-01 4.779486066060317784e-01 4.784238395140715805e-01 4.779048735371816958e-01 4.779409511669096000e-01 4.780901305145434099e-01 4.779074052041706322e-01 4.776958450042765314e-01 4.782184018481639431e-01 4.781648645139692233e-01 4.783034750715133843e-01 4.782312670883763217e-01 4.778776888856937077e-01 4.780811182724988284e-01 4.777445048819664031e-01 4.778980531764115969e-01 4.776247719242971423e-01 4.782780159110153195e-01 4.780735929024430564e-01 4.776510629357066384e-01 4.781526274652859176e-01 4.779340686779752212e-01 4.780644533831396314e-01 4.781650442367389453e-01 4.783968318251001217e-01 4.779358179110496097e-01 4.779676399214395355e-01 4.775685419267859944e-01 4.778665554918346547e-01 4.779314479937237792e-01 4.777681908059097649e-01 4.779607240236856680e-01 4.778008383510716217e-01 4.777590060139187411e-01 4.782059237988055544e-01 4.778232878485944024e-01 4.777780593010674259e-01 4.782549262512284516e-01 4.779267428635346482e-01 4.781468262037444905e-01 4.780678413830128926e-01 4.780296296235635456e-01 4.778861135779087221e-01 4.778088138115872407e-01 4.778839744875191808e-01 4.782545479523805931e-01 4.782260301448373330e-01 4.780859071645693348e-01 4.783942276507736069e-01 4.782358156864972565e-01 4.781653958738009136e-01 4.781949308493895212e-01 4.783215383865467851e-01 4.781129999816867704e-01 4.780941115000747477e-01 4.781089482237417809e-01 4.778670228281843291e-01 4.778233182014762215e-01 4.781027539655267611e-01 4.782509001556348727e-01 4.780430274095072152e-01 4.780459560604189972e-01 4.781387562877668085e-01 4.779673081796774192e-01 4.776810423699544561e-01 4.780311676043156877e-01 4.783014211320451015e-01 4.781582907660247850e-01 4.780240869075184085e-01 4.778881162302319741e-01 4.779562061932031702e-01 4.778977010501129774e-01 4.777492604338088866e-01 4.782526051620515917e-01 4.783122823458640371e-01 4.781435038607883548e-01 4.778405720263091405e-01 4.778385957375986814e-01 4.778229935177623622e-01 4.781755988103440491e-01 4.784615837925749737e-01 4.784405286831728832e-01 4.779277952048072153e-01 4.773421448098649211e-01 4.778752432133023254e-01 4.777956653839995904e-01 4.780480639981602997e-01 4.778853880995188597e-01 4.777722275381225958e-01 4.780331122540402156e-01 4.780106256345348359e-01 4.782544732020170275e-01 4.778712330528837038e-01 4.779080206878619230e-01
4.000000000000000000e+00 1.826892608365319859e+00 8.650563021044195902e-03 1.826000000000000068e+00 1.827542410591689759e+00 1.827597703996979961e+00 1.826663492215925277e+00 1.827744126622496079e+00 1.827047204644241640e+00 1.827545958756652045e+00 1.827828546675696275e+00 1.827114770611696581e+00 1.826629800998633257e+00 1.826559205452197965e+00 1.826407381121678775e+00 1.826733908190534494e+00 1.826465890755025523e+00 1.826132834872040256e+00 1.825882939362946988e+00 1.827445215314256188e+00 1.826618160130073054e+00 1.827005310076466049e+00 1.827612901126367984e+00 1.827271025079835853e+00 1.827085793999755126e+00 1.826163714245219394e+00 1.827275491131546747e+00 1.826250684718408124e+00 1.827149523904318951e+00 1.826585971110430862e+00 1.826578722166865676e+00 1.827981797097090411e+00 1.827061275067351387e+00 1.826999253490964037e+00 1.826145672302326828e+00 1.827905573132079020e+00 1.825990618456942105e+00 1.827647412048828413e+00 1.826290503413734889e+00 1.827482698255465055e+00 1.827110602945007933e+00 1.826803047198397589e+00 1.825921836826414069e+00 1.826957295885777155e+00 1.826730459636088488e+00 1.827000804101171827e+00 1.827268444440762085e+00 1.827033673057850471e+00 1.826776922339776066e+00 1.827668043464495629e+00 1.826709453434276931e+00 1.826851769604786124e+00 1.826340399021861405e+00 1.827670466334519572e+00 1.827381050101232418e+00 1.827889525893053868e+00 1.827127915272442671e+00 1.827208074303457774e+00 1.826430562254846901e+00 1.826519166715429465e+00 1.826561161748485596e+00 1.826704513441853361e+00 1.827414826458933605e+00 1.827488917013382119e+00 1.826036650103670445e+00 1.827513347239208219e+00 1.826208980916436131e+00 1.826387258372390576e+00 1.827147973821069638e+00 1.826772941703559860e+00 1.825962003254451238e+00 1.825878843511997918e+00 1.825957800902517691e+00 1.826351450460901304e+00 1.827519358349347423e+00 1.827413877149913546e+00 1.826689629173403162e+00 1.826860525706126115e+00 1.826781377684020713e+00 1.826877373268281701e+00 1.827126794449370761e+00 1.827367220701938688e+00 1.827209164847134915e+00 1.826663277561207499e+00 1.827736843741560868e+00 1.826390160442317390e+00 1.826941731568213045e+00 1.826094819608609310e+00 1.827116477089656632e+00 1.825836273722939884e+00 1.826679999386336739e+00 1.826743955625930838e+00 1.827527190237261623e+00 1.826529507929898877e+00 1.825906092295048522e+00 1.827353080623075554e+00 1.826493317669973582e+00 1.825647081326368770e+00 1.827575886030093244e+00 1.827033624848693805e+00 1.827117792645623462e+00 1.827094808188962638e+00 1.827670625764184820e+00 1.826727971534232831e+00 1.826622493508913259e+00 1.827071369706670945e+00 1.826599143590851071e+00 1.825981167879422662e+00 1.827301864227797834e+00 1.825982620838221937e+00 1.825928741028800761e+00 1.826906288484383190e+00 1.826630069517944488e+00 1.826657653031182660e+00 1.826146672811050031e+00 1.826197837374940569e+00 1.827677542921308129e+00 1.826585488179836680e+00 1.826862743978706627e+00 1.827282821354575759e+00 1.825858661351344558e+00 1.826369216927232531e+00 1.827089634559706521e+00 1.827548836417343558e+00 1.827275477613374832e+00 1.825955355863286389e+00 1.827298787334698638e+00 1.827574745387008814e+00 1.826126098100649742e+00 1.827288517066981921e+00 1.826509857443951779e+00 1.826248205370046396e+00 1.826204997339678782e+00 1.826495593739655199e+00 1.825740329606510892e+00 1.826076295036279218e+00 1.825803672934338984e+00 1.827619102411495167e+00 1.827636210932987559e+00 1.827774181450022573e+00 1.826344306107858362e+00 1.827645892705489272e+00 1.826836829848990762e+00 1.826834313336291649e+00 1.826629796239556125e+00 1.827159300168584632e+00 1.826883459630491924e+00 1.827532249546125698e+00 1.826309878589085667e+00 1.827022918251536732e+00 1.827610128047030047e+00 1.826565027359027704e+00 1.827062044045008271e+00 1.826281131045734529e+00 1.826665571226928408e+00 1.826583049689564975e+00 1.827747860969327842e+00 1.826246217317181841e+00 1.826630482795575938e+00 1.827515930779566533e+00 1.827754550505018338e+00 1.825876381791942782e+00 1.826349988791139634e+00 1.827489672466681592e+00 1.827737838770977064e+00 1.827113499567370347e+00 1.827849798149157490e+00 1.827238352522508213e+00 1.827078374463270816e+00 1.826786646143554238e+00 1.827324205412616198e+00 1.827151239335462973e+00 1.826973839612433537e+00 1.827719845093182638e+00 1.826560888385015513e+00 1.826259159760212247e+00 1.826113187641479119e+00 1.827564467825140593e+00 1.827268852819208256e+00 1.827396326207522570e+00 1.826972394479177808e+00 1.826863454067935155e+00 1.826328172557538876e+00 1.827505982615716729e+00 1.826900835655949740e+00 1.826631826078578325e+00 1.826744652156873094e+00 1.827228303543586785e+00 1.826431669386108902e+00 1.826359513805725143e+00 1.826416191331699856e+00 1.827491459686027220e+00 1.827324321490164216e+00 1.826392528746970445e+00 1.826958459590354078e+00 1.826164368304937557e+00 1.826175555996495614e+00 1.826530060630674024e+00 1.827874977724791572e+00 1.826780220611457617e+00 1.826119062856653485e+00 1.827151453947937876e+00 1.826604683972303800e+00 1.828092114784400923e+00 1.827572126503899774e+00 1.825832703993282458e+00 1.827608781421770967e+00 1.827041104755235512e+00 1.826964972857544112e+00 1.827192944693614596e+00 1.826548196756902609e+00 1.827390304736596471e+00 1.827382746879352426e+00 1.827323079812697815e+00 1.826670802149975348e+00 1.827763288713895262e+00 1.827682856434045267e+00 1.827723869528007361e+00 1.827481433058687932e+00 1.827522896639993011e+00 1.827218569711195117e+00 1.826183608495064448e+00 1.827561693401507092e+00 1.827128937112318274e+00 1.826126491581333555e+00 1.826040590813097886e+00 1.826972108926534055e+00 1.827507560712701817e+00 1.827648246479940619e+00
5.000000000000000000e+00 5.055275626048250537e+00 1.690933308889149347e-02 5.056000000000000050e+00 5.056733869131710968e+00 5.054887303834097345e+00 5.055836412737834351e+00 5.055292288951499735e+00 5.056898451408541995e+00 5.054744183519492395e+00 5.055057043106389258e+00 5.053551575608718593e+00 5.053742472423381926e+00 5.053547155500823784e+00 5.055127548843902474e+00 5.054030506121895527e+00 5.055289491717359418e+00 5.055905052688489221e+00 5.055675871532891996e+00 5.056464933839993847e+00 5.055710942660125440e+00 5.055247734336305143e+00 5.054929337032230130e+00 5.055982956703396702e+00 5.055470430005886584e+00 5.057953441837456765e+00 5.054795789690189167e+00 5.054693844779208689e+00 5.055180391437359866e+00 5.057622491749363292e+00 5.057602420194782233e+00 5.053949673155741174e+00 5.056937395504049526e+00 5.055230976016026112e+00 5.054867123550204511e+00 5.054208852485420955e+00 5.055974023503997827e+00 5.055024789561748833e+00 5.051271764365341532e+00 5.054569213555597074e+00 5.055539075325957477e+00 5.056686771785498635e+00 5.055783574476642173e+00 5.057113740252753509e+00 5.054487234594822631e+00 5.056770024056583601e+00 5.055509409263268417e+00 5.054859866532454227e+00 5.054615794964216313e+00 5.055081853258474034e+00 5.055278511217812465e+00 5.056357526606017672e+00 5.054942155890737254e+00 5.055088554588255789e+00 5.054288068551329616e+00 5.053694564476747253e+00 5.055586977816201255e+00 5.053809640961861582e+00 5.055655713900177872e+00 5.055900975700258648e+00 5.053552567991975941e+00 5.055949951224055994e+00 5.054381489374381253e+00 5.056585854624555232e+00 5.057401506335680530e+00 5.054653984486562557e+00 5.054578417060059614e+00 5.055071853129278203e+00 5.055642478986307253e+00 5.053073568799683279e+00 5.057894749431004477e+00 5.057664397855250016e+00 5.057683113584015899e+00 5.054972744046765776e+00 5.054670610401696962e+00 5.056378222442155845e+00 5.052375692068229895e+00 5.054380819204462583e+00 5.054161840120302784e+00 5.054427431408192284e+00 5.055583876545359345e+00 5.054249818309081377e+00 5.055811792011382977e+00 5.054301344586755285e+00 5.055739837715727880e+00 5.055079885473971579e+00 5.054605491721036792e+00 5.056262545422304910e+00 5.055088960710265589e+00 5.057085994982616128e+00 5.055882101258787564e+00 5.056059119240664756e+00 5.054692272341134718e+00 5.053931209578461647e+00 5.053740082398234357e+00 5.054210708769294236e+00 5.055365403890496268e+00 5.056561981831586117e+00 5.054826958297676143e+00 5.054859733152027523e+00 5.055092600463138020e+00 5.057030208426625428e+00 5.054620295788135209e+00 5.054014081156047666e+00 5.055722936579435611e+00 5.053431534593506136e+00 5.053657652475892270e+00 5.055947855858905271e+00 5.056068287343655321e+00 5.055951878947452904e+00 5.055802691479526878e+00 5.054507431228425496e+00 5.053743215336613304e+00 5.053819530730303988e+00 5.056406121430814693e+00 5.054547573982995701e+00 5.055108127467250689e+00 5.054086104602633078e+00 5.054386956506257356e+00 5.055549185916382804e+00 5.055608648298136387e+00 5.055021918045034646e+00 5.053482052699056482e+00 5.054752142738561105e+00 5.053996069372660216e+00 5.053876434026862263e+00 5.055593359044303625e+00 5.054355128260895391e+00 5.055886400991382423e+00 5.055564944261989879e+00 5.056411461872494684e+00 5.054686982442614607e+00 5.055031338369133209e+00 5.053371160773679094e+00 5.055281000268630365e+00 5.054675083634339927e+00 5.055456391213591694e+00 5.054477802397618014e+00 5.056993410776286169e+00 5.055375416526977084e+00 5.056953347032492552e+00 5.053020974690122458e+00 5.054781556551528610e+00 5.056109119791133644e+00 5.055743149066109332e+00 5.057208709228929955e+00 5.054444270565851660e+00 5.056705753941085568e+00 5.054857681483701626e+00 5.055296455424656443e+00 5.054921667070997771e+00 5.056027920370175011e+00 5.054938360632738714e+00 5.054778114077295825e+00 5.054307691064443553e+00 5.053613125428084274e+00 5.053302893511478544e+00 5.054681479912945363e+00 5.055745049314809059e+00 5.056194130502940531e+00 5.055321119996373902e+00 5.055657714315477946e+00 5.055432682321207238e+00 5.056587944932426026e+00 5.055674840241464629e+00 5.057546120246660060e+00 5.055584562058064613e+00 5.055892553095648445e+00 5.055449900456905787e+00 5.056177277989880814e+00 5.054130843854588662e+00 5.053652443151039897e+00 5.054694325148966882e+00 5.054525236815769595e+00 5.055552426011976408e+00 5.054717301986918265e+00 5.056313404553844038e+00 5.054795377091855002e+00 5.055976946148552642e+00 5.056772265602242911e+00 5.056691391948391789e+00 5.054388921112381361e+00 5.054908315501534410e+00 5.056166606886418613e+00 5.056493331547191161e+00 5.055748767251444065e+00 5.056061047097937688e+00 5.057399696664450772e+00 5.055194773864947422e+00 5.056995455532171668e+00 5.055952116069626356e+00 5.054593446483891306e+00 5.054131164909338558e+00 5.055086440463958830e+00 5.054651773193028497e+00 5.054454938342362702e+00 5.054485903617902842e+00 5.057467681571024443e+00 5.053654342134079158e+00 5.055624253869455131e+00 5.056329672400460495e+00 5.055185731295171792e+00 5.055673643371316750e+00 5.056254776996680356e+00 5.056816091825341530e+00 5.055536775131455052e+00 5.054917942488224014e+00 5.055346776724278790e+00 5.054669793470051964e+00 5.055300523873023089e+00 5.055517298143146654e+00 5.054313665617194751e+00 5.054292761609412210e+00 5.054127730597921087e+00 5.055856645162089436e+00 5.054876565172601310e+00 5.054654121025152769e+00 5.055236260576370988e+00 5.053036093593967770e+00 5.056679874838668098e+00 5.055837814879225789e+00 5.054508191311092524e+00 5.056787223864783520e+00 5.055589805204653508e+00 5.058350380294843518e+00 5.056112391648970750e+00 5.056690601596222301e+00 5.052638518513126620e+00 5.055027097484999565e+00
6.000000000000000000e+00 2.983855617693652405e-03 2.626108929156883030e-05 2.997117198216735223e-03 2.982780885631001241e-03 2.983139896262002651e-03 2.985229659636488495e-03 2.983397097908093137e-03 2.985363618827160514e-03 2.983147933813443033e-03 2.986823774005486869e-03 2.982242369684499125e-03 2.984980495541837957e-03 2.984717935528120696e-03 2.984415187757201524e-03 2.985248413923182430e-03 2.984436621227709065e-03 2.987431948731138383e-03 2.983501586076817667e-03 2.983097029320987571e-03 2.984725973079561077e-03 2.982036072530864102e-03 2.983072916666666859e-03 2.982695151748971079e-03 2.982370970507544367e-03 2.983675733024691162e-03 2.982641568072702445e-03 2.983949009773662411e-03 2.985741383744855860e-03 2.984672389403292009e-03 2.984669710219478838e-03 2.983769504458161706e-03 2.985685120884773620e-03 2.982076260288066012e-03 2.980648255315500750e-03 2.980404449588477424e-03 2.983833804869684327e-03 2.983169367283950574e-03 2.980969757373113857e-03 2.982834469307270309e-03 2.982295953360768193e-03 2.981953017832647546e-03 2.983761466906721324e-03 2.981821737825788698e-03 2.981969092935528309e-03 2.985184113511659808e-03 2.985794967421124928e-03 2.985505615569272915e-03 2.981674382716049520e-03 2.983547132201645920e-03 2.981567215363511818e-03 2.985125171467763964e-03 2.984570580418381518e-03 2.983257780349794341e-03 2.982858581961591021e-03 2.983723958333333454e-03 2.982499571330590044e-03 2.982336141117969668e-03 2.981500235768175591e-03 2.981454689643346905e-03 2.984902799211248178e-03 2.985031400034293420e-03 2.982566550925925836e-03 2.983118462791495111e-03 2.983686449759945149e-03 2.982984503600823092e-03 2.984241040809328029e-03 2.984342849794238521e-03 2.982400441529492290e-03 2.978459362139917587e-03 2.983914180384087712e-03 2.983332797496570515e-03 2.983766825274348534e-03 2.984492884087791304e-03 2.982813035836762768e-03 2.982813035836762768e-03 2.981604723936899688e-03 2.985569915980795536e-03 2.984959062071330417e-03 2.985682441700960015e-03 2.982100372942386723e-03 2.982668359910836762e-03 2.982389724794238736e-03 2.981714570473250996e-03 2.980069551611797159e-03 2.984348208161865731e-03 2.985336826989026197e-03 2.983876671810699408e-03 2.985722629458161925e-03 2.986853245027434791e-03 2.984932270233196100e-03 2.984932270233196100e-03 2.983024691358024567e-03 2.981213563100137184e-03 2.983681091392318373e-03 2.982989861968449868e-03 2.984468771433470592e-03 2.986641589506172992e-03 2.982845186042523862e-03 2.985928926611796947e-03 2.985425240054869530e-03 2.985671724965706462e-03 2.986767511145404629e-03 2.985084983710562488e-03 2.984725973079561077e-03 2.982188786008230490e-03 2.984760802469135776e-03 2.983790937928669246e-03 2.982654963991769603e-03 2.983844521604938314e-03 2.983434606481481441e-03 2.985414523319615977e-03 2.984967099622770799e-03 2.984578617969821466e-03 2.983994555898491097e-03 2.984291945301783058e-03 2.983107746056241558e-03 2.981476123113854446e-03 2.985374335562414067e-03 2.985725308641975096e-03 2.983707883230452690e-03 2.984490204903978133e-03 2.982290594993141416e-03 2.982992541152263474e-03 2.982518325617283979e-03 2.984061535493827324e-03 2.985663687414266080e-03 2.986365633573388138e-03 2.987346214849108221e-03 2.985918209876543394e-03 2.984559863683127531e-03 2.984064214677640495e-03 2.980897419410150854e-03 2.984530392661179608e-03 2.983190800754458114e-03 2.980677726337448673e-03 2.983528377914951984e-03 2.986384387860082507e-03 2.983284572187928658e-03 2.983506944444444444e-03 2.984219607338820489e-03 2.983088991769547189e-03 2.981800304355281157e-03 2.985052833504800961e-03 2.984645597565157692e-03 2.985602066186557064e-03 2.985666366598079685e-03 2.982973786865569105e-03 2.984206211419752897e-03 2.982220936213991584e-03 2.983276534636488276e-03 2.981430576989026193e-03 2.985478823731138598e-03 2.984208890603566502e-03 2.981650270061728374e-03 2.984447337962963052e-03 2.983930255486968476e-03 2.984149948559670657e-03 2.984516996742112450e-03 2.986604080932784688e-03 2.983308684842249803e-03 2.983514981995884826e-03 2.980849194101508996e-03 2.982949674211248393e-03 2.983520340363511603e-03 2.982282557441701034e-03 2.983439964849108218e-03 2.982756772976680529e-03 2.982261123971193494e-03 2.985433277606309912e-03 2.982598701131687364e-03 2.982218257030178413e-03 2.985896776406035853e-03 2.983472115054869745e-03 2.984594693072702230e-03 2.984291945301783058e-03 2.983882030178326619e-03 2.982963070130315551e-03 2.982628172153635286e-03 2.983107746056241558e-03 2.985529728223594061e-03 2.985414523319615977e-03 2.984484846536351356e-03 2.986510309499314144e-03 2.985318072702331828e-03 2.984819744513031621e-03 2.984849215534979543e-03 2.985768175582990611e-03 2.984302662037037045e-03 2.984450017146776223e-03 2.984249078360767977e-03 2.983153292181069810e-03 2.983241705246913577e-03 2.984222286522633660e-03 2.985473465363511821e-03 2.983710562414266295e-03 2.983932934670782081e-03 2.984742048182441841e-03 2.983164008916323797e-03 2.981773512517146840e-03 2.984005272633744651e-03 2.985773533950617387e-03 2.984760802469135776e-03 2.984144590192043880e-03 2.983064879115226477e-03 2.983536415466392366e-03 2.983118462791495111e-03 2.982046789266118089e-03 2.985277884945130352e-03 2.985757458847736624e-03 2.985095700445816042e-03 2.982909486454046483e-03 2.982732660322359383e-03 2.982743377057613370e-03 2.984811706961591239e-03 2.986928262174211399e-03 2.986542459705075238e-03 2.983442644032921823e-03 2.979429226680384117e-03 2.982957711762688775e-03 2.982590663580246982e-03 2.984131194272976722e-03 2.982866619513031402e-03 2.982571909293552613e-03 2.983906142832647330e-03 2.983772183641975311e-03 2.985076946159122106e-03 2.983180084019204561e-03 2.983147933813443033e-03
