# vvf statistics with RF=500
# gcat file: /disk2/salam/Abacus/AbacusCosmos_720box_products/GCAT_derivative/AbacusCosmos_720box_planck_rockstar_halos_z0.100_Mr21_hod-alpha-pos_real-5.gcat.rsd_zz.1pz0.100by100
# stats order in row: stdvvf,p2.5,p16,p50,p84,p97.5,rho
# columns: numbers, mean, sigma,All, jnrealizations
0.000000000000000000e+00 1.483857289454799666e+00 6.041590599374271030e-03 1.483857551309198719e+00 1.484435725824832186e+00 1.483315471464959456e+00 1.483831539902123575e+00 1.483812636019914644e+00 1.484188634030403797e+00 1.483823540139686648e+00 1.484240401938615062e+00 1.482472758218487119e+00 1.482598666153863265e+00 1.483960035834743119e+00 1.484504955561015249e+00 1.484213753685047044e+00 1.484070511200716869e+00 1.483625300868665287e+00 1.484109236130837450e+00 1.484017701420154101e+00 1.484080188002427692e+00 1.483835822176299057e+00 1.484095170950083808e+00 1.484247677756787009e+00 1.483803563515341928e+00 1.484500768741535026e+00 1.483752906353973611e+00 1.484014669509776230e+00 1.483936153049206119e+00 1.484250975760312619e+00 1.484589518902703409e+00 1.483727800464592850e+00 1.484510398481483362e+00 1.483458438875070895e+00 1.483809297278368966e+00 1.483033256713194969e+00 1.484013488624192245e+00 1.484074878860046853e+00 1.482965237061449448e+00 1.483157105442762358e+00 1.484077339936727746e+00 1.483722105960319393e+00 1.483750536375643581e+00 1.484148992731576300e+00 1.483552851307359699e+00 1.484193348945000546e+00 1.484044089472054351e+00 1.483700521953806417e+00 1.482964047939981045e+00 1.484103295283734303e+00 1.483710440261636343e+00 1.484353490132676479e+00 1.483933897560000936e+00 1.483643466637057484e+00 1.483311337724279921e+00 1.483813564278572805e+00 1.483583629674069870e+00 1.483789542400284933e+00 1.482927944452093305e+00 1.483456498460175688e+00 1.483718359053687319e+00 1.483941280519973427e+00 1.484268866253126706e+00 1.483401042385394497e+00 1.484068785095298493e+00 1.484132855707772647e+00 1.484322202635817822e+00 1.483947242430883051e+00 1.483996730247957752e+00 1.482887924698250703e+00 1.484570371152705626e+00 1.484185610522844145e+00 1.484255229732754255e+00 1.483862119747457742e+00 1.484141749992391901e+00 1.484508254936682370e+00 1.483508560238486762e+00 1.483927557283655219e+00 1.483947465047504854e+00 1.484113236687894188e+00 1.483835293996303317e+00 1.483365540217419953e+00 1.483996539156796191e+00 1.483610168992711476e+00 1.483419897281482935e+00 1.483908890062037411e+00 1.482959775762583865e+00 1.484033901644897124e+00 1.483809458575662932e+00 1.484406201461204722e+00 1.483724203129021868e+00 1.484056291840149422e+00 1.483779599522817794e+00 1.483288776159668032e+00 1.483976589868474694e+00 1.483830296250648439e+00 1.484070048263429697e+00 1.484131347905362608e+00 1.483431191574971164e+00 1.483623461843637914e+00 1.484396422662135784e+00 1.484056466534662055e+00 1.483816747312625584e+00 1.483777160657764993e+00 1.483869049933383755e+00 1.483448233281053685e+00 1.483785503602990552e+00 1.483890688930836976e+00 1.483704125816849739e+00 1.484187501471353254e+00 1.483452884248241288e+00 1.483931542475764864e+00 1.483668472100256208e+00 1.483988163443717090e+00 1.484271760213518476e+00 1.484091058607115654e+00 1.484061689580697951e+00 1.482836480375869348e+00 1.484414814235230029e+00 1.484262888976979333e+00 1.484174460253640193e+00 1.483921912937735232e+00 1.482750365364471801e+00 1.483876380982307008e+00 1.483809637478914034e+00 1.483872818965958018e+00 1.484109647689067391e+00 1.483622423012340041e+00 1.483588425511392250e+00 1.484117936490483514e+00 1.484534941632577265e+00 1.484317552808992025e+00 1.483573554984402465e+00 1.483621652110384881e+00 1.484056420233188289e+00 1.483689680710977621e+00 1.483975751770904683e+00 1.483989365544625016e+00 1.484044011748603342e+00 1.483958819340539970e+00 1.484469717574331771e+00 1.483173011000717523e+00 1.483063287465296698e+00 1.483218249937535704e+00 1.483590039926763859e+00 1.484436803589731957e+00 1.483949580690247183e+00 1.483905943736813615e+00 1.483964559531793626e+00 1.483774363983726197e+00 1.483649593513902687e+00 1.483885394479143915e+00 1.483671665686115970e+00 1.483880741348525767e+00 1.483258359241030222e+00 1.483864025141800935e+00 1.482609294634232189e+00 1.484210094984226291e+00 1.484244168532065977e+00 1.484488898499825682e+00 1.484043835947144618e+00 1.484102480021251447e+00 1.483179851678723793e+00 1.484011838167992980e+00 1.484250974830685355e+00 1.484143012249159455e+00 1.484086148835803032e+00 1.483797192062863424e+00 1.483984177374491953e+00 1.483640143151360169e+00 1.483097932646370909e+00 1.483486710699637889e+00 1.484041646293263517e+00 1.483705528767039983e+00 1.484037876167457304e+00 1.483415751169133934e+00 1.484463842027681224e+00 1.483879801129904141e+00 1.483739127852899742e+00 1.484171512359847123e+00 1.484464671279089210e+00 1.483932711552488515e+00 1.483419494736707867e+00 1.484285040032935266e+00 1.484247504830190190e+00 1.484095341190949213e+00 1.483519398197579164e+00 1.484433490671737133e+00 1.484184631163884438e+00 1.484288561883650770e+00 1.484342236011598981e+00 1.483793437012294270e+00 1.483003071676373352e+00 1.484154352191090709e+00 1.483808300766768618e+00 1.484045686872649483e+00 1.484221826395977439e+00 1.483828272379303703e+00 1.483213744068896389e+00 1.483598020046565491e+00 1.484305935105591612e+00 1.484164824638240621e+00 1.484081431100033877e+00 1.483763356542864287e+00 1.483942749447046294e+00 1.483813148834804752e+00 1.483909947444623123e+00 1.483598013762347900e+00 1.484098861213773324e+00 1.483867374059751887e+00 1.483576850929001933e+00 1.483809317677022177e+00 1.483617378724696012e+00 1.483820708053504855e+00 1.484232555551722843e+00 1.483979423728425617e+00 1.483648474532692108e+00 1.483397075178092051e+00 1.483025956723577954e+00 1.483786539528000770e+00 1.484153834394169369e+00 1.483563363916933442e+00 1.484019354210327268e+00 1.483814825573522178e+00 1.484622610973082457e+00 1.484249199906992445e+00 1.484154040147348308e+00 1.483382371013901579e+00 1.483683914359108957e+00
1.000000000000000000e+00 1.199999989876038980e-02 9.804354232821659238e-05 1.200000000000000025e-02 1.199924183401513030e-02 1.199647981766807821e-02 1.200555442233957465e-02 1.199655583650588268e-02 1.200879441299789602e-02 1.199773322811466952e-02 1.201273171397470620e-02 1.198950005324440210e-02 1.200319502529652999e-02 1.200457118290610206e-02 1.200349677062327071e-02 1.200516838419590261e-02 1.200483175683334305e-02 1.201454728204525910e-02 1.199956019069479268e-02 1.199650947782085995e-02 1.200316968833298539e-02 1.199260417531748321e-02 1.199804178342897022e-02 1.199611545177701327e-02 1.199543160406361594e-02 1.200115138826841552e-02 1.199502370524321328e-02 1.200189998487541376e-02 1.200924387150397767e-02 1.200462106359228946e-02 1.200419856520713521e-02 1.199906842024180999e-02 1.200778640322606831e-02 1.199193498762484572e-02 1.198712989814307295e-02 1.198418413709910132e-02 1.200033804205109279e-02 1.199913125136829913e-02 1.198514962353645213e-02 1.199557646143190222e-02 1.199639991796876484e-02 1.199276697708588982e-02 1.199983752881262147e-02 1.199446946533963033e-02 1.199065233938006320e-02 1.200615822995943806e-02 1.200803438686953543e-02 1.200490733789256678e-02 1.199226992923595886e-02 1.199951015458259294e-02 1.199251388401929158e-02 1.200640129377687423e-02 1.200501026431818885e-02 1.199648346088331811e-02 1.199652220848831594e-02 1.199918520070259072e-02 1.199430524502502482e-02 1.199462151714090000e-02 1.199173031655114546e-02 1.198956269207413980e-02 1.200418278849133512e-02 1.200357524146574914e-02 1.199800657047722999e-02 1.199701398562130414e-02 1.199855890031109422e-02 1.199813965323697287e-02 1.200133302514066157e-02 1.200331357753533362e-02 1.199480330029897152e-02 1.197468947273147219e-02 1.200086087562467728e-02 1.199997032024609396e-02 1.200002765561114168e-02 1.200190820319304609e-02 1.199865637769423864e-02 1.199694603565667692e-02 1.199043993556907564e-02 1.200663064673230390e-02 1.200671756105305653e-02 1.200562601873063004e-02 1.199301731349848923e-02 1.199381249283176104e-02 1.199476418253914677e-02 1.199034300234372123e-02 1.198454651856402375e-02 1.200072648497501129e-02 1.200679014989419237e-02 1.200192184885513075e-02 1.200828735726548573e-02 1.201292338264954920e-02 1.200403995031250511e-02 1.200749237834947483e-02 1.199758735710403437e-02 1.198869533126436029e-02 1.199900392091980683e-02 1.199723375152035587e-02 1.200400248994422901e-02 1.201365049277806733e-02 1.199599626384972688e-02 1.200655342816315911e-02 1.200852373937007916e-02 1.200630305785063343e-02 1.201099782693378082e-02 1.200375966481132851e-02 1.200139499436456668e-02 1.199288598660619605e-02 1.200385654611390608e-02 1.200298783003900596e-02 1.199396821822150926e-02 1.200146886972451761e-02 1.199576810196770725e-02 1.200613712910915572e-02 1.200387313716293897e-02 1.200621585791875404e-02 1.200080857459481440e-02 1.200299396110662657e-02 1.199787169919013657e-02 1.198590214966136457e-02 1.200564145615394540e-02 1.200823106596392992e-02 1.199752668760472631e-02 1.200226980694464422e-02 1.198851350097408959e-02 1.199664358846957990e-02 1.199478889795812901e-02 1.200021858223901915e-02 1.200898495259275153e-02 1.200925261084102857e-02 1.201491734700492996e-02 1.200677337445071359e-02 1.200275112254823792e-02 1.200239824439437372e-02 1.198698060194581042e-02 1.199817172230081830e-02 1.199702025551185533e-02 1.198911990289303064e-02 1.199918139628644749e-02 1.201125598301087255e-02 1.199963049166389087e-02 1.199881094045197535e-02 1.200326949981422343e-02 1.199739063361297126e-02 1.199443526283628519e-02 1.200537545160796672e-02 1.200358527394993803e-02 1.200910751779144317e-02 1.200678076055107339e-02 1.199411618817535288e-02 1.200205595741951278e-02 1.199297791755705132e-02 1.199451965379416153e-02 1.198881324910240284e-02 1.200674685864892496e-02 1.200135825299202680e-02 1.198854780556363533e-02 1.200360734831588429e-02 1.199617310139578126e-02 1.200112669109103247e-02 1.200554323168610132e-02 1.201112739253237804e-02 1.199932659004570440e-02 1.199941461941017931e-02 1.198984969330087538e-02 1.199457527664593223e-02 1.199985174055841555e-02 1.199546448373057551e-02 1.199925139213783853e-02 1.199480595482489524e-02 1.199488663294921188e-02 1.200640360785799193e-02 1.199353269911696170e-02 1.199456380942791334e-02 1.200691376715128968e-02 1.199763295078782634e-02 1.200396458413264915e-02 1.200038293594699740e-02 1.200097973330816782e-02 1.199751967169533119e-02 1.199436558989646143e-02 1.199821192497108405e-02 1.200759829636656277e-02 1.200485350625621860e-02 1.200278034423035364e-02 1.201232327528522527e-02 1.200651139160149004e-02 1.200393693740655493e-02 1.199998478945512800e-02 1.201089498238843388e-02 1.200290595997071871e-02 1.200290620268147472e-02 1.200330883998947454e-02 1.199573325212156469e-02 1.199253527244934468e-02 1.200334765808107676e-02 1.200655382860735775e-02 1.200100274593869296e-02 1.200318876818405600e-02 1.200525961414117444e-02 1.199816997410387172e-02 1.199144670340425260e-02 1.200251682618946707e-02 1.200893860473569406e-02 1.200495000742453702e-02 1.200061852092720524e-02 1.199568547546757229e-02 1.199989233591016412e-02 1.199830292132085877e-02 1.199333204194456479e-02 1.200820341968884646e-02 1.200850292806360069e-02 1.200237161256627848e-02 1.199489598829009407e-02 1.199576292220102744e-02 1.199625969510175610e-02 1.200399286243420890e-02 1.201234262490884566e-02 1.201114595233237353e-02 1.199902428147652661e-02 1.197975269519796146e-02 1.199697885971122771e-02 1.199596955021224078e-02 1.200040527211965712e-02 1.199759475126927974e-02 1.199631190546482547e-02 1.200141699260605550e-02 1.200077472826745206e-02 1.200790654737266677e-02 1.199539014118883133e-02 1.199773624074532662e-02
2.000000000000000000e+00 8.799999925757620578e-02 7.189859770735935844e-04 8.799999999999999489e-02 8.799444011611094740e-02 8.797418532956589876e-02 8.804073243049020947e-02 8.797474280104314315e-02 8.806449236198457542e-02 8.798337700617425705e-02 8.809336590248117993e-02 8.792300039045894411e-02 8.802343018550788656e-02 8.803352200797807947e-02 8.802564298457064840e-02 8.803790148410328698e-02 8.803543288344452267e-02 8.810668006833188848e-02 8.799677473176181763e-02 8.797440283735297184e-02 8.802324438110856186e-02 8.794576395232821253e-02 8.798563974514578279e-02 8.797151331303143529e-02 8.796649842979985257e-02 8.800844351396838738e-02 8.796350717178355594e-02 8.801393322241969630e-02 8.806778839102917533e-02 8.803388779967677436e-02 8.803078947818565592e-02 8.799316841510661236e-02 8.805710029032449981e-02 8.794085657591553529e-02 8.790561925304919699e-02 8.788401700539340278e-02 8.800247897504134831e-02 8.799362917670085216e-02 8.789109723926731566e-02 8.796756071716728409e-02 8.797359939843760190e-02 8.794695783196319894e-02 8.799880854462588387e-02 8.795944274582395694e-02 8.793145048878713010e-02 8.804516035303587562e-02 8.805891883704326795e-02 8.803598714454548280e-02 8.794331281439703163e-02 8.799640780027234710e-02 8.794510181614147160e-02 8.804694282103041336e-02 8.803674193833338490e-02 8.797421204647766502e-02 8.797449619558098122e-02 8.799402480515233771e-02 8.795823846351684405e-02 8.796055779236659766e-02 8.793935565470839544e-02 8.792345974187704138e-02 8.803067378226978046e-02 8.802621843741549601e-02 8.798538151683300834e-02 8.797810256122289008e-02 8.798943193561468978e-02 8.798635745707113209e-02 8.800977551769818830e-02 8.802429956859243732e-02 8.796189086885912445e-02 8.781438946669746504e-02 8.800631308791430352e-02 8.799978234847134761e-02 8.800020280781503668e-02 8.801399349008233453e-02 8.799014676975774885e-02 8.797760426148229507e-02 8.792989286083988110e-02 8.804862474270358508e-02 8.804926211438907080e-02 8.804125747069128927e-02 8.794879363232224745e-02 8.795462494743291892e-02 8.796160400528707513e-02 8.792918201718728788e-02 8.788667446946950290e-02 8.800532755648342309e-02 8.804979443255740723e-02 8.801409355827095882e-02 8.806077395328024138e-02 8.809477147276337239e-02 8.802962630229170526e-02 8.805494410789614645e-02 8.798230728542959234e-02 8.791709909593864447e-02 8.799269542007859268e-02 8.797971417781592918e-02 8.802935159292434031e-02 8.810010361370582133e-02 8.797063926823132929e-02 8.804805847319649437e-02 8.806250742204724258e-02 8.804622242423798539e-02 8.808065073084772600e-02 8.802757087528308155e-02 8.801022995867348320e-02 8.794783056844543423e-02 8.802828133816864575e-02 8.802191075361938399e-02 8.795576693362440468e-02 8.801077171131312105e-02 8.796896608109651405e-02 8.804500561346714771e-02 8.802840300586155242e-02 8.804558295807085599e-02 8.800592954702864124e-02 8.802195571478192704e-02 8.798439246072765896e-02 8.789661576418333899e-02 8.804137067846226627e-02 8.806036115040215273e-02 8.798186237576799407e-02 8.801664525092739444e-02 8.791576567380998686e-02 8.797538631544359056e-02 8.796178525169294493e-02 8.800160293641948184e-02 8.806588965234686539e-02 8.806785247950088547e-02 8.810939387803615186e-02 8.804967141263855823e-02 8.802017489868707578e-02 8.801758712555872444e-02 8.790452441426926944e-02 8.798659263020600085e-02 8.797814854042027011e-02 8.792021262121556269e-02 8.799399690610061608e-02 8.808254387541306074e-02 8.799729027220186406e-02 8.799128022998115028e-02 8.802397633197095450e-02 8.798086464649511329e-02 8.795919192746608217e-02 8.803941997845841916e-02 8.802629200896622264e-02 8.806678846380391890e-02 8.804972557737454630e-02 8.795685204661925216e-02 8.801507702107641551e-02 8.794850472875170855e-02 8.795981079449051443e-02 8.791796382675094723e-02 8.804947696342543817e-02 8.800996052194152985e-02 8.791601724080000402e-02 8.802645388764981926e-02 8.797193607690238781e-02 8.800826240133423350e-02 8.804065036569808100e-02 8.808160087857075382e-02 8.799506166033517485e-02 8.799570720900798393e-02 8.792556441753975049e-02 8.796021869540350535e-02 8.799891276409504970e-02 8.796673954735756418e-02 8.799451020901082055e-02 8.796191033538255932e-02 8.796250197496088830e-02 8.804695979095861214e-02 8.795257312685772488e-02 8.796013460247135984e-02 8.805070095910946804e-02 8.798264163911072300e-02 8.802907361697276389e-02 8.800280819694464296e-02 8.800718471092655593e-02 8.798181092576576323e-02 8.795868099257404815e-02 8.798688744978797049e-02 8.805572084002145916e-02 8.803559237921226854e-02 8.802038919102259107e-02 8.809037068542498183e-02 8.804775020507760175e-02 8.802887087431474078e-02 8.799988845600426046e-02 8.807989653751518988e-02 8.802131037311861084e-02 8.802131215299748013e-02 8.802426482658948226e-02 8.796871051555814336e-02 8.794525866462853114e-02 8.802454949259456984e-02 8.804806140978728435e-02 8.800735347021707011e-02 8.802338430001639680e-02 8.803857050370192394e-02 8.798657981009506968e-02 8.793727582496452255e-02 8.801845672538943788e-02 8.806554976806175994e-02 8.803630005444659790e-02 8.800453582013283149e-02 8.796836015342886228e-02 8.799921046334120700e-02 8.798755475635296197e-02 8.795110164092680149e-02 8.806015841105153952e-02 8.806235480579974184e-02 8.801739182548604101e-02 8.796257058079401392e-02 8.796892809614087483e-02 8.797257109741288272e-02 8.802928099118420557e-02 8.809051258266487050e-02 8.808173698377073924e-02 8.799284473082785718e-02 8.785151976478504376e-02 8.797784497121566294e-02 8.797044336822310018e-02 8.800297199554414640e-02 8.798236150930804911e-02 8.797295397340872125e-02 8.801039127911107485e-02 8.800568134062798642e-02 8.805798134739954708e-02 8.796619436871809528e-02 8.798339909879905607e-02
3.000000000000000000e+00 4.589376419201485757e-01 1.238721670795850036e-02 4.600000000000000200e-01 4.579710633315774437e-01 4.598650596772763111e-01 4.582119937859604475e-01 4.598679737327255324e-01 4.583356534294196760e-01 4.599131070777289776e-01 4.584859270833679390e-01 4.595975020410353884e-01 4.601224759697003508e-01 4.581744668142495591e-01 4.581334600787881906e-01 4.581972599968102688e-01 4.581844120524726227e-01 4.585552212647273085e-01 4.579832139448512529e-01 4.598661966497996079e-01 4.581209764380422822e-01 4.597164933871702441e-01 4.579252614008723632e-01 4.598510923181188259e-01 4.598248781557719433e-01 4.580439446522445168e-01 4.598092420343231623e-01 4.600728327535575368e-01 4.583528077624018371e-01 4.581763705937723641e-01 4.581602452387389945e-01 4.599642894426027584e-01 4.582971810564616111e-01 4.596908411922857596e-01 4.595066460954844723e-01 4.593937252554655126e-01 4.580129019382833677e-01 4.579668427605567138e-01 4.594307355688972971e-01 4.598304310215562407e-01 4.598619968554693016e-01 4.597227341216257868e-01 4.579937990163483463e-01 4.597879961713524644e-01 4.596416730095690961e-01 4.582350391101185361e-01 4.583066457655206039e-01 4.581872967295662624e-01 4.597036806207117632e-01 4.599812225923327058e-01 4.597130322207395037e-01 4.582443160458173903e-01 4.581912250881442494e-01 4.598651993338604971e-01 4.598666846587187718e-01 4.579689018268155998e-01 4.597817010592926135e-01 4.597938248237344872e-01 4.596829954677938979e-01 4.595999031961753856e-01 4.601603402255011743e-01 4.581364550492760812e-01 4.579239174398809231e-01 4.598855361154832733e-01 4.599447578452586227e-01 4.579289967652111493e-01 4.580508771262019052e-01 4.581264682092652252e-01 4.598007931781272206e-01 4.590297631213731133e-01 4.580328567530085326e-01 4.579988672227258695e-01 4.580010555224919289e-01 4.580728297552012496e-01 4.599484944782791240e-01 4.578834403608965098e-01 4.596335308634811878e-01 4.582530696836162876e-01 4.582563869135249379e-01 4.582147263815523619e-01 4.597323303507753756e-01 4.597628122252174765e-01 4.597992936640006301e-01 4.596298150898426305e-01 4.594076165449542115e-01 4.600278485907087767e-01 4.582591573876283464e-01 4.580733505646374937e-01 4.583163008022994034e-01 4.584932424377911597e-01 4.581541914369273161e-01 4.582859591070049810e-01 4.599075153556546613e-01 4.595666543651337754e-01 4.599618169685926183e-01 4.598939604749469057e-01 4.581527616995380581e-01 4.585209938076962310e-01 4.598465234475728747e-01 4.582501225082272200e-01 4.583253227192913282e-01 4.582405667079658684e-01 4.584197503946393359e-01 4.581434938736323459e-01 4.580532422849142860e-01 4.597272961532375413e-01 4.581471915100140957e-01 4.581140355131553821e-01 4.597687816984911691e-01 4.580560618611523860e-01 4.598377772420954024e-01 4.582342337609994765e-01 4.581478247350521671e-01 4.582372385772324197e-01 4.580308605970354052e-01 4.581142695155695499e-01 4.579187698524235239e-01 4.594595824036856180e-01 4.582153155765422148e-01 4.583141523509566273e-01 4.599051896915145043e-01 4.580866309650539203e-01 4.595596842040067798e-01 4.598713375580005813e-01 4.598002410883949564e-01 4.600083789858290806e-01 4.583429256906234595e-01 4.583531413137659216e-01 4.585693454106881672e-01 4.582585171248688694e-01 4.581050011772577757e-01 4.580915329943851533e-01 4.595009230745893403e-01 4.599299160215313820e-01 4.598857764612877541e-01 4.595829296108995266e-01 4.599686201909805039e-01 4.584296033515816160e-01 4.579858970985051236e-01 4.579546175605837544e-01 4.581247859095761710e-01 4.598999742884972153e-01 4.597866850753908885e-01 4.582051630697041023e-01 4.601374355014142825e-01 4.583476035957067540e-01 4.582587990276992818e-01 4.597744538800552228e-01 4.580784690415113936e-01 4.597308201730203048e-01 4.597899200621095028e-01 4.595711745489254318e-01 4.582575051051006043e-01 4.580518399891956860e-01 4.595609992132727029e-01 4.581376804607229514e-01 4.598533022201716225e-01 4.580430020433077232e-01 4.582115666760195327e-01 4.584246954816523223e-01 4.579742981867443996e-01 4.579776579741551834e-01 4.596109049098668908e-01 4.597920522714273872e-01 4.579943414313128458e-01 4.598261385430054138e-01 4.579714281332608605e-01 4.598008949349542962e-01 4.598039875963864653e-01 4.582444043665800382e-01 4.597520867994835392e-01 4.597916126947366733e-01 4.582638754462742270e-01 4.599092631135333065e-01 4.581513149610628166e-01 4.600146792113015692e-01 4.580373931545950739e-01 4.599049207483210111e-01 4.597840142793643836e-01 4.599314571238916072e-01 4.582900016446571634e-01 4.581852421554456489e-01 4.601065798621635228e-01 4.584703383400527965e-01 4.582485181127902152e-01 4.581502597776835328e-01 4.599994169291132251e-01 4.584158251611585855e-01 4.581109108055491097e-01 4.581109200690096084e-01 4.581262873929315971e-01 4.598364413313266730e-01 4.597138521105582076e-01 4.581277689500944383e-01 4.582501377918474783e-01 4.580382714699933744e-01 4.581217046523580749e-01 4.582007419397214343e-01 4.599298490073150947e-01 4.596721236304963654e-01 4.580960588662312816e-01 4.583411567474123260e-01 4.581889252833698523e-01 4.600237099688761488e-01 4.598346098929236292e-01 4.579958908205712942e-01 4.599349453172996149e-01 4.597443949412082786e-01 4.583130971847909629e-01 4.583245284210941128e-01 4.580905165462796358e-01 4.598043462177869301e-01 4.598375786843726942e-01 4.598566216455673428e-01 4.581523942495722701e-01 4.584710768506876644e-01 4.584254038473523085e-01 4.599625974566001751e-01 4.592238533159218594e-01 4.598841896222636838e-01 4.598454994248025174e-01 4.600155354312535083e-01 4.599077987986556759e-01 4.598586230428182708e-01 4.580540818844644479e-01 4.580295687955410755e-01 4.583017665580567668e-01 4.598232887455718787e-01 4.599132225619041447e-01
4.000000000000000000e+00 1.836636921382349019e+00 8.986755041214065931e-03 1.836000000000000076e+00 1.835884000604314892e+00 1.837460825406160625e+00 1.836849826617954928e+00 1.835473042985400038e+00 1.837345545188678209e+00 1.835653183901544416e+00 1.835945830285800939e+00 1.836391758155267562e+00 1.836488838870369067e+00 1.836699390984633640e+00 1.836535005905360451e+00 1.836790762781973063e+00 1.836739258795501595e+00 1.836223309605916842e+00 1.835932709176303579e+00 1.837465368352894757e+00 1.836484962314946623e+00 1.836867206186127977e+00 1.835700392864632491e+00 1.837405016697179150e+00 1.837300274022410473e+00 1.836176162405067647e+00 1.837237797519752025e+00 1.836290697685938333e+00 1.835412771694857836e+00 1.836707022729620276e+00 1.836642380476691594e+00 1.835857468296997030e+00 1.837191319693588509e+00 1.836764708937872248e+00 1.836028729398914150e+00 1.837574901021862050e+00 1.836051720433817147e+00 1.835867081459349404e+00 1.837722942275589411e+00 1.837322461342652868e+00 1.837448587435548841e+00 1.836892141990322136e+00 1.835975141908330777e+00 1.837152906441186673e+00 1.836568249981713086e+00 1.836942209183793917e+00 1.837229261191039020e+00 1.836750822697562624e+00 1.836816010827974521e+00 1.835925053651136674e+00 1.836853376568954754e+00 1.836979397947861914e+00 1.836766570440683033e+00 1.837461383425294859e+00 1.837467318266793770e+00 1.835875335707496392e+00 1.837127753362999716e+00 1.837176195708747795e+00 1.836733360151750372e+00 1.836401352336022530e+00 1.836639966639174171e+00 1.836547011944259733e+00 1.835695005283016101e+00 1.837542642130996384e+00 1.835779511747597459e+00 1.837715056887462950e+00 1.836203952846521270e+00 1.836506977362905912e+00 1.837204038829125752e+00 1.836119052485492453e+00 1.836131713970575507e+00 1.835995458997651930e+00 1.836004231308504764e+00 1.836291955088535932e+00 1.835794425787218298e+00 1.835532743455471572e+00 1.836535716797996987e+00 1.837014488950042601e+00 1.837027786841117560e+00 1.836860780865786413e+00 1.836930485184185224e+00 1.837052280152064787e+00 1.837198047292246006e+00 1.836520869858979887e+00 1.837630466179816846e+00 1.836111152201176822e+00 1.837038892933811507e+00 1.836294042874834886e+00 1.837267965661619540e+00 1.835975123648272866e+00 1.836618112397813363e+00 1.837146333887469840e+00 1.837630463529767999e+00 1.836268501571991063e+00 1.835847599900730653e+00 1.837576302941200890e+00 1.836612380961466950e+00 1.836086250312914725e+00 1.837386761079649933e+00 1.837002674508963374e+00 1.837304132123622091e+00 1.836964367851146918e+00 1.835680834549712870e+00 1.836575228716133212e+00 1.836213434137778711e+00 1.836910370281849003e+00 1.836590051555427650e+00 1.836457137995967992e+00 1.837076132090927683e+00 1.836224737067851054e+00 1.837351814284720497e+00 1.836938980753700879e+00 1.836592589985929891e+00 1.836951026261569364e+00 1.836123711913006717e+00 1.836458076049313659e+00 1.835754355787260428e+00 1.835840679256465435e+00 1.836863142791553383e+00 1.837259353092481229e+00 1.835621583203523199e+00 1.836347280462530485e+00 1.836240651232531551e+00 1.837485909633923997e+00 1.837201832870586804e+00 1.836033443082569994e+00 1.837374697746691599e+00 1.837415649458677525e+00 1.836279867867253390e+00 1.837036326290959032e+00 1.836420921749880364e+00 1.836366931392338753e+00 1.836005862198033078e+00 1.835720273512025269e+00 1.835544099093313841e+00 1.836333531793115759e+00 1.835874753631826506e+00 1.835720289403495187e+00 1.835943465224575188e+00 1.837817875712560944e+00 1.836500233471576315e+00 1.837600332048386687e+00 1.837147667757757397e+00 1.836822444096019247e+00 1.836548546914340330e+00 1.837393450222090774e+00 1.837037456364313925e+00 1.837098796155524960e+00 1.836314561485185237e+00 1.836924451039154915e+00 1.837160593639472372e+00 1.836286562654184662e+00 1.837032269373285676e+00 1.836207812707780107e+00 1.836245905552163604e+00 1.836551924292330273e+00 1.837413846697120379e+00 1.836172383736927927e+00 1.836848114447973579e+00 1.835700636492031412e+00 1.835896968276993002e+00 1.835910436769757403e+00 1.836445311357250532e+00 1.837169113206268634e+00 1.835977316305437590e+00 1.837305310091399857e+00 1.835885462997089324e+00 1.837204445414013065e+00 1.837216802613387490e+00 1.836979752002272814e+00 1.837009425081414626e+00 1.837167356810708752e+00 1.837057806374147395e+00 1.835637841470537435e+00 1.836606581372295377e+00 1.836058589199890623e+00 1.836149899196149793e+00 1.835620509769385622e+00 1.837136996185808169e+00 1.835726424520576217e+00 1.837162539344084244e+00 1.836742586457201343e+00 1.836425392667244250e+00 1.835883407239425225e+00 1.836996242915027944e+00 1.836602351423202828e+00 1.835997672786634505e+00 1.835665116475032388e+00 1.836444611875520216e+00 1.836444649010265495e+00 1.836506252518389282e+00 1.837346476449953192e+00 1.836856652563491288e+00 1.836512191686404893e+00 1.837002735776925633e+00 1.836153420128619818e+00 1.836487881532160360e+00 1.836804720963599591e+00 1.837719701033576403e+00 1.836689920071417959e+00 1.836385074406988283e+00 1.837367606524561214e+00 1.836757351135954064e+00 1.836094633701862211e+00 1.837339158659116567e+00 1.835983527394255299e+00 1.835740346962091429e+00 1.836978691091175619e+00 1.837255123212393482e+00 1.837300947993731004e+00 1.836362856722640657e+00 1.837218235539765931e+00 1.837351020917123989e+00 1.837427109966419003e+00 1.836610907952433980e+00 1.835886364506901902e+00 1.835703473048130974e+00 1.837850552446154584e+00 1.836895413263687438e+00 1.837537262012436390e+00 1.837382669440841498e+00 1.836062006634307409e+00 1.837631596069411177e+00 1.837435106853695599e+00 1.836216799868726435e+00 1.836118533424920152e+00 1.837209701748017787e+00 1.837293923292089293e+00 1.835653644834034814e+00
5.000000000000000000e+00 5.174908872405390881e+00 1.933820165352639550e-02 5.174250000000000682e+00 5.177672851377528751e+00 5.174481628020831003e+00 5.174393956028357167e+00 5.174514417479537443e+00 5.175790392002093121e+00 5.175022265726793691e+00 5.175485246770769265e+00 5.171471022966085407e+00 5.173377055902804500e+00 5.173970179832529936e+00 5.177308215449141215e+00 5.174227573588433771e+00 5.174082487195170721e+00 5.176267454014498171e+00 5.175810295586353860e+00 5.175544116012520846e+00 5.175366663952905455e+00 5.174808701649494580e+00 5.177155029549600940e+00 5.176323817441780939e+00 5.174029498552772388e+00 5.176496632139776288e+00 5.173853558194905666e+00 5.174819210145448878e+00 5.175984108618214563e+00 5.175992448585541972e+00 5.176510526281166591e+00 5.175598178597634380e+00 5.175355939790435400e+00 5.174519947160121092e+00 5.174444406031759591e+00 5.173172819181111493e+00 5.174145752464362147e+00 5.175625279756859598e+00 5.171592062555978586e+00 5.172542551737745242e+00 5.175596819609238786e+00 5.174878950612561646e+00 5.173929947839708277e+00 5.175613574294050778e+00 5.173966484442497737e+00 5.174654197112517728e+00 5.175462820740770020e+00 5.174115062631695849e+00 5.172665762810443546e+00 5.175788713343291825e+00 5.174769740954324071e+00 5.176760024500128843e+00 5.174159423921139478e+00 5.174483199461004546e+00 5.172500492226546065e+00 5.175648549903050899e+00 5.175542713228297842e+00 5.173680081060107128e+00 5.174431631591819070e+00 5.173496301629991301e+00 5.173802781839764720e+00 5.175541524945315608e+00 5.175140167399177926e+00 5.174712032464655387e+00 5.175378405667519388e+00 5.175197570429547866e+00 5.176574978177338693e+00 5.175428704180650819e+00 5.175757624079006192e+00 5.173065852219996152e+00 5.176371324352777137e+00 5.177987193186189607e+00 5.176011928786938832e+00 5.174822753610069270e+00 5.175420450912114667e+00 5.176682214385856184e+00 5.173874832198055884e+00 5.174857808741623266e+00 5.174895268813867411e+00 5.174424814072901668e+00 5.174986970774598127e+00 5.173331121908099739e+00 5.175740744765642276e+00 5.173833005511315974e+00 5.173329247180136647e+00 5.174313236105058778e+00 5.174926554604397211e+00 5.176828957472846326e+00 5.173570469755214063e+00 5.177569977921955946e+00 5.175741891909741987e+00 5.175229215068624100e+00 5.174959346697540319e+00 5.173122035440571587e+00 5.175570357890077133e+00 5.174806824822447027e+00 5.175725740247620443e+00 5.173878812223087209e+00 5.174273055140515609e+00 5.172823435300294648e+00 5.175673731668504196e+00 5.174716617933623475e+00 5.174738230437304409e+00 5.173620415533682682e+00 5.176601707569250088e+00 5.174930303220573791e+00 5.173662171375093877e+00 5.175288252718484472e+00 5.175397286162580990e+00 5.174633327662887972e+00 5.174174641315404166e+00 5.174645102646046269e+00 5.173669322117226521e+00 5.174679034762982965e+00 5.176348765175229794e+00 5.175290896230473336e+00 5.175081992917345275e+00 5.171916777578879021e+00 5.176432407845042327e+00 5.175547589430454565e+00 5.174933177920172156e+00 5.172978286793141756e+00 5.171794772180634325e+00 5.176551708424623754e+00 5.175751409468932529e+00 5.174094245375390422e+00 5.175872514567476657e+00 5.171984791068870102e+00 5.174424404110123277e+00 5.174919324388257635e+00 5.177186650859139760e+00 5.175034043041373266e+00 5.172382129739617085e+00 5.173211707598702525e+00 5.174714736877446875e+00 5.175303424748824987e+00 5.174846963504855957e+00 5.174849452680517103e+00 5.175840618737691301e+00 5.175487118981618728e+00 5.177410244253201732e+00 5.174874493298394995e+00 5.173599743370051129e+00 5.174316819643033583e+00 5.173545253072423300e+00 5.177926858087744222e+00 5.174922507797512949e+00 5.175461135197664930e+00 5.174886460307379643e+00 5.172971141772941372e+00 5.173636144003214810e+00 5.175171052529203841e+00 5.174407614958575152e+00 5.174585633415063057e+00 5.173058378100709120e+00 5.173554767124146636e+00 5.172349968885147753e+00 5.176485979423931738e+00 5.174389132856710205e+00 5.176795906181453688e+00 5.175709535839714270e+00 5.175747505838923956e+00 5.173620142659327570e+00 5.175659231872719701e+00 5.175936050760863161e+00 5.176042924729743255e+00 5.177676975707477425e+00 5.173759635181137462e+00 5.175793582117584890e+00 5.176761022254770417e+00 5.173210437552449470e+00 5.173655189799906573e+00 5.174979833642206373e+00 5.174979012773149201e+00 5.175709396525194350e+00 5.174165109215813629e+00 5.176422591633589754e+00 5.174930151724586480e+00 5.175568752040323517e+00 5.175228743637528162e+00 5.177276132116716667e+00 5.174091861196429498e+00 5.175198791753987670e+00 5.173307223889503703e+00 5.176807495012176297e+00 5.175697476178459766e+00 5.173993441720068809e+00 5.176695737409414910e+00 5.175252953074041429e+00 5.175253057722828842e+00 5.175426661508795156e+00 5.174159609415101890e+00 5.172780214183150704e+00 5.175443398575957588e+00 5.174824700129771138e+00 5.176432517748222217e+00 5.177375422010055850e+00 5.176267770297203086e+00 5.173210953834453285e+00 5.174309252518934699e+00 5.175085171558691854e+00 5.175852538641084521e+00 5.176134278201212524e+00 5.174266685606446536e+00 5.174139001751679956e+00 5.175953560889251293e+00 5.175267993396396982e+00 5.173423720726283648e+00 5.175535673885892862e+00 5.173663344840734979e+00 5.175022560284827655e+00 5.173798469615793927e+00 5.174172407109376870e+00 5.174386681820557499e+00 5.177722254663288837e+00 5.175117408520959472e+00 5.174802047796530857e+00 5.173579302696628801e+00 5.171259913427119770e+00 5.174696881488776157e+00 5.176260860916581663e+00 5.174174739828925063e+00 5.174962536047482686e+00 5.176408587208071843e+00 5.176611196144078164e+00 5.176334166126027370e+00 5.175407721917618886e+00 5.172762094426408552e+00 5.175023565174817541e+00
6.000000000000000000e+00 3.115643009805528323e-03 2.971875032894746499e-05 3.129490312071330545e-03 3.115400484396433495e-03 3.114644954561042369e-03 3.117077653463648859e-03 3.114577974965706576e-03 3.118052876371742166e-03 3.114990569272976621e-03 3.119001307441701155e-03 3.112699867112482966e-03 3.116506987311385649e-03 3.116938335905349629e-03 3.116547175068587125e-03 3.117179462448559785e-03 3.116654342421124827e-03 3.119411222565157595e-03 3.115421917866941035e-03 3.114765517832647664e-03 3.116413215877915106e-03 3.113498263888888739e-03 3.114958419067215527e-03 3.114588691700960130e-03 3.114537787208504667e-03 3.115499614197530815e-03 3.114379715363511502e-03 3.115906850137174083e-03 3.117910879629629765e-03 3.116616833847736523e-03 3.116713284465020672e-03 3.115317429698216938e-03 3.117886766975308619e-03 3.113246420610425030e-03 3.112196180555555549e-03 3.111352237654321090e-03 3.115987225651577468e-03 3.115212941529492408e-03 3.111617476851851957e-03 3.114476165980795651e-03 3.114331490054869644e-03 3.113779578189300370e-03 3.115815757887517145e-03 3.113902820644718836e-03 3.113366983882030325e-03 3.116825810185185151e-03 3.117736732681755836e-03 3.117107124485596781e-03 3.113415209190672182e-03 3.115620177469135676e-03 3.113468792866940817e-03 3.117241083676268801e-03 3.117024069787379791e-03 3.114545824759945049e-03 3.114636917009601987e-03 3.115614819101508899e-03 3.114160022290809321e-03 3.113988554526748997e-03 3.113455396947873658e-03 3.112924918552811924e-03 3.116777584876543293e-03 3.116364990569272814e-03 3.114912872942386841e-03 3.114894118655692906e-03 3.115057548868312848e-03 3.114982531721536239e-03 3.116131901577503475e-03 3.116431970164609041e-03 3.114326131687242868e-03 3.108895426097393888e-03 3.115920246056241242e-03 3.115381730109739560e-03 3.115561235425240265e-03 3.116340877914952102e-03 3.114934306412894382e-03 3.114634237825788816e-03 3.113409850823045406e-03 3.117388438786008412e-03 3.117225008573388037e-03 3.117723336762688677e-03 3.113586676954732506e-03 3.113709919410150972e-03 3.114138588820301781e-03 3.113203553669409950e-03 3.111400462962962948e-03 3.115791645233195999e-03 3.117300025720164645e-03 3.115901491769547307e-03 3.117937671467764082e-03 3.118939686213991706e-03 3.116935656721536458e-03 3.117182141632372956e-03 3.115087019890260770e-03 3.112458740569272811e-03 3.115287958676269016e-03 3.115014681927297767e-03 3.116528420781893190e-03 3.119095078875171265e-03 3.114186814128943638e-03 3.117776920438957312e-03 3.117709940843621519e-03 3.117428626543209888e-03 3.118773576817558159e-03 3.116386424039780355e-03 3.115925604423868452e-03 3.113707240226337367e-03 3.116745434670781766e-03 3.116381065672153578e-03 3.113886745541838072e-03 3.116054205246913695e-03 3.114310056584362104e-03 3.117316100823045409e-03 3.116750793038408976e-03 3.117048182441700937e-03 3.115609460733882122e-03 3.116381065672153578e-03 3.115038794581618479e-03 3.111987204218106921e-03 3.117155349794238639e-03 3.117506322873799668e-03 3.115103094993141100e-03 3.116166730967078174e-03 3.112423911179698112e-03 3.114768197016460835e-03 3.114237718621399101e-03 3.115614819101508899e-03 3.117945709019204464e-03 3.118076989026063311e-03 3.119644311556927369e-03 3.117350930212620108e-03 3.116375707304526801e-03 3.116032771776406154e-03 3.112247085048011012e-03 3.115124528463648641e-03 3.114870006001371761e-03 3.112579303840878105e-03 3.115507651748971197e-03 3.118492262517146962e-03 3.115488897462277262e-03 3.115320108882030110e-03 3.116493591392318057e-03 3.114559220679012207e-03 3.113846557784636596e-03 3.116946373456790011e-03 3.116330161179698115e-03 3.117851937585733920e-03 3.117439343278463441e-03 3.114235039437585929e-03 3.116040809327846536e-03 3.113578639403292124e-03 3.114216285150891560e-03 3.112737375685871270e-03 3.117313421639231804e-03 3.116022055041152167e-03 3.112523040980795432e-03 3.116362311385459643e-03 3.115062907235939624e-03 3.116150655864197410e-03 3.116659700788751604e-03 3.118647655178326521e-03 3.115207583161865631e-03 3.115346900720164427e-03 3.112445344650205652e-03 3.114256472908093470e-03 3.115676440329217915e-03 3.114535108024691495e-03 3.115413880315500653e-03 3.114371677812071120e-03 3.114082325960219541e-03 3.117632244513031739e-03 3.113758144718792829e-03 3.113642939814814745e-03 3.118154685356653091e-03 3.115078982338820388e-03 3.116512345679012426e-03 3.115748778292180918e-03 3.115866662379972608e-03 3.115076303155006783e-03 3.114186814128943638e-03 3.114918231310013618e-03 3.117543831447187972e-03 3.116967806927297552e-03 3.116222993827160413e-03 3.118942365397805311e-03 3.117401834705075571e-03 3.116579325274348219e-03 3.115558556241426660e-03 3.118243098422496425e-03 3.115981867283950692e-03 3.116496270576131662e-03 3.116324802812071339e-03 3.114564579046639418e-03 3.114001950445816156e-03 3.116319444444444562e-03 3.117350930212620108e-03 3.115805041152263158e-03 3.116287294238683035e-03 3.116949052640603617e-03 3.114923589677640395e-03 3.113192836934156396e-03 3.116206918724279649e-03 3.117881408607681842e-03 3.117018711419753015e-03 3.115896133401920530e-03 3.114358281893003962e-03 3.115730024005486983e-03 3.115162037037036945e-03 3.113734032064471684e-03 3.117902842078189383e-03 3.117835862482853156e-03 3.116523062414265979e-03 3.114390432098765489e-03 3.114430619855966965e-03 3.114594050068586906e-03 3.116646304869684445e-03 3.119012024176954709e-03 3.118685163751714826e-03 3.115328146433470492e-03 3.110009966563785991e-03 3.114671746399177120e-03 3.114543145576131877e-03 3.115708590534979443e-03 3.114642275377229198e-03 3.114551183127571825e-03 3.115981867283950692e-03 3.115341542352537650e-03 3.117519718792866826e-03 3.114567258230452589e-03 3.114990569272976621e-03
