# vvf statistics with RF=500
# gcat file: /disk2/salam/Abacus/AbacusCosmos_720box_products/GCAT_derivative/AbacusCosmos_720box_planck_rockstar_halos_z0.100_Mr21_hod-fconc-pos_real-5.gcat.rsd_zz.1pz0.100by100
# stats order in row: stdvvf,p2.5,p16,p50,p84,p97.5,rho
# columns: numbers, mean, sigma,All, jnrealizations
0.000000000000000000e+00 1.441937810115696550e+00 4.987441378237299563e-03 1.441938039079689426e+00 1.442253114598168517e+00 1.441471386813701905e+00 1.441759099774723385e+00 1.441961846729020502e+00 1.442601739922441118e+00 1.441938942004846957e+00 1.442153399908624900e+00 1.441017198872318161e+00 1.441115487202820011e+00 1.441811734956365942e+00 1.442567656706434720e+00 1.442157928061158279e+00 1.442008591152347696e+00 1.441741899002796146e+00 1.441957513074284103e+00 1.442070730697670999e+00 1.442288299262413309e+00 1.441947103840713451e+00 1.442170916105739220e+00 1.442119631135515556e+00 1.442046501237919776e+00 1.442654032052903990e+00 1.441923871470491392e+00 1.442046856783969266e+00 1.441764540267577388e+00 1.442324855188227284e+00 1.442331682932682213e+00 1.441730756595287488e+00 1.442381240042648782e+00 1.441861642621528494e+00 1.441790633366227814e+00 1.441322711888102459e+00 1.442054796283918083e+00 1.441980579545431240e+00 1.441455980070909693e+00 1.441309848216419276e+00 1.442112061912796728e+00 1.441810944982713671e+00 1.441890016298104316e+00 1.442226161522826233e+00 1.441694325031685375e+00 1.442100537112982028e+00 1.442099782151109455e+00 1.441934142725742385e+00 1.441079978564238528e+00 1.441996904976603489e+00 1.441728795119029849e+00 1.442272857329425895e+00 1.442022288075439196e+00 1.441635605644873586e+00 1.441111112937958572e+00 1.441872588583119619e+00 1.441746214005115601e+00 1.442083237587723721e+00 1.441334396089300141e+00 1.441687668865819782e+00 1.441944294514409197e+00 1.441980645103829062e+00 1.441821455612438019e+00 1.441493417216634931e+00 1.441939583430490446e+00 1.442149158276724741e+00 1.442350477683362220e+00 1.441907510221552391e+00 1.442045778869692985e+00 1.441224743553187526e+00 1.442578343279789843e+00 1.442326626441613246e+00 1.442272368398100024e+00 1.441740170460382497e+00 1.442163584439828394e+00 1.442497321349449413e+00 1.441748184729589433e+00 1.442018112436585398e+00 1.441931569481888609e+00 1.441924322542075920e+00 1.441961931977558953e+00 1.441591369708445702e+00 1.441735778676737967e+00 1.441668276633672141e+00 1.441524943084593335e+00 1.441955847508789468e+00 1.440923835537601061e+00 1.442308085708749577e+00 1.441357751175895929e+00 1.442352990780298772e+00 1.441796613770514712e+00 1.442539609579642557e+00 1.441761574631254872e+00 1.441473295075131000e+00 1.442064122225937162e+00 1.442006897013734967e+00 1.442137598046651759e+00 1.442271285560126071e+00 1.441527930037938443e+00 1.441725832899465987e+00 1.442436781469023099e+00 1.441880973079501027e+00 1.442076793871618579e+00 1.441871963926502964e+00 1.442093948851292717e+00 1.441514326289354608e+00 1.441591975106893075e+00 1.441675880610609140e+00 1.441999120340603513e+00 1.442148594062333089e+00 1.441723282047133070e+00 1.441876492094110285e+00 1.441816102331582528e+00 1.441960263971264755e+00 1.442217380614948086e+00 1.442101912645087358e+00 1.442193793302886773e+00 1.441352883248162353e+00 1.442399172404200236e+00 1.442323971651939818e+00 1.442134310263909702e+00 1.442088290035824949e+00 1.441391746249622408e+00 1.442005599218882494e+00 1.441841700776223201e+00 1.441826382250092742e+00 1.442156860065197943e+00 1.441673561942749648e+00 1.441775170332636247e+00 1.441911484702347312e+00 1.442526805402669199e+00 1.442316083495156942e+00 1.441865054495420795e+00 1.441936995374490715e+00 1.442143481574384767e+00 1.441585454011068190e+00 1.441785213920303121e+00 1.442002799489785048e+00 1.442021073718115387e+00 1.442037873646448087e+00 1.442192362707054087e+00 1.441735478041591190e+00 1.441341256023384254e+00 1.441229422923420600e+00 1.441855698286391707e+00 1.442419262702604010e+00 1.442114125613869424e+00 1.442140149255137116e+00 1.442014441954047266e+00 1.441974867116879944e+00 1.441888868693326664e+00 1.442089439731770950e+00 1.441702331346281341e+00 1.441890976061046992e+00 1.441561903128234734e+00 1.441749350251956052e+00 1.440911019714121943e+00 1.442244106589417596e+00 1.441951054858734649e+00 1.442537257128040373e+00 1.442050609071909406e+00 1.442334672375698013e+00 1.441449797340051298e+00 1.442092171921522281e+00 1.442203136373645833e+00 1.442223217459352558e+00 1.442015269141293743e+00 1.441796561956820710e+00 1.441850263428655410e+00 1.441780785058639713e+00 1.441444860789579563e+00 1.441773951475488369e+00 1.442108998508532469e+00 1.441868054613302697e+00 1.441969796362057243e+00 1.441986271199352521e+00 1.442275039609195231e+00 1.441551952527974967e+00 1.441913602229121905e+00 1.442155993513297041e+00 1.442619656481345825e+00 1.442039224682019949e+00 1.441909925834647943e+00 1.442219634828586061e+00 1.442136159772752002e+00 1.442031632941896291e+00 1.442181775288736922e+00 1.442595852023299319e+00 1.442210217222712698e+00 1.442202335930981016e+00 1.442397153773077756e+00 1.441820675866401169e+00 1.441061383772056947e+00 1.442112069651819484e+00 1.441892763473387573e+00 1.442290870411101711e+00 1.442277904521747756e+00 1.441681006798146703e+00 1.441440540998691899e+00 1.441885506017587470e+00 1.441999654451381563e+00 1.442056398425184627e+00 1.442030436315624442e+00 1.441737017694650014e+00 1.442144507826818467e+00 1.441880029644870387e+00 1.442047428269070730e+00 1.441398635113433357e+00 1.441900279985345312e+00 1.442175531384835674e+00 1.441952097405322153e+00 1.441943177911471086e+00 1.441765550951202624e+00 1.441882685338119696e+00 1.442077881668090811e+00 1.441918231578023235e+00 1.441857417308989753e+00 1.441448183708644137e+00 1.441477592506323457e+00 1.441895669750548725e+00 1.442244394711190925e+00 1.441922482753297929e+00 1.442223943887000370e+00 1.441977187613930900e+00 1.442737591720687496e+00 1.442383169148650834e+00 1.442280370163525616e+00 1.441608538683667007e+00 1.442087135312343893e+00
1.000000000000000000e+00 2.199999986050803907e-02 1.614017672601501710e-04 2.199999999999999872e-02 2.199546481395373704e-02 2.199441785141839287e-02 2.200889527738507379e-02 2.199737759604982607e-02 2.201448872756926051e-02 2.199429463780199975e-02 2.202033292273189100e-02 2.198710553537903262e-02 2.200754130690171090e-02 2.200566357825381458e-02 2.200560397372682345e-02 2.200886791405033335e-02 2.200568300437501928e-02 2.202369928682074499e-02 2.199731744316156881e-02 2.199553936476253066e-02 2.200673847548368159e-02 2.198832722695960931e-02 2.199769348298517488e-02 2.199171996913686089e-02 2.198820151735226061e-02 2.200240335696818095e-02 2.199259452698488354e-02 2.200255631916684523e-02 2.201440450932133988e-02 2.200410257890325627e-02 2.200486739389941049e-02 2.200143414708928200e-02 2.201261470424887776e-02 2.198990236723859584e-02 2.197623042604648913e-02 2.197303697030491762e-02 2.200165341022075269e-02 2.199640240359190466e-02 2.197789798528990840e-02 2.199367733883750634e-02 2.199092099107078507e-02 2.198995400527131716e-02 2.200028287298863919e-02 2.198920807493721583e-02 2.198367936008720561e-02 2.201294281216905138e-02 2.201861516872430716e-02 2.201092053157005513e-02 2.198561470473113857e-02 2.199637986486666086e-02 2.198740119682729421e-02 2.200870818061515660e-02 2.200725690522184821e-02 2.199734914430456420e-02 2.199273634975263889e-02 2.199738569218827669e-02 2.198914010494625385e-02 2.199140711451698024e-02 2.198369828276483182e-02 2.198378182505979911e-02 2.200575725824605380e-02 2.200630170822944973e-02 2.199602370475572596e-02 2.199350304277891341e-02 2.200208290451228718e-02 2.199342619063019560e-02 2.200074509614812976e-02 2.200328304864602666e-02 2.199096357053595754e-02 2.196054031016987304e-02 2.199831985692784000e-02 2.200047303124181425e-02 2.199784775814336499e-02 2.200237640238634704e-02 2.199616126567534996e-02 2.199561590210196912e-02 2.198855633730630033e-02 2.200996972647367017e-02 2.200751704013184998e-02 2.200796797041207342e-02 2.198590414896089973e-02 2.199278983494080963e-02 2.198917367695836858e-02 2.198479122300918062e-02 2.197441018976660498e-02 2.200307366464279366e-02 2.201438947938233817e-02 2.200114373994420391e-02 2.201017202839191528e-02 2.202223689435498649e-02 2.200633974592928338e-02 2.200823804855276539e-02 2.199399907769360521e-02 2.198145678081780616e-02 2.199872539468002847e-02 2.199525434695674339e-02 2.200399613638328450e-02 2.202194676147268756e-02 2.199514437192107846e-02 2.201093801375134801e-02 2.201168710372415974e-02 2.201094260387380375e-02 2.201967026124057938e-02 2.200816652392871900e-02 2.200600876984882756e-02 2.199053181022151901e-02 2.200706534926149052e-02 2.199947022094033561e-02 2.199159196971997229e-02 2.200119378810235643e-02 2.199723616269265783e-02 2.201077866434170485e-02 2.200793157067442926e-02 2.200907494626447997e-02 2.200224086498101667e-02 2.200364690773731063e-02 2.199501017079558141e-02 2.198091579098180801e-02 2.201054004566555325e-02 2.201630041907996424e-02 2.199887360569185296e-02 2.200446431062692831e-02 2.198691006229197206e-02 2.199185200540017607e-02 2.198959192266439905e-02 2.199935052737725730e-02 2.201228505440587513e-02 2.201877952368639160e-02 2.202346377116774778e-02 2.201534859578609116e-02 2.200774802941522779e-02 2.200133113515877550e-02 2.197894508901349769e-02 2.200315118855496535e-02 2.199404604258531348e-02 2.197736021104119974e-02 2.199582991493237438e-02 2.201861614786669585e-02 2.199823783389649040e-02 2.199685244368291756e-02 2.200566805813692836e-02 2.199856500458387612e-02 2.198700528933035872e-02 2.200918549991306636e-02 2.200761935591362406e-02 2.201552682599430821e-02 2.201076104019112148e-02 2.199370806926650643e-02 2.200537117875564844e-02 2.198599602774330489e-02 2.199489295149536366e-02 2.198279499049588318e-02 2.201040096789466660e-02 2.200360779406071790e-02 2.198272164387282332e-02 2.200665105725759310e-02 2.199538645602733267e-02 2.200369753150479765e-02 2.200482817516887304e-02 2.201819458452796904e-02 2.199587749028816472e-02 2.199942911279721344e-02 2.198025289907143756e-02 2.199051823871242192e-02 2.199927827342971001e-02 2.199088224188606305e-02 2.199833769001661304e-02 2.199108909997462072e-02 2.198702156457435497e-02 2.200961927272629751e-02 2.199141827294060630e-02 2.199319258982672387e-02 2.201161618719271046e-02 2.199753015008159424e-02 2.200749621167230607e-02 2.200300593121391757e-02 2.200140244413617552e-02 2.199798598505223884e-02 2.199353312036264954e-02 2.199665313378825968e-02 2.201134165358557479e-02 2.201123218410726973e-02 2.200684073992418069e-02 2.201976758350327260e-02 2.200872736532960561e-02 2.200650486350216525e-02 2.200458036806775264e-02 2.201759847730886885e-02 2.200471996993281706e-02 2.200524446259959077e-02 2.200168084570275351e-02 2.199573941594450827e-02 2.199251684295197226e-02 2.200504862460088418e-02 2.201160972382762079e-02 2.200227477890619524e-02 2.200068309912093373e-02 2.200537593876927128e-02 2.199647724898297699e-02 2.198393393000900101e-02 2.200384679848071609e-02 2.201395022445777616e-02 2.201057421518881618e-02 2.199953998261548055e-02 2.199351043461281185e-02 2.200052233588863440e-02 2.199543591951228644e-02 2.198543915850125971e-02 2.201448617333524524e-02 2.201502089454408090e-02 2.200839203834567201e-02 2.199387927407719934e-02 2.199214741557425218e-02 2.199280385235037952e-02 2.200638944458884610e-02 2.202239697735216065e-02 2.201846809936865851e-02 2.199762982625418778e-02 2.197236117613552212e-02 2.199254159578512696e-02 2.199038297988524168e-02 2.200135416876978708e-02 2.199281389219668453e-02 2.198878867635060269e-02 2.200199077916903737e-02 2.200032769817847692e-02 2.201311449994759403e-02 2.199417676159550611e-02 2.199633008292671207e-02
2.000000000000000000e+00 1.039999993405834600e-01 7.629901725025429148e-04 1.039999999999999952e-01 1.039785609386904008e-01 1.039736116612506034e-01 1.040420504021840054e-01 1.039876031813264379e-01 1.040684921666910484e-01 1.039730291968821857e-01 1.040961192710962158e-01 1.039390443490645077e-01 1.040356498144444503e-01 1.040267732790180338e-01 1.040264915121631717e-01 1.040419210482379370e-01 1.040268651115909965e-01 1.041120329922435167e-01 1.039873188222183303e-01 1.039789133606955907e-01 1.040318546113774001e-01 1.039448196183545142e-01 1.039890964650208305e-01 1.039608580359197010e-01 1.039442253547561423e-01 1.040113613238495827e-01 1.039649923093830808e-01 1.040120844178796244e-01 1.040680940440645158e-01 1.040193940093608327e-01 1.040230094984335718e-01 1.040067796044220616e-01 1.040596331473583325e-01 1.039522657360369973e-01 1.038876347413106721e-01 1.038725384050777911e-01 1.040078161210435531e-01 1.039829931806162677e-01 1.038955177486431958e-01 1.039701110563227560e-01 1.039570810486982605e-01 1.039525098431007682e-01 1.040013372177644724e-01 1.039489836269759243e-01 1.039228478840485970e-01 1.040611842029809803e-01 1.040879989794240013e-01 1.040516243310584538e-01 1.039319967860017346e-01 1.039828866339151253e-01 1.039404420213654034e-01 1.040411659447261911e-01 1.040343053701396486e-01 1.039874686821670308e-01 1.039656627442852033e-01 1.039876414539809418e-01 1.039486623142913818e-01 1.039593790868075379e-01 1.039229373367064752e-01 1.039233322639190465e-01 1.040272161298904374e-01 1.040297898934483128e-01 1.039812029679361566e-01 1.039692871113185035e-01 1.040098464576944548e-01 1.039689238102518148e-01 1.040035222727002523e-01 1.040155198663266778e-01 1.039572823334427160e-01 1.038134632844393973e-01 1.039920575054770618e-01 1.040022361476885815e-01 1.039898257657686370e-01 1.040112339021900117e-01 1.039818532559198400e-01 1.039792751735729437e-01 1.039459026854479690e-01 1.040471296160573461e-01 1.040355350988051153e-01 1.040376667692207158e-01 1.039333650678151699e-01 1.039659155833565496e-01 1.039488210183486527e-01 1.039281039633161291e-01 1.038790299879875922e-01 1.040145300510386672e-01 1.040680229934437817e-01 1.040054067706453200e-01 1.040480859523981449e-01 1.041051198642235776e-01 1.040299697080293295e-01 1.040389435022494313e-01 1.039716320036424974e-01 1.039123411456841783e-01 1.039939745930328480e-01 1.039775660037955268e-01 1.040188908265391593e-01 1.041037483269617869e-01 1.039770461218087333e-01 1.040517069740972966e-01 1.040552481266960316e-01 1.040517286728579877e-01 1.040929866895009270e-01 1.040386053858448623e-01 1.040284050938308225e-01 1.039552412846835444e-01 1.040333998328725057e-01 1.039974955898997633e-01 1.039602529477671455e-01 1.040056433619384185e-01 1.039869345872743850e-01 1.040509536859789697e-01 1.040374946977336706e-01 1.040428997459775518e-01 1.040105931799102656e-01 1.040172399274854609e-01 1.039764117164882068e-01 1.039097837391867313e-01 1.040498256704189828e-01 1.040770565265598246e-01 1.039946752269069463e-01 1.040211040138727810e-01 1.039381202944711508e-01 1.039614822073462869e-01 1.039507981798680480e-01 1.039969297657833969e-01 1.040580748026459640e-01 1.040887759301538651e-01 1.041109196455202723e-01 1.040725569982615117e-01 1.040366270481447170e-01 1.040062926389323794e-01 1.039004676935183641e-01 1.040148965277143817e-01 1.039718540194942004e-01 1.038929755431038521e-01 1.039802868705894112e-01 1.040880036080971127e-01 1.039916697602379508e-01 1.039851206428647062e-01 1.040267944566472952e-01 1.039932163853055924e-01 1.039385704586525960e-01 1.040434223632254185e-01 1.040360187734098579e-01 1.040733995410639823e-01 1.040508703718125844e-01 1.039702563274416680e-01 1.040253910268448823e-01 1.039337994038774388e-01 1.039758575888871661e-01 1.039186672277987444e-01 1.040491682118656891e-01 1.040170550264688520e-01 1.039183204983078895e-01 1.040314413615813505e-01 1.039781905194019085e-01 1.040174792398408654e-01 1.040228241007983140e-01 1.040860107632231302e-01 1.039805117722713140e-01 1.039973012604959168e-01 1.039066500683376998e-01 1.039551771284587256e-01 1.039965882016677251e-01 1.039568978707341163e-01 1.039921418073512654e-01 1.039578757453345770e-01 1.039386473961696755e-01 1.040454729256152233e-01 1.039594318357192210e-01 1.039678195155445128e-01 1.040549128849109911e-01 1.039883243458402523e-01 1.040354366369963535e-01 1.040142098566476103e-01 1.040066297359164837e-01 1.039904792020651253e-01 1.039694292962597966e-01 1.039841784506354144e-01 1.040536150896772677e-01 1.040530975975979960e-01 1.040323380432779388e-01 1.040934467583791156e-01 1.040412566361035851e-01 1.040307502638284226e-01 1.040216526490475579e-01 1.040831928018237651e-01 1.040223125851369584e-01 1.040247920050162422e-01 1.040079458160493853e-01 1.039798590571922171e-01 1.039646250757729623e-01 1.040238662253859941e-01 1.040548823308214826e-01 1.040107535002838257e-01 1.040032291958444127e-01 1.040254135287274617e-01 1.039833469951922523e-01 1.039240513054970894e-01 1.040181848655452046e-01 1.040659465156185820e-01 1.040499871990743924e-01 1.039978253723641000e-01 1.039693220545332975e-01 1.040024692242008247e-01 1.039784243467853642e-01 1.039311669310968717e-01 1.040684800921302527e-01 1.040710078651174708e-01 1.040396714539977285e-01 1.039710656592740257e-01 1.039628786918055520e-01 1.039659818474745201e-01 1.040302046471472813e-01 1.041058766202102165e-01 1.040873037424700220e-01 1.039887955422925392e-01 1.038693437417315679e-01 1.039647420891660484e-01 1.039545377230938622e-01 1.040064015250935225e-01 1.039660293085661463e-01 1.039470010154755764e-01 1.040094109560718155e-01 1.040015491186618846e-01 1.040619958179340859e-01 1.039724719639060213e-01 1.039826513011080922e-01
3.000000000000000000e+00 4.778317216960807357e-01 7.262949682405839616e-03 4.779999999999999805e-01 4.779014627759039513e-01 4.778787151353632856e-01 4.781932701177302736e-01 4.779430223141734602e-01 4.763134833783167488e-01 4.778760380395161711e-01 4.764399305100173176e-01 4.777198384505080275e-01 4.781638520317735286e-01 4.781230541093328679e-01 4.781217590655191807e-01 4.781926755870936074e-01 4.781234761859663451e-01 4.765127663875760589e-01 4.779417153559650244e-01 4.779030825616585876e-01 4.781464086945999559e-01 4.777463824766678968e-01 4.779498856757687930e-01 4.778200975112463222e-01 4.777436511497445415e-01 4.760519999053115514e-01 4.778390992681261218e-01 4.780555418437159587e-01 4.783129707025273181e-01 4.780891378507162170e-01 4.781057551947235362e-01 4.780311601049398451e-01 4.762729363282939277e-01 4.777806059790931092e-01 4.774835519841009734e-01 4.774141669002613386e-01 4.780359240947963384e-01 4.779218340416786504e-01 4.775197834985716039e-01 4.778626258165603047e-01 4.778027378969015859e-01 4.777817279327131739e-01 4.780061460585713351e-01 4.777655209009085691e-01 4.776453970055310472e-01 4.782812120098548503e-01 4.764027645596713989e-01 4.782372733677494048e-01 4.776874467664310453e-01 4.779213443366483460e-01 4.777262623674294328e-01 4.781892050151838047e-01 4.781576727589110787e-01 4.779424041353446673e-01 4.778421806900800539e-01 4.779431982211816421e-01 4.777640440983776937e-01 4.778133000335961778e-01 4.776458081437086056e-01 4.776476232899356522e-01 4.781250895200733764e-01 4.781369189333489755e-01 4.779136059487834598e-01 4.778588388385600072e-01 4.780452558344033265e-01 4.778571690509650916e-01 4.780161889072184755e-01 4.780713316933091206e-01 4.778036630325540046e-01 4.771426485573272425e-01 4.779634950732503662e-01 4.780102776787993890e-01 4.779532376542058869e-01 4.780516327427579149e-01 4.779165947724008379e-01 4.779047455093063945e-01 4.777513604196551023e-01 4.782166149661097321e-01 4.781633247810465615e-01 4.781731222662259917e-01 4.776937356001504931e-01 4.778433427773502995e-01 4.777647735266409290e-01 4.776695547544722031e-01 4.774440032140198631e-01 4.780667823499661351e-01 4.783126441429434994e-01 4.780248503496967727e-01 4.782210104350607116e-01 4.764811255324079009e-01 4.781377453888271400e-01 4.781789903276464360e-01 4.778696163244338102e-01 4.775971064195868587e-01 4.779723063025932972e-01 4.778968899020601957e-01 4.780868251450549611e-01 4.764748481118635803e-01 4.778945004444670741e-01 4.782376532078702058e-01 4.782539288900067298e-01 4.782377529387126791e-01 4.764255929250234556e-01 4.781774362926330957e-01 4.781305541812608806e-01 4.777942820584493711e-01 4.781535107703178133e-01 4.779884893458854478e-01 4.778173164330066780e-01 4.780259377596784987e-01 4.779399493530495646e-01 4.782341909797879209e-01 4.781723313991990132e-01 4.781971738324737320e-01 4.780486878845875420e-01 4.780792373590197486e-01 4.778915846200131323e-01 4.775853521858774431e-01 4.782290064467334401e-01 4.763526817946392433e-01 4.779755265236684814e-01 4.780969972945306457e-01 4.777155913534346654e-01 4.778229662991492765e-01 4.777738608651628249e-01 4.779858887311967397e-01 4.782669207275458412e-01 4.784080278328225466e-01 4.765076706852658384e-01 4.783334831266250475e-01 4.781683435482035893e-01 4.780289219366315456e-01 4.775425342067478596e-01 4.780684667331487891e-01 4.778706367434445434e-01 4.775080991308042755e-01 4.779093954244397757e-01 4.764027857447520886e-01 4.779617129364782668e-01 4.779316121854743082e-01 4.781231514449750808e-01 4.779688214632314969e-01 4.777176603772686492e-01 4.781995758617475500e-01 4.781655478239414392e-01 4.763359440533313505e-01 4.782338080550616599e-01 4.778632935049723085e-01 4.781167010656908745e-01 4.776957318755136184e-01 4.778890377643083553e-01 4.776261820662287549e-01 4.782259846660750213e-01 4.780783875255010806e-01 4.776245884441459033e-01 4.781445093349603881e-01 4.778997602718664806e-01 4.780803372754224290e-01 4.781049030786691523e-01 4.763936646470596781e-01 4.779104291071701316e-01 4.779875961780485349e-01 4.775709493525521210e-01 4.777939871865699017e-01 4.779843188499727780e-01 4.778018959827972090e-01 4.779638825376336664e-01 4.778063904449031396e-01 4.777180139939337100e-01 4.782090005619623052e-01 4.778135424757095073e-01 4.778520935425988325e-01 4.782523880671870620e-01 4.779463368972273196e-01 4.781628722354255845e-01 4.780653106872841951e-01 4.780304712862314398e-01 4.779562409479531926e-01 4.778594923424248075e-01 4.779272817250358463e-01 4.762453921412151958e-01 4.782440447274215467e-01 4.781486306219889793e-01 4.764276986248889845e-01 4.781896218467068804e-01 4.781413329433652493e-01 4.780995189061993389e-01 4.763807670545009976e-01 4.781025520739948798e-01 4.781139478692092437e-01 4.780365201929961949e-01 4.779074291282488507e-01 4.778374114059564803e-01 4.781096928436009974e-01 4.782522476358910257e-01 4.780494247416891551e-01 4.780148418809002653e-01 4.781168044878050805e-01 4.779234602279028299e-01 4.776509281156501308e-01 4.780835804397173816e-01 4.783031003314007767e-01 4.782297488572842536e-01 4.779900050768272624e-01 4.778589994429510712e-01 4.780113489343076338e-01 4.779008349784942822e-01 4.776836326256183041e-01 4.783147450388294808e-01 4.783263630723668114e-01 4.781823361058741284e-01 4.778670133185863866e-01 4.778293847565678321e-01 4.778436473374310101e-01 4.781388252051576582e-01 4.764845891463467820e-01 4.784012614317372236e-01 4.779485025886137106e-01 4.773994837360354682e-01 4.778379492175132137e-01 4.777910483811429465e-01 4.780294223941798926e-01 4.778438654759097903e-01 4.777564085134357597e-01 4.780432542019454889e-01 4.780071199876959609e-01 4.762837500897752485e-01 4.778734769110296043e-01 4.779202627108621870e-01
4.000000000000000000e+00 1.827926998710451167e+00 8.830461751756417052e-03 1.828000000000000069e+00 1.827623167268519699e+00 1.827536174199673846e+00 1.828739116684541699e+00 1.827782102071776382e+00 1.827202564388248796e+00 1.827525936268275419e+00 1.827687632586747046e+00 1.828927414988346767e+00 1.828626614046196641e+00 1.828470591865817063e+00 1.828465639271483312e+00 1.828736843040182247e+00 1.828472205999887912e+00 1.827967040806121712e+00 1.827777103913606815e+00 1.827629361762995508e+00 1.828559906053825790e+00 1.829029037515276679e+00 1.827808349404404398e+00 1.827312004708280924e+00 1.827019653350905992e+00 1.828199697115355793e+00 1.827384672514925645e+00 1.828212406883499508e+00 1.827195574273671186e+00 1.828340887010688753e+00 1.828404436184005277e+00 1.828119164585418233e+00 1.827047020452656989e+00 1.827160978514188461e+00 1.828022803621139669e+00 1.827757166166272595e+00 1.828137383358342305e+00 1.827701072443909114e+00 1.828161514230933093e+00 1.827474644336134491e+00 1.827245616894427105e+00 1.827165269165271333e+00 1.828023504173783342e+00 1.827103289135692199e+00 1.828642419498162974e+00 1.827074253410031268e+00 1.827545059004117567e+00 1.826906404120314686e+00 1.828803404984453707e+00 1.827699199680738795e+00 1.826953153990922507e+00 1.828323412313144658e+00 1.828602982852070014e+00 1.827779737990397724e+00 1.827396456697627958e+00 1.827782774787280573e+00 1.829096654184165782e+00 1.827286009333501715e+00 1.828643993520892685e+00 1.828650942720883243e+00 1.828478375821535717e+00 1.828523614665610753e+00 1.827669606013339276e+00 1.827460161918174952e+00 1.828173070429475633e+00 1.827453776203272318e+00 1.828061910716308303e+00 1.828272791496588168e+00 1.827249154860896896e+00 1.826717671255039477e+00 1.827860395384731440e+00 1.828039304595910686e+00 1.827821168267548702e+00 1.828197457434647344e+00 1.827681036075206489e+00 1.827635721320109097e+00 1.827049135663450841e+00 1.828828393636084959e+00 1.828624597698228271e+00 1.828662065905148681e+00 1.828827481481747785e+00 1.827400900830536301e+00 1.829099446765173553e+00 1.828734906277581951e+00 1.827871393057858507e+00 1.828255393589410360e+00 1.827194326788734058e+00 1.828095034391727491e+00 1.828845203086382654e+00 1.827845662231464274e+00 1.828526775252669490e+00 1.828684506943384580e+00 1.827501377910177860e+00 1.828457541313481149e+00 1.827894091885231331e+00 1.827605679374405989e+00 1.828332042604938312e+00 1.827821581202232926e+00 1.827596541448714973e+00 1.828908849506248435e+00 1.826970029609105151e+00 1.828909230903696059e+00 1.827632631682968078e+00 1.828678563897350173e+00 1.828499274149257170e+00 1.827213279503860921e+00 1.828587066293182017e+00 1.827955980176314998e+00 1.827301369120368779e+00 1.828099192938686723e+00 1.827770350245553566e+00 1.828895609018937884e+00 1.828659041417857178e+00 1.828754045535066819e+00 1.828186195508422651e+00 1.828303024879263772e+00 1.827585390555196643e+00 1.828412540795305130e+00 1.826874823790241020e+00 1.827352934783637028e+00 1.827906406872941147e+00 1.828370943628456313e+00 1.826912345175896624e+00 1.827322975721432652e+00 1.827135183392296636e+00 1.827946034729346581e+00 1.827019659515687788e+00 1.827558700465970576e+00 1.827947493006923052e+00 1.827273933450245469e+00 1.828643790807774394e+00 1.828110605230465424e+00 1.828248614222486523e+00 1.828261835121749002e+00 1.827505280265725007e+00 1.828116781191154505e+00 1.827653503840744653e+00 1.827545140272935686e+00 1.827853580016490120e+00 1.827738466684198704e+00 1.828470964103377394e+00 1.827880764926332890e+00 1.828919076339752481e+00 1.828763231538231171e+00 1.826632406540830811e+00 1.827288726557527498e+00 1.828894144612244199e+00 1.827477197755417171e+00 1.828446296125696424e+00 1.826836397214307350e+00 1.827575650696978471e+00 1.828568856027612100e+00 1.828864225877793181e+00 1.828299774888317852e+00 1.828562754922148148e+00 1.828552642393949323e+00 1.827616656437179632e+00 1.828307231254125753e+00 1.828401177464031857e+00 1.827510150515821330e+00 1.827657456920307455e+00 1.827952564463332097e+00 1.828357400240942177e+00 1.827212151834832099e+00 1.827940031083159500e+00 1.827242397189442258e+00 1.827861877152289427e+00 1.827259585216073123e+00 1.828920430144139520e+00 1.828799274115621376e+00 1.827286936497064751e+00 1.827434366100147756e+00 1.826964143536994989e+00 1.827794777924961256e+00 1.828622867042589917e+00 1.828249765557229178e+00 1.828116530358224079e+00 1.827832653667067930e+00 1.827462661091951102e+00 1.827721905843860739e+00 1.826941357247602760e+00 1.826932271280903297e+00 1.828568403299154488e+00 1.827640709430771615e+00 1.828725164719205321e+00 1.828540495021907297e+00 1.828380586946720454e+00 1.827460673616636111e+00 1.828392186592599611e+00 1.828435767165093262e+00 1.828139662997483317e+00 1.827645984197570961e+00 1.827378217678009342e+00 1.828419494807746126e+00 1.828964662507131411e+00 1.828189013447296674e+00 1.828056759326957659e+00 1.828446691639555866e+00 1.827707291415494595e+00 1.828663595087112403e+00 1.828319633982852022e+00 1.827157868629995185e+00 1.826877659860671521e+00 1.827961776737322630e+00 1.827460776112373564e+00 1.828043401363837805e+00 1.827620766403112107e+00 1.828788802729877760e+00 1.827202352386825490e+00 1.827246734247158777e+00 1.828697302095267707e+00 1.827491423318778008e+00 1.827347521621351500e+00 1.827402065549840637e+00 1.828530904759473330e+00 1.827858949120229282e+00 1.827532852247598649e+00 1.827803060108756927e+00 1.827700952378545685e+00 1.827380274413418659e+00 1.827200913055919029e+00 1.828112519114144074e+00 1.827402899769797084e+00 1.827068440925859072e+00 1.828165415650954362e+00 1.828027228739556920e+00 1.827088503495650329e+00 1.827516141827117524e+00 1.827695063254092034e+00
5.000000000000000000e+00 5.058417498181422722e+00 1.648554904746658833e-02 5.057999999999999829e+00 5.058956907209360310e+00 5.056716613294283569e+00 5.058044296475406654e+00 5.059396847091459648e+00 5.059329773026826516e+00 5.058037935262072793e+00 5.058671026885772193e+00 5.057034273137177571e+00 5.055732443867329451e+00 5.057301593256877226e+00 5.059288404505013048e+00 5.058038007883567388e+00 5.059306574369492715e+00 5.059444372526910705e+00 5.057383255795964594e+00 5.058974053895381573e+00 5.059549236772566516e+00 5.059314201039524228e+00 5.059469501086589993e+00 5.058095592901477922e+00 5.059285276401688236e+00 5.060552772102681729e+00 5.058296741206523173e+00 5.058587721015722849e+00 5.057309108641366180e+00 5.058943220186030487e+00 5.059119058106509748e+00 5.058329723453526938e+00 5.059049174403904559e+00 5.057677544464876718e+00 5.058528676249973266e+00 5.057793600801095302e+00 5.058380134040752374e+00 5.057172879880356575e+00 5.056914527342613930e+00 5.056546362720004240e+00 5.057911827946280248e+00 5.057689421212402614e+00 5.058065035071661164e+00 5.059516876151462839e+00 5.058244769125519014e+00 5.058974493560305596e+00 5.058276411942393302e+00 5.058509736709918769e+00 5.056691382088161824e+00 5.057167698022525748e+00 5.057102275270278113e+00 5.060002089888702592e+00 5.059668428482368085e+00 5.057390544176931790e+00 5.058329360443106992e+00 5.059398709203303923e+00 5.057502224137638613e+00 5.060022855167497724e+00 5.058249123061617780e+00 5.058268345384213660e+00 5.057323122622365830e+00 5.059448820010207015e+00 5.059085452093816215e+00 5.058505699839149550e+00 5.060479068037825989e+00 5.058488023844944337e+00 5.058171304378056732e+00 5.058754802729618305e+00 5.058421415849873704e+00 5.056913509605480250e+00 5.061613414353123730e+00 5.060108797185618457e+00 5.059504984372974690e+00 5.058546356512279019e+00 5.059117091105330921e+00 5.060991258929098180e+00 5.057367957580448881e+00 5.058291224411403775e+00 5.059728235863040879e+00 5.057831184472884267e+00 5.058756672820003963e+00 5.056342317505936990e+00 5.057509945700425114e+00 5.056501981292111481e+00 5.058109690953549453e+00 5.058706663443784279e+00 5.057305655854469784e+00 5.060263060187166317e+00 5.056336792340578867e+00 5.059108421094095753e+00 5.059457565223195452e+00 5.059894002253630951e+00 5.056620333407920498e+00 5.058232952404097205e+00 5.057706956649616892e+00 5.058908499800051750e+00 5.056918384797904231e+00 5.059041769658316312e+00 5.056883646962582191e+00 5.058513754433037413e+00 5.060686971392581945e+00 5.058514809326634776e+00 5.058518795468631701e+00 5.057876815681073168e+00 5.059381470813425707e+00 5.055823177095475351e+00 5.055623103416707842e+00 5.057878198978009721e+00 5.060065388669205078e+00 5.058274462737351485e+00 5.057364568677248151e+00 5.058477133041439089e+00 5.057822819151359894e+00 5.058085587650600345e+00 5.058515195230635975e+00 5.058838457242514686e+00 5.058852339282983834e+00 5.055610631925815390e+00 5.060423252317107767e+00 5.059746132675831731e+00 5.057941021468381315e+00 5.059026385597774400e+00 5.056989314327153373e+00 5.058125961242040169e+00 5.057606142212811129e+00 5.057850680339734950e+00 5.058823328867095626e+00 5.058314168759592278e+00 5.059390268158264092e+00 5.059527386377020264e+00 5.059781342399191750e+00 5.058306040074231014e+00 5.057155456390288073e+00 5.058724486895955330e+00 5.058630589794621990e+00 5.058788732214210881e+00 5.057041259533089139e+00 5.058276636878103361e+00 5.057594861993111479e+00 5.059276062047071143e+00 5.059303138093481422e+00 5.057670081508419457e+00 5.057011216545982180e+00 5.058110994889112533e+00 5.057751066522694572e+00 5.059568346919419035e+00 5.058473082691196332e+00 5.058552855931297110e+00 5.059234882824821256e+00 5.058777813292572922e+00 5.058825378843933684e+00 5.058041283722280568e+00 5.056389385988165230e+00 5.056829136671408875e+00 5.058024407331100925e+00 5.057528533886108235e+00 5.056939304299373994e+00 5.058850096106875860e+00 5.059110041363825694e+00 5.060181446335154654e+00 5.059051822766277517e+00 5.059868695943358752e+00 5.057456371595437261e+00 5.057819194903856896e+00 5.059834002888833560e+00 5.059902086746693506e+00 5.057617819822910477e+00 5.057950492994162772e+00 5.057014959852101477e+00 5.058210683768370686e+00 5.056026982933344627e+00 5.056434914515616441e+00 5.058669611020288670e+00 5.057432159050577525e+00 5.059723447210841663e+00 5.058691090912726729e+00 5.060322562151320369e+00 5.057536959654282960e+00 5.058512617683409651e+00 5.059230220771299358e+00 5.060607549265265348e+00 5.058581360129379867e+00 5.057572126411666424e+00 5.058541153046615335e+00 5.058005707232112513e+00 5.057494935903043221e+00 5.059053068258485553e+00 5.060044450057892718e+00 5.059085163996372536e+00 5.059205749628578275e+00 5.060386594511633085e+00 5.057020452993059578e+00 5.056279554165957535e+00 5.059160724692330469e+00 5.056817149349151386e+00 5.058522992350342307e+00 5.058157050697894341e+00 5.059235977195225331e+00 5.057190087516176824e+00 5.058303343350252668e+00 5.058884413941611591e+00 5.059206015220842012e+00 5.058430146908847291e+00 5.057894237821322747e+00 5.058507399960946671e+00 5.058120089769305494e+00 5.058950261487826339e+00 5.056651006455290087e+00 5.059329186017409441e+00 5.057450709137535583e+00 5.057928642994350632e+00 5.058592233037755292e+00 5.058193905582077932e+00 5.058344886040587518e+00 5.059468991396835591e+00 5.059145196524446497e+00 5.058242626100418526e+00 5.057455075508803688e+00 5.057638045270467231e+00 5.058284567030579382e+00 5.059787211099049387e+00 5.058311335710798495e+00 5.060346541922709385e+00 5.059420376349397230e+00 5.060457879208878573e+00 5.060075370581049725e+00 5.059013950533410409e+00 5.058410721340129257e+00 5.059155919073143437e+00
6.000000000000000000e+00 2.986229540519501954e-03 2.621940356829160579e-05 2.999501671810699422e-03 2.985615462105624222e-03 2.985355581275720132e-03 2.987405156893004066e-03 2.985805684156378481e-03 2.988056198559670661e-03 2.985398448216735213e-03 2.989141268004115275e-03 2.984356245713306113e-03 2.987335498113854668e-03 2.986992562585734021e-03 2.987003279320987574e-03 2.987549832818930072e-03 2.986847886659808014e-03 2.989669067215363404e-03 2.985588670267489905e-03 2.985612782921810617e-03 2.987153313614540357e-03 2.984345528978052126e-03 2.985891418038408643e-03 2.985034079218107025e-03 2.984696502057613155e-03 2.985985189471879186e-03 2.985275205761316747e-03 2.986370991941014914e-03 2.987949031207132958e-03 2.986695173182441626e-03 2.986783586248285393e-03 2.986285258058984753e-03 2.988141932441700822e-03 2.984656314300411679e-03 2.982850544410151072e-03 2.982638888888888840e-03 2.986593364197530701e-03 2.985610103737997446e-03 2.983121141975308716e-03 2.985425240054869530e-03 2.984819744513031621e-03 2.984675068587105615e-03 2.986387067043895678e-03 2.984621484910836547e-03 2.984042781207132955e-03 2.987683792009602091e-03 2.988624185528120699e-03 2.987841863854595256e-03 2.983957047325102793e-03 2.985869984567901102e-03 2.984147269375857486e-03 2.987413194444444448e-03 2.987193501371742266e-03 2.985725308641975096e-03 2.985176075960219427e-03 2.986036093964334649e-03 2.984908157578875388e-03 2.984867969821673479e-03 2.984069573045267706e-03 2.984010631001371861e-03 2.987064900548697024e-03 2.987284593621399205e-03 2.985269847393689970e-03 2.985468106995884611e-03 2.986231674382716118e-03 2.985334147805212592e-03 2.986376350308642125e-03 2.986606760116598293e-03 2.985015324931413090e-03 2.980594671639231683e-03 2.986054848251029018e-03 2.986097715192044099e-03 2.985805684156378481e-03 2.986759473593964247e-03 2.985417202503429148e-03 2.985484182098765375e-03 2.984605409807956217e-03 2.987887409979423942e-03 2.987030071159121891e-03 2.987785600994513017e-03 2.984007951817558256e-03 2.985050154320987789e-03 2.984624164094650152e-03 2.984192815500685738e-03 2.982609417866940917e-03 2.986692493998628455e-03 2.988034765089163120e-03 2.986269182956104423e-03 2.987865976508916402e-03 2.989146626371742051e-03 2.987129200960219645e-03 2.987268518518518441e-03 2.985221622085048113e-03 2.983622149348422528e-03 2.986038773148148254e-03 2.985722629458161925e-03 2.986630872770919005e-03 2.989071609224965877e-03 2.985149284122085109e-03 2.988115140603566505e-03 2.987707904663923237e-03 2.987616812414266299e-03 2.989149305555555657e-03 2.987169388717421121e-03 2.986914866255144241e-03 2.984827782064472003e-03 2.987024712791495114e-03 2.986086998456790112e-03 2.984983174725651563e-03 2.986397783779149665e-03 2.985628858024691381e-03 2.987756129972565095e-03 2.987367648319615761e-03 2.987217614026062978e-03 2.986354916838134584e-03 2.986654985425240150e-03 2.985435956790123517e-03 2.983654299554183622e-03 2.987654320987654169e-03 2.988117819787380110e-03 2.986210240912208578e-03 2.986847886659808014e-03 2.984415187757201524e-03 2.985090342078189265e-03 2.984675068587105615e-03 2.986253107853223659e-03 2.987916881001371865e-03 2.988594714506172777e-03 2.989599408436214006e-03 2.988249099794238525e-03 2.987198859739369043e-03 2.986392425411522455e-03 2.983364947702332043e-03 2.986596043381344306e-03 2.985339506172839368e-03 2.982963070130315551e-03 2.985685120884773620e-03 2.988720636145404848e-03 2.985853909465020772e-03 2.985778892318244164e-03 2.987024712791495114e-03 2.985773533950617387e-03 2.984249078360767977e-03 2.987113125857338881e-03 2.987265839334705270e-03 2.988115140603566505e-03 2.987879372427983560e-03 2.985176075960219427e-03 2.986909507887517030e-03 2.984241040809328029e-03 2.985575274348422313e-03 2.983957047325102793e-03 2.987715942215363619e-03 2.986545138888888843e-03 2.983769504458161706e-03 2.986813057270233315e-03 2.986014660493827109e-03 2.986713927469135995e-03 2.986764831961591024e-03 2.988934970850480252e-03 2.985468106995884611e-03 2.986014660493827109e-03 2.983126500342935493e-03 2.984977816358024786e-03 2.986178090706447050e-03 2.984988533093278339e-03 2.985827117626886022e-03 2.985018004115226262e-03 2.984471450617283764e-03 2.987871334876543179e-03 2.984892082475994624e-03 2.984669710219478838e-03 2.988372342249656990e-03 2.985797646604938099e-03 2.987083654835390959e-03 2.986598722565157911e-03 2.986454046639231905e-03 2.985730667009602306e-03 2.985398448216735213e-03 2.985580632716049523e-03 2.987563228737997231e-03 2.987935635288065800e-03 2.987174747085047898e-03 2.988801011659807799e-03 2.987402477709190460e-03 2.986901470336076649e-03 2.986941658093278558e-03 2.988503622256515838e-03 2.986523705418381303e-03 2.986957733196159322e-03 2.986314729080932675e-03 2.985492219650205756e-03 2.985722629458161925e-03 2.986673739711934086e-03 2.987820430384087716e-03 2.986253107853223659e-03 2.986113790294924429e-03 2.987072938100136972e-03 2.985516332304526902e-03 2.983863275891632250e-03 2.986636231138545781e-03 2.988267854080932893e-03 2.987630208333333457e-03 2.986392425411522455e-03 2.985237697187928876e-03 2.986127186213991588e-03 2.985612782921810617e-03 2.984026706104252191e-03 2.988061556927297871e-03 2.988291966735253605e-03 2.987573945473251218e-03 2.985481502914952203e-03 2.985028720850480249e-03 2.985184113511659808e-03 2.987080975651577354e-03 2.989320773319615980e-03 2.988715277777777637e-03 2.985955718449931264e-03 2.981982488854595468e-03 2.985127850651577569e-03 2.984905478395061783e-03 2.986440650720164746e-03 2.985125171467763964e-03 2.984851894718792715e-03 2.986129865397805193e-03 2.986194165809327814e-03 2.987745413237311541e-03 2.985484182098765375e-03 2.985730667009602306e-03
