# vvf statistics with RF=500
# gcat file: /disk2/salam/Abacus/AbacusCosmos_720box_products/GCAT_derivative/AbacusCosmos_720box_26_rockstar_halos_z0.100_Mr21_hod-default_real-2.gcat.rsd_zz.1pz0.100by100
# stats order in row: stdvvf,p2.5,p16,p50,p84,p97.5,rho
# columns: numbers, mean, sigma,All, jnrealizations
0.000000000000000000e+00 1.402411445780396893e+00 4.992208747384024176e-03 1.402411690298741131e+00 1.402884346527857984e+00 1.402056738111153722e+00 1.402335901051845912e+00 1.402542426346425231e+00 1.402615795223217665e+00 1.402481577258438916e+00 1.402562439154698026e+00 1.401632927736523593e+00 1.401071265847550151e+00 1.402381748614014878e+00 1.402842733067858561e+00 1.402601026101338411e+00 1.402486096427917772e+00 1.402376977265478386e+00 1.402756863195194992e+00 1.402609218452839590e+00 1.402331619856905132e+00 1.402488995139441919e+00 1.402766732014318896e+00 1.402707430791410470e+00 1.402576281410238268e+00 1.403075869005421916e+00 1.402320507656353188e+00 1.402467250084081130e+00 1.402375652836265640e+00 1.402834209528722509e+00 1.402893237836629003e+00 1.402260981162270603e+00 1.402913767119143840e+00 1.402064581316834868e+00 1.402286485740038557e+00 1.401965635112126574e+00 1.402402594375981026e+00 1.402668995115782913e+00 1.401950957234771478e+00 1.401934188283415539e+00 1.402467943751176227e+00 1.402481237817200910e+00 1.402336145655600497e+00 1.402756457084440189e+00 1.402306200545212933e+00 1.402477257412016343e+00 1.402778778354229150e+00 1.402203881624290549e+00 1.401774218974413788e+00 1.402596660650821114e+00 1.402115158941704465e+00 1.402943023007822809e+00 1.402608756213648444e+00 1.402279525118639292e+00 1.401518927428186512e+00 1.402617899455375960e+00 1.402150806958367468e+00 1.402536167056558147e+00 1.401985226936558249e+00 1.401994045087469276e+00 1.402318587776081760e+00 1.402566317965749931e+00 1.402650902077590356e+00 1.401757690710518700e+00 1.402448700407816107e+00 1.402599609842075434e+00 1.402950435012746855e+00 1.402609587008302405e+00 1.402461075753279607e+00 1.401676063547829365e+00 1.403099013072745871e+00 1.402842267095956608e+00 1.402796460066926931e+00 1.402153366401160728e+00 1.402366396157169515e+00 1.402875211480014261e+00 1.402065102616402825e+00 1.402356625607585006e+00 1.402305201303869264e+00 1.402514758562728669e+00 1.402355943813412331e+00 1.402037604091294964e+00 1.402415941761828044e+00 1.402032525861085066e+00 1.402056661976320173e+00 1.402365118884618900e+00 1.401572416521738695e+00 1.402616244175119098e+00 1.402054997538792147e+00 1.402722760741311081e+00 1.402537458102891321e+00 1.402558904721566968e+00 1.402054139658179155e+00 1.402109942373005014e+00 1.402651965204828821e+00 1.402432109193589627e+00 1.402730373183091128e+00 1.402742245149295242e+00 1.402098573310334384e+00 1.402236942743310122e+00 1.402774751305986056e+00 1.402514727078224999e+00 1.402502598863262229e+00 1.402300602636920912e+00 1.402414612389306425e+00 1.401969509972987638e+00 1.402223147734436459e+00 1.402100965857861814e+00 1.402550203944576079e+00 1.402553543400617553e+00 1.402434857848577687e+00 1.402257063034313189e+00 1.402065569477643603e+00 1.402457678813069819e+00 1.402755726787738633e+00 1.402574562766401689e+00 1.402717498530104523e+00 1.401992959127388083e+00 1.402763676747248889e+00 1.402736359383515374e+00 1.402633795429421903e+00 1.402465053707495191e+00 1.401739732618721979e+00 1.402572520834229675e+00 1.402421626963039403e+00 1.402241398455668309e+00 1.402399892931293302e+00 1.402106438840584390e+00 1.402232053237524090e+00 1.402673972042335349e+00 1.402932988475167120e+00 1.402689145152989481e+00 1.402389463093677957e+00 1.402362119898752590e+00 1.402450030049703811e+00 1.402010358107627086e+00 1.402578022636046695e+00 1.402604453433979437e+00 1.402338446866874699e+00 1.402495553544862217e+00 1.402652327688883149e+00 1.402078838179952935e+00 1.401511298431111996e+00 1.401781636738629322e+00 1.402374863635083235e+00 1.402846278360952770e+00 1.402511038645649410e+00 1.402429181098474142e+00 1.402684516347277199e+00 1.402303469176847006e+00 1.402330864030987279e+00 1.402517031640796441e+00 1.402134671739547311e+00 1.402195648605426115e+00 1.402151987394862909e+00 1.402185505431553292e+00 1.401674286557496485e+00 1.402724812539766663e+00 1.402382536420213377e+00 1.402883977504320923e+00 1.402729141737855345e+00 1.402878637067965117e+00 1.401807773714079941e+00 1.402397315767460517e+00 1.402821243353345793e+00 1.402636319767851969e+00 1.402656999846219055e+00 1.402425056471831910e+00 1.402191535951347712e+00 1.401736451747060741e+00 1.402067071001034559e+00 1.402386312521837652e+00 1.402415126951921831e+00 1.402325347926929089e+00 1.402730110681561948e+00 1.402160624755250273e+00 1.402892438568014599e+00 1.402373702873251249e+00 1.402151835162303684e+00 1.402693416237815072e+00 1.402804741131928212e+00 1.402286398458346017e+00 1.402339377766713691e+00 1.402797443625404705e+00 1.402736558784413390e+00 1.402525282575209253e+00 1.402518599447075687e+00 1.402896466771650807e+00 1.402838975429348878e+00 1.402930315375096271e+00 1.402741207882568064e+00 1.402385949939859433e+00 1.401608278330564117e+00 1.402706599042915947e+00 1.402186975661985802e+00 1.402639601213187426e+00 1.402739459501394670e+00 1.402094228840060852e+00 1.401879217457022930e+00 1.402250291127534521e+00 1.402878091081887213e+00 1.402419567006188306e+00 1.402693349711770621e+00 1.402359552651976093e+00 1.402739808805849364e+00 1.402580721202734804e+00 1.402480281179369737e+00 1.402265236156190031e+00 1.402478754821504747e+00 1.402507344470989015e+00 1.402167584835515957e+00 1.402348739184694049e+00 1.402250936851097363e+00 1.402070583352117428e+00 1.402603861655939532e+00 1.402203450986617694e+00 1.402420853009790802e+00 1.402019528795132475e+00 1.402060173091131512e+00 1.402291826717084300e+00 1.402654360517561205e+00 1.402462774852931027e+00 1.402784892578604170e+00 1.402413893955644530e+00 1.403200687601178442e+00 1.402780427960433007e+00 1.402289036592456073e+00 1.401897220251238085e+00 1.402268021989656610e+00
1.000000000000000000e+00 2.399999985130577343e-02 1.779411761501981971e-04 2.400000000000000050e-02 2.399477440877488890e-02 2.399265060959074325e-02 2.400911319019233964e-02 2.399823464378413040e-02 2.401720701120724916e-02 2.399601805214602451e-02 2.402244819971463899e-02 2.398742796906032024e-02 2.400702050234750085e-02 2.400496458763698437e-02 2.400466354310875142e-02 2.400805866842078626e-02 2.400586801834189016e-02 2.402832834898939104e-02 2.399967124686047670e-02 2.399298032757954391e-02 2.400568384473950045e-02 2.398569847612543049e-02 2.399527844450630165e-02 2.399146947596427978e-02 2.399140411806145734e-02 2.399981145189104478e-02 2.399131084339554618e-02 2.400170064578397572e-02 2.401533823926132322e-02 2.400627460913260652e-02 2.400754508391545958e-02 2.399676043936910946e-02 2.401419882616966442e-02 2.398937701157979885e-02 2.397435684082474885e-02 2.397326480116251587e-02 2.400282029296471609e-02 2.399679705113038838e-02 2.397605580316322996e-02 2.399392787069503166e-02 2.398856218550527927e-02 2.398780765261572176e-02 2.400258121622521335e-02 2.398865019749847616e-02 2.398260142114086099e-02 2.401333778133932229e-02 2.401966374367068419e-02 2.401134323633312764e-02 2.398779670732965885e-02 2.399771523737429316e-02 2.398291702758255720e-02 2.401171779521877117e-02 2.400976456381346061e-02 2.399448724691980242e-02 2.399191220309985009e-02 2.399909532196121270e-02 2.399049418616201051e-02 2.398992786919673659e-02 2.398273302209779842e-02 2.398223739663531834e-02 2.400818213675936022e-02 2.400658206501829484e-02 2.399259364305993472e-02 2.399403255564598256e-02 2.399791219781886170e-02 2.399386325431727279e-02 2.400202923717799364e-02 2.400496912929440257e-02 2.398876582789893214e-02 2.395494323976711873e-02 2.399893687845061629e-02 2.399640557702589078e-02 2.400009960151578553e-02 2.400399846299299325e-02 2.399555676995103470e-02 2.399152188972943772e-02 2.398132675989160176e-02 2.401104820852314331e-02 2.400883303941110311e-02 2.401204567691367364e-02 2.398261309354947010e-02 2.399123830335066557e-02 2.399068826594211862e-02 2.398349531370822657e-02 2.397353868471571378e-02 2.400171832709787484e-02 2.401179192212704594e-02 2.399819690869262057e-02 2.401363843898949788e-02 2.402458778542888168e-02 2.400774063136405789e-02 2.400968544780289829e-02 2.399472350469709220e-02 2.397941389174047117e-02 2.399911302116605749e-02 2.399263599849799783e-02 2.400824342896357155e-02 2.402353121170345066e-02 2.399662404055937295e-02 2.401321382304887758e-02 2.401471188352048702e-02 2.401272888552155940e-02 2.402128463789000509e-02 2.400982241920606927e-02 2.400582676379178076e-02 2.398650744041216226e-02 2.400663763791778885e-02 2.400289343305171338e-02 2.399096690716205627e-02 2.400332428688054659e-02 2.399578026835892317e-02 2.401110375977270200e-02 2.400793243797731680e-02 2.401108147951979549e-02 2.400403597631870986e-02 2.400534589091907894e-02 2.399670688740401792e-02 2.398204327856033602e-02 2.400873425357744756e-02 2.401873141486353044e-02 2.399887989843839733e-02 2.400698283253366663e-02 2.398621083418672750e-02 2.399270937805893927e-02 2.398807857838630361e-02 2.400048270332379163e-02 2.401460254383789433e-02 2.401999245368463196e-02 2.402742767404351248e-02 2.401541512111397825e-02 2.400683262633844864e-02 2.400303037011519008e-02 2.397686483057525145e-02 2.400469862491342449e-02 2.399508580299147820e-02 2.397311478701370790e-02 2.399858828464658880e-02 2.402276590777688986e-02 2.399475833216131032e-02 2.399494391136828414e-02 2.400494629155413076e-02 2.399596780380781544e-02 2.398786801322302237e-02 2.401118147960112220e-02 2.401116925441943925e-02 2.401403468222181037e-02 2.401439937566337071e-02 2.399275411461393795e-02 2.400351795423207035e-02 2.398798550706087232e-02 2.399320729898376733e-02 2.397915130526779431e-02 2.401148818425593093e-02 2.400440977923451805e-02 2.398235845811171399e-02 2.400779645427811651e-02 2.399789960904472746e-02 2.400349951353983324e-02 2.400793568477542148e-02 2.402041891055658671e-02 2.399904893060131675e-02 2.399630504830624692e-02 2.397920428188404438e-02 2.398925075657737382e-02 2.399881371264376076e-02 2.398793193931341577e-02 2.399782305937837174e-02 2.399222438392961676e-02 2.398679700598352685e-02 2.401213597804387548e-02 2.399331164891155971e-02 2.399192377595743900e-02 2.401259025683355128e-02 2.399439288276179749e-02 2.400648121679164332e-02 2.400012078828097847e-02 2.400165372296446734e-02 2.399691891364343771e-02 2.399138124263162572e-02 2.399599932249797674e-02 2.401192757142022599e-02 2.400936534596893532e-02 2.400579681753152103e-02 2.401999695409137020e-02 2.400780376102627095e-02 2.400806791971551307e-02 2.400704347299512098e-02 2.401616867179466597e-02 2.400469056047178223e-02 2.400518026717714595e-02 2.400556289088918646e-02 2.399362997679837031e-02 2.399145936879451199e-02 2.400455627953445442e-02 2.401306842226516233e-02 2.400259865923883018e-02 2.399866608460047082e-02 2.400604665249859299e-02 2.399826699520816661e-02 2.398203900508189337e-02 2.400250817493168251e-02 2.401574229968825996e-02 2.401378207343081439e-02 2.399948500946003788e-02 2.399398643380061535e-02 2.400162704209085618e-02 2.399295190914768269e-02 2.398499690756760935e-02 2.401293017516021450e-02 2.401559921966675212e-02 2.400804884936814237e-02 2.399276465159692201e-02 2.398950727085921372e-02 2.399191197095727410e-02 2.400764173905206231e-02 2.402290486288108026e-02 2.402106098489924929e-02 2.399632100428707171e-02 2.396714993505556779e-02 2.399240503051584122e-02 2.398659093642262555e-02 2.400443475049028608e-02 2.399598888722537932e-02 2.398778828756385414e-02 2.400018022245349950e-02 2.399997107606270316e-02 2.401194933117112990e-02 2.399524753310639663e-02 2.399466246495169514e-02
2.000000000000000000e+00 1.119999993060936117e-01 8.303921553676084279e-04 1.119999999999999885e-01 1.119756139076161505e-01 1.119657028447567926e-01 1.120425282208975803e-01 1.119917616709926178e-01 1.120802993856338386e-01 1.119814175766814524e-01 1.121047582653350028e-01 1.119413305222815014e-01 1.120327623442883419e-01 1.120231680756392650e-01 1.120217632011741710e-01 1.120376071192970002e-01 1.120273840855954828e-01 1.121321989619504939e-01 1.119984658186822246e-01 1.119672415287045336e-01 1.120265246087843447e-01 1.119332595552520182e-01 1.119779660743627364e-01 1.119601908878333080e-01 1.119598858842868055e-01 1.119991201088248872e-01 1.119594506025125419e-01 1.120079363469918821e-01 1.120715784498861611e-01 1.120292815092854971e-01 1.120352103916054665e-01 1.119848820503891867e-01 1.120662611887917604e-01 1.119504260540390567e-01 1.118803319238488303e-01 1.118752357387584051e-01 1.120131613671686566e-01 1.119850529052751342e-01 1.118882604147617421e-01 1.119716633965768260e-01 1.119466235323579584e-01 1.119431023788733659e-01 1.120120456757176530e-01 1.119470342549928887e-01 1.119188066319906916e-01 1.120622429795835179e-01 1.120917641371298595e-01 1.120529351028879406e-01 1.119430513008717321e-01 1.119893377744133750e-01 1.119202794620519359e-01 1.120546830443542724e-01 1.120455679644628277e-01 1.119742738189590803e-01 1.119622569477993074e-01 1.119957781691523213e-01 1.119556395354227157e-01 1.119529967229180994e-01 1.119194207697897236e-01 1.119171078509648282e-01 1.120381833048770120e-01 1.120307163034187092e-01 1.119654370009463551e-01 1.119721519263479070e-01 1.119902569231546879e-01 1.119713618534806110e-01 1.120094697734972944e-01 1.120231892700405407e-01 1.119475738635283546e-01 1.117897351189132277e-01 1.119950387661028668e-01 1.119832260261208190e-01 1.120004648070736797e-01 1.120186594939673042e-01 1.119792649264381573e-01 1.119604354854040473e-01 1.119128582128274679e-01 1.120515583064413401e-01 1.120412208505851548e-01 1.120562131589304677e-01 1.119188611032308489e-01 1.119591120823031083e-01 1.119565452410632295e-01 1.119229781306383953e-01 1.118765138620066574e-01 1.120080188597900872e-01 1.120550289699262236e-01 1.119915855738988913e-01 1.120636460486176544e-01 1.121147429986681099e-01 1.120361229463655850e-01 1.120451987564135277e-01 1.119753763552530923e-01 1.119039314947888747e-01 1.119958607654416155e-01 1.119656346596573371e-01 1.120384693351633432e-01 1.121098123212827813e-01 1.119842455226104094e-01 1.120616645075614426e-01 1.120686554564289394e-01 1.120594014657672749e-01 1.120993283101533455e-01 1.120458379562949969e-01 1.120271915643616389e-01 1.119370347219234008e-01 1.120309756436163456e-01 1.120135026875746648e-01 1.119578455667562533e-01 1.120155133387758795e-01 1.119803079190083150e-01 1.120518175456059473e-01 1.120370180438941404e-01 1.120517135710923790e-01 1.120188345561539678e-01 1.120249474909557064e-01 1.119846321412187318e-01 1.119162019666149060e-01 1.120407598500280932e-01 1.120874132693631536e-01 1.119947728593791852e-01 1.120325865518237707e-01 1.119356505595380524e-01 1.119659770976083601e-01 1.119443666991360858e-01 1.120022526155110276e-01 1.120681452045768495e-01 1.120932981171949283e-01 1.121279958122030629e-01 1.120719372318652318e-01 1.120318855895794247e-01 1.120141417272042111e-01 1.118920358760178424e-01 1.120219269162626569e-01 1.119770670806269075e-01 1.118745356727306323e-01 1.119934119950174167e-01 1.121062409029588286e-01 1.119755388834194343e-01 1.119764049197186501e-01 1.120230826939192792e-01 1.119811830844364697e-01 1.119433840617074377e-01 1.120521802381385656e-01 1.120521231872907142e-01 1.120654951837017910e-01 1.120671970864290518e-01 1.119661858681983702e-01 1.120164171197496755e-01 1.119439323662840685e-01 1.119683007285909027e-01 1.119027060912497068e-01 1.120536115265276800e-01 1.120205789697610727e-01 1.119176728045213343e-01 1.120363834532978747e-01 1.119901981755420661e-01 1.120163310631858838e-01 1.120370331956186405e-01 1.120952882492640829e-01 1.119955616761394851e-01 1.119827568920958166e-01 1.119029533154588668e-01 1.119498368640277491e-01 1.119944639923375618e-01 1.119436823834626255e-01 1.119898409437657255e-01 1.119637137916715541e-01 1.119383860279231091e-01 1.120566345642047545e-01 1.119687876949205935e-01 1.119623109544680417e-01 1.120587545318899036e-01 1.119738334528883883e-01 1.120302456783609929e-01 1.120005636786445685e-01 1.120077173738341786e-01 1.119856215970027186e-01 1.119597791322809177e-01 1.119813301716572340e-01 1.120556619999610592e-01 1.120437049478550245e-01 1.120270518151470912e-01 1.120933191190930656e-01 1.120364175514559357e-01 1.120376502920057138e-01 1.120328695406438979e-01 1.120754538017084412e-01 1.120218892822016504e-01 1.120241745801600075e-01 1.120259601574828678e-01 1.119702732250590499e-01 1.119601437210410444e-01 1.120212626378274540e-01 1.120609859705707506e-01 1.120121270764478788e-01 1.119937750614688615e-01 1.120282177116601052e-01 1.119919126443047891e-01 1.119161820237155047e-01 1.120117048163478540e-01 1.120734640652118891e-01 1.120643163426771338e-01 1.119975967108135101e-01 1.119719366910695291e-01 1.120075928630906575e-01 1.119671089093558503e-01 1.119299855686488321e-01 1.120603408174143389e-01 1.120727963584448317e-01 1.120375612970513357e-01 1.119662350407856499e-01 1.119510339306763191e-01 1.119622558644672861e-01 1.120356614489096403e-01 1.121068893601117056e-01 1.120982845961965013e-01 1.119828313533396680e-01 1.118466996969259553e-01 1.119645568090739257e-01 1.119374243699722549e-01 1.120206955022880063e-01 1.119812814737184137e-01 1.119430120086313263e-01 1.120008410381163333e-01 1.119998650216259412e-01 1.120557635454652728e-01 1.119778218211631843e-01 1.119750915031079153e-01
3.000000000000000000e+00 4.958494236379638598e-01 6.845938334515923838e-03 4.959999999999999964e-01 4.958920044480143452e-01 4.958481125982086568e-01 4.961883392639749868e-01 4.959635159715387043e-01 4.943541776473492355e-01 4.959177064110178446e-01 4.944620587774596898e-01 4.957401780272466252e-01 4.961450903818483971e-01 4.961026014778310289e-01 4.960963798909142075e-01 4.961665458140295804e-01 4.961212723790657253e-01 4.945830918500316309e-01 4.959932057684498519e-01 4.958549267699772223e-01 4.961174661246163797e-01 4.957044351732589060e-01 4.959024211864635490e-01 4.958237025032617984e-01 4.958223517732701091e-01 4.959961033390816176e-01 4.958204240968412946e-01 4.960351466795354658e-01 4.963169902780673048e-01 4.961296752554071876e-01 4.961559317342528197e-01 4.959330490802949520e-01 4.942922591719922654e-01 4.957804582393158244e-01 4.954700413770448120e-01 4.954474725573586591e-01 4.960582860546041140e-01 4.959338057233613761e-01 4.955051532653734214e-01 4.958745093276973326e-01 4.957636185004424823e-01 4.957480248207249418e-01 4.960533451353211221e-01 4.957654374149685350e-01 4.956404293702444952e-01 4.962756474810127716e-01 4.944047453905549006e-01 4.962344268842179273e-01 4.957477986181462182e-01 4.959527815724020794e-01 4.956469519033728788e-01 4.962421677678546250e-01 4.962018009854782252e-01 4.958860697696759190e-01 4.958328521973969227e-01 4.959813033205317523e-01 4.958035465140149256e-01 4.957918426300658710e-01 4.956431491233544984e-01 4.956329061971299632e-01 4.961690974930267339e-01 4.961360293437114266e-01 4.958469352899053106e-01 4.958766728166836280e-01 4.959568520882564613e-01 4.958731739225569757e-01 4.960419375683451926e-01 4.961026953387509542e-01 4.957678271099112965e-01 4.950688269551871690e-01 4.959780288213126997e-01 4.959257152585350714e-01 4.960020584313262759e-01 4.960826349018552239e-01 4.959081732456546709e-01 4.958247857210750786e-01 4.956140863710930544e-01 4.962283296428116608e-01 4.961825494811627490e-01 4.962489439895492183e-01 4.956406706000223705e-01 4.958189249359137851e-01 4.958075574961371412e-01 4.956589031499700204e-01 4.954531328174580640e-01 4.960355120933561124e-01 4.962436997239589864e-01 4.959627361129808065e-01 4.962818610724495927e-01 4.945060985834111023e-01 4.961599730481904280e-01 4.962001659212598725e-01 4.958909524304065397e-01 4.955745537626364272e-01 4.959816691040985770e-01 4.958478106356253301e-01 4.961703641985805158e-01 4.944843507742294197e-01 4.959302301715603489e-01 4.962730856763434839e-01 4.963040455927567596e-01 4.962630636341122115e-01 4.944381087965692978e-01 4.962029966635921330e-01 4.961204197850300757e-01 4.957211537685179970e-01 4.961371778503009256e-01 4.960597976164020650e-01 4.958133160813491536e-01 4.960687019288645971e-01 4.959127922127510857e-01 4.962294777019691239e-01 4.961639370515312231e-01 4.962290172434090652e-01 4.960834101772533256e-01 4.961104817456609695e-01 4.959319423396829074e-01 4.956288944235802685e-01 4.961805079072672542e-01 4.943855549559410534e-01 4.959768512343935565e-01 4.961443118723624091e-01 4.957150239065256647e-01 4.958493271465513330e-01 4.957536239533169575e-01 4.960099758686916660e-01 4.963017859059831727e-01 4.964131773761490396e-01 4.945645529573956534e-01 4.963185791696888560e-01 4.961412076109946168e-01 4.960626276490472386e-01 4.955218731652218933e-01 4.960971049148774625e-01 4.958984399284905864e-01 4.954443722649499171e-01 4.959708245493628098e-01 4.944685982684076664e-01 4.958916721980003439e-01 4.958955075016112102e-01 4.961022233587853436e-01 4.959166679453615445e-01 4.957492722732757540e-01 4.962310839117565209e-01 4.962308312580017144e-01 4.942888805423989451e-01 4.962975870970429693e-01 4.958502517020213496e-01 4.960727043874628150e-01 4.957517004792580395e-01 4.958596175123311522e-01 4.955691269755344019e-01 4.962374224746225471e-01 4.960911354375133198e-01 4.956354081343087303e-01 4.961611267217477250e-01 4.959565919202577056e-01 4.960723232798232019e-01 4.961640041520253841e-01 4.944202892422897566e-01 4.959803445657605669e-01 4.959236376649957534e-01 4.955702218256035629e-01 4.957778489692657442e-01 4.959754833946377617e-01 4.957505934124773472e-01 4.959550098938196872e-01 4.958393039345454500e-01 4.957271381236595387e-01 4.962508102129067900e-01 4.958617740775054794e-01 4.958330913697870379e-01 4.962601986412267241e-01 4.958841195770771759e-01 4.961339451470272999e-01 4.960024962911402380e-01 4.960341769412656143e-01 4.959363242152977080e-01 4.958218790143869570e-01 4.959173193316249173e-01 4.962465031426847029e-01 4.961935504833580035e-01 4.961198008956514416e-01 4.944116039717140199e-01 4.961612777278762709e-01 4.961667370074538952e-01 4.961455651085658891e-01 4.943328051611068363e-01 4.960969382497502078e-01 4.961070588549943428e-01 4.961149664117098235e-01 4.958683528538329610e-01 4.958234936217532085e-01 4.960941631103787386e-01 4.962700807268133341e-01 4.960537056242692033e-01 4.959724324150763808e-01 4.961249641516375930e-01 4.959641845676354688e-01 4.956288061050257987e-01 4.960518356152547326e-01 4.963253408602240624e-01 4.962848295175701363e-01 4.959893568621741022e-01 4.958757196318793747e-01 4.960336255365443425e-01 4.958543394557187733e-01 4.956899360897306095e-01 4.962672236199777709e-01 4.963223838731128379e-01 4.961663428869416137e-01 4.958504694663363743e-01 4.957831502644237665e-01 4.958328473997836716e-01 4.961579292737426372e-01 4.944714584276355684e-01 4.944335052725095103e-01 4.959239674219327876e-01 4.953210986578150399e-01 4.958430372973274269e-01 4.957228793527342359e-01 4.960916515101326252e-01 4.959171036693243995e-01 4.957476246096529926e-01 4.960037245973722975e-01 4.959994022386292056e-01 4.962469528442033373e-01 4.959017823508655165e-01 4.958896909423350374e-01
4.000000000000000000e+00 1.825052614154038855e+00 8.726309183085962859e-03 1.826000000000000068e+00 1.825602419600956150e+00 1.825440833879695690e+00 1.824692602454617729e+00 1.825865685814575867e+00 1.825307732851751075e+00 1.825697040134109717e+00 1.825706063178312633e+00 1.825043477979339412e+00 1.824533558178410120e+00 1.824377308660410701e+00 1.824354429276265233e+00 1.824612458799979908e+00 1.824445969393983624e+00 1.824150593827444711e+00 1.825974987365301283e+00 1.825465919923343616e+00 1.824431972200201812e+00 1.824911892391876567e+00 1.825640768319521046e+00 1.825350969296282155e+00 1.825345996649175628e+00 1.825985654631376853e+00 1.825338900001677978e+00 1.824129249079582404e+00 1.825165706183860426e+00 1.824476870294077901e+00 1.824573426377574581e+00 1.825753523428666591e+00 1.825079110788894399e+00 1.825191767631029638e+00 1.824048982972749755e+00 1.825963669021878344e+00 1.826214577289732022e+00 1.825756308973503828e+00 1.826176250340932672e+00 1.825538012162047030e+00 1.825129772947193363e+00 1.825072365569846422e+00 1.824196172433116381e+00 1.825136469193008981e+00 1.824676258125133899e+00 1.825013671381788827e+00 1.825494444518971804e+00 1.824862085961317604e+00 1.825071532815998099e+00 1.825826167643560982e+00 1.824700270515239753e+00 1.824890552436626567e+00 1.824742106849823076e+00 1.825580571369814997e+00 1.825384653452513550e+00 1.825931169079215710e+00 1.825276765997159600e+00 1.825233678714718311e+00 1.824686270764607432e+00 1.824648561927337154e+00 1.824621842393711280e+00 1.824500236941390297e+00 1.825436499676143187e+00 1.825545976942064996e+00 1.825841153050718368e+00 1.825533095932639238e+00 1.824154222025527350e+00 1.824377653826374512e+00 1.825145266739310435e+00 1.824568176762262350e+00 1.825919114168784274e+00 1.825726524318719957e+00 1.824007569715199839e+00 1.824303883187467612e+00 1.825661944247107815e+00 1.825354957110248089e+00 1.824579277648419318e+00 1.824839663847758864e+00 1.824671310995243712e+00 1.824915471445439197e+00 1.824677146200888833e+00 1.825333380913263248e+00 1.825291532233762837e+00 1.824744268451300666e+00 1.823986734928787046e+00 1.824130592859438682e+00 1.824896186081655491e+00 1.825862814803030254e+00 1.825036521363201825e+00 1.825868671692594702e+00 1.824588287983667900e+00 1.824736094033020173e+00 1.825598546649036980e+00 1.824433740263254222e+00 1.823932589608620480e+00 1.825439722219056371e+00 1.824626500601231438e+00 1.825788372089462097e+00 1.825743145752559027e+00 1.825004250551714780e+00 1.825118103147557180e+00 1.824967395299638362e+00 1.825617632479640484e+00 1.824746503859661306e+00 1.824442834048175310e+00 1.824973441091358506e+00 1.824504460481751966e+00 1.824219900911930203e+00 1.825312732186579634e+00 1.824252645802921347e+00 1.825678948750974806e+00 1.824843885742725158e+00 1.824602865286276021e+00 1.824842192443504318e+00 1.824306734200221936e+00 1.824406287709849916e+00 1.825749449016655257e+00 1.824633792777132335e+00 1.824663803271886042e+00 1.825423587529628522e+00 1.823914872281318100e+00 1.824530695272558622e+00 1.824950874301040082e+00 1.825445305180650735e+00 1.825092978505557850e+00 1.826036725677885109e+00 1.825109793331679997e+00 1.825519426480032070e+00 1.824082217587803312e+00 1.825171549204662291e+00 1.824519279601721999e+00 1.824230308128754086e+00 1.824239799192933775e+00 1.824357095493420289e+00 1.825626111510935123e+00 1.825952242944210546e+00 1.825892591990194713e+00 1.825730208991043657e+00 1.825601196438606078e+00 1.825615315923270199e+00 1.824375918158113841e+00 1.825693217073044661e+00 1.825076958006051520e+00 1.824849792449685371e+00 1.824848863335877258e+00 1.825066635848857644e+00 1.825094352550416188e+00 1.825448708886876936e+00 1.824267364521637624e+00 1.825085897328881490e+00 1.825483188664348333e+00 1.824413761809124512e+00 1.824873102003450764e+00 1.826335510703426035e+00 1.824657772687999557e+00 1.824592530525136702e+00 1.825840195254819776e+00 1.824265963029027215e+00 1.824603112042932018e+00 1.825551837202300742e+00 1.825927639469916874e+00 1.823719183671274724e+00 1.824417792446677566e+00 1.825182161729595132e+00 1.825909743303646193e+00 1.825081821716096009e+00 1.825834371101037634e+00 1.825408405210644958e+00 1.824995472205246605e+00 1.824922334331334550e+00 1.825491127954687487e+00 1.825385533954094974e+00 1.824956859519349939e+00 1.825573391830126457e+00 1.824492572476164920e+00 1.826009189975044356e+00 1.824125682945299420e+00 1.825765580679704847e+00 1.825344256210223115e+00 1.825695615120054738e+00 1.824906495427937259e+00 1.824711766293638959e+00 1.824440558132395473e+00 1.825519768510944107e+00 1.824593085837996620e+00 1.824613161898378966e+00 1.824535303947629528e+00 1.825228819056394558e+00 1.824356482595855589e+00 1.824393700305462884e+00 1.824422779707577824e+00 1.825515347401409194e+00 1.825350200309115767e+00 1.824346277244618619e+00 1.824993200092152268e+00 1.824197498102151149e+00 1.825898511270019231e+00 1.824459545589892873e+00 1.825868147218754789e+00 1.824633467636647577e+00 1.824190621294807801e+00 1.825196414776307563e+00 1.825047437580741949e+00 1.825960817803084391e+00 1.825542467838330074e+00 1.824123655198905070e+00 1.825463757754319349e+00 1.824858514717435654e+00 1.824982693312176441e+00 1.825185540694672870e+00 1.824611712551978959e+00 1.825449510575665846e+00 1.825201678191205268e+00 1.825384635790332721e+00 1.824580772167956777e+00 1.825740769578962031e+00 1.825600634852342807e+00 1.825720089742841168e+00 1.825497920053398726e+00 1.825422149405080408e+00 1.824979793746154932e+00 1.824337041037261908e+00 1.825694821169730586e+00 1.825070892212149909e+00 1.824013696906465976e+00 1.823997801780765426e+00 1.824908149169006233e+00 1.825638416477178394e+00 1.825593902541741365e+00
5.000000000000000000e+00 4.936239767726555705e+00 1.745419457735953792e-02 4.935999999999999943e+00 4.936924834605433077e+00 4.936487862923295111e+00 4.935873520017041827e+00 4.935636925071603009e+00 4.937537474720690156e+00 4.935181046058032095e+00 4.936613105041358196e+00 4.933414352303405970e+00 4.935443298274273971e+00 4.937021050190673499e+00 4.936959135366033813e+00 4.935656727916173381e+00 4.937206855772314995e+00 4.935819115021570447e+00 4.935932386437637653e+00 4.936555702399490819e+00 4.937168977401424463e+00 4.935057461462807105e+00 4.937028539957171169e+00 4.936244844679650079e+00 4.936231397291145129e+00 4.937961206226582966e+00 4.936212206028633531e+00 4.936349766149571217e+00 4.937153286354806880e+00 4.937290477944938694e+00 4.937551772258612637e+00 4.935333730363580251e+00 4.936919042013379944e+00 4.935814320132543287e+00 4.934721783069760725e+00 4.932499232839187897e+00 4.936580040253076618e+00 4.937340993270077583e+00 4.933073481500834134e+00 4.934751165406278339e+00 4.935646669667711706e+00 4.935491424525684678e+00 4.936530870136985882e+00 4.935664778135311792e+00 4.934420242399732537e+00 4.936742025547009582e+00 4.938042537969631773e+00 4.936331980336151837e+00 4.935489172533077173e+00 4.937529910089761387e+00 4.934485178425111584e+00 4.936408983400392358e+00 4.936007431577317917e+00 4.934866210449839308e+00 4.934336609770869408e+00 4.935813937883356317e+00 4.936044178802833748e+00 4.935927659087228747e+00 4.934447319296621615e+00 4.936343864140769533e+00 4.935682110948778067e+00 4.937353711372096221e+00 4.936476142059580852e+00 4.934772695611190585e+00 4.937570434701230582e+00 4.936737364575779274e+00 4.936417346446273946e+00 4.936921963553416504e+00 4.935688569090205924e+00 4.934718307392026659e+00 4.937781262741213872e+00 4.937260447473077463e+00 4.938020493011872958e+00 4.934822017350310119e+00 4.937085805417424922e+00 4.938254922302642846e+00 4.934157980847697189e+00 4.936271327535549425e+00 4.935815925685599126e+00 4.936476390412169124e+00 4.934422643997803171e+00 4.934198011055786814e+00 4.934084886695428551e+00 4.934604160795467820e+00 4.934553379270650630e+00 4.936353402606463270e+00 4.936424222657285199e+00 4.937629013963506175e+00 4.935353011759948672e+00 4.937052789905634675e+00 4.935591344797926716e+00 4.937991973764796150e+00 4.934914800799368173e+00 4.933764408225601805e+00 4.937817504104916821e+00 4.936484856690963596e+00 4.935844763125765589e+00 4.936835664005059243e+00 4.935305677675044578e+00 4.936716541788465307e+00 4.937024518053753752e+00 4.934615785974679980e+00 4.938375766806220035e+00 4.936019325681781034e+00 4.937198371086509496e+00 4.935223905864802418e+00 4.935364587728598096e+00 4.936595082730969253e+00 4.936141441148592435e+00 4.936683695001764960e+00 4.937131790214849048e+00 4.936282747946604488e+00 4.935630777040836747e+00 4.936278167497944125e+00 4.936830065796214306e+00 4.937099471565690401e+00 4.937322442083375229e+00 4.934305404563788855e+00 4.937796344819094685e+00 4.937850866705694841e+00 4.937769539103699756e+00 4.937436135891090316e+00 4.933164028231070475e+00 4.936499954535626067e+00 4.935547167502981836e+00 4.936099275983592882e+00 4.937002039637341078e+00 4.936108449232191830e+00 4.935634101376438210e+00 4.937169091982348768e+00 4.937405243483607542e+00 4.936623246120356967e+00 4.935238010960072863e+00 4.934965958971784694e+00 4.936988903965497499e+00 4.936463886559239178e+00 4.937709539566035311e+00 4.936678394048151119e+00 4.936921526842188435e+00 4.936959709764024318e+00 4.937017287296299628e+00 4.935170711649807807e+00 4.935503843720636219e+00 4.936298725847997559e+00 4.936296212554395879e+00 4.936885296753434460e+00 4.936960271646794851e+00 4.936509159081817089e+00 4.936723525920395872e+00 4.935528018077774526e+00 4.936602401765910031e+00 4.937706906276392971e+00 4.936361779213282119e+00 4.934906577114295700e+00 4.934370252756485442e+00 4.935602821058675538e+00 4.933568194626111847e+00 4.936719733284691713e+00 4.935631444528413958e+00 4.938197787695258967e+00 4.937604325396846683e+00 4.937239763689009742e+00 4.933721280997642289e+00 4.935788343165794956e+00 4.937755921376454360e+00 4.935516996513736210e+00 4.937552094467100083e+00 4.936400166993518468e+00 4.935283483981110386e+00 4.936494954819520053e+00 4.934624429126142964e+00 4.934338989921912777e+00 4.936588346967363705e+00 4.934846802888009698e+00 4.937332970253481612e+00 4.936024842123121203e+00 4.938340253499938548e+00 4.935366323239334108e+00 4.936226690671457362e+00 4.937176860603959661e+00 4.938453103855426463e+00 4.935925359042113492e+00 4.937192212138981517e+00 4.938111040478617930e+00 4.937604973517736084e+00 4.935658629828180821e+00 4.937448607612664020e+00 4.937324009443119444e+00 4.936964691937030025e+00 4.937065408282766299e+00 4.937144101226209614e+00 4.936689367726263988e+00 4.934243476848737764e+00 4.936937074824252925e+00 4.936686649810679839e+00 4.936534457583452884e+00 4.937725546906547081e+00 4.937243594863876872e+00 4.935643578681146337e+00 4.934304525295599930e+00 4.936515847977616112e+00 4.937236354444245023e+00 4.936833364596151519e+00 4.935894083612280880e+00 4.936762708754476314e+00 4.938334763910193992e+00 4.936549855307135637e+00 4.934913113732035228e+00 4.936658228510021118e+00 4.937206939576489262e+00 4.935654709282601083e+00 4.936511327066066990e+00 4.935841120979283403e+00 4.934336562026879314e+00 4.937571650998374473e+00 4.936706949322061888e+00 4.938329787478870081e+00 4.935243353215041040e+00 4.935235624126858234e+00 4.936437335028634799e+00 4.935241085168954989e+00 4.934911710788295380e+00 4.937174713546620630e+00 4.935487440166262729e+00 4.938037080769807297e+00 4.937994048899900790e+00 4.936456583333264980e+00 4.935022575975549053e+00 4.934902246958398742e+00
6.000000000000000000e+00 2.694549110435103846e-03 2.381739362257352343e-05 2.706524884259259214e-03 2.693892532578875346e-03 2.693769290123456880e-03 2.695516117969821643e-03 2.694264939128943916e-03 2.696381494341563642e-03 2.694069358710562447e-03 2.697115590706447227e-03 2.693000364368998596e-03 2.695258916323731158e-03 2.695130315500685915e-03 2.694980281207133132e-03 2.695489326131687326e-03 2.695087448559670834e-03 2.697758594821673440e-03 2.694393539951989158e-03 2.693836269718792673e-03 2.695039223251028977e-03 2.692861046810699800e-03 2.693940757887517204e-03 2.693659443587105573e-03 2.693525484396433554e-03 2.694109546467763922e-03 2.693643368484224809e-03 2.694565007716049482e-03 2.696143046982167526e-03 2.695033864883401766e-03 2.695451817558299022e-03 2.694109546467763922e-03 2.696167159636488238e-03 2.693241490912208318e-03 2.691508058984910714e-03 2.691510738168724319e-03 2.694862397119341443e-03 2.694117584019204304e-03 2.691719714506172947e-03 2.694096150548696764e-03 2.693024477023319742e-03 2.693212019890260829e-03 2.695100844478737993e-03 2.693112890089163075e-03 2.692638674554184014e-03 2.695872449417009448e-03 2.696778013545953357e-03 2.695893882887516989e-03 2.692933384773662370e-03 2.694337277091906919e-03 2.692402906378600635e-03 2.695867091049382672e-03 2.695775998799725733e-03 2.693680877057613113e-03 2.693528163580246725e-03 2.694511424039780414e-03 2.693487975823045250e-03 2.693233453360768370e-03 2.692716370884773794e-03 2.692485961076817626e-03 2.695612568587105792e-03 2.695194615912208536e-03 2.693370091735253560e-03 2.693884495027434964e-03 2.694171167695473372e-03 2.693648726851852020e-03 2.694889188957476193e-03 2.694945451817558433e-03 2.693236132544581541e-03 2.689174489883401978e-03 2.694382823216735171e-03 2.693956832990397968e-03 2.694648062414266038e-03 2.694932055898491274e-03 2.693755894204389722e-03 2.693471900720164486e-03 2.692528828017832707e-03 2.695963541666666820e-03 2.695438421639231863e-03 2.696341306584362166e-03 2.692370756172839542e-03 2.693445108882030169e-03 2.693530842764060330e-03 2.692660108024691554e-03 2.691349987139917549e-03 2.694757908950617346e-03 2.695960862482853215e-03 2.694144375857338621e-03 2.696196630658436160e-03 2.697292416838134328e-03 2.695467892661179785e-03 2.695325895919067384e-03 2.693922003600822835e-03 2.692188571673525231e-03 2.694492669753086479e-03 2.693852344821673437e-03 2.695146390603566679e-03 2.697327246227709027e-03 2.693871099108367806e-03 2.696424361282578723e-03 2.695952824931412833e-03 2.695826903292181196e-03 2.697246870713306075e-03 2.695425025720164704e-03 2.695068694272976465e-03 2.692890517832647289e-03 2.695387517146776400e-03 2.694626628943758498e-03 2.693354016632373230e-03 2.694915980795610511e-03 2.694037208504800919e-03 2.695784036351166115e-03 2.695408950617283941e-03 2.695524155521262025e-03 2.694840963648833902e-03 2.695114240397805151e-03 2.694219393004115230e-03 2.692534186385459483e-03 2.695762602880658575e-03 2.696343985768175772e-03 2.694506065672153637e-03 2.695296424897119462e-03 2.692928026406035593e-03 2.693782686042524039e-03 2.693131644375857444e-03 2.694605195473250957e-03 2.696132330246913539e-03 2.696625300068586969e-03 2.697563014403291971e-03 2.696311835562414244e-03 2.695208011831275695e-03 2.694771304869684504e-03 2.691968878600823050e-03 2.694846322016461113e-03 2.694173846879286544e-03 2.691435721021947711e-03 2.694353352194787249e-03 2.697134344993141163e-03 2.693771969307270052e-03 2.693948795438957586e-03 2.695111561213991980e-03 2.694037208504800919e-03 2.693099494170095917e-03 2.695695623285322348e-03 2.695615247770918963e-03 2.695995691872427914e-03 2.696081425754458076e-03 2.693670160322359560e-03 2.694832926097393520e-03 2.692970893347050674e-03 2.693782686042524039e-03 2.692172496570644901e-03 2.695942108196159280e-03 2.694977602023319527e-03 2.692437735768175768e-03 2.695232124485596840e-03 2.694613233024691339e-03 2.694881151406035812e-03 2.695100844478737993e-03 2.697190607853223402e-03 2.694093471364883592e-03 2.694042566872428129e-03 2.691770618998628409e-03 2.693367412551440389e-03 2.694409615054869488e-03 2.693206661522633619e-03 2.694125621570644686e-03 2.693675518689986337e-03 2.692941422325102752e-03 2.696177876371742225e-03 2.693648726851852020e-03 2.693075381515775205e-03 2.696317193930041021e-03 2.694082754629629605e-03 2.695103523662551598e-03 2.694717721193415436e-03 2.694645383230452867e-03 2.694310485253772168e-03 2.693429033779149405e-03 2.694117584019204304e-03 2.695821544924553986e-03 2.695733131858710652e-03 2.695052619170096135e-03 2.696920010288065758e-03 2.695363404492455255e-03 2.695269633058984711e-03 2.695457175925925798e-03 2.696394890260630801e-03 2.694816850994513190e-03 2.695076731824416847e-03 2.694937414266118051e-03 2.693956832990397968e-03 2.693812157064471961e-03 2.694838284465020731e-03 2.696132330246913539e-03 2.694532857510287954e-03 2.694661458333333197e-03 2.695007073045267449e-03 2.694181884430726925e-03 2.692451131687242927e-03 2.694814171810699585e-03 2.696263610253772387e-03 2.696001050240054691e-03 2.694615912208504944e-03 2.693871099108367806e-03 2.694723079561042647e-03 2.693696952160493877e-03 2.692676183127571884e-03 2.696025162894375837e-03 2.696287722908093099e-03 2.695500042866940879e-03 2.693809477880658356e-03 2.693209340706447224e-03 2.693482617455418473e-03 2.695307141632373015e-03 2.697163816015089085e-03 2.696938764574760127e-03 2.694264939128943916e-03 2.690527477709190630e-03 2.693595143175582952e-03 2.693104852537722693e-03 2.694945451817558433e-03 2.693903249314128900e-03 2.693233453360768370e-03 2.694449802812071398e-03 2.694377464849108395e-03 2.695684906550068795e-03 2.694189921982167307e-03 2.693916645233196058e-03
