# vvf statistics with RF=500
# gcat file: /disk2/salam/Abacus/AbacusCosmos_720box_products/GCAT_derivative/AbacusCosmos_720box_31_rockstar_halos_z0.100_Mr21_hod-default_real-2.gcat.rsd_zz.1pz0.100by100
# stats order in row: stdvvf,p2.5,p16,p50,p84,p97.5,rho
# columns: numbers, mean, sigma,All, jnrealizations
0.000000000000000000e+00 1.413237997245615496e+00 5.066646295376986062e-03 1.413238223071314525e+00 1.413605599294011972e+00 1.412904269942940161e+00 1.413078580165581855e+00 1.413247445903012878e+00 1.413622414489350554e+00 1.413274161392884531e+00 1.413379058344578221e+00 1.412553052960781486e+00 1.412124624449526911e+00 1.412897077069996898e+00 1.413896846763315729e+00 1.413475363556243813e+00 1.413235244387103018e+00 1.413321474049987536e+00 1.413364983815343701e+00 1.413367941942595296e+00 1.413319062324215114e+00 1.413223394527260313e+00 1.413483853070153229e+00 1.413592034158863031e+00 1.413161027260743330e+00 1.413883519614368867e+00 1.413282339200620408e+00 1.413255965937674663e+00 1.413160021888684392e+00 1.413408774518514210e+00 1.413690590916995449e+00 1.413020137545036858e+00 1.413796224609799923e+00 1.412999184961583721e+00 1.413293017602667678e+00 1.412794465219050055e+00 1.413224148283694026e+00 1.413294056776891683e+00 1.412561853653420796e+00 1.412493954999152423e+00 1.413286546451340886e+00 1.413079740233231130e+00 1.413091739070083230e+00 1.413346625888769692e+00 1.413110093426903413e+00 1.413199588846659527e+00 1.413603129678933312e+00 1.413005431737806017e+00 1.412721140488828686e+00 1.413528564140504873e+00 1.412872112962603621e+00 1.413726199211040591e+00 1.413473603610165608e+00 1.413011921083598521e+00 1.412523574325820430e+00 1.413291329463600920e+00 1.412805710907054202e+00 1.413327586316761364e+00 1.412559323408102196e+00 1.412827329884431160e+00 1.412835204158349178e+00 1.413510330120220537e+00 1.413223834209817564e+00 1.412587335339299921e+00 1.413821367114868277e+00 1.413427238740106118e+00 1.413498743446119255e+00 1.413513000173691969e+00 1.413345805357611784e+00 1.412714911012117103e+00 1.413770695380025755e+00 1.413700363985094466e+00 1.413718934153076479e+00 1.413012750368350279e+00 1.413248855646032309e+00 1.413597679796714690e+00 1.412635447874509564e+00 1.413252667853474920e+00 1.413118351678625650e+00 1.413378010384428896e+00 1.413307665364335941e+00 1.412697227487356599e+00 1.413194722147561144e+00 1.413050706788254729e+00 1.412840881341829391e+00 1.413333997442184353e+00 1.412442654958942390e+00 1.413345812994139639e+00 1.412916673258012512e+00 1.413833231187019202e+00 1.413536130242450506e+00 1.413354361342180843e+00 1.412984912553140848e+00 1.412865976519205091e+00 1.413514620089715068e+00 1.413258972235733602e+00 1.413474229971567242e+00 1.413683082656343570e+00 1.413011420618585534e+00 1.413050382116265880e+00 1.413585784030135128e+00 1.413503745422151958e+00 1.413386943149915975e+00 1.412939405345355892e+00 1.413251720335800599e+00 1.412686496357109078e+00 1.413047061978329522e+00 1.412772210385554228e+00 1.413462658670548100e+00 1.413568727825048610e+00 1.413214320127254009e+00 1.413350252029330401e+00 1.412781307726308722e+00 1.413222134025023502e+00 1.413618735764440082e+00 1.413340345955339528e+00 1.413325069705140935e+00 1.412701053849921173e+00 1.413910553084645194e+00 1.413579237131406208e+00 1.413553181810617954e+00 1.413321795302211914e+00 1.412611585445123330e+00 1.413401381640714938e+00 1.413209388357493879e+00 1.413197677212063130e+00 1.413130830578768204e+00 1.412963272165777662e+00 1.413065154254127265e+00 1.413406957003044750e+00 1.413737776438000138e+00 1.413526205179394868e+00 1.413148299172221733e+00 1.413228626639174701e+00 1.413467597523189401e+00 1.412877513396530338e+00 1.413243461717515137e+00 1.413398610649678533e+00 1.413395325051304940e+00 1.413328528552354246e+00 1.413610679372389489e+00 1.413009747323332954e+00 1.412370435418247583e+00 1.412352788080967647e+00 1.413096147178855899e+00 1.413659617181467043e+00 1.413639852075019521e+00 1.413523085048673078e+00 1.413404248597481150e+00 1.413016985912931123e+00 1.413331776563840014e+00 1.413458102912119152e+00 1.412857272044662826e+00 1.413088815676694754e+00 1.412864594451480382e+00 1.413250138584061677e+00 1.412599304408715284e+00 1.413501570558236331e+00 1.413322180491588975e+00 1.413786756959023672e+00 1.413141350962949572e+00 1.413383041463677881e+00 1.412515102303487868e+00 1.413192943156796888e+00 1.413562567593737995e+00 1.413326336262952010e+00 1.413462631851746698e+00 1.413245432158203085e+00 1.413195631010197850e+00 1.413091628071558192e+00 1.412793613568621653e+00 1.412904673823041746e+00 1.413449324163726262e+00 1.413098628226104658e+00 1.413490945678235189e+00 1.413174763041983306e+00 1.413762930905330784e+00 1.413013003705845927e+00 1.413176662763472757e+00 1.413409083962183344e+00 1.413483263746188712e+00 1.413346697252179318e+00 1.413286961525171748e+00 1.413712553893070600e+00 1.413397281156329788e+00 1.413498173069459796e+00 1.413589234341882772e+00 1.413809663493118762e+00 1.413737167708686293e+00 1.413744632372421872e+00 1.413804703400701746e+00 1.413413954032077147e+00 1.412470894254278964e+00 1.413462394874512196e+00 1.413090992325584105e+00 1.413513702685271989e+00 1.413582405813482712e+00 1.413205865144060436e+00 1.412868141573983216e+00 1.413126664215412553e+00 1.413542560580126395e+00 1.413439512091021921e+00 1.413288716267685707e+00 1.413055609930675027e+00 1.413428997094896999e+00 1.413276264172494301e+00 1.413150577268199148e+00 1.412926340371908340e+00 1.413651500669241168e+00 1.413336805820212927e+00 1.413125151252561551e+00 1.413212453137570934e+00 1.413022579526979960e+00 1.413225089047599470e+00 1.413227512799275720e+00 1.413312641221295074e+00 1.412715233434372664e+00 1.412969862087461115e+00 1.412884393510863701e+00 1.413019742398158085e+00 1.413453778937272975e+00 1.413215644894398215e+00 1.413259854866935950e+00 1.413017944233183609e+00 1.413856620619497129e+00 1.413622058430254125e+00 1.413195668639679159e+00 1.412773345187797736e+00 1.413315779726334043e+00
1.000000000000000000e+00 2.399999989419396990e-02 1.746822435268464535e-04 2.400000000000000050e-02 2.399248431961958222e-02 2.399472893511755620e-02 2.401078702730886569e-02 2.399774399455553708e-02 2.401367591273966332e-02 2.399337643865340555e-02 2.402126271208955555e-02 2.398394158063057655e-02 2.400632678013907631e-02 2.400774673094846490e-02 2.400548535140638318e-02 2.400898547715657125e-02 2.400567665337439982e-02 2.402700739057871820e-02 2.399590242266689405e-02 2.399297883735136347e-02 2.400720613323293132e-02 2.398369259336141993e-02 2.399695344626559534e-02 2.399473671251304077e-02 2.398785115469780418e-02 2.399753462472716675e-02 2.399116650508349366e-02 2.400202896988727283e-02 2.401402796182570965e-02 2.400672575958779503e-02 2.400729947822715510e-02 2.399861133266211963e-02 2.401119492043720868e-02 2.398842044544103116e-02 2.397800090284472885e-02 2.397286334572503938e-02 2.400032469818325076e-02 2.399654089857180400e-02 2.397647257941310991e-02 2.399237208791747331e-02 2.398975635675582377e-02 2.398777709537975103e-02 2.400282327624718090e-02 2.398650926068629508e-02 2.398207954732037989e-02 2.401033254454714230e-02 2.402295056829481523e-02 2.401115460728653686e-02 2.398757930288033385e-02 2.399722497792724715e-02 2.398282150761663761e-02 2.400878128028316807e-02 2.400813216202305270e-02 2.399813421047836473e-02 2.399128654977450079e-02 2.399823320535682258e-02 2.398560037241998996e-02 2.399200751154930908e-02 2.398026381154475320e-02 2.398028530533600350e-02 2.400602739929445437e-02 2.400744672614566616e-02 2.399136106356396236e-02 2.399832141741626429e-02 2.400394298538841009e-02 2.399491182727423247e-02 2.400033278485919075e-02 2.400302386554151179e-02 2.398961500157538104e-02 2.395910138705038134e-02 2.400247594895513550e-02 2.399926031900115331e-02 2.399869346220975114e-02 2.400509568164002627e-02 2.399465793813378156e-02 2.399604699844221783e-02 2.398332359816067114e-02 2.401060363763774658e-02 2.400733511290453065e-02 2.401123877308805263e-02 2.398545860496875334e-02 2.399681678387300537e-02 2.399278391563871432e-02 2.398476756882551159e-02 2.397006973953671322e-02 2.400539313381788720e-02 2.401354005849399426e-02 2.399820691587823546e-02 2.401710089313894084e-02 2.402192509381588167e-02 2.400825849702621986e-02 2.401305191934655428e-02 2.399343590168835291e-02 2.397855745195379487e-02 2.400014803877820527e-02 2.399309998481176723e-02 2.400939392325435531e-02 2.402025723638992818e-02 2.399770265248508949e-02 2.401256424876168499e-02 2.401446433990670967e-02 2.400961880007729254e-02 2.402288527403174598e-02 2.400833103823501319e-02 2.400653913165819858e-02 2.398950716452296489e-02 2.400584177872221170e-02 2.400182992261925760e-02 2.399302667621119184e-02 2.400069192235134222e-02 2.399606609335435889e-02 2.400830296557211405e-02 2.400949867525506085e-02 2.400833038166306360e-02 2.400701676376424190e-02 2.400471484478087364e-02 2.399580107968553658e-02 2.398044758313716204e-02 2.401152384897532743e-02 2.401483439593391639e-02 2.399938217029869841e-02 2.400557326958899923e-02 2.398485245289739068e-02 2.399129433375421158e-02 2.398813217200571057e-02 2.399928776021339333e-02 2.401600543876665148e-02 2.402142717935497329e-02 2.402687990681882241e-02 2.401577612464394704e-02 2.400787201258248321e-02 2.400279645679692306e-02 2.397618812063102497e-02 2.400397032786522750e-02 2.399651568168829213e-02 2.397544478900739615e-02 2.399788535178288412e-02 2.402088433937881254e-02 2.399852769907465794e-02 2.399480055439857235e-02 2.400570460930874159e-02 2.399865809402179986e-02 2.398545559406691299e-02 2.401038867732200113e-02 2.400482998935369108e-02 2.401627728316423419e-02 2.401282406839735234e-02 2.399249683252707363e-02 2.400306713144833431e-02 2.398657795581295854e-02 2.399506450823618575e-02 2.397947804639150374e-02 2.401017473426595231e-02 2.400164640583185571e-02 2.398538007441881198e-02 2.400944179434999146e-02 2.399850771719356374e-02 2.400317378986489142e-02 2.400356520342640174e-02 2.402150439035871318e-02 2.399919649111535713e-02 2.399681102075430089e-02 2.397735951225158507e-02 2.399026765778471126e-02 2.399928810793501913e-02 2.398707653778223495e-02 2.399796491713609287e-02 2.399202755441455504e-02 2.398877487760502081e-02 2.401397769926961676e-02 2.399285334371323991e-02 2.399177045915160816e-02 2.401297259325662486e-02 2.399813190469692742e-02 2.400473817004690480e-02 2.399996418030548792e-02 2.400361193055607079e-02 2.399517396670365968e-02 2.398837384821109545e-02 2.399743063981247052e-02 2.401244145405896646e-02 2.401218621395652744e-02 2.400870356156460661e-02 2.401984885382651980e-02 2.400908760849074230e-02 2.400559650967538580e-02 2.400851942778855011e-02 2.401669890354243483e-02 2.400447115434444639e-02 2.400732985572953324e-02 2.400559199897430579e-02 2.399842045789549530e-02 2.399231912393358368e-02 2.400286479721438354e-02 2.401383145565242835e-02 2.400401942935263822e-02 2.400216929536755361e-02 2.400617436339729308e-02 2.400018925175477144e-02 2.398074104757371566e-02 2.400080001912905520e-02 2.401536914517551913e-02 2.401119170257442689e-02 2.399926282259049262e-02 2.399137681457071472e-02 2.399843712973595555e-02 2.399334910440057561e-02 2.398554662612852745e-02 2.401217689551806214e-02 2.401396006057000473e-02 2.400675722208749779e-02 2.399449732430142257e-02 2.399379887531119873e-02 2.399068716895328204e-02 2.400535588689271110e-02 2.402266161602348293e-02 2.402047693259548936e-02 2.399592791194530075e-02 2.397058859063574965e-02 2.399331823399458372e-02 2.398967270461900211e-02 2.400336092282542508e-02 2.399211851691220032e-02 2.398749495123614697e-02 2.400039695871246381e-02 2.399716150276477375e-02 2.401026429888128075e-02 2.399239830253208777e-02 2.399439488844044496e-02
2.000000000000000000e+00 1.119999995062385401e-01 8.151838031252788778e-04 1.119999999999999885e-01 1.119649268248913698e-01 1.119754016972152599e-01 1.120503394607747089e-01 1.119894719745924971e-01 1.120638209261184265e-01 1.119690900470492190e-01 1.120992259897512638e-01 1.119250607096093642e-01 1.120295249739823584e-01 1.120361514110928269e-01 1.120255983065631261e-01 1.120419322267306728e-01 1.120264910490805232e-01 1.121260344893673377e-01 1.119808779724455056e-01 1.119672345743063652e-01 1.120336286217536725e-01 1.119238987690199527e-01 1.119857827492394403e-01 1.119754379917275167e-01 1.119433053885897505e-01 1.119884949153934495e-01 1.119587770237229635e-01 1.120094685261406042e-01 1.120654638218533117e-01 1.120313868780763722e-01 1.120340642317267377e-01 1.119935195524232319e-01 1.120522429620403188e-01 1.119459620787248005e-01 1.118973375466087300e-01 1.118733622800501815e-01 1.120015152581885082e-01 1.119838575266684094e-01 1.118902053705945199e-01 1.119644030769482018e-01 1.119521963315271706e-01 1.119429597784388497e-01 1.120131752891535132e-01 1.119370432165360529e-01 1.119163712208284533e-01 1.120482185412200044e-01 1.121071026520424618e-01 1.120520548340038364e-01 1.119420367467748867e-01 1.119870498969938177e-01 1.119198337022109802e-01 1.120409793079881200e-01 1.120379500894409242e-01 1.119912929822323572e-01 1.119593372322810060e-01 1.119917549583318434e-01 1.119328017379599555e-01 1.119627017205634401e-01 1.119078977872088460e-01 1.119079980915680117e-01 1.120281278633741273e-01 1.120347513886797708e-01 1.119596849632984864e-01 1.119921666146092426e-01 1.120184005984792286e-01 1.119762551939464112e-01 1.120015529960095568e-01 1.120141113725270504e-01 1.119515366740184426e-01 1.118091398062351222e-01 1.120115544284572967e-01 1.119965481553387154e-01 1.119939028236455192e-01 1.120237798476534513e-01 1.119750703779576473e-01 1.119815526593970212e-01 1.119221767914164722e-01 1.120494836423094748e-01 1.120342305268878236e-01 1.120524476077442572e-01 1.119321401565208512e-01 1.119851449914073677e-01 1.119663249396473381e-01 1.119289153211857346e-01 1.118603254511713191e-01 1.120251679578168069e-01 1.120631869396386260e-01 1.119916322740984183e-01 1.120798041679817308e-01 1.121023171044741307e-01 1.120385396527890237e-01 1.120609089569505890e-01 1.119693675412123113e-01 1.118999347757843738e-01 1.120006908476316454e-01 1.119677999291215781e-01 1.120438383085203271e-01 1.120945337698196764e-01 1.119892790449304176e-01 1.120586331608878633e-01 1.120675002528979947e-01 1.120448877336940319e-01 1.121067979454814789e-01 1.120388781784300292e-01 1.120305159477382601e-01 1.119510334344405028e-01 1.120272616340369787e-01 1.120085396388898619e-01 1.119674578223188999e-01 1.120032289709729234e-01 1.119816417689870058e-01 1.120387471726698725e-01 1.120443271511902955e-01 1.120388751144276301e-01 1.120327448975664553e-01 1.120220026089774057e-01 1.119804050385325156e-01 1.119087553879734298e-01 1.120537779618848706e-01 1.120692271810249385e-01 1.119971167947272500e-01 1.120260085914153297e-01 1.119293114468545014e-01 1.119593735575196564e-01 1.119446168026933114e-01 1.119966762143291550e-01 1.120746920475777231e-01 1.120999935036565420e-01 1.121254395651544999e-01 1.120736219150050839e-01 1.120367360587182504e-01 1.120130501317189720e-01 1.118888778962781189e-01 1.120185281967043950e-01 1.119837398478787105e-01 1.118854090153678510e-01 1.119901316416534592e-01 1.120974602504344608e-01 1.119931292623484037e-01 1.119757359205266756e-01 1.120266215101074631e-01 1.119937377721017258e-01 1.119321261056455963e-01 1.120484804941693363e-01 1.120225399503172320e-01 1.120759606547664378e-01 1.120598456525209868e-01 1.119649852184596839e-01 1.120143132800922314e-01 1.119373637937938204e-01 1.119769677051022094e-01 1.119042308831603577e-01 1.120474820932411131e-01 1.120076832272153267e-01 1.119317736806211411e-01 1.120440617069666245e-01 1.119930360135699687e-01 1.120148110193694979e-01 1.120166376159898725e-01 1.121003538216739925e-01 1.119962502918716712e-01 1.119851180968534088e-01 1.118943443905074109e-01 1.119545824029953146e-01 1.119966778370300731e-01 1.119396905096504274e-01 1.119905029466351093e-01 1.119627952539345855e-01 1.119476160954901017e-01 1.120652292632582092e-01 1.119666489373284668e-01 1.119615954760408427e-01 1.120605387685309207e-01 1.119912822219189807e-01 1.120221114602188844e-01 1.119998328414256034e-01 1.120168556759283118e-01 1.119774785112837429e-01 1.119457446249851051e-01 1.119880096524581981e-01 1.120580601189418435e-01 1.120568689984637878e-01 1.120406166206348308e-01 1.120926279845237683e-01 1.120424088396234641e-01 1.120261170451518073e-01 1.120397573296798843e-01 1.120779282165313695e-01 1.120208653869407406e-01 1.120342059934044815e-01 1.120260959952134316e-01 1.119926288035123091e-01 1.119641559116900525e-01 1.120133690536671139e-01 1.120645467930446726e-01 1.120187573369789691e-01 1.120101233783819122e-01 1.120288136958540459e-01 1.120008831748555977e-01 1.119101248886773398e-01 1.120037334226022530e-01 1.120717226774857467e-01 1.120522279453473324e-01 1.119965598387556299e-01 1.119597584679966756e-01 1.119927066054344639e-01 1.119689624872026862e-01 1.119325509219331327e-01 1.120568255124176210e-01 1.120651469493266911e-01 1.120315337030749897e-01 1.119743208467399720e-01 1.119710614181189251e-01 1.119565401217819944e-01 1.120249941388326564e-01 1.121057542081095870e-01 1.120955590187789480e-01 1.119809969224113966e-01 1.118627467563001604e-01 1.119688184253080504e-01 1.119518059548886835e-01 1.120156843065186758e-01 1.119632197455902589e-01 1.119416431057686789e-01 1.120018524739914978e-01 1.119867536795689511e-01 1.120479000614459791e-01 1.119645254118164096e-01 1.119738428127220742e-01
3.000000000000000000e+00 4.912253224725659506e-01 1.224038023051241160e-02 4.919999999999999929e-01 4.918459285522013835e-01 4.918919431699099176e-01 4.922211340598317553e-01 4.919537518883885241e-01 4.902792165517681489e-01 4.918642169923947982e-01 4.904341137051617672e-01 4.916708024029268764e-01 4.921296989928510834e-01 4.921588079844435026e-01 4.901119925912136854e-01 4.901834534919466968e-01 4.901158983397272961e-01 4.905514008909822032e-01 4.919159996646713107e-01 4.918560661657029320e-01 4.901471252201723416e-01 4.916656981639090929e-01 4.919375456484447184e-01 4.918921026065173341e-01 4.917509486713049771e-01 4.899496652548463449e-01 4.918189133542115732e-01 4.920415938826890878e-01 4.902864042206082629e-01 4.901373175915841318e-01 4.901490310138044149e-01 4.919715323195734680e-01 4.902285629589263616e-01 4.917626191315411233e-01 4.915490185083169483e-01 4.914436985873633090e-01 4.920066563127566406e-01 4.919290884207219716e-01 4.915176878779687342e-01 4.918436278023081698e-01 4.917900053134943716e-01 4.917494304552849083e-01 4.920578771630672033e-01 4.917234398440690768e-01 4.916326307200677981e-01 4.902109561178374930e-01 4.904685741026857948e-01 4.902277398987667789e-01 4.917453757090468613e-01 4.919431120475085684e-01 4.916478409061411092e-01 4.901792844724480180e-01 4.901660316413040119e-01 4.919617513148064614e-01 4.918213742703772540e-01 4.919637807098148907e-01 4.917048076346098306e-01 4.918361539867608379e-01 4.915954081366674666e-01 4.915958487593880544e-01 4.921235616855363371e-01 4.901520373254740215e-01 4.918229018030612076e-01 4.919655890570334700e-01 4.900805026183466806e-01 4.918956924591217361e-01 4.920068220896133826e-01 4.900617372548058404e-01 4.917871075322953200e-01 4.911615784345328417e-01 4.900505506245007026e-01 4.899848981796068870e-01 4.899733248534491326e-01 4.921044614736205247e-01 4.918904877317424873e-01 4.919189634680655177e-01 4.916581337622937808e-01 4.902164909351039435e-01 4.901497585551342628e-01 4.902294582838810921e-01 4.917019014018594314e-01 4.919347440693966345e-01 4.918520702705936332e-01 4.916877351609229563e-01 4.913864296605026105e-01 4.921105592432666875e-01 4.902764428609190928e-01 4.899633911991806423e-01 4.903491432349200707e-01 4.904476373320742488e-01 4.901686109809519909e-01 4.902664766866588475e-01 4.918654359846112434e-01 4.915604277650527654e-01 4.920030347949532201e-01 4.918585496886411779e-01 4.901917925997764103e-01 4.904135852429610809e-01 4.919529043759443554e-01 4.902565200788843724e-01 4.902953136064286954e-01 4.901963838349114311e-01 4.904672410114814807e-01 4.921707862838177183e-01 4.901335072713548513e-01 4.917848968727208114e-01 4.921197564638053468e-01 4.920375134136947826e-01 4.918570468623293945e-01 4.920141844082024929e-01 4.919193549137643728e-01 4.901695188804306991e-01 4.921947228427288046e-01 4.921707728240928281e-01 4.901432589268532314e-01 4.920966543180079200e-01 4.919139221335535050e-01 4.915991754543118097e-01 4.902352785832462811e-01 4.903028689169841581e-01 4.919873344911233071e-01 4.901137875874420624e-01 4.916894752843965488e-01 4.918215338419613669e-01 4.917567095261170529e-01 4.919853990843744973e-01 4.903267777081524725e-01 4.904374715784973748e-01 4.905487980975509199e-01 4.903220958781472349e-01 4.901607202568923349e-01 4.900570943262704815e-01 4.915118564729360484e-01 4.920813917212371602e-01 4.919285714746099991e-01 4.914966181746516227e-01 4.919566497115491210e-01 4.904263885956507418e-01 4.919698178310304981e-01 4.918934113651707296e-01 4.901164691067201318e-01 4.919724909274468816e-01 4.917018396783717216e-01 4.902121021619908481e-01 4.920990147817506655e-01 4.903323278646031236e-01 4.902618247297793053e-01 4.918461850668050528e-01 4.900626206004035090e-01 4.917248480941656674e-01 4.918988224188418079e-01 4.915792999510258388e-01 4.902077341579298420e-01 4.920337513195530699e-01 4.917002915255856976e-01 4.901927699679790029e-01 4.919694082024680948e-01 4.900647982097415811e-01 4.910729381200984456e-01 4.904390479698237382e-01 4.919835280678648282e-01 4.919346259254632203e-01 4.915358700011575044e-01 4.918004869845865601e-01 4.899854655370066148e-01 4.917350690245358424e-01 4.919582808012899489e-01 4.918365648654983713e-01 4.917698849909029613e-01 4.902853780267546480e-01 4.918534935461214563e-01 4.918312944126079778e-01 4.902648571123227605e-01 4.919617040462869739e-01 4.900967376384576246e-01 4.919992656962624555e-01 4.900737435821864163e-01 4.919010663174250286e-01 4.917616638883274827e-01 4.919473281161556577e-01 4.902540130203705271e-01 4.902488018682790716e-01 4.921784230120744286e-01 4.904052474322915245e-01 4.901855386733526276e-01 4.901142620725391086e-01 4.901739383173495113e-01 4.903409359473247520e-01 4.900912860678657834e-01 4.901496512211446221e-01 4.901141699790587669e-01 4.919676193868576797e-01 4.918425420406384307e-01 4.900584896097936460e-01 4.902823922195704287e-01 4.920823983017291181e-01 4.900442897804208608e-01 4.921265744496445271e-01 4.920038796609728093e-01 4.916051914752612162e-01 4.920164003921456142e-01 4.903137867140001660e-01 4.902284972608945135e-01 4.919848878631050693e-01 4.918232246986996570e-01 4.919679611595870750e-01 4.918636566402118104e-01 4.917037058356348300e-01 4.902486116168271457e-01 4.902850179033042544e-01 4.921385230527937082e-01 4.918871951481791349e-01 4.918728769438795445e-01 4.918090869635423079e-01 4.901093493573928650e-01 4.904626746604794363e-01 4.904180707071578715e-01 4.919165221948786360e-01 4.913970661080328539e-01 4.918630237968889540e-01 4.917882904446895798e-01 4.920688989179212158e-01 4.918384295967000996e-01 4.917436465003410251e-01 4.900081045737128549e-01 4.919418108066778705e-01 4.902095627688261570e-01 4.918441652019078236e-01 4.918850952130290888e-01
4.000000000000000000e+00 1.821628170313732697e+00 9.494800258286813233e-03 1.822000000000000064e+00 1.821429434597786390e+00 1.821599838324341247e+00 1.820818016237589099e+00 1.821828731586674577e+00 1.821037090049424600e+00 1.821497161301104173e+00 1.821612422333457992e+00 1.822779560127924192e+00 1.822480308058891607e+00 1.820587460430258542e+00 1.822416429594267973e+00 1.820681398684373509e+00 1.822430952602006382e+00 1.822048060452219564e+00 1.821688925587461760e+00 1.821466976735591103e+00 1.822547065614599893e+00 1.822760637095467651e+00 1.821768715795663240e+00 1.821600428758281431e+00 1.821077700160808277e+00 1.821812836927203971e+00 1.821329390510921797e+00 1.822154032630608711e+00 1.821063787105116294e+00 1.822510597248706565e+00 1.820553543765559334e+00 1.821894577004599336e+00 1.820848948133155121e+00 1.821120918816398149e+00 1.822328068616199337e+00 1.821937614275102924e+00 1.822024650003745139e+00 1.821737396549909072e+00 1.822211916035396451e+00 1.821420914341068231e+00 1.821222336750379700e+00 1.821072077824246183e+00 1.822214333721765112e+00 1.820975828040434674e+00 1.822638045596348899e+00 1.820783551294824942e+00 1.821740418095689762e+00 1.820845891052562449e+00 1.821057062076998578e+00 1.821789329574310168e+00 1.822694434578864486e+00 1.820665913754806908e+00 1.820616688953414997e+00 1.821858355478815694e+00 1.821338503903714212e+00 1.821865870840005508e+00 1.822905628303919334e+00 1.821393236918451564e+00 1.822500049677401313e+00 1.822501683205536072e+00 1.822457580063103988e+00 1.822565330626558566e+00 1.821344160742230489e+00 1.821872567605518300e+00 1.820299009725287576e+00 1.821613722887235109e+00 1.822025263917227189e+00 1.822229561792359620e+00 1.821211605536264599e+00 1.820891705415829120e+00 1.822187965791510766e+00 1.821943845884170798e+00 1.821900812006090664e+00 1.822386847164505053e+00 1.821594448469989524e+00 1.821699901298404978e+00 1.820733983160364389e+00 1.820804109187528885e+00 1.822556857321336210e+00 1.820852273625844120e+00 1.820896065760544635e+00 1.821758340842359214e+00 1.821452178928905763e+00 1.822842335230738797e+00 1.821725300204790177e+00 1.822409428742341131e+00 1.821026787769127964e+00 1.821863875030422797e+00 1.821296817729703088e+00 1.821662652947704686e+00 1.820706296885986619e+00 1.820989770550446973e+00 1.821501675536507658e+00 1.822370366348488258e+00 1.822011238610578898e+00 1.821476173846959812e+00 1.822713155340393021e+00 1.821536173759569444e+00 1.821825593034493096e+00 1.820952788864427685e+00 1.821096879109592281e+00 1.820729425672528379e+00 1.821735466614073928e+00 1.820631770399488314e+00 1.822496429078384494e+00 1.821203418906701899e+00 1.822443488367994302e+00 1.822138921625511943e+00 1.821470608502366417e+00 1.820052470778310116e+00 1.821701350920485130e+00 1.820629641555885359e+00 1.820720316206842160e+00 1.820631720609449111e+00 1.822532689315768728e+00 1.822357935299614651e+00 1.821681231966127079e+00 1.822514016318424357e+00 1.820873891880629092e+00 1.821124941691655508e+00 1.821953096428509333e+00 1.822423104049631482e+00 1.820850048715793701e+00 1.821339094837507222e+00 1.821099034058100141e+00 1.821945929129533237e+00 1.821213745773137660e+00 1.821624894434418662e+00 1.822038392933760687e+00 1.821196356118832682e+00 1.820596960954171450e+00 1.822212297678499793e+00 1.822190297167957995e+00 1.822301414057101665e+00 1.821735482168169717e+00 1.822133803964562482e+00 1.821839462956183819e+00 1.821583729069560231e+00 1.821888227821417683e+00 1.821605275421424697e+00 1.822433074923355267e+00 1.821898126971154941e+00 1.822894625149085179e+00 1.822788673753361843e+00 1.820366274192654954e+00 1.821234360639954364e+00 1.820972491853465991e+00 1.821430384536013802e+00 1.822232846395786199e+00 1.820981043145467382e+00 1.821625313916930500e+00 1.822440331525754242e+00 1.820771584015167921e+00 1.822124989642735171e+00 1.820890103982961694e+00 1.820716002738207662e+00 1.821886710863611425e+00 1.822240943547243308e+00 1.822270658360120921e+00 1.821630749602202393e+00 1.821939000283840926e+00 1.821757903325597505e+00 1.822279322931120493e+00 1.821261153020155898e+00 1.821945955527400240e+00 1.821018893826634732e+00 1.821845503292581769e+00 1.821394758505971545e+00 1.821147826124847935e+00 1.821059975527945962e+00 1.821457449676897156e+00 1.821375240690592978e+00 1.820983754988627634e+00 1.821858180431574992e+00 1.822359706076060792e+00 1.821997280688191445e+00 1.822274205728048546e+00 1.821633623638919453e+00 1.821117381310025873e+00 1.821804942739096767e+00 1.820943476932805005e+00 1.820924121225036441e+00 1.820660020085315800e+00 1.821505204748511408e+00 1.822689900944588715e+00 1.822424868359522998e+00 1.820646056607298391e+00 1.821266333518634761e+00 1.822339435133982555e+00 1.820555847392822946e+00 1.820424059922218341e+00 1.821880086428566248e+00 1.821416893491957900e+00 1.822217485855191832e+00 1.821048885386975957e+00 1.820304806725908442e+00 1.822164685673320017e+00 1.822468737087911350e+00 1.822014367362382981e+00 1.822536319615602585e+00 1.822060734785547531e+00 1.821165493509143474e+00 1.820848704111893923e+00 1.821944035948328100e+00 1.821345356506160140e+00 1.821881352099121276e+00 1.821495086175743738e+00 1.822901543585768058e+00 1.820923414576786525e+00 1.821058637926558754e+00 1.822512985776809202e+00 1.821582255203216372e+00 1.821529231284041872e+00 1.821293000909703474e+00 1.822406601079938238e+00 1.821718505881780859e+00 1.821552834055157888e+00 1.821690860648514043e+00 1.821764732888316862e+00 1.821492742597422110e+00 1.821215986158992717e+00 1.822255150057830342e+00 1.821401664075584126e+00 1.821050658381344167e+00 1.822030135782254590e+00 1.821784510751558894e+00 1.820778375998497234e+00 1.821422904467227655e+00 1.821574478614103709e+00
5.000000000000000000e+00 4.969989558150133213e+00 1.858275425213285620e-02 4.970000000000000639e+00 4.972442375241158175e+00 4.968908450313927361e+00 4.970232914652935818e+00 4.969532818872542279e+00 4.970830913937110296e+00 4.968628370837809172e+00 4.968397837617190227e+00 4.968673230787301165e+00 4.967309116257110801e+00 4.967602927745419450e+00 4.971736061987384048e+00 4.969859993771410522e+00 4.969175067248500888e+00 4.969586028618032003e+00 4.971151118562491256e+00 4.970545449137957483e+00 4.970141864745231786e+00 4.970620289974154282e+00 4.971368855618022664e+00 4.970909622275618389e+00 4.969483164214895332e+00 4.971489256422644942e+00 4.972169258178554152e+00 4.968970043263938763e+00 4.970903788097921883e+00 4.969392232234673301e+00 4.971511600282873644e+00 4.967712545861059148e+00 4.972318281440538890e+00 4.969601102280533311e+00 4.969440687114570210e+00 4.968375928401513875e+00 4.970067239582115270e+00 4.969283677745910843e+00 4.969123942083367496e+00 4.966421022198916901e+00 4.971877004937644173e+00 4.969467821592838064e+00 4.970584653456186608e+00 4.971204044277234502e+00 4.970285986182148896e+00 4.972139697766637667e+00 4.970748855089668794e+00 4.970309003708313078e+00 4.969426845580042773e+00 4.969425339179100121e+00 4.970439757453548602e+00 4.969817725018615739e+00 4.971684035218940423e+00 4.969613626086561098e+00 4.968195589682469659e+00 4.971633979043089013e+00 4.969016877153007883e+00 4.970344222809297996e+00 4.969909674942650568e+00 4.969914129530886626e+00 4.969247671653952203e+00 4.969541472312153374e+00 4.970210300335001108e+00 4.971652253641402730e+00 4.972816855139631897e+00 4.970945900216977797e+00 4.972068941929995489e+00 4.970626192155887857e+00 4.971847709076497424e+00 4.969516946030699600e+00 4.972512934091872339e+00 4.971846762753072468e+00 4.971729328921120405e+00 4.969054806099485688e+00 4.968893748021870671e+00 4.971181069843945366e+00 4.970543815718799330e+00 4.970194952991012549e+00 4.969518368371239170e+00 4.970326426029227029e+00 4.970986295879773920e+00 4.967341074261712563e+00 4.968505669196850327e+00 4.968844348008351730e+00 4.969794459330612035e+00 4.969116378700302761e+00 4.968801663770049615e+00 4.971628532739440942e+00 4.967537034730904466e+00 4.972538494419887378e+00 4.969709508884427862e+00 4.970701747304737239e+00 4.968640684641296268e+00 4.969556031917424122e+00 4.970030656363653598e+00 4.968571121854769679e+00 4.969944542113651664e+00 4.970191559829682859e+00 4.968424362913788528e+00 4.968599752472938391e+00 4.970994118360689384e+00 4.969991091615999501e+00 4.968733437512232953e+00 4.969724524914647112e+00 4.969353600253247016e+00 4.967827108653297685e+00 4.969209248195497253e+00 4.968378793982186181e+00 4.972554778644768803e+00 4.970143285586923199e+00 4.969185353498798641e+00 4.971719405787225377e+00 4.967965434221526699e+00 4.969724389004254839e+00 4.971453054829511942e+00 4.970976365773372763e+00 4.971130123674853962e+00 4.967949390973249280e+00 4.970385436737893237e+00 4.971070719958320616e+00 4.971872006280213085e+00 4.969153666804922764e+00 4.966863195454168434e+00 4.970196476142747954e+00 4.969541381633849397e+00 4.969852507010855902e+00 4.969311792038133113e+00 4.970433640528200137e+00 4.969559660727026262e+00 4.971265657801296811e+00 4.971630162605622516e+00 4.968578866556963014e+00 4.969064988000780225e+00 4.968821857868102043e+00 4.971278165389757753e+00 4.968910932521783508e+00 4.969562091598372255e+00 4.968319577528184539e+00 4.971694988324966147e+00 4.968923281473371034e+00 4.971181329511018099e+00 4.969722113637014438e+00 4.968986883904195295e+00 4.970150456205653988e+00 4.968999807796214085e+00 4.971369397614996188e+00 4.968653513485885576e+00 4.970445593805192352e+00 4.970635151804092544e+00 4.969219399845917984e+00 4.968977941913910179e+00 4.971745114951838573e+00 4.970106169993051992e+00 4.968340806007194743e+00 4.970970020423299829e+00 4.967953664614252141e+00 4.967691097459067784e+00 4.970657238984521165e+00 4.970738294209550823e+00 4.970449616771723811e+00 4.969833606701805628e+00 4.969339615547870181e+00 4.969307758914141004e+00 4.969983783104399144e+00 4.971852519693871209e+00 4.971321612455367855e+00 4.971578398666694376e+00 4.970348375022881626e+00 4.969674528810506864e+00 4.968892218940538008e+00 4.967920225260264999e+00 4.968295799249312417e+00 4.970685326804121118e+00 4.969613148597654906e+00 4.970981196047213224e+00 4.969992582338260689e+00 4.970747970619319389e+00 4.969000608938215713e+00 4.969591448887731744e+00 4.969467928327832240e+00 4.970575380990205794e+00 4.970522546289000587e+00 4.969801637243874026e+00 4.972108712742089764e+00 4.969881134957583768e+00 4.969158477502804594e+00 4.969763521552229335e+00 4.971456673033284090e+00 4.970725864285922668e+00 4.969517280136012793e+00 4.971158009787596477e+00 4.967673034784367836e+00 4.968409418581246406e+00 4.970593251756478814e+00 4.968861958698748360e+00 4.968832021875996041e+00 4.970449224915697073e+00 4.969278093223239878e+00 4.970039190884216751e+00 4.972006977196950395e+00 4.970165670627975096e+00 4.969180132289234386e+00 4.970316682432906141e+00 4.969847342844780691e+00 4.972212844819781097e+00 4.969676355616154062e+00 4.970622156128318814e+00 4.971004538265137107e+00 4.970520617372239158e+00 4.968888569199609861e+00 4.969398744972112425e+00 4.970860029017778459e+00 4.968715850429027192e+00 4.970070691834822085e+00 4.971109114910698956e+00 4.970689066048858962e+00 4.968235312225166567e+00 4.969156738432006115e+00 4.969902034458479001e+00 4.968616317623045120e+00 4.971859668032288404e+00 4.970695991101765188e+00 4.970367219420310789e+00 4.969409370731088238e+00 4.972082236613265316e+00 4.971411957989436026e+00 4.970124709868425583e+00 4.968425815149353220e+00 4.970838807721912112e+00
6.000000000000000000e+00 2.843356729009613969e-03 2.470443638232096048e-05 2.855993870027434892e-03 2.842496141975308591e-03 2.842806927297668144e-03 2.844449266975308810e-03 2.843023941186556720e-03 2.844792202503429457e-03 2.842697080761316837e-03 2.845904063786008388e-03 2.841424468449931569e-03 2.844009880829904014e-03 2.844178669410150732e-03 2.843870563271604784e-03 2.844601980452674764e-03 2.843859846536351231e-03 2.846595293209876459e-03 2.842833719135802462e-03 2.842552404835390831e-03 2.843975051440329315e-03 2.841378922325102883e-03 2.842906057098765465e-03 2.842806927297668144e-03 2.841904042352537841e-03 2.842683684842249679e-03 2.842367541152263349e-03 2.843444573045267581e-03 2.844904728223593936e-03 2.843940222050754616e-03 2.844167952674897179e-03 2.843066808127571801e-03 2.844877936385459619e-03 2.841670953360768068e-03 2.840559092078189136e-03 2.840213477366255318e-03 2.843372235082304578e-03 2.842889981995884701e-03 2.840422453703703512e-03 2.842525612997256514e-03 2.841724537037037136e-03 2.841890646433470682e-03 2.843669624485596539e-03 2.841582540294924734e-03 2.841483410493826980e-03 2.844344778806584279e-03 2.845858517661179702e-03 2.844958311899863004e-03 2.841689707647462437e-03 2.843232917524005348e-03 2.841003836591220709e-03 2.844505529835391049e-03 2.844326024519890344e-03 2.842825681584362080e-03 2.842163923182441498e-03 2.843385631001371736e-03 2.841794195816186534e-03 2.842177319101509090e-03 2.841207454561042560e-03 2.840977044753086392e-03 2.844167952674897179e-03 2.844261724108367723e-03 2.841896004801097459e-03 2.843053412208504643e-03 2.843557098765432060e-03 2.842672968106995691e-03 2.843452610596707963e-03 2.843736604080932765e-03 2.842303240740740727e-03 2.838260352366255099e-03 2.843645511831275827e-03 2.842868548525377161e-03 2.843155221193415568e-03 2.843929505315500629e-03 2.842563121570644818e-03 2.842705118312757219e-03 2.841440543552811900e-03 2.844845786179698091e-03 2.844192065329217891e-03 2.845036008230452784e-03 2.841427147633744741e-03 2.842667609739368915e-03 2.842230902777777724e-03 2.841601294581618670e-03 2.839843749999999920e-03 2.843950938786008169e-03 2.844904728223593936e-03 2.842930169753086610e-03 2.845467356824417197e-03 2.845904063786008388e-03 2.844508209019204221e-03 2.844615376371741923e-03 2.842445237482853129e-03 2.840891310871056230e-03 2.843262388545953270e-03 2.842764060356653064e-03 2.844454625342935587e-03 2.845938893175583087e-03 2.842568479938271594e-03 2.845338756001371955e-03 2.844912765775034318e-03 2.844494813100137062e-03 2.846348808299039961e-03 2.844146519204389639e-03 2.844095614711934176e-03 2.841979059499314016e-03 2.844106331447187729e-03 2.843399026920438895e-03 2.842276448902606410e-03 2.843557098765432060e-03 2.842581875857338753e-03 2.844401041666666519e-03 2.844371570644718596e-03 2.844216177983539037e-03 2.843816979595336150e-03 2.844025955932784778e-03 2.842801568930041368e-03 2.841054741083676172e-03 2.844770769032921916e-03 2.845030649862825573e-03 2.843246313443072507e-03 2.843816979595336150e-03 2.841652199074074132e-03 2.842343428497942203e-03 2.841831704389574838e-03 2.843348122427983432e-03 2.845202117626886330e-03 2.845638824588477521e-03 2.846664951989025857e-03 2.845183363340191961e-03 2.843983088991769697e-03 2.843573173868312823e-03 2.840647505144032903e-03 2.843771433470507464e-03 2.842793531378600986e-03 2.840315286351165810e-03 2.842999828532236008e-03 2.845920138888888718e-03 2.842964999142661309e-03 2.842705118312757219e-03 2.844042031035665108e-03 2.842865869341563989e-03 2.841421789266117964e-03 2.844500171467764273e-03 2.843908071844993089e-03 2.845065479252400706e-03 2.844902049039780331e-03 2.842474708504801051e-03 2.843632115912208668e-03 2.841569144375857142e-03 2.842734589334705141e-03 2.841049382716049395e-03 2.844526963305898590e-03 2.843634795096021840e-03 2.841574502743484353e-03 2.844141160836762862e-03 2.843672303669410144e-03 2.843760716735253911e-03 2.843691057956104079e-03 2.845917459705075547e-03 2.843015903635116772e-03 2.842973036694101691e-03 2.840226873285322477e-03 2.842249657064472093e-03 2.843291859567901193e-03 2.841954946844993304e-03 2.842764060356653064e-03 2.842568479938271594e-03 2.841708461934156372e-03 2.845140496399176881e-03 2.842327353395061873e-03 2.841762045610425440e-03 2.845317322530863981e-03 2.843171296296296332e-03 2.843900034293552707e-03 2.843455289780521134e-03 2.843728566529492383e-03 2.842616705246913452e-03 2.841984417866941226e-03 2.842881944444444319e-03 2.844687714334704926e-03 2.845006537208504861e-03 2.844162594307270402e-03 2.845863876028806479e-03 2.844553755144032907e-03 2.843755358367626700e-03 2.844516246570644603e-03 2.845352151920439113e-03 2.843484760802469057e-03 2.844090256344307399e-03 2.843771433470507464e-03 2.843203446502057426e-03 2.842702439128943614e-03 2.843583890603566377e-03 2.844979745370370544e-03 2.843693737139917684e-03 2.843495477537723044e-03 2.844154556755830020e-03 2.843144504458162015e-03 2.840926140260630929e-03 2.843390989368998513e-03 2.845236947016461029e-03 2.844384966563786189e-03 2.843452610596707963e-03 2.842407728909464824e-03 2.843173975480109937e-03 2.842415766460905206e-03 2.841579861111111129e-03 2.844773448216735088e-03 2.844944915980795411e-03 2.844427833504801269e-03 2.842731910150891536e-03 2.842300561556927122e-03 2.842196073388203025e-03 2.843934863683127406e-03 2.846217528292181113e-03 2.845689729080932984e-03 2.843106995884773711e-03 2.839441872427983429e-03 2.842402370541838048e-03 2.842134452160494009e-03 2.843685699588477302e-03 2.842257694615912041e-03 2.842040680727023465e-03 2.843165937928669555e-03 2.842793531378600986e-03 2.844371570644718596e-03 2.842589913408779135e-03 2.842699759945130442e-03
