# vvf statistics with RF=500
# gcat file: /disk2/salam/Abacus/AbacusCosmos_720box_products/GCAT_derivative/AbacusCosmos_720box_planck_rockstar_halos_z0.100_Mr21_hod-gammaIHV-pos_real-3.gcat.rsd_zz.1pz0.100by100
# stats order in row: stdvvf,p2.5,p16,p50,p84,p97.5,rho
# columns: numbers, mean, sigma,All, jnrealizations
0.000000000000000000e+00 1.410926697860600543e+00 4.868404077406554044e-03 1.410926928955524629e+00 1.411207980052610500e+00 1.410393212350925296e+00 1.410734629676970497e+00 1.410878283054274540e+00 1.411409271376084629e+00 1.410869543593073816e+00 1.411090700439737500e+00 1.409989935455522092e+00 1.409654602767464127e+00 1.410704523903042684e+00 1.411508459589696729e+00 1.411087570304055516e+00 1.411167086306434726e+00 1.411042201322402878e+00 1.411106724738605323e+00 1.411052900364189844e+00 1.411201995011751142e+00 1.410888365503523145e+00 1.411167339420948075e+00 1.411224083397592421e+00 1.411022717647591129e+00 1.411660589778376051e+00 1.410915904536036658e+00 1.410995865134635707e+00 1.410779511955163157e+00 1.411249460104496034e+00 1.411300528452141601e+00 1.410714550172776249e+00 1.411477930837478523e+00 1.410800839887010216e+00 1.410789680956823444e+00 1.410376186001522480e+00 1.411026032521561557e+00 1.411047138957791436e+00 1.410374514328039064e+00 1.410325477374432701e+00 1.410946342391817820e+00 1.410835674499060888e+00 1.410684847767278649e+00 1.411142476539816171e+00 1.410901829296575372e+00 1.411000104076599815e+00 1.411080268242816071e+00 1.410888446662948548e+00 1.410342360010255369e+00 1.411121542985224853e+00 1.410584467960865673e+00 1.411115512304062181e+00 1.410993026121476257e+00 1.410860448057690286e+00 1.410194130311869243e+00 1.410771611058728947e+00 1.410640087869496906e+00 1.411059267239755055e+00 1.410361851460935512e+00 1.410902428487458948e+00 1.410861374929435863e+00 1.411155921988179074e+00 1.411214410034611344e+00 1.410554378378468199e+00 1.411123621047395638e+00 1.411149897296483768e+00 1.411262934375820954e+00 1.411102823667534922e+00 1.411131497903604703e+00 1.410341043090518776e+00 1.411547134934111769e+00 1.411200328020967509e+00 1.411433595844231892e+00 1.410836610302796057e+00 1.410916658613955654e+00 1.411446640868652791e+00 1.410534736429921887e+00 1.410916951995020208e+00 1.410737917946078834e+00 1.411038879676190350e+00 1.410994579159755125e+00 1.410611621399286530e+00 1.410854774189279848e+00 1.410588648908280174e+00 1.410477843586453783e+00 1.411042139293845699e+00 1.410497605780062003e+00 1.411151055590269099e+00 1.410534168339653283e+00 1.411158249359464989e+00 1.410797818709013107e+00 1.411234668464129260e+00 1.410536218815230169e+00 1.410608089626492756e+00 1.411043039297971813e+00 1.410958959162115889e+00 1.411005337439405150e+00 1.411177355604632311e+00 1.410701428391163637e+00 1.410717776147642155e+00 1.411441130941338162e+00 1.410990205967908917e+00 1.410791237669489551e+00 1.410728133077587820e+00 1.411078883497306258e+00 1.410409139278983481e+00 1.410652788376866251e+00 1.410951431611193962e+00 1.411056273240851366e+00 1.411118975254903596e+00 1.410851694249150468e+00 1.410972321017358144e+00 1.410581166530539665e+00 1.410802490168331147e+00 1.411271724063625221e+00 1.411027944695262493e+00 1.410934992366442042e+00 1.410292467066209143e+00 1.411245022078413403e+00 1.411157641978267874e+00 1.411112296712505376e+00 1.411048293516210306e+00 1.410362146138028905e+00 1.411052610428057408e+00 1.410745865791072973e+00 1.410818901872898046e+00 1.411175439607577520e+00 1.410860544421607798e+00 1.410693957280639177e+00 1.410896191865672389e+00 1.411527324004844486e+00 1.411299203531325652e+00 1.410820609637116974e+00 1.411035383817087041e+00 1.411200375925880879e+00 1.410667368418724532e+00 1.410786793400467198e+00 1.410967341993292656e+00 1.410965784629945041e+00 1.410866913111279208e+00 1.411121512365392405e+00 1.410653562100258718e+00 1.410040665655436509e+00 1.410082801318708334e+00 1.410920303398974562e+00 1.411524351268371280e+00 1.411124837211511052e+00 1.411199380376534585e+00 1.411075691670205190e+00 1.410967665177017105e+00 1.410846066723107528e+00 1.410968525900455628e+00 1.410616485116961361e+00 1.410911168439830110e+00 1.410584579461722887e+00 1.410895716221602925e+00 1.410114157936960044e+00 1.411159526443014789e+00 1.410984616948411485e+00 1.411493089304926452e+00 1.411093035726574740e+00 1.411347480095430651e+00 1.410465103441033818e+00 1.411120132212905665e+00 1.411388563256116946e+00 1.411141359151906194e+00 1.410793775873941724e+00 1.410881641967505429e+00 1.410820816612866180e+00 1.410784626316747836e+00 1.410584880941026853e+00 1.410634084060627735e+00 1.411173872357845305e+00 1.410881116389351542e+00 1.410946148603806627e+00 1.410774225433014006e+00 1.411417391450518810e+00 1.410665272125793956e+00 1.410898537255745877e+00 1.411190377915620742e+00 1.411514273207944425e+00 1.411089017037583826e+00 1.410642982107946253e+00 1.411136041218040926e+00 1.411126818622936208e+00 1.411099267240455868e+00 1.411127737255167380e+00 1.411293084571919598e+00 1.411373402515146980e+00 1.411380369958223024e+00 1.411403220120783120e+00 1.410849890826432640e+00 1.410318313903663245e+00 1.411229765979607365e+00 1.410901029218442959e+00 1.411384026962481775e+00 1.411218738947621842e+00 1.410810504166516877e+00 1.410503657308382008e+00 1.410865637980773135e+00 1.411155550610477816e+00 1.411030031554517006e+00 1.411412357974319853e+00 1.410714936648017170e+00 1.411079099293733874e+00 1.411083002096239936e+00 1.410908832108091815e+00 1.410510228822578371e+00 1.410929986032921413e+00 1.411213734869292136e+00 1.410753809638721545e+00 1.410954179458607571e+00 1.410656382671893638e+00 1.410642857588528365e+00 1.411164024904152825e+00 1.410756917211364092e+00 1.410712364894249227e+00 1.410628598607801543e+00 1.410199262965473155e+00 1.410937833787007767e+00 1.411088784078024627e+00 1.410728490406713220e+00 1.411252089420182321e+00 1.411022058590751582e+00 1.411443025946988117e+00 1.411363314313966555e+00 1.411280419777268369e+00 1.410363451336114293e+00 1.410845434092475870e+00
1.000000000000000000e+00 2.599999983182396321e-02 1.906381349986388952e-04 2.599999999999999881e-02 2.599496710196981877e-02 2.599411503493060174e-02 2.600996136806003195e-02 2.599728715030715301e-02 2.601815569049130417e-02 2.599469516401789471e-02 2.602386343825400725e-02 2.598484851191318334e-02 2.601147778187480955e-02 2.600685817714838005e-02 2.600702878919134570e-02 2.600912436350865178e-02 2.600640309494202385e-02 2.602858632135662126e-02 2.599931328451775617e-02 2.599142048000084235e-02 2.600590700997594193e-02 2.598614924685284724e-02 2.599613129595618188e-02 2.599233137283997117e-02 2.598740059839391159e-02 2.600129446533211777e-02 2.599284426197348910e-02 2.600551333005328772e-02 2.601636778460504618e-02 2.600860959371219250e-02 2.600753652833088028e-02 2.599913082476097356e-02 2.601471300576078602e-02 2.598787220027044820e-02 2.597528998763511121e-02 2.596772442505133546e-02 2.600113299537545192e-02 2.599462799626244686e-02 2.597409526582613454e-02 2.599233058722270201e-02 2.598776809239182126e-02 2.598500169754974082e-02 2.599983859946471479e-02 2.598514432462459278e-02 2.598472413964828670e-02 2.601383592713691142e-02 2.601936041080147449e-02 2.601327680513481483e-02 2.598490540297117984e-02 2.599591304903560093e-02 2.598482000641286899e-02 2.601236581453626392e-02 2.600861047084471189e-02 2.599726561999683716e-02 2.599313205784769404e-02 2.599758209027798125e-02 2.598612322015551174e-02 2.598949980590458536e-02 2.598096253052993229e-02 2.598096808273850367e-02 2.600636303585393896e-02 2.600666842798123046e-02 2.599408956716870583e-02 2.599320585736745320e-02 2.599953132846328369e-02 2.599236435046003990e-02 2.600097360648633352e-02 2.600449221205722306e-02 2.599020489026369202e-02 2.595290022476206063e-02 2.599838942949667456e-02 2.599910307195324455e-02 2.599698321624932529e-02 2.600484821676338210e-02 2.599814180455932086e-02 2.599173438699790145e-02 2.598202807781323231e-02 2.601288632710470339e-02 2.600916081641942851e-02 2.601238259759464794e-02 2.598616161816910339e-02 2.599412957333852719e-02 2.598534257105107256e-02 2.598140212990495551e-02 2.597014029121701151e-02 2.600267196504981240e-02 2.601294499923824388e-02 2.600060690891074430e-02 2.601635482822176743e-02 2.602771136180166700e-02 2.601072649624820363e-02 2.601091195693437663e-02 2.599502113904127165e-02 2.597754861512618224e-02 2.599891017822530612e-02 2.599142963860947078e-02 2.600808650358071850e-02 2.602393473992482484e-02 2.599691586936213328e-02 2.601343307636234253e-02 2.601306080474924051e-02 2.601567117101434221e-02 2.602482289240641566e-02 2.601161575047908694e-02 2.600466438214272050e-02 2.598671718020222760e-02 2.600858849640759474e-02 2.600106767032172098e-02 2.599263944710503149e-02 2.600105779971932304e-02 2.599569419744345022e-02 2.601295119244511136e-02 2.600796494962171607e-02 2.601099960515398934e-02 2.600217614653701007e-02 2.600618310224088459e-02 2.599212907662887262e-02 2.597676501318554182e-02 2.601265217868951526e-02 2.601981483823313790e-02 2.599836099161332084e-02 2.600617728770954207e-02 2.598769995836817601e-02 2.599155185994701800e-02 2.598992037916925818e-02 2.599860451997746194e-02 2.601466037251055560e-02 2.602207385302930664e-02 2.602973236928248293e-02 2.601594779079157219e-02 2.600666313261598694e-02 2.600335197827241193e-02 2.597362998050619168e-02 2.600733053475700121e-02 2.599608480607899091e-02 2.597380532545020757e-02 2.599776146821523165e-02 2.602277068573149998e-02 2.599581934319577028e-02 2.599551468301896859e-02 2.600531293522670429e-02 2.599789002482848221e-02 2.598345844995245124e-02 2.601033024329068438e-02 2.601022467746310143e-02 2.601713299029907375e-02 2.601321146779577223e-02 2.599129274631759023e-02 2.600531487650173737e-02 2.598819211632790588e-02 2.599256537821897223e-02 2.597680510292008429e-02 2.600932484874363473e-02 2.600480001367532976e-02 2.598169953489074674e-02 2.600822829872715541e-02 2.599836991599174807e-02 2.600360695441663803e-02 2.600871240015049934e-02 2.602232004014864292e-02 2.599855396315567391e-02 2.599866495411183587e-02 2.597619044477284672e-02 2.599062584272611789e-02 2.599757580060802972e-02 2.598619180907078136e-02 2.599717112308628716e-02 2.599216006618052660e-02 2.598688408697268082e-02 2.601204477795228051e-02 2.598896427562297218e-02 2.599110680006619031e-02 2.601451584530299968e-02 2.599517258179751683e-02 2.600674472050993474e-02 2.599958875833241131e-02 2.600271065926040154e-02 2.599299781114841959e-02 2.598938717815459445e-02 2.599507924488733343e-02 2.601236403770756239e-02 2.601068734153160270e-02 2.600640056445307699e-02 2.601911985039043890e-02 2.601066820338936159e-02 2.600411664866679115e-02 2.600933869282113023e-02 2.601835902554526861e-02 2.600670035947718478e-02 2.600192404763104412e-02 2.600557451679174834e-02 2.599521636579935069e-02 2.599248391773252911e-02 2.600547250726046450e-02 2.601604597639038674e-02 2.600020748837707230e-02 2.600219221365882363e-02 2.600924565937919736e-02 2.599852985636023212e-02 2.598026355275783947e-02 2.600186701040379730e-02 2.601770315202892730e-02 2.601311358532157683e-02 2.600013670194934942e-02 2.599236567949584145e-02 2.599840027150528837e-02 2.599321036570245019e-02 2.598443856094631230e-02 2.601630939728914391e-02 2.601475735050217883e-02 2.600788436203909162e-02 2.599101703380809689e-02 2.598882715074068636e-02 2.599320029510537172e-02 2.600823704522827948e-02 2.602411321756982823e-02 2.602138903573935486e-02 2.599590217368804440e-02 2.596236599899207076e-02 2.599482945130941747e-02 2.598705438615984270e-02 2.600193545502097608e-02 2.599325480750074024e-02 2.598940222198695832e-02 2.599879062583191486e-02 2.600166900413016999e-02 2.601155629385229137e-02 2.599467411684699622e-02 2.599378285801160621e-02
2.000000000000000000e+00 1.139999992626127556e-01 8.358748996094200658e-04 1.140000000000000041e-01 1.139779326778676549e-01 1.139741966916187899e-01 1.140436767676478308e-01 1.139881051975006054e-01 1.140796057198464886e-01 1.139767403345399860e-01 1.141046319984983515e-01 1.139335665522347302e-01 1.140503256589895653e-01 1.140300704690352107e-01 1.140308185372235772e-01 1.140400068246148479e-01 1.140280751085919475e-01 1.141253400244097993e-01 1.139969890167316924e-01 1.139623821046190644e-01 1.140258999668176121e-01 1.139392697746624827e-01 1.139830372207309567e-01 1.139663760193752595e-01 1.139447564698809756e-01 1.140056757326100567e-01 1.139686248409606806e-01 1.140241738317721021e-01 1.140717664401913606e-01 1.140377497570457532e-01 1.140330447780661671e-01 1.139961890008750339e-01 1.140645108714126721e-01 1.139468242627242889e-01 1.138916560996308669e-01 1.138584840175327767e-01 1.140049677489539115e-01 1.139764458297661265e-01 1.138864177040068981e-01 1.139663725747456779e-01 1.139463677897179922e-01 1.139342382123334774e-01 1.139992923207298892e-01 1.139348635772001461e-01 1.139330212276886412e-01 1.140606652189849191e-01 1.140848879550526163e-01 1.140582136840526672e-01 1.139338159976428649e-01 1.139820802919253306e-01 1.139334415665795019e-01 1.140542193406589994e-01 1.140377536029345135e-01 1.139880107953707700e-01 1.139698867151783535e-01 1.139893983958342183e-01 1.139391556576049291e-01 1.139539606874278022e-01 1.139165280184774032e-01 1.139165523627765214e-01 1.140278994648980249e-01 1.140292384919177060e-01 1.139740850252781712e-01 1.139702102976880571e-01 1.139979450555697743e-01 1.139665206135555553e-01 1.140042688899785411e-01 1.140196966220970581e-01 1.139570522111562068e-01 1.137934856008797901e-01 1.139929382677931091e-01 1.139960673154872817e-01 1.139867725635547446e-01 1.140212575658086647e-01 1.139918525276831796e-01 1.139637584660677244e-01 1.139212000334887953e-01 1.140565015880744687e-01 1.140401666566082384e-01 1.140542929279149964e-01 1.139393240181260647e-01 1.139742604369458623e-01 1.139357328115316315e-01 1.139184554926601922e-01 1.138690766614899874e-01 1.140117155390645565e-01 1.140567588428138407e-01 1.140026610621470982e-01 1.140717096314339124e-01 1.141215036632842461e-01 1.140470315604728835e-01 1.140478447342507251e-01 1.139781696096424934e-01 1.139015593124763359e-01 1.139952215506801758e-01 1.139624222615953780e-01 1.140354562080077711e-01 1.141049446289011532e-01 1.139864772733570342e-01 1.140588988732810227e-01 1.140572666054389672e-01 1.140687120575244323e-01 1.141088388359358247e-01 1.140509305982544686e-01 1.140204515217026898e-01 1.139417599439636053e-01 1.140376572534794464e-01 1.140046813237183265e-01 1.139677268065374532e-01 1.140046380449231817e-01 1.139811207118674452e-01 1.140567859976439474e-01 1.140349232406490665e-01 1.140482290379828678e-01 1.140095415655853622e-01 1.140271105252100431e-01 1.139654890282958133e-01 1.138981235193519820e-01 1.140554749373309529e-01 1.140868804445606816e-01 1.139928135786122537e-01 1.140270850307264772e-01 1.139460690482296951e-01 1.139629581551523108e-01 1.139558047394344659e-01 1.139938813568242559e-01 1.140642800948539759e-01 1.140967853555900358e-01 1.141303650037770179e-01 1.140699249288553568e-01 1.140292152737777953e-01 1.140146971355021216e-01 1.138843776068348412e-01 1.140321415754730061e-01 1.139828333805001648e-01 1.138851464269739766e-01 1.139901848990975547e-01 1.140998406989765790e-01 1.139816694278583814e-01 1.139803336101600922e-01 1.140232951775324577e-01 1.139907485704018120e-01 1.139274716651761249e-01 1.140452941436591316e-01 1.140448312781074530e-01 1.140751215728497969e-01 1.140579272049506987e-01 1.139618220415463540e-01 1.140233036892768503e-01 1.139482269715915846e-01 1.139674020429601170e-01 1.138982992974188202e-01 1.140408858752605531e-01 1.140210462138072228e-01 1.139197594991363527e-01 1.140360779251883006e-01 1.139928527085792009e-01 1.140158151078267956e-01 1.140382005237367963e-01 1.140978647914209776e-01 1.139936596846056471e-01 1.139941463372595859e-01 1.138956042578501693e-01 1.139588979257991352e-01 1.139893708180505921e-01 1.139394563936180493e-01 1.139875964627629634e-01 1.139656249055607667e-01 1.139424917659571379e-01 1.140528117187138701e-01 1.139516125931161195e-01 1.139610067387517578e-01 1.140636463986362259e-01 1.139788336278814429e-01 1.140295730053128009e-01 1.139981968634574960e-01 1.140118851982956094e-01 1.139692980950353790e-01 1.139534668580624577e-01 1.139784243814290776e-01 1.140542115499485476e-01 1.140468598821001017e-01 1.140280640133711776e-01 1.140838331901734559e-01 1.140467759687072008e-01 1.140180499210774606e-01 1.140409465762157321e-01 1.140804972658523292e-01 1.140293784992461174e-01 1.140084362088438080e-01 1.140244421120868851e-01 1.139790256038894500e-01 1.139670448700580013e-01 1.140239948395266600e-01 1.140703554349424692e-01 1.140009097567302454e-01 1.140096120137348290e-01 1.140405386603549481e-01 1.139935539855794766e-01 1.139134632697843680e-01 1.140081861225397120e-01 1.140776215127422277e-01 1.140574980279484563e-01 1.140005993854702193e-01 1.139665264408663836e-01 1.139929858058308654e-01 1.139702300650030503e-01 1.139317690749184486e-01 1.140715104342677755e-01 1.140647053060480087e-01 1.140345698950944731e-01 1.139606131482354956e-01 1.139510113532476165e-01 1.139701859093081721e-01 1.140361162752316915e-01 1.141057271847292498e-01 1.140937826951648609e-01 1.139820326077091162e-01 1.138349893801960111e-01 1.139773291326643678e-01 1.139432384623931677e-01 1.140084862258611970e-01 1.139704249251955598e-01 1.139535328194812708e-01 1.139946973594168356e-01 1.140073179411861259e-01 1.140506699038138921e-01 1.139766480507906771e-01 1.139727402235893444e-01
3.000000000000000000e+00 4.940707132887178776e-01 5.095799970592675490e-03 4.939999999999999947e-01 4.939043749374265602e-01 4.938881856636814227e-01 4.941892659931406140e-01 4.939484558558359106e-01 4.943449581193347653e-01 4.938992081163399717e-01 4.944534053268261342e-01 4.957109562272668524e-01 4.942180778556213849e-01 4.941303053658192557e-01 4.941335469946355197e-01 4.941733629066643596e-01 4.941216588038984669e-01 4.945431401057758247e-01 4.939869524058373429e-01 4.938369891200159456e-01 4.941122331895428932e-01 4.937368356902041011e-01 4.939264946231674558e-01 4.938542960839594764e-01 4.937606113694842369e-01 4.940245948413102273e-01 4.938640409774963103e-01 4.941047532710124424e-01 4.943109879074958912e-01 4.941635822805316436e-01 4.941431940382867705e-01 4.939834856704585220e-01 4.942795471094549309e-01 4.937695718051385296e-01 4.935305097650671269e-01 4.953842813394408462e-01 4.940215269121336350e-01 4.938979319289864556e-01 4.955058173788370324e-01 4.938542811572312896e-01 4.937675937554446559e-01 4.937150322534450964e-01 4.939969333898295845e-01 4.937177421678672906e-01 4.937097586533174542e-01 4.942628826156013067e-01 4.943678478052280223e-01 4.942522592975615026e-01 4.937132026564524101e-01 4.939223479316764420e-01 4.937115801218445177e-01 4.942349504761889833e-01 4.941635989460495537e-01 4.939480467799399754e-01 4.938695090991061520e-01 4.939540597152816126e-01 4.937363411829547299e-01 4.938004963121871427e-01 4.936382880800687656e-01 4.936383935720315419e-01 4.941208976812248022e-01 4.941267001316433372e-01 4.938877017762053900e-01 4.938709112899815623e-01 4.939910952408023692e-01 4.938549226587407026e-01 4.940184985232403125e-01 4.940853520290872658e-01 4.938138929150102663e-01 4.951014812108454621e-01 4.939693991604368062e-01 4.939829583671116464e-01 4.939426811087371805e-01 4.940921161185041766e-01 4.939646942866270929e-01 4.938429533529601345e-01 4.936585334784514001e-01 4.942448402149893227e-01 4.941740555119690237e-01 4.942352693542982900e-01 4.937370707452129470e-01 4.938884618934321069e-01 4.937215088499704030e-01 4.936466404681941755e-01 4.954303686324476041e-01 4.940507673359464391e-01 4.942459549855266476e-01 4.940115312693041383e-01 4.943107417362136435e-01 4.945265158742317424e-01 4.942038034287158377e-01 4.942073271817531421e-01 4.939054016417841475e-01 4.935734236873974279e-01 4.939792933862808266e-01 4.938371631335799483e-01 4.941536435680336514e-01 4.944547600585716407e-01 4.939414015178805739e-01 4.942552284508844873e-01 4.942481552902355246e-01 4.942977522492725262e-01 4.944716349557219393e-01 4.942206992591026693e-01 4.940886232607116790e-01 4.937476264238422896e-01 4.941631814317443139e-01 4.940202857361127298e-01 4.938601494949956261e-01 4.940200981946671344e-01 4.939181897514255404e-01 4.942460726564570916e-01 4.941513340428125844e-01 4.942089924979257698e-01 4.940413467842031947e-01 4.941174789425768488e-01 4.938504524559485520e-01 4.955567479438471867e-01 4.942403913951007866e-01 4.943764819264296340e-01 4.939688588406531133e-01 4.941173684664812993e-01 4.937662992089953407e-01 4.938394853389933004e-01 4.938084872042159956e-01 4.939734858795717942e-01 4.942785470777005252e-01 4.944194032075567846e-01 4.945649150163671237e-01 4.943030080250399028e-01 4.941265995197037797e-01 4.940636875871758371e-01 4.934989696296176453e-01 4.941392801603829987e-01 4.939256113155007233e-01 4.935023011835539264e-01 4.939574678960893528e-01 4.944326430288984997e-01 4.939205675207196666e-01 4.939147789773604136e-01 4.941009457693073537e-01 4.939599104717411482e-01 4.936857105490965458e-01 4.941962746225229686e-01 4.941942688717989585e-01 4.943255268156824256e-01 4.942510178881197036e-01 4.938345621800341867e-01 4.941009826535329719e-01 4.937756502102302325e-01 4.938587421861604931e-01 4.935592969554816190e-01 4.941771721261290495e-01 4.940912002598312758e-01 4.936522911629241950e-01 4.941563376758159598e-01 4.939690284038432133e-01 4.940685321339161606e-01 4.941655356028594737e-01 4.944240807628242362e-01 4.939725252999577765e-01 4.939746341281249231e-01 4.955457869464358067e-01 4.938218910117962435e-01 4.939539402115525335e-01 4.937376443723448527e-01 4.939462513386395082e-01 4.938510412574299568e-01 4.937507976524809217e-01 4.942288507810933540e-01 4.937903212368364714e-01 4.938310292012576541e-01 4.942758010607569696e-01 4.939082790541528545e-01 4.941281496896887115e-01 4.939921864083158254e-01 4.940515025259476500e-01 4.938669584118199340e-01 4.937983563849372981e-01 4.939065056528593178e-01 4.942349167164437063e-01 4.942030594891004269e-01 4.941216107246084732e-01 4.943632771574183460e-01 4.942026958643978563e-01 4.940782163246690284e-01 4.941774351636015195e-01 4.943488214853600793e-01 4.941273068300665039e-01 4.940365569049898209e-01 4.941059158190431733e-01 4.939091109501875798e-01 4.938571944369180566e-01 4.941039776379487769e-01 4.943048735514173342e-01 4.940039422791643875e-01 4.940416520595176664e-01 4.941756675282047984e-01 4.939720672708444171e-01 4.936250075023989048e-01 4.940354731976721592e-01 4.943363598885496257e-01 4.942491581211099771e-01 4.940025973370376078e-01 4.938549479104209494e-01 4.939696051586004999e-01 4.938709969483465190e-01 4.937043326579799163e-01 4.943098785484937308e-01 4.942803896595413526e-01 4.941498028787427166e-01 4.938293236423538235e-01 4.937877158640729958e-01 4.938708056070020835e-01 4.941565038593372927e-01 4.944581511338267399e-01 4.944063916790477076e-01 4.939221413000728367e-01 4.952820590576949011e-01 4.939017595748789180e-01 4.937540333370370460e-01 4.940367736453985525e-01 4.938718413425141063e-01 4.937986422177521595e-01 4.939770218908063337e-01 4.940317110784732124e-01 4.942195695831935187e-01 4.938988082200929108e-01 4.938818743022205249e-01
4.000000000000000000e+00 1.816193884444210260e+00 8.947196432608753650e-03 1.816000000000000059e+00 1.815648471429891941e+00 1.815588957824383565e+00 1.816695763246038986e+00 1.815810517882991970e+00 1.815266708559662545e+00 1.815629477609865150e+00 1.815664933730491093e+00 1.816940561333006521e+00 1.816801678918640306e+00 1.816479017296209975e+00 1.816490933891210968e+00 1.816637301697373363e+00 1.816447231554412234e+00 1.815994445651573530e+00 1.815952035564778688e+00 1.815400753526212663e+00 1.816412581927550507e+00 1.817031512722249165e+00 1.815729785902170157e+00 1.815464375887591908e+00 1.817119011072312329e+00 1.816090413424735539e+00 1.815500199220917654e+00 1.816385084899106550e+00 1.817143226801644751e+00 1.816601347006974621e+00 1.816526397517264968e+00 1.815939291452535631e+00 1.817027646863907053e+00 1.817151986926603069e+00 1.816272199904639617e+00 1.815743192490127944e+00 1.816079135369300879e+00 1.815624786200484397e+00 1.816188661279688921e+00 1.815464321015247018e+00 1.817144707383397506e+00 1.816951272544054863e+00 1.815988726793381636e+00 1.816961245467981101e+00 1.816931864841560884e+00 1.816966386295408853e+00 1.815350760968995170e+00 1.816927333774032149e+00 1.816944539330830999e+00 1.815714542194178938e+00 1.816938568140714860e+00 1.816863704584532835e+00 1.816601408271307561e+00 1.815809014073625605e+00 1.815520300655823593e+00 1.815831118305569536e+00 1.817029692855489209e+00 1.815266601827797199e+00 1.816668841557823821e+00 1.816669229785330852e+00 1.816444433581182683e+00 1.816465764046688802e+00 1.815587178999167994e+00 1.815525455268434118e+00 1.815967265095743022e+00 1.815466679247516479e+00 1.816068002668429937e+00 1.816313763734458409e+00 1.817235125927163297e+00 1.816703015733344140e+00 1.815887507844844651e+00 1.815937353025657286e+00 1.815789289258029848e+00 1.816338629293934526e+00 1.815870212195374034e+00 1.815422678722622418e+00 1.816743347902479044e+00 1.816900060385466809e+00 1.816639847792987483e+00 1.816864876816610685e+00 1.817032377762747286e+00 1.815589973276260372e+00 1.816975107468109751e+00 1.816699579698739075e+00 1.815912117285866323e+00 1.816186626481940625e+00 1.816904158408332748e+00 1.816042390253150618e+00 1.817142321848105091e+00 1.815933400396470443e+00 1.816749204507182469e+00 1.816762158222801071e+00 1.815652245711497859e+00 1.816430130088438455e+00 1.815923880140659641e+00 1.815401393219800097e+00 1.816564811173176253e+00 1.815669908393216625e+00 1.815784585336986057e+00 1.816938248718231286e+00 1.814911242300581540e+00 1.815093365546923909e+00 1.815731874108662991e+00 1.816811315495000967e+00 1.816325789152737569e+00 1.817071224369524840e+00 1.816599873441391955e+00 1.816074572665547837e+00 1.815485893690105268e+00 1.816073883241934306e+00 1.815699256252204297e+00 1.816904590980012335e+00 1.816556321096655324e+00 1.816768280113832512e+00 1.816151995465815849e+00 1.816431865910363319e+00 1.815450246275308821e+00 1.816375338229665681e+00 1.814882732774722340e+00 1.815382466021342900e+00 1.815885521568068928e+00 1.816431459787712699e+00 1.817139943242821021e+00 1.815409929910145603e+00 1.815295977252745496e+00 1.815902531087656868e+00 1.817023970633814045e+00 1.815540075745967652e+00 1.816074404533785325e+00 1.815112665095996780e+00 1.816465394185793558e+00 1.816234122790103989e+00 1.816156127098471407e+00 1.816512009658411975e+00 1.815726538763055231e+00 1.816168387756479818e+00 1.815843647164571362e+00 1.815588693227574657e+00 1.815707997201673862e+00 1.815686717860094390e+00 1.816371088091218944e+00 1.815852626349558685e+00 1.816843363923598131e+00 1.816721527762149124e+00 1.816714154395115077e+00 1.815195355553943291e+00 1.816922770212197058e+00 1.815391831819720858e+00 1.816371223681813696e+00 1.815175264740441330e+00 1.815480720263294545e+00 1.816378141427258175e+00 1.816651304819939972e+00 1.816335262493630864e+00 1.816720375170437940e+00 1.816574715018788977e+00 1.815886144901577293e+00 1.816251931893100524e+00 1.816608527641280890e+00 1.815557252031909208e+00 1.815898999888103882e+00 1.815906752179503592e+00 1.816335162638347489e+00 1.815345251168870355e+00 1.815830678996314784e+00 1.817034488803487724e+00 1.815802413827872996e+00 1.815452410776301484e+00 1.817082895004474397e+00 1.816841281413897891e+00 1.817228348195483179e+00 1.815378844189238672e+00 1.817013875964240244e+00 1.815662823405549631e+00 1.816471092786386077e+00 1.815971276351217689e+00 1.816189329123726548e+00 1.815510924040212526e+00 1.815258735212643915e+00 1.815656304181361369e+00 1.816863580479882057e+00 1.816746469700822653e+00 1.816447054809491757e+00 1.815333977254163678e+00 1.816745132975195354e+00 1.816287532076111155e+00 1.816652271775506700e+00 1.817282307322700241e+00 1.816467994338867964e+00 1.816134387326845179e+00 1.816389358557454203e+00 1.815665881549677563e+00 1.815475030561625847e+00 1.816382233584038719e+00 1.817120749735574803e+00 1.816014492265106028e+00 1.816153117692477892e+00 1.816645773747408654e+00 1.815897316121160676e+00 1.816619966881298120e+00 1.816130403495896051e+00 1.815235135299249070e+00 1.816915933497845526e+00 1.816009548105385285e+00 1.815466772075555735e+00 1.815888265117446387e+00 1.815525770158294083e+00 1.816911896300015261e+00 1.817139148672195503e+00 1.817030744173536494e+00 1.816550692363961161e+00 1.815372574361365565e+00 1.817218760001791056e+00 1.815525066765821371e+00 1.816575325928252216e+00 1.815682360641218018e+00 1.815492296570430319e+00 1.815713782592980330e+00 1.817365619929444787e+00 1.815638857060688505e+00 1.817094802847638357e+00 1.816135184089157306e+00 1.815528874246974844e+00 1.815259785966473416e+00 1.815915529865798295e+00 1.816116573519245936e+00 1.816807162678298448e+00 1.815628007545928568e+00 1.815565756544195164e+00
5.000000000000000000e+00 4.964742542992720331e+00 1.728943261750779531e-02 4.964000000000000412e+00 4.965038716476235514e+00 4.962876424361365224e+00 4.963901088781303095e+00 4.965481845708666242e+00 4.967466340292262750e+00 4.964986776327417139e+00 4.964552409759225959e+00 4.963106065775417797e+00 4.963890358089268595e+00 4.963308856731163843e+00 4.967342498735546563e+00 4.963741349681920489e+00 4.965222498588161670e+00 4.965453390535724765e+00 4.965868837342891418e+00 4.964361311680160149e+00 4.965127784520022125e+00 4.965353440706343768e+00 4.965261077527630462e+00 4.966534702318037731e+00 4.965592545108497902e+00 4.966247242878434776e+00 4.964633254036936449e+00 4.965052621937865673e+00 4.963122469678500792e+00 4.965643770122589729e+00 4.965438897178249711e+00 4.963834054388979844e+00 4.964807920560962096e+00 4.963683590251655176e+00 4.963278486868124340e+00 4.963830399711735453e+00 4.964216314963221244e+00 4.964973947286127398e+00 4.963050203100931590e+00 4.962535732114364606e+00 4.965662764730867984e+00 4.963135324232000656e+00 4.963969184913186616e+00 4.965161423259037754e+00 4.965081135606641993e+00 4.964640533478974938e+00 4.965694859938342809e+00 4.962532805902641897e+00 4.963116931967495482e+00 4.965219392365799678e+00 4.963100621224858067e+00 4.964359968143420510e+00 4.965643937587429058e+00 4.963477943756320343e+00 4.964688223048909776e+00 4.963538365236149552e+00 4.963349535049702332e+00 4.963994462927775686e+00 4.964362378910489149e+00 4.964363439809418743e+00 4.963214360919509183e+00 4.965273156788415854e+00 4.964871107329222433e+00 4.964702318757183264e+00 4.965910483736486469e+00 4.965241385362407556e+00 4.964185883946083067e+00 4.964857666948155668e+00 4.964129134040366154e+00 4.962993073750652684e+00 4.967692257143825785e+00 4.965828686743069653e+00 4.965423794303621463e+00 4.964925636462054648e+00 4.965645084670830656e+00 4.966420632100214227e+00 4.962567362862327691e+00 4.964459305965135627e+00 4.965749011257924117e+00 4.964363171125563134e+00 4.965355804579388632e+00 4.964878748507659090e+00 4.963200431070754703e+00 4.962447806811846718e+00 4.964292201821097983e+00 4.964510139788741228e+00 4.964470503316159800e+00 4.966115919601952200e+00 4.963119997999229760e+00 4.965286475174472081e+00 4.966047935668310487e+00 4.964082505011860214e+00 4.965049037556882539e+00 4.963710058459494867e+00 4.965791844041033798e+00 4.964363060974409159e+00 4.965543900145179990e+00 4.964566011924119948e+00 4.964860996289113260e+00 4.964563650958074170e+00 4.966493609029816625e+00 4.966991988189046303e+00 4.964735444089839689e+00 4.964216821302970928e+00 4.964890538190632974e+00 4.963462981418625297e+00 4.963639081506711292e+00 4.964203842902962904e+00 4.966593568200684317e+00 4.966202039746391073e+00 4.965177591711698923e+00 4.964471685265871237e+00 4.963520080000883183e+00 4.964099232337464862e+00 4.964415476592681564e+00 4.965180496904760155e+00 4.964496653636114587e+00 4.963560330211760352e+00 4.966415592885183194e+00 4.965781585665878239e+00 4.965686949398143923e+00 4.965179386776545023e+00 4.961651638205370141e+00 4.964386405249880063e+00 4.964074792421329541e+00 4.963733570660312289e+00 4.964797875707590791e+00 4.964211011962513354e+00 4.965672021216965604e+00 4.965043574534914406e+00 4.967272658329653368e+00 4.964639970005548797e+00 4.964959269350607052e+00 4.965349554153836387e+00 4.965252197961086189e+00 4.964992787211058634e+00 4.963572612623861957e+00 4.964343946201085878e+00 4.965201494550392169e+00 4.965143304456622886e+00 4.967014770628300546e+00 4.963597157048022623e+00 4.962840563940917882e+00 4.963971487200321775e+00 4.965952126881801654e+00 4.967271083224792605e+00 4.964521357815486091e+00 4.966336244757914464e+00 4.965014732575177447e+00 4.965743785919886299e+00 4.964579987239822856e+00 4.963567990434883725e+00 4.963779611517919577e+00 4.964916433380166971e+00 4.964503203436047230e+00 4.965570972110830539e+00 4.961688904736578642e+00 4.964688650835546113e+00 4.963662728059491158e+00 4.964257976889895119e+00 4.965723806962733633e+00 4.965745006235360748e+00 4.963450543447365249e+00 4.964209535960688591e+00 4.965536977916134020e+00 4.965361573363986203e+00 4.965459684509481164e+00 4.964502572640480338e+00 4.963494860611781689e+00 4.964298699546123572e+00 4.963892176643987852e+00 4.964301398812642319e+00 4.964770293245902799e+00 4.963078334463187247e+00 4.965287722792742997e+00 4.965921452841491224e+00 4.966517735918737131e+00 4.962663120559259511e+00 4.963972951027527891e+00 4.965060135773480710e+00 4.966360580122319845e+00 4.966040460129341305e+00 4.963221523108313882e+00 4.965648949909128973e+00 4.964035985585308453e+00 4.964785963230075261e+00 4.965782971967850123e+00 4.965803961248401954e+00 4.965279253247874891e+00 4.966367493097529007e+00 4.967064732707223484e+00 4.965086325867675399e+00 4.962565006447086979e+00 4.967045248886748254e+00 4.965062312878811390e+00 4.966039630280021377e+00 4.966418712808835068e+00 4.965765209736859198e+00 4.963719315652776132e+00 4.964228820388497887e+00 4.966356598987125004e+00 4.967329906211797486e+00 4.966503686059088984e+00 4.964026099556789973e+00 4.964541844783705749e+00 4.963694574913548152e+00 4.964703179849167647e+00 4.963027765140745728e+00 4.963111331175159791e+00 4.964816383584300219e+00 4.963504700170690676e+00 4.964284253457346807e+00 4.963865985791470870e+00 4.964701256365126270e+00 4.965572642019737692e+00 4.964600059967167134e+00 4.964080369894891653e+00 4.963217630391825175e+00 4.962806115961176268e+00 4.965012425200098889e+00 4.965526391940080941e+00 4.964369523027850839e+00 4.964711668232641983e+00 4.965975009185815026e+00 4.965769009533895328e+00 4.966318779788862159e+00 4.966206363180106109e+00 4.962983166001095015e+00 4.964812525880216931e+00
6.000000000000000000e+00 2.984837194772205909e-03 2.619772660144943839e-05 2.998103137860082517e-03 2.984222286522633660e-03 2.984123156721536340e-03 2.986003943758573555e-03 2.984423225308641906e-03 2.986788944615912170e-03 2.984214248971193278e-03 2.987675754458161709e-03 2.983013974622771014e-03 2.986129865397805193e-03 2.985778892318244164e-03 2.985510973936899692e-03 2.985979831104252410e-03 2.985454711076817452e-03 2.988243741426611748e-03 2.984621484910836547e-03 2.983873992626886237e-03 2.985304676783264669e-03 2.983083633401920412e-03 2.984399112654321194e-03 2.983919538751714489e-03 2.983397097908093137e-03 2.984605409807956217e-03 2.983868634259259460e-03 2.985256451474622812e-03 2.986614797668038241e-03 2.985615462105624222e-03 2.985575274348422313e-03 2.984766160836762553e-03 2.986585326646090319e-03 2.983129179526749098e-03 2.981703853737997442e-03 2.981323409636488491e-03 2.984956382887517246e-03 2.984101723251028800e-03 2.981781550068587222e-03 2.984013310185185033e-03 2.983137217078189480e-03 2.983188121570644509e-03 2.984854573902606320e-03 2.983043445644718936e-03 2.983204196673525273e-03 2.986127186213991588e-03 2.987059542181069813e-03 2.986365633573388138e-03 2.983000578703703855e-03 2.984514317558298845e-03 2.982628172153635286e-03 2.986212920096021749e-03 2.985894097222222248e-03 2.984254436728395188e-03 2.984015989368998638e-03 2.984559863683127531e-03 2.983496227709190457e-03 2.983346193415637674e-03 2.982636209705075234e-03 2.982585305212620205e-03 2.985695837620027607e-03 2.985663687414266080e-03 2.983798975480109628e-03 2.984088327331961641e-03 2.984739368998628236e-03 2.983932934670782081e-03 2.984916195130315336e-03 2.985157321673525491e-03 2.983793617112482852e-03 2.979295267489712098e-03 2.984739368998628236e-03 2.984358924897119285e-03 2.984597372256515835e-03 2.985462748628257834e-03 2.984377679183813654e-03 2.983681091392318373e-03 2.982858581961591021e-03 2.986373671124828520e-03 2.985816400891632468e-03 2.986692493998628455e-03 2.982783564814814846e-03 2.983946330589849240e-03 2.983097029320987571e-03 2.982561192558299060e-03 2.981253750857338659e-03 2.985036758401920631e-03 2.986218278463648960e-03 2.984942986968450087e-03 2.986839849108367632e-03 2.987959747942386945e-03 2.985912851508916183e-03 2.985867305384087931e-03 2.984136552640603499e-03 2.982239690500685953e-03 2.984570580418381518e-03 2.983943651406035635e-03 2.985628858024691381e-03 2.987726658950617172e-03 2.984321416323730981e-03 2.986663022976680532e-03 2.986178090706447050e-03 2.986483517661179827e-03 2.987860618141289625e-03 2.986038773148148254e-03 2.985492219650205756e-03 2.983013974622771014e-03 2.985920889060356565e-03 2.984892082475994624e-03 2.983828446502057551e-03 2.985216263717421336e-03 2.984099044067215194e-03 2.986512988683127749e-03 2.985792288237311323e-03 2.985843192729766785e-03 2.984940307784636482e-03 2.985521690672153679e-03 2.983930255486968476e-03 2.982231652949245571e-03 2.986387067043895678e-03 2.986858603395061568e-03 2.984881365740740637e-03 2.985556520061728378e-03 2.983247063614540354e-03 2.983737354252400612e-03 2.983571244855967065e-03 2.984602730624142611e-03 2.986462084190672286e-03 2.987284593621399205e-03 2.988235703875171366e-03 2.986705889917695613e-03 2.985275205761316747e-03 2.985133209019204346e-03 2.981800304355281157e-03 2.985687800068587226e-03 2.984321416323730981e-03 2.981478802297668051e-03 2.984463413065843816e-03 2.987474815672153464e-03 2.984246399176954806e-03 2.984273191015089123e-03 2.985524369855967284e-03 2.984291945301783058e-03 2.982738018689986160e-03 2.985936964163237329e-03 2.985811042524005691e-03 2.986802340534979328e-03 2.986620156035665451e-03 2.983576603223593842e-03 2.985299318415637893e-03 2.983276534636488276e-03 2.984085648148148036e-03 2.982121806412894264e-03 2.986100394375857271e-03 2.985334147805212592e-03 2.982561192558299060e-03 2.985360939643346909e-03 2.985157321673525491e-03 2.985331468621398986e-03 2.985492219650205756e-03 2.987729338134430777e-03 2.984294624485596664e-03 2.984375000000000049e-03 2.981942301097393559e-03 2.983782900377228865e-03 2.984573259602194689e-03 2.983308684842249803e-03 2.984372320816186443e-03 2.983737354252400612e-03 2.983155971364883415e-03 2.986419217249657206e-03 2.983531057098765590e-03 2.983359589334705266e-03 2.986823774005486869e-03 2.984369641632373272e-03 2.985288601680383905e-03 2.984881365740740637e-03 2.985042116769547407e-03 2.984136552640603499e-03 2.983493548525377285e-03 2.984195494684499343e-03 2.986202203360768196e-03 2.986153978052126338e-03 2.985524369855967284e-03 2.987228330761316965e-03 2.986086998456790112e-03 2.985243055555555653e-03 2.985749421296296242e-03 2.986955054012345716e-03 2.985165359224965873e-03 2.985119813100137187e-03 2.985468106995884611e-03 2.984115119170095958e-03 2.984348208161865731e-03 2.985189471879286585e-03 2.986633551954732610e-03 2.984608088991769388e-03 2.985055512688614566e-03 2.985845871913580390e-03 2.984441979595336275e-03 2.982462062757201739e-03 2.984817065329218016e-03 2.986973808299039652e-03 2.986271862139917594e-03 2.985058191872428171e-03 2.983777542009602088e-03 2.984592013888889058e-03 2.984203532235939725e-03 2.982968428497942328e-03 2.986555855624142830e-03 2.986561213991769607e-03 2.985987868655692792e-03 2.983831125685871156e-03 2.983480152606310127e-03 2.983879350994513013e-03 2.985727987825788701e-03 2.987833826303154874e-03 2.987314064643347127e-03 2.984444658779149447e-03 2.980179398148148032e-03 2.984096364883402023e-03 2.983265817901234723e-03 2.984876007373113860e-03 2.983820408950617169e-03 2.983788258744856075e-03 2.984527713477366437e-03 2.984701860425239932e-03 2.986162015603566720e-03 2.984082968964334864e-03 2.984136552640603499e-03
