# vvf statistics with RF=500
# gcat file: /disk2/salam/Abacus/AbacusCosmos_720box_products/GCAT_derivative/AbacusCosmos_720box_planck_rockstar_halos_z0.100_Mr21_hod-gammaHV-neg_real-2.gcat.rsd_zz.1pz0.100by100
# stats order in row: stdvvf,p2.5,p16,p50,p84,p97.5,rho
# columns: numbers, mean, sigma,All, jnrealizations
0.000000000000000000e+00 1.440531819365226118e+00 4.903797434186841532e-03 1.440532046538618216e+00 1.440832461298608758e+00 1.440196697180128771e+00 1.440363334286311803e+00 1.440606353263323314e+00 1.441036734598277302e+00 1.440522458698469954e+00 1.440723950991566804e+00 1.439773781268196773e+00 1.439232671879151715e+00 1.440231326959190650e+00 1.441164658214029837e+00 1.440762362149532683e+00 1.440468512084601249e+00 1.440429526737400989e+00 1.440785622297766411e+00 1.440759180157083597e+00 1.440777147851794338e+00 1.440290037020720781e+00 1.440835213205067022e+00 1.440778813479885123e+00 1.440653896061497630e+00 1.441128238851985044e+00 1.440419937188435195e+00 1.440416947261654146e+00 1.440393320508168928e+00 1.440871346029443556e+00 1.440993006349074568e+00 1.440412398536531802e+00 1.440815021932102757e+00 1.440426728426005498e+00 1.440366607053816361e+00 1.440066452249232354e+00 1.440595903304042968e+00 1.440511877231756221e+00 1.440029168043798435e+00 1.439910079901114859e+00 1.440587040719444101e+00 1.440552538470960764e+00 1.440493553797185244e+00 1.440545573374550026e+00 1.440384187702159480e+00 1.440591464592271054e+00 1.440764539549459711e+00 1.440415651343043280e+00 1.439823539205248970e+00 1.440806268501547693e+00 1.440299623635616255e+00 1.440888650264458004e+00 1.440637708735569067e+00 1.440283244742965874e+00 1.439864162695312144e+00 1.440337921149167144e+00 1.440291879521569562e+00 1.440627336212303433e+00 1.439834913950505557e+00 1.440170144744968406e+00 1.440360081112543211e+00 1.440589135870504967e+00 1.440725470548777976e+00 1.440015769939384516e+00 1.440643206454369274e+00 1.440733808713154929e+00 1.440815637364391222e+00 1.440453847067396209e+00 1.440577793591398148e+00 1.439676023437385988e+00 1.441157598802595308e+00 1.440935079197901425e+00 1.440971260441498591e+00 1.440327258005680067e+00 1.440467533829022928e+00 1.441047187300302568e+00 1.440074380854623026e+00 1.440308714443483629e+00 1.440194042262787244e+00 1.440656875824750882e+00 1.440504437578809860e+00 1.440198498153454132e+00 1.440650351757005065e+00 1.440368105735066351e+00 1.440146969155982282e+00 1.440543950115615646e+00 1.439862424727681445e+00 1.440929637436925370e+00 1.440568204391413643e+00 1.441114146910201121e+00 1.440646010932373988e+00 1.440918212249688191e+00 1.440392768989733563e+00 1.440165067327322301e+00 1.440733507756028597e+00 1.440502725680974594e+00 1.440698438057402608e+00 1.441017740185676965e+00 1.440216771329404510e+00 1.440366034935316231e+00 1.440915882458888131e+00 1.440800916743505189e+00 1.440653582167974456e+00 1.440608260313084754e+00 1.440585352473848557e+00 1.440135996100915028e+00 1.440332514970082523e+00 1.440236302862022422e+00 1.440709485526454392e+00 1.440760436690889268e+00 1.440225338040092229e+00 1.440563206224738213e+00 1.440049938785461059e+00 1.440342855433575542e+00 1.440712320195723262e+00 1.440612893203496503e+00 1.440624828817922198e+00 1.439961679188215049e+00 1.440943153760846585e+00 1.440738158270558067e+00 1.440659652812023905e+00 1.440505843281499665e+00 1.440077674826315324e+00 1.440621825043972182e+00 1.440513522285533643e+00 1.440344196819436817e+00 1.440721808637077439e+00 1.440258065249268693e+00 1.440246291467068174e+00 1.440711780453388213e+00 1.441084391421628030e+00 1.440726168728607037e+00 1.440419689976945250e+00 1.440629236112686673e+00 1.440694119987430355e+00 1.440222107039252908e+00 1.440286545491694437e+00 1.440671617770641122e+00 1.440748893319377499e+00 1.440738307427947396e+00 1.440950012651626366e+00 1.440219617418029729e+00 1.439998298372411334e+00 1.439822446076769902e+00 1.440581216792173214e+00 1.440857242476724087e+00 1.440591256712867363e+00 1.440814508866901100e+00 1.440619658642589007e+00 1.440440351698732302e+00 1.440338752815722101e+00 1.440778637919423177e+00 1.440197539323984310e+00 1.440566541623284236e+00 1.440168740568470440e+00 1.440491339798930515e+00 1.439655152698428697e+00 1.440940735816600426e+00 1.440787906637341020e+00 1.441263091645630601e+00 1.440687847511237685e+00 1.440922264494878036e+00 1.439787689811875993e+00 1.440722826626946507e+00 1.440912912461597362e+00 1.440715363508775715e+00 1.440759127179986665e+00 1.440555355430783502e+00 1.440357410599368615e+00 1.440348365905853356e+00 1.440174474365452761e+00 1.440308542937121628e+00 1.440826239166372646e+00 1.440239262867193393e+00 1.440804422484367686e+00 1.440364880387843272e+00 1.440953855661843086e+00 1.440326964870993764e+00 1.440442776473078723e+00 1.440762269897765790e+00 1.441156321211511271e+00 1.440614872150897785e+00 1.440599379481698028e+00 1.440966230537735759e+00 1.440914612295148611e+00 1.440842524618745291e+00 1.440754042850569627e+00 1.441030956510897187e+00 1.440872585244532322e+00 1.440866852528755349e+00 1.441006270397888978e+00 1.440675699566314805e+00 1.439834195719723375e+00 1.440720746283994602e+00 1.440458982679067024e+00 1.440850274298666411e+00 1.440782033833797771e+00 1.440379383785497014e+00 1.440004136842704341e+00 1.440506816465663364e+00 1.440736983411354366e+00 1.440506172602323831e+00 1.440806053765550265e+00 1.440410301200381049e+00 1.440632135030403438e+00 1.440533261111132113e+00 1.440259764231802242e+00 1.440130959467283978e+00 1.440826694175803446e+00 1.440843135602564606e+00 1.440532153149612249e+00 1.440651526411168337e+00 1.440335753179733613e+00 1.440481342961450695e+00 1.440644869447847753e+00 1.440443864782380512e+00 1.440084290388221167e+00 1.440132877212917384e+00 1.440140256045787881e+00 1.440513035099209471e+00 1.440745698049929580e+00 1.440399155393908837e+00 1.440639618580850989e+00 1.440457381134756965e+00 1.441089634680631448e+00 1.440818826910741368e+00 1.440788303648477875e+00 1.440222590111849499e+00 1.440508409404360535e+00
1.000000000000000000e+00 1.799999988802897244e-02 1.316831020125341955e-04 1.799999999999999864e-02 1.799548205799093858e-02 1.799622610583121243e-02 1.800621036480893472e-02 1.800019617172874190e-02 1.800998773088639121e-02 1.799477454465665816e-02 1.801800957976475159e-02 1.798849836848013389e-02 1.800554566133831871e-02 1.800525378206396104e-02 1.800395670126773637e-02 1.800695183240339295e-02 1.800485708841450053e-02 1.801967187596317799e-02 1.799941386811175145e-02 1.799443942792072412e-02 1.800484980688330655e-02 1.798946032269899131e-02 1.799612317516229021e-02 1.799293831602072000e-02 1.799252661785845364e-02 1.799915206235672485e-02 1.799312720242957422e-02 1.800285591846880612e-02 1.801059289597189625e-02 1.800391590817998141e-02 1.800644338494878163e-02 1.799901362501414928e-02 1.801179825027409559e-02 1.799099126850953537e-02 1.797900705497994245e-02 1.797807901605340264e-02 1.800119930011542108e-02 1.799699117902988504e-02 1.798355154917150728e-02 1.799535808155567490e-02 1.799323881809977363e-02 1.799058918002406290e-02 1.800059766743591222e-02 1.798994011842727433e-02 1.798874560579481752e-02 1.801173329703299394e-02 1.801231970881047792e-02 1.800901915884494525e-02 1.798837840802713917e-02 1.799814973985864805e-02 1.798902746848059925e-02 1.800898043816109503e-02 1.800771158357720308e-02 1.799841839538932758e-02 1.799332101023331035e-02 1.799753938349250848e-02 1.799230319769129505e-02 1.799318909241178974e-02 1.798490527054018295e-02 1.798703606895570711e-02 1.800346152525090018e-02 1.800637373112968370e-02 1.799518593978736286e-02 1.799486102415225400e-02 1.799983597940780014e-02 1.799463122806122320e-02 1.800299931605049003e-02 1.800137646982571601e-02 1.799083551706453024e-02 1.796747661467389817e-02 1.799989512293061200e-02 1.799888302279235505e-02 1.799914261752644587e-02 1.800342993200575517e-02 1.799779057962842821e-02 1.799537035981654473e-02 1.798890107596655755e-02 1.800769994408659216e-02 1.800776591053493761e-02 1.800807698517671931e-02 1.798870501949941664e-02 1.799403128572750130e-02 1.799497020702505584e-02 1.798676741772047352e-02 1.798119995772608226e-02 1.800277451671444817e-02 1.800874722181759757e-02 1.800147950671984395e-02 1.801186242259614906e-02 1.801741826309706876e-02 1.800674651701617696e-02 1.800764840972143496e-02 1.799620944571150502e-02 1.798372041673513763e-02 1.800061189654181618e-02 1.799404999602860489e-02 1.800589589133536061e-02 1.801611777610945611e-02 1.799535643691243733e-02 1.800889579431915605e-02 1.800997946662411323e-02 1.800998912805387708e-02 1.801476968959844771e-02 1.800714028521996357e-02 1.800327829220038992e-02 1.799201882835725283e-02 1.800589466974246086e-02 1.800010073403369992e-02 1.799439896535103695e-02 1.800333294564773409e-02 1.799712472546329683e-02 1.800800511107407062e-02 1.800537109276250866e-02 1.800791236382070712e-02 1.800251349217344560e-02 1.800393918333034055e-02 1.799284551649645361e-02 1.798516059699643843e-02 1.800777879272414880e-02 1.801312869485709872e-02 1.799894259961730414e-02 1.800339014046732286e-02 1.799242536776147691e-02 1.799335725028050614e-02 1.799310222884466237e-02 1.799963625462378328e-02 1.801005302040327785e-02 1.801566799314237299e-02 1.802202446127946708e-02 1.801123255839226847e-02 1.800393835443614421e-02 1.800183516956148713e-02 1.798334478117206633e-02 1.800323741731793548e-02 1.799714873489126690e-02 1.798239111077731475e-02 1.799727879254907001e-02 1.801497628355734626e-02 1.799806871605232755e-02 1.799700319058027131e-02 1.800379634451527641e-02 1.799743662556158724e-02 1.799024920768063640e-02 1.800861683652059397e-02 1.800592558589057118e-02 1.801226067041336587e-02 1.800850134261175461e-02 1.799626712997577649e-02 1.800451726077137785e-02 1.798932455425817853e-02 1.799459078245540036e-02 1.798540478137771945e-02 1.800800372620203066e-02 1.800326805888108686e-02 1.798582403095452115e-02 1.800436676914709752e-02 1.799850475961559462e-02 1.800246970077782477e-02 1.800498077307566627e-02 1.801568741179103428e-02 1.799934686927505412e-02 1.799958971845862926e-02 1.798302431009645222e-02 1.799378679382107257e-02 1.799833967715873048e-02 1.799075016872286534e-02 1.799758931832627640e-02 1.799253624509283486e-02 1.799077745372545944e-02 1.800835336629888830e-02 1.799283172628229205e-02 1.799235061895542581e-02 1.801013730946179892e-02 1.799782550868662609e-02 1.800317099275438454e-02 1.799902884159975194e-02 1.800197875824466331e-02 1.799532015499725329e-02 1.799324706564994769e-02 1.799699713505274745e-02 1.801040771550841899e-02 1.800761226822936156e-02 1.800454227230432330e-02 1.801570074378604572e-02 1.800653458473374866e-02 1.800619646207664640e-02 1.800499559336820807e-02 1.801452403788086562e-02 1.800110750006249025e-02 1.800336712494057106e-02 1.800359513666773340e-02 1.799626982806349848e-02 1.799564791925607407e-02 1.800331436002626864e-02 1.800941396956100976e-02 1.800292247522422909e-02 1.800224705277596662e-02 1.800417833223923528e-02 1.800015715601861396e-02 1.798792322055535117e-02 1.800276976143911495e-02 1.801234763699021552e-02 1.800739926956720915e-02 1.799961197600357179e-02 1.799612803013245915e-02 1.799863978284015412e-02 1.799530808730488707e-02 1.798813331974182667e-02 1.800983481397635394e-02 1.801251809059851994e-02 1.800421965404669367e-02 1.799431465907924341e-02 1.799403754685147475e-02 1.799426636923546000e-02 1.800469607668576250e-02 1.801906125095035713e-02 1.801567015735218782e-02 1.799711936334389903e-02 1.797762205290183435e-02 1.799468659739469900e-02 1.799037712011582885e-02 1.800236110066669171e-02 1.799640945572235015e-02 1.799103674357847849e-02 1.799792023586983813e-02 1.800033248729090984e-02 1.800865323531106871e-02 1.799765842101969451e-02 1.799567325633779150e-02
2.000000000000000000e+00 9.599999940282119559e-02 7.023098774001872548e-04 9.600000000000000200e-02 9.597590430928498728e-02 9.597987256443313298e-02 9.603312194564765647e-02 9.600104624921995677e-02 9.605326789806074850e-02 9.597213090483550091e-02 9.609605109207866591e-02 9.593865796522736689e-02 9.602957686047101926e-02 9.602802017100779686e-02 9.602110240676126063e-02 9.603707643948475314e-02 9.602590447154399356e-02 9.610491667180361131e-02 9.599687396326267441e-02 9.597034361557719995e-02 9.602586563671096365e-02 9.594378838772794904e-02 9.597932360086554315e-02 9.596233768544383536e-02 9.596014196191174350e-02 9.599547766590252329e-02 9.596334507962439586e-02 9.601523156516697521e-02 9.605649544518345129e-02 9.602088484362657217e-02 9.603436471972684463e-02 9.599473933340879617e-02 9.606292400146183852e-02 9.595195343205085992e-02 9.588803762655970231e-02 9.588308808561814278e-02 9.600639626728224574e-02 9.598395295482604894e-02 9.591227492891470086e-02 9.597524310163027539e-02 9.596394036319880194e-02 9.594980896012833549e-02 9.600318755965819850e-02 9.594634729827879183e-02 9.593997656423902676e-02 9.606257758417596770e-02 9.606570511365589149e-02 9.604810218050637005e-02 9.593801817614473759e-02 9.599013194591278497e-02 9.594147983189653395e-02 9.604789567019252072e-02 9.604112844574508312e-02 9.599156477540973786e-02 9.596437872124431723e-02 9.598687671196003135e-02 9.595895038768688379e-02 9.596367515952954064e-02 9.591949477621430908e-02 9.593085903443043794e-02 9.601846146800480097e-02 9.603399323269164178e-02 9.597432501219926859e-02 9.597259212881202595e-02 9.599912522350825816e-02 9.597136654965984781e-02 9.601599635226928942e-02 9.600734117240380949e-02 9.595112275767748999e-02 9.582654194492745692e-02 9.599944065562993067e-02 9.599404278822587511e-02 9.599542729347437797e-02 9.601829297069736091e-02 9.598821642468495507e-02 9.597530858568824319e-02 9.594080573848831617e-02 9.604106636846182488e-02 9.604141818951966725e-02 9.604307725427582709e-02 9.593976010399687948e-02 9.596816685721333562e-02 9.597317443746695986e-02 9.592942622784252082e-02 9.589973310787243410e-02 9.601479742247705229e-02 9.604665184969383984e-02 9.600789070250584367e-02 9.606326625384611906e-02 9.609289740318435746e-02 9.603598142408628635e-02 9.604079151851432905e-02 9.597978371046135548e-02 9.591317555592074329e-02 9.600326344822303348e-02 9.596826664548588348e-02 9.603144475378858069e-02 9.608596147258376130e-02 9.597523433019966577e-02 9.604744423636883688e-02 9.605322382199527054e-02 9.605327534962068703e-02 9.607877167785838779e-02 9.603808152117312980e-02 9.601748422506875547e-02 9.595743375123869101e-02 9.603143823862644868e-02 9.600053724817972367e-02 9.597012781520554425e-02 9.601777571012125312e-02 9.598466520247091183e-02 9.604269392572838127e-02 9.602864582806669436e-02 9.604219927371043797e-02 9.601340529159170523e-02 9.602100897776180699e-02 9.596184275464775260e-02 9.592085651731434293e-02 9.604148689452877974e-02 9.607001970590452189e-02 9.599436053129228874e-02 9.601808074915905988e-02 9.595960196139453890e-02 9.596457200149605127e-02 9.596321188717153727e-02 9.599806002466017285e-02 9.605361610881749113e-02 9.608356263009265597e-02 9.611746379349048186e-02 9.605990697809209389e-02 9.602100455699276449e-02 9.600978757099459804e-02 9.591117216625101582e-02 9.601726622569566050e-02 9.598479325275342811e-02 9.590608592414567868e-02 9.598548689359504005e-02 9.607987351230584672e-02 9.598969981894575620e-02 9.598401701642811368e-02 9.602024717074814086e-02 9.598632866966179400e-02 9.594799577429671822e-02 9.604595646144316323e-02 9.603160312474970373e-02 9.606539024220461798e-02 9.604534049392934869e-02 9.598009135987080331e-02 9.602409205744734388e-02 9.594306428937694753e-02 9.597115083976213989e-02 9.592215883401448984e-02 9.604268653974416814e-02 9.601742964736580122e-02 9.592439483175743686e-02 9.602328943545117290e-02 9.599202538461650003e-02 9.601317173748172284e-02 9.602656412307021550e-02 9.608366619621884486e-02 9.599651663613362196e-02 9.599781183177935606e-02 9.590946298718108776e-02 9.596686290037904910e-02 9.599114494484654869e-02 9.595066756652194384e-02 9.598714303107347412e-02 9.596019330716178131e-02 9.595081308653577445e-02 9.604455128692741817e-02 9.596176920683888167e-02 9.595920330109559970e-02 9.605406565046294143e-02 9.598840271299534377e-02 9.601691196135672679e-02 9.599482048853201499e-02 9.601055337730486638e-02 9.597504082665200831e-02 9.596398435013304973e-02 9.598398472028131512e-02 9.605550781604489663e-02 9.604059876388992834e-02 9.602422545228972428e-02 9.608373730019224845e-02 9.603485111857998358e-02 9.603304779774210487e-02 9.602664316463044303e-02 9.607746153536461664e-02 9.600590666699995723e-02 9.601795799968304568e-02 9.601917406222791607e-02 9.598010574967197339e-02 9.597678890269906171e-02 9.601767658680676609e-02 9.605020783765873260e-02 9.601558653452921255e-02 9.601198428147182662e-02 9.602228443860924556e-02 9.600083816543261706e-02 9.593559050962854884e-02 9.601477206100862694e-02 9.606585406394782534e-02 9.603946277102511087e-02 9.599793053868571624e-02 9.597934949403977289e-02 9.599274550848081733e-02 9.597497646562606899e-02 9.593671103862307092e-02 9.605245234120722564e-02 9.606676314985877763e-02 9.602250482158236622e-02 9.596967818175596021e-02 9.596820024987454123e-02 9.596942063592246719e-02 9.602504574232406664e-02 9.610166000506857598e-02 9.608357417254501098e-02 9.598463660450079482e-02 9.588065094880977857e-02 9.597166185277171413e-02 9.594867797395109643e-02 9.601259253688902706e-02 9.598085043051921006e-02 9.595219596575188525e-02 9.598890792463914134e-02 9.600177326555150992e-02 9.604615058832570440e-02 9.598751157877170870e-02 9.597692403380156390e-02
3.000000000000000000e+00 4.741635671830565779e-01 6.865705542967272430e-03 4.739999999999999769e-01 4.738810275270946004e-01 4.739006207868886045e-01 4.741635396066353203e-01 4.740051658555235470e-01 4.742630102466749431e-01 4.738623963426252805e-01 4.744742522671384632e-01 4.756958457442523880e-01 4.741460357485756671e-01 4.741383495943509718e-01 4.741041931333837556e-01 4.741830649199559877e-01 4.741279033282485011e-01 4.745180260670303074e-01 4.739845651936094861e-01 4.738535716019124377e-01 4.741277115812603804e-01 4.737224551644067527e-01 4.738979102792736375e-01 4.738140423218789588e-01 4.738032009369392838e-01 4.739776709753937278e-01 4.738190163306454927e-01 4.740752058530118829e-01 4.742789462605933037e-01 4.741031189154061853e-01 4.741696758036512693e-01 4.739740254587059276e-01 4.743106872572178112e-01 4.737627700707511269e-01 4.754448532316918330e-01 4.754203117578566506e-01 4.740315815697060953e-01 4.739207677144536279e-01 4.755650298558687372e-01 4.748775049299414075e-01 4.738219555432940377e-01 4.737521817406336599e-01 4.740157385758123620e-01 4.737350897852515286e-01 4.737036342859302085e-01 4.743089768218687885e-01 4.743244189986759451e-01 4.742375045162502412e-01 4.756926734567176740e-01 4.739512764829443836e-01 4.737110566699890835e-01 4.742364848715755477e-01 4.742030717008663965e-01 4.739583510785855824e-01 4.738241199361438172e-01 4.739352037653026817e-01 4.737973175392040104e-01 4.738206461001771008e-01 4.756008282653959585e-01 4.756571760457175557e-01 4.740911534982737430e-01 4.741678415864150065e-01 4.738732297477338817e-01 4.738646736360093703e-01 4.739956807910720160e-01 4.738586223389455454e-01 4.740789819893295731e-01 4.740362470387438076e-01 4.737586686160326077e-01 4.751399371435986452e-01 4.739972382371727688e-01 4.739705862668652792e-01 4.739774222615297794e-01 4.740903215428182160e-01 4.739418185968819475e-01 4.738780861418356860e-01 4.757064951200045688e-01 4.742027651942802291e-01 4.742045023107533397e-01 4.742126939429869292e-01 4.737025655134846081e-01 4.738428238574908247e-01 4.738675487849931534e-01 4.756500717130525135e-01 4.755028433265341414e-01 4.740730622734804500e-01 4.742303435078633611e-01 4.740389603436225285e-01 4.743123771283652146e-01 4.744586809282227979e-01 4.741776582814260510e-01 4.742014081226644806e-01 4.739001820704029644e-01 4.755694954647736727e-01 4.740161132756012252e-01 4.738433165620865584e-01 4.741552584718310981e-01 4.744244347708823084e-01 4.738777195053608393e-01 4.742342559170710792e-01 4.742627926211016587e-01 4.742630470387521058e-01 4.743889351594258175e-01 4.741880275107923648e-01 4.740863283612769541e-01 4.737898291467410039e-01 4.741552263032181580e-01 4.740026526628873804e-01 4.738525060875773409e-01 4.740877675687236725e-01 4.739242844372001384e-01 4.742108012582838539e-01 4.741414387760793936e-01 4.742083589139452493e-01 4.740661886272340420e-01 4.741037318276989376e-01 4.738115986010733027e-01 4.756075802316835910e-01 4.742048415417358664e-01 4.743457222979036159e-01 4.739721551232556895e-01 4.740892736989728573e-01 4.757996930585812745e-01 4.738250742573866803e-01 4.738183586929094471e-01 4.739904213717596182e-01 4.742647295372863225e-01 4.744125904860825305e-01 4.745799774803592386e-01 4.742957907043297006e-01 4.741037100001517790e-01 4.740483261317858243e-01 4.735614125708643707e-01 4.740852519893722916e-01 4.739249166854700435e-01 4.755343427072222795e-01 4.739283415371254859e-01 4.743943754670101320e-01 4.739491428560446140e-01 4.739210840186138252e-01 4.740999704055689490e-01 4.739324978064551330e-01 4.737432291355900271e-01 4.742269100283756367e-01 4.741560404284516639e-01 4.743228643208853290e-01 4.742238686887761956e-01 4.739017010893620818e-01 4.741189545336462752e-01 4.737188799287986862e-01 4.738575572713255579e-01 4.736156592429465739e-01 4.742107647899868050e-01 4.740860588838686773e-01 4.756251243741306256e-01 4.741149915875402243e-01 4.739606253365439836e-01 4.740650354538160083e-01 4.741311603576591760e-01 4.744131018438305092e-01 4.739828008909097723e-01 4.739891959194105775e-01 4.755510873114395798e-01 4.738363855706215211e-01 4.739562781651798784e-01 4.737564211097021194e-01 4.739365187159252923e-01 4.738034544541113169e-01 4.737571396147703950e-01 4.742199719792041246e-01 4.738112354587669661e-01 4.737985662991595626e-01 4.742669491491607325e-01 4.739427383954145090e-01 4.740835028091988090e-01 4.739744261621268162e-01 4.740521073004427821e-01 4.738767640815942928e-01 4.738221727287819651e-01 4.739209245563890116e-01 4.742740698417217127e-01 4.742004563967065489e-01 4.741196131706805206e-01 4.744134529196992189e-01 4.741720773979886672e-01 4.741631735013516202e-01 4.741315506253628298e-01 4.743824663308627843e-01 4.740291641683122559e-01 4.740886676234350450e-01 4.740946719322503000e-01 4.739017721390054727e-01 4.738853952070766207e-01 4.740872781473584041e-01 4.742479011984399584e-01 4.740769585142379783e-01 4.740591723897671361e-01 4.741100294156331274e-01 4.740041384418235415e-01 4.736819781412909269e-01 4.740729370512300478e-01 4.743251544407423581e-01 4.741948474319365170e-01 4.739897820347607205e-01 4.738980381268214082e-01 4.739641809481240364e-01 4.738764462990286974e-01 4.736875107532014240e-01 4.742589834347106792e-01 4.743296430524276963e-01 4.741111175565629887e-01 4.738502860224200752e-01 4.738429887337555213e-01 4.738490143898671514e-01 4.741236633527250444e-01 4.745019462750261208e-01 4.744126474769409518e-01 4.739241432347226501e-01 4.754082276211817892e-01 4.738600803980603793e-01 4.737465974963835369e-01 4.740621756508895390e-01 4.739054490006885945e-01 4.737639675808999473e-01 4.739452328779057422e-01 4.740087554986605611e-01 4.742278685298581542e-01 4.739383384201852900e-01 4.738860624168952373e-01
4.000000000000000000e+00 1.842866733504362475e+00 9.080848826401609342e-03 1.842000000000000082e+00 1.843537161940848934e+00 1.843613385508486413e+00 1.842635527332114442e+00 1.842020074906907778e+00 1.843022077794040703e+00 1.843464681130381866e+00 1.841840979264841138e+00 1.842821721748742370e+00 1.842567506010287737e+00 1.842537637031212094e+00 1.842404902429731761e+00 1.842711404182613810e+00 1.842497042047750444e+00 1.842010902876236145e+00 1.841940019170102749e+00 1.843430350282545538e+00 1.842496296904391428e+00 1.842920268614274271e+00 1.843602840833292511e+00 1.843276569707900325e+00 1.843234393518388137e+00 1.841913227714504719e+00 1.843295920071118754e+00 1.842292255656641009e+00 1.843084006354457349e+00 1.842400727937084870e+00 1.842659373059758909e+00 1.843898951362560545e+00 1.843207354278048937e+00 1.843077105507310298e+00 1.843847056860720812e+00 1.843751881313032026e+00 1.842122728378478236e+00 1.843691763007283768e+00 1.842314947592903263e+00 1.843524461243814860e+00 1.843307354476443560e+00 1.843035913775798562e+00 1.842061161300941885e+00 1.842969421021105170e+00 1.842847049838091333e+00 1.843200707396376314e+00 1.843260716868272420e+00 1.842922960588466053e+00 1.842809432466780306e+00 1.841810656712201677e+00 1.842875925104345836e+00 1.842918998171818812e+00 1.842789152052734192e+00 1.843837973394328866e+00 1.843315774603901280e+00 1.843747923508899156e+00 1.843211505363485658e+00 1.843302260355963229e+00 1.842453628826449918e+00 1.842671917286351491e+00 1.842354229417342282e+00 1.842652245152271107e+00 1.843506826275994159e+00 1.843473540474264372e+00 1.841983215226064674e+00 1.843449999141383078e+00 1.842306930009167010e+00 1.842140858745498155e+00 1.843061149637055030e+00 1.842664546149334059e+00 1.841989267579899225e+00 1.843885571890505615e+00 1.841912261193539679e+00 1.842350996375255789e+00 1.841773902648642602e+00 1.843525719083428216e+00 1.842862976893463012e+00 1.842787960944861192e+00 1.842794711511408501e+00 1.842826544816417389e+00 1.842842891997606980e+00 1.843388538382306097e+00 1.843484725653011136e+00 1.842644395459808626e+00 1.844071951220130456e+00 1.842283925543778400e+00 1.842895132366000777e+00 1.842151402854330655e+00 1.843213921245672182e+00 1.841780533561033550e+00 1.842690393574655694e+00 1.842782687261493635e+00 1.843611678771778672e+00 1.842332247136644119e+00 1.842062617412779435e+00 1.843390455148708140e+00 1.842603346213318449e+00 1.841647594891188788e+00 1.843524292759251892e+00 1.842910336285326967e+00 1.843021232084534278e+00 1.843022220770846875e+00 1.843511431568907843e+00 1.842730689187509263e+00 1.842335478568506657e+00 1.843182373305043420e+00 1.842603221203645170e+00 1.844010319642118922e+00 1.843426205117073113e+00 1.842341071437951339e+00 1.843705444097462287e+00 1.842819189699913540e+00 1.842549641826030093e+00 1.842809698564318976e+00 1.842257214032416046e+00 1.842403109760804680e+00 1.843267062912192333e+00 1.842479785603412967e+00 1.842796029788771328e+00 1.843343503107043091e+00 1.841891792694170915e+00 1.842346924374489436e+00 1.843224021008453395e+00 1.843319487195403061e+00 1.843293361666086705e+00 1.843962736307014350e+00 1.843028759087935509e+00 1.843603357964902933e+00 1.842251389375234139e+00 1.843149465142142063e+00 1.842403024937298683e+00 1.842187799018458971e+00 1.842293765360071500e+00 1.842331295705535332e+00 1.843707903729971953e+00 1.842196067126298242e+00 1.843721227414471198e+00 1.843532573017368392e+00 1.843802150688916175e+00 1.843692993523890156e+00 1.842388492588729942e+00 1.843737396529753658e+00 1.843001085497949276e+00 1.842881789603941112e+00 1.842606384956134935e+00 1.843254675272301135e+00 1.842869970727269546e+00 1.841618002967521095e+00 1.842462266352270950e+00 1.842906359891782087e+00 1.843445855713764292e+00 1.842504800936695109e+00 1.842819047981341107e+00 1.842334431358831459e+00 1.842547750726674094e+00 1.842446866042719567e+00 1.843846820929508690e+00 1.842252732712930552e+00 1.842509699111409605e+00 1.841603602094194381e+00 1.841933162955813774e+00 1.841958014522266485e+00 1.842260934878769962e+00 1.843363491544780741e+00 1.841830093629243326e+00 1.843052406173609103e+00 1.843753039055203047e+00 1.843235379775065796e+00 1.843055201370541685e+00 1.842854827817919539e+00 1.843265650181363569e+00 1.843216363408545000e+00 1.843037384668257506e+00 1.843777235445452245e+00 1.842324498258532062e+00 1.841900618123708089e+00 1.842202492927037083e+00 1.843520575878607515e+00 1.843308199392139191e+00 1.843692373168736909e+00 1.843065056220361431e+00 1.842778988782137972e+00 1.842464825865808953e+00 1.841604964920351417e+00 1.842668705837753551e+00 1.842634104619176538e+00 1.842511215721346574e+00 1.843486293209808391e+00 1.842113334173061556e+00 1.842344569118918418e+00 1.842367902318998052e+00 1.843617864608282808e+00 1.843554153506011151e+00 1.842339169509354724e+00 1.842963362885076783e+00 1.842299066631279292e+00 1.842229948400740502e+00 1.842427582665814967e+00 1.844016099761017990e+00 1.842762801039114828e+00 1.842283438920603089e+00 1.843263574851998765e+00 1.842757191919044413e+00 1.841960292211032080e+00 1.843603338198013919e+00 1.843860653308735609e+00 1.843519339610567354e+00 1.842784324533551565e+00 1.843006429296913495e+00 1.843281017937915323e+00 1.842431811264111818e+00 1.843417568407895724e+00 1.843389179799673316e+00 1.843412621381677274e+00 1.842480565180842689e+00 1.841948483430481120e+00 1.843603579435707296e+00 1.843704894778119385e+00 1.843705017203154828e+00 1.843455671421990072e+00 1.843014189416310566e+00 1.842241619301558053e+00 1.843632168686223149e+00 1.843081764175484194e+00 1.841787170804013218e+00 1.842034024532769543e+00 1.842885514413499681e+00 1.843760118242239843e+00 1.843556749149271923e+00
5.000000000000000000e+00 5.060016657020272035e+00 1.736949991524555995e-02 5.059999999999999609e+00 5.060729454308339648e+00 5.056939535738570690e+00 5.059745112511310872e+00 5.060055146052635067e+00 5.060806552379075285e+00 5.060530485836221892e+00 5.061058690849476349e+00 5.058765485624801883e+00 5.059558330836066986e+00 5.059476312759972672e+00 5.063112712323182940e+00 5.059953464905353471e+00 5.061365381520965379e+00 5.059523425617660664e+00 5.059835231813637257e+00 5.060436243563039227e+00 5.059362795734208440e+00 5.061034837452648816e+00 5.060909750703973309e+00 5.060014097538715561e+00 5.059898318866638434e+00 5.061761541091652106e+00 5.060067216594362094e+00 5.058802513089734276e+00 5.060976603768103210e+00 5.061100805299483696e+00 5.061811307102269453e+00 5.059722719031754856e+00 5.061315308327020368e+00 5.059466544510848429e+00 5.060091652251577088e+00 5.057832896516357479e+00 5.058337003332433746e+00 5.061153852680515541e+00 5.057374330105898430e+00 5.056695620917144751e+00 5.060098605401169181e+00 5.059353468293434020e+00 5.060168010956984652e+00 5.061169819984206342e+00 5.058835014251854112e+00 5.061297056466271371e+00 5.061461838175744354e+00 5.060534383635429734e+00 5.058731750079632050e+00 5.061479665731360100e+00 5.058914280302710509e+00 5.060523503123268263e+00 5.060166954985194643e+00 5.059555393370555265e+00 5.060121719655612083e+00 5.059308293359560338e+00 5.059835488150739913e+00 5.060084621432693552e+00 5.059753349445304416e+00 5.060352814066205518e+00 5.058972688595503087e+00 5.059791018447441502e+00 5.060646179289090441e+00 5.060554805792151001e+00 5.059953891989080965e+00 5.060490182024772743e+00 5.060843141067526751e+00 5.060386940962117386e+00 5.061021929122756724e+00 5.056846473885442173e+00 5.061970506237486234e+00 5.061685881187494296e+00 5.061758884995493091e+00 5.058963810893617463e+00 5.059378907384436630e+00 5.060698042299519805e+00 5.057729445017058012e+00 5.060163684288331964e+00 5.060182220860315994e+00 5.060269632834657472e+00 5.058823600483669303e+00 5.060321464908478006e+00 5.060585510442268564e+00 5.060277233518693407e+00 5.058710921440271235e+00 5.058779639196759881e+00 5.060457969330744099e+00 5.062416070167547133e+00 5.059332022702561993e+00 5.062894531930275832e+00 5.059895771281546217e+00 5.060149203131723894e+00 5.058934433072233894e+00 5.059420010574818605e+00 5.060172010916755170e+00 5.060326726660933083e+00 5.059656745465236583e+00 5.060527304222744327e+00 5.058694642820940501e+00 5.058498729782091807e+00 5.060804230121376257e+00 5.060806944983139211e+00 5.062150282777164279e+00 5.060006420146809347e+00 5.058921200108310146e+00 5.059755517174689743e+00 5.059656402197632019e+00 5.060028317456139568e+00 5.060424864589275096e+00 5.058936557727013117e+00 5.059191728380238118e+00 5.060249436211814000e+00 5.059509277066265298e+00 5.060223374233618010e+00 5.060706570577647057e+00 5.059106910515825284e+00 5.059988000250280393e+00 5.057826830110887961e+00 5.060185840755485387e+00 5.061689163254844637e+00 5.059702753003531228e+00 5.058952629471317408e+00 5.057870686715170372e+00 5.060131911162217833e+00 5.060060193467315948e+00 5.057897787549283208e+00 5.060824898733321753e+00 5.058399224296753260e+00 5.060183979294801127e+00 5.061156348908227187e+00 5.061107115191493477e+00 5.058715703037272249e+00 5.059314331769741102e+00 5.058909714266340174e+00 5.061198160889976982e+00 5.059046032498684120e+00 5.059235038349904734e+00 5.060206671648107779e+00 5.061456880036493189e+00 5.061157230595407341e+00 5.061067194624849996e+00 5.057279691782805564e+00 5.059257860515520733e+00 5.060421331062286754e+00 5.059665089635250190e+00 5.061445248386156059e+00 5.060388877273902963e+00 5.060950233996520886e+00 5.059269350276757393e+00 5.059047797771070165e+00 5.060478807821624514e+00 5.061892256803306900e+00 5.060249047062770344e+00 5.058918324545586209e+00 5.058013402482877119e+00 5.059227062130333685e+00 5.057579837451982030e+00 5.060694260329765548e+00 5.059399597234262025e+00 5.062408162713279758e+00 5.059816397696209833e+00 5.061884619713199029e+00 5.059224172573802747e+00 5.060252708351236528e+00 5.061533080320971045e+00 5.061397714134033166e+00 5.061322062742645400e+00 5.059901026258884826e+00 5.059406415042126071e+00 5.060347295929988221e+00 5.057984918610466174e+00 5.059848824064020256e+00 5.058847457591047814e+00 5.059388726330795727e+00 5.060891401296510494e+00 5.059726996583042258e+00 5.060556250928777366e+00 5.060683923588671362e+00 5.060100924795557731e+00 5.061155527646500119e+00 5.060924568057865613e+00 5.060139047372450349e+00 5.059276378517514772e+00 5.060410164476792261e+00 5.061836944375153635e+00 5.059741205843537593e+00 5.059403761736466443e+00 5.062081254644523298e+00 5.060311330573123101e+00 5.060946536233293713e+00 5.061010632863262693e+00 5.058951407222294527e+00 5.056777065310956942e+00 5.058931335167381249e+00 5.060645325446643916e+00 5.060821540257477658e+00 5.060631671502576978e+00 5.059774250637058657e+00 5.058044160841230763e+00 5.060552432929235955e+00 5.060778610715662928e+00 5.061469685994250511e+00 5.062080016889448864e+00 5.059890922143226888e+00 5.060911116029472190e+00 5.061617476707603203e+00 5.060680529885408063e+00 5.058662825807395791e+00 5.060763582727355825e+00 5.060266714146337108e+00 5.059185722787121087e+00 5.060401155792173533e+00 5.060323225675675829e+00 5.060387575614995193e+00 5.059319597548698866e+00 5.059351975683505920e+00 5.060401573087370153e+00 5.059190221028895706e+00 5.057704337549715490e+00 5.060505753111775640e+00 5.061292763125920580e+00 5.058663469287340675e+00 5.060990259159252602e+00 5.059479333110791899e+00 5.061415124109617913e+00 5.060093465871777774e+00 5.060431559122410938e+00 5.057342016306534127e+00 5.058783704281624161e+00
6.000000000000000000e+00 2.980617480266033181e-03 2.611175463739220178e-05 2.993864669067215420e-03 2.979908800582990389e-03 2.979946309156378693e-03 2.981596686385459740e-03 2.980500900205761139e-03 2.982191465192044096e-03 2.979798954046639081e-03 2.983520340363511603e-03 2.978684413580246979e-03 2.981626157407407229e-03 2.981398426783264666e-03 2.981245713305898278e-03 2.981896754972565306e-03 2.981226959019204342e-03 2.984013310185185033e-03 2.980313357338820485e-03 2.979686428326474602e-03 2.981385030864197507e-03 2.978478116426611956e-03 2.980082947530864317e-03 2.979522998113854661e-03 2.979338134430727179e-03 2.980152606310013715e-03 2.979362247085047891e-03 2.980800968792867139e-03 2.982255765603566717e-03 2.981106395747599482e-03 2.981486839849108433e-03 2.980455354080932887e-03 2.982687114197530697e-03 2.978920181755829923e-03 2.977050111454046695e-03 2.977017961248285167e-03 2.980894740226337249e-03 2.980032043038408855e-03 2.977687757201646131e-03 2.979798954046639081e-03 2.979268475651577347e-03 2.979059499314129153e-03 2.980758101851852058e-03 2.978770147462277140e-03 2.978933577674897082e-03 2.982210219478738031e-03 2.982606738683127746e-03 2.982395083161865513e-03 2.978381665809327807e-03 2.980484825102880809e-03 2.978531700102880590e-03 2.981977130486968258e-03 2.981977130486968258e-03 2.980026684670782078e-03 2.979466735253772421e-03 2.980463391632373268e-03 2.979372963820301878e-03 2.979153270747599263e-03 2.978277177640603710e-03 2.978389703360768189e-03 2.981339484739368821e-03 2.981602044753086517e-03 2.979557827503429360e-03 2.979841820987654162e-03 2.980157964677640492e-03 2.979667674039780667e-03 2.981050132887517242e-03 2.980908136145404841e-03 2.979169345850480027e-03 2.975067515432098554e-03 2.980581275720164524e-03 2.980174039780521256e-03 2.980506258573388349e-03 2.981288580246913792e-03 2.979954346707819075e-03 2.979726616083676078e-03 2.978888031550068396e-03 2.982084297839505960e-03 2.981738683127572141e-03 2.982499571330590044e-03 2.978395061728394966e-03 2.979606052812071217e-03 2.979498885459533515e-03 2.978491512345679115e-03 2.977419838820301659e-03 2.980937607167352330e-03 2.982245048868312730e-03 2.980715234910836977e-03 2.982614776234567694e-03 2.983466756687242968e-03 2.981650270061728374e-03 2.981693137002743455e-03 2.979871292009602084e-03 2.977722586591220830e-03 2.980645576131687145e-03 2.979823066700960227e-03 2.981283221879286582e-03 2.983488190157750509e-03 2.979324738511660020e-03 2.982555834190672283e-03 2.982116448045267487e-03 2.982103052126200329e-03 2.983335476680384121e-03 2.981752079046639300e-03 2.981007265946502161e-03 2.979217571159121884e-03 2.981671703532235915e-03 2.980645576131687145e-03 2.979638203017832745e-03 2.981280542695473410e-03 2.979815029149519845e-03 2.981939621913580387e-03 2.981612761488340070e-03 2.981682420267489902e-03 2.980667009602194686e-03 2.981226959019204342e-03 2.979522998113854661e-03 2.978084276406035846e-03 2.981888717421124924e-03 2.982507608882029992e-03 2.980543767146776220e-03 2.981017982681755715e-03 2.979233646262002648e-03 2.979340813614540350e-03 2.979305984224965651e-03 2.980600030006858893e-03 2.982263803155006665e-03 2.983097029320987571e-03 2.984265153463648741e-03 2.982432591735253817e-03 2.981143904320987786e-03 2.980851873285322168e-03 2.977813678840877769e-03 2.981122470850480245e-03 2.980085626714677489e-03 2.977612740054869523e-03 2.980216906721536337e-03 2.983086312585734017e-03 2.980120456104252188e-03 2.980232981824417100e-03 2.981256430041152265e-03 2.980077589163237107e-03 2.978724601337448454e-03 2.981904792524005688e-03 2.981604723936899688e-03 2.982553155006858678e-03 2.981998563957475798e-03 2.979740012002743670e-03 2.981299296982167345e-03 2.978716563786008072e-03 2.979734653635116460e-03 2.978070880486968254e-03 2.981888717421124924e-03 2.981277863511659805e-03 2.978191443758573548e-03 2.980999228395061779e-03 2.980661651234567909e-03 2.981133187585733799e-03 2.981267146776406252e-03 2.983555169753086302e-03 2.980254415294924641e-03 2.980326753257887644e-03 2.977548439643346902e-03 2.979713220164608919e-03 2.980399091220850647e-03 2.979097007887517023e-03 2.979962384259259457e-03 2.979565865054869742e-03 2.978831768689986156e-03 2.982145919067215410e-03 2.979330096879286797e-03 2.978882673182441619e-03 2.982813035836762768e-03 2.980195473251028796e-03 2.980889381858710472e-03 2.980779535322359598e-03 2.980913494513031618e-03 2.979689107510288208e-03 2.979496206275720344e-03 2.980066872427983554e-03 2.982228973765431966e-03 2.982103052126200329e-03 2.981368955761316743e-03 2.983458719135802586e-03 2.981853888031550225e-03 2.981339484739368821e-03 2.981347522290809203e-03 2.982783564814814846e-03 2.980441958161865728e-03 2.981192129629629643e-03 2.981007265946502161e-03 2.979879329561042466e-03 2.980040080589849236e-03 2.981055491255144019e-03 2.982245048868312730e-03 2.980725951646090530e-03 2.980742026748971294e-03 2.981259109224965870e-03 2.980275848765432181e-03 2.978400420096021742e-03 2.980865269204389760e-03 2.982665680727023157e-03 2.981856567215363397e-03 2.980771497770919216e-03 2.979860575274348531e-03 2.980332111625514421e-03 2.979935592421124706e-03 2.978518304183813432e-03 2.982033393347050931e-03 2.982751414609053318e-03 2.981610082304526899e-03 2.979873971193415690e-03 2.979469414437585593e-03 2.979707861796982143e-03 2.981352880658436413e-03 2.983882030178326619e-03 2.983233667695473195e-03 2.980326753257887644e-03 2.976530349794238514e-03 2.979496206275720344e-03 2.979051461762688771e-03 2.980918852880658394e-03 2.979815029149519845e-03 2.979155949931412868e-03 2.980224944272976718e-03 2.980420524691358188e-03 2.981902113340192083e-03 2.980109739368998634e-03 2.979777520576131541e-03
