# vvf statistics with RF=500
# gcat file: /disk2/salam/Abacus/AbacusCosmos_720box_products/GCAT_derivative/AbacusCosmos_720box_planck_rockstar_halos_z0.100_Mr21_hod-kappa-neg_real-0.gcat.rsd_zz.1pz0.100by100
# stats order in row: stdvvf,p2.5,p16,p50,p84,p97.5,rho
# columns: numbers, mean, sigma,All, jnrealizations
0.000000000000000000e+00 1.453459684353550996e+00 5.033371360734409383e-03 1.453459921220923601e+00 1.453982431451761315e+00 1.453026491384962648e+00 1.453300502011416251e+00 1.453437588163886129e+00 1.453920030953337994e+00 1.453449921223360253e+00 1.453710400380415990e+00 1.452668510822021641e+00 1.452048112706780358e+00 1.453212871722727284e+00 1.454080608430976085e+00 1.453768707210468136e+00 1.453332529328892564e+00 1.453481437711507729e+00 1.453722565872427097e+00 1.453605576180059700e+00 1.453710927016320653e+00 1.453401461475097189e+00 1.453669365645658740e+00 1.453751502581202448e+00 1.453652109368344547e+00 1.454196811063350081e+00 1.453577238838248187e+00 1.453441455184313114e+00 1.453516058071403050e+00 1.453574114139236872e+00 1.453874446449013202e+00 1.453325735767861948e+00 1.453962966661425549e+00 1.453133632630501548e+00 1.453386095632233976e+00 1.452638672713000068e+00 1.453448808557626259e+00 1.453472630908510199e+00 1.453124075850414254e+00 1.452829354996938438e+00 1.453695539423055294e+00 1.453397075814195194e+00 1.453509820861012880e+00 1.453790737729974358e+00 1.453403893334342278e+00 1.453330928339691797e+00 1.453607929990802461e+00 1.453078277057268552e+00 1.452784414598758733e+00 1.453688155206193988e+00 1.453234350155303112e+00 1.453826711020824058e+00 1.453545489846399530e+00 1.453256001833488575e+00 1.452705218646617391e+00 1.453340203648208595e+00 1.453144902289012608e+00 1.453572514492732726e+00 1.452975765859921831e+00 1.453128744234554626e+00 1.453418643928695575e+00 1.453565401290002335e+00 1.453505157937991399e+00 1.453129950771915535e+00 1.453577482828466660e+00 1.453631312943425513e+00 1.453829495820541551e+00 1.453780199969683551e+00 1.453536810500738685e+00 1.452796418842735360e+00 1.454050859173217747e+00 1.453901471249655630e+00 1.453724116657116872e+00 1.453244734933526239e+00 1.453683865081741633e+00 1.453917611860247483e+00 1.453167561792056972e+00 1.453320793806764044e+00 1.453402865323805582e+00 1.453591606851106333e+00 1.453461022025884786e+00 1.453396839665095142e+00 1.453310923156498902e+00 1.453256264499374062e+00 1.453130412510931002e+00 1.453548387741507186e+00 1.452511044471996637e+00 1.453624810614609020e+00 1.453089988759957096e+00 1.453767193665383317e+00 1.453150203099890403e+00 1.453799630243276964e+00 1.453175430859667827e+00 1.453233701025864910e+00 1.453484141645796646e+00 1.453361434911542682e+00 1.453782414016960400e+00 1.453761420882813793e+00 1.453051418713067422e+00 1.453285831548613904e+00 1.453872983404614239e+00 1.453415063158640441e+00 1.453498345647889156e+00 1.453256349761898436e+00 1.453544785769523839e+00 1.453170917766652082e+00 1.453258169135085431e+00 1.453459683581777240e+00 1.453604330516502952e+00 1.453706271377226633e+00 1.453386309326309744e+00 1.453383449289334273e+00 1.453062037979371057e+00 1.453554493337069653e+00 1.453775472406661606e+00 1.453661384910730270e+00 1.453478493390604642e+00 1.453082826124786564e+00 1.453791650824027615e+00 1.454007683990967248e+00 1.453693720021783431e+00 1.453437389672535662e+00 1.452861859018091284e+00 1.453507691426269455e+00 1.453319163004647363e+00 1.453328653017728511e+00 1.453465822510876304e+00 1.453465547271293179e+00 1.453012998398736100e+00 1.453771510409390677e+00 1.453916794487507325e+00 1.453619784199615461e+00 1.453329914162121206e+00 1.453533800846612767e+00 1.453494496843866335e+00 1.453077551117308408e+00 1.453316129682926450e+00 1.453409419527391666e+00 1.453604000639708405e+00 1.453574126117348708e+00 1.453897677470294081e+00 1.453104638685700500e+00 1.452562681477382656e+00 1.452804976843959039e+00 1.453529108508197165e+00 1.453794549868931307e+00 1.453542523747797688e+00 1.453702859275483927e+00 1.453655842694372202e+00 1.453335983097157724e+00 1.453312462974437169e+00 1.453585986101972427e+00 1.453109325605307367e+00 1.453415672684150506e+00 1.453145294277995658e+00 1.453375116127155309e+00 1.452724647481999254e+00 1.453810362901222453e+00 1.453458094131794498e+00 1.453991555754771792e+00 1.453757468854264712e+00 1.453725367002919100e+00 1.453025061186150602e+00 1.453628205731830825e+00 1.453779585236690819e+00 1.453568228752894154e+00 1.453380550342315836e+00 1.453485085776523134e+00 1.453463925428281955e+00 1.452987681053159008e+00 1.452905187251672281e+00 1.453340932075013914e+00 1.453485890030428385e+00 1.453267004891036329e+00 1.453796583417634958e+00 1.453401920499623579e+00 1.454037903029573586e+00 1.453287931382601039e+00 1.453543795479680600e+00 1.453750765063030359e+00 1.454013355460394230e+00 1.453513744345915626e+00 1.453187384062526011e+00 1.454074377341022295e+00 1.453863934204580932e+00 1.454035118115185377e+00 1.453768774659797369e+00 1.453935138270402661e+00 1.453830448239448403e+00 1.453883805816853059e+00 1.453793212797996448e+00 1.453649316050652285e+00 1.452716710420872914e+00 1.453852895251796840e+00 1.453298693706848388e+00 1.453672267548034247e+00 1.453764108008836597e+00 1.453194065490965192e+00 1.453106739933282654e+00 1.453337287357220342e+00 1.453837040267750735e+00 1.453558869489549377e+00 1.453744063787475449e+00 1.453383489427543251e+00 1.453602332805245201e+00 1.453593564053472731e+00 1.453644981686624593e+00 1.453065255793388744e+00 1.453552758454412341e+00 1.453638484802687536e+00 1.453274920246734547e+00 1.453391625050503899e+00 1.453377445286061498e+00 1.453233197799850940e+00 1.453693880939030736e+00 1.453404688408172829e+00 1.453134678335774366e+00 1.453021651683116255e+00 1.452804375401762105e+00 1.453521968385843577e+00 1.453681663192849971e+00 1.453022682999617343e+00 1.453745639099340181e+00 1.453201148469069226e+00 1.454141983625864887e+00 1.453877304135121395e+00 1.453636638858806451e+00 1.453115540796011684e+00 1.453434686936237119e+00
1.000000000000000000e+00 1.999999988765214023e-02 1.465126086953097147e-04 2.000000000000000042e-02 1.999653255494409851e-02 1.999265396193312949e-02 2.000949719568777610e-02 1.999763570680572825e-02 2.001464007867333195e-02 1.999827840822024361e-02 2.001873101709562147e-02 1.998757436101144397e-02 2.000588426039539777e-02 2.000727734225251145e-02 2.000365877610072590e-02 2.000576363319695600e-02 2.000388442176284989e-02 2.002190339752944054e-02 1.999955330689950558e-02 1.999334813540125030e-02 2.000730571400223534e-02 1.998818232417663709e-02 1.999607606591035855e-02 1.999477184012376715e-02 1.999222147592744775e-02 1.999907569062457993e-02 1.999355648831770138e-02 2.000312890033075983e-02 2.001142868419892099e-02 2.000751975032244792e-02 2.000401793108441684e-02 1.999918846083977020e-02 2.001146364721440030e-02 1.999044393973492886e-02 1.997985375556610155e-02 1.997698467635577665e-02 2.000075359997693578e-02 1.999750118025455520e-02 1.998240365285048475e-02 1.999491481024034609e-02 1.999111595020219845e-02 1.999018698445950357e-02 2.000047876459331436e-02 1.998986337707925331e-02 1.998496238471367606e-02 2.001284305329803850e-02 2.001424235093220150e-02 2.001072324558540380e-02 1.998943707313744975e-02 1.999805354952650938e-02 1.998823499102475240e-02 2.000885970696159033e-02 2.000662184506372954e-02 1.999583522563291166e-02 1.999243208641451885e-02 1.999802181423298783e-02 1.999031519229065024e-02 1.999276030215343947e-02 1.998595853394495581e-02 1.998571968732733642e-02 2.000650209736222485e-02 2.000814375519826063e-02 1.999411249621062259e-02 1.999385682696039335e-02 1.999878360288034548e-02 1.999492672282266945e-02 2.000308229984733982e-02 2.000415435892953855e-02 1.999013855966939521e-02 1.996662586180321386e-02 1.999806361153855239e-02 1.999928803758106721e-02 1.999816107368647053e-02 2.000239281926710633e-02 1.999704296354517727e-02 1.999351754470990797e-02 1.998517897371178756e-02 2.001079907544345629e-02 2.000560092074032958e-02 2.000897846821234755e-02 1.998583072170427577e-02 1.999344859999630658e-02 1.999094369180643219e-02 1.998579603365579702e-02 1.997772221484107186e-02 2.000615766097030637e-02 2.001163961925208484e-02 2.000277240291139028e-02 2.001341924909638692e-02 2.002092000470273234e-02 2.000744513271399128e-02 2.000933052468438847e-02 1.999329713957909149e-02 1.998429342341592405e-02 1.999814215793560557e-02 1.999401573861167222e-02 2.000674326301097455e-02 2.001841972935525238e-02 1.999638473666958197e-02 2.001018335970104062e-02 2.000916657037410396e-02 2.001069230455457260e-02 2.001606089071739786e-02 2.000825883425695270e-02 2.000511012982598286e-02 1.998779484355173164e-02 2.000571359299229204e-02 2.000190541714129064e-02 1.999266131650490746e-02 2.000191549322787032e-02 1.999709836656008224e-02 2.000994377749192032e-02 2.000640744003647289e-02 2.000755592237606073e-02 2.000385705347830848e-02 2.000300575356251873e-02 1.999562480083709112e-02 1.998571418467112726e-02 2.000934455969945180e-02 2.001278730489198382e-02 1.999856425990150649e-02 2.000365857198825592e-02 1.998895748663288147e-02 1.999378616072430143e-02 1.998977787659116795e-02 1.999963664572425304e-02 2.001036773051759199e-02 2.001607853109363747e-02 2.002345129618254144e-02 2.001385263446739046e-02 2.000590844402859447e-02 2.000263879653455326e-02 1.997928558436279367e-02 2.000398697526211897e-02 1.999633724556577549e-02 1.997815746058406380e-02 1.999848724039370723e-02 2.001882352979226370e-02 1.999758698120409836e-02 1.999599092791061808e-02 2.000393167433635322e-02 1.999677465082821612e-02 1.998853018881396534e-02 2.000773642951476916e-02 2.000639424442346784e-02 2.001252254495049926e-02 2.001068673175010817e-02 1.999470714329676727e-02 2.000284522502151704e-02 1.998788127792260061e-02 1.999203489348552396e-02 1.998625670094633308e-02 2.000726380617790998e-02 2.000305039523175496e-02 1.998534480115632742e-02 2.000445702433408662e-02 1.999746073140482028e-02 2.000069580568190550e-02 2.000694208805263094e-02 2.001728864501062938e-02 1.999809413228102045e-02 1.999725366622366954e-02 1.998286724740980930e-02 1.999147741215779109e-02 1.999991075069859972e-02 1.999003091183723657e-02 1.999633268175138659e-02 1.999103156288649721e-02 1.998964228641814111e-02 2.000817090441676244e-02 1.999291164304731194e-02 1.999287107205207498e-02 2.001111763321800421e-02 1.999615131703319157e-02 2.000375656096333929e-02 1.999902749587221043e-02 2.000307102687796240e-02 1.999607353407982860e-02 1.999296295402317597e-02 1.999781595726659103e-02 2.001106983311027807e-02 2.001149416828866892e-02 2.000541013217588607e-02 2.001931466085404843e-02 2.000710329705782456e-02 2.000661597061445876e-02 2.000458877363306409e-02 2.001289564206248581e-02 2.000365862042799772e-02 2.000561122151497256e-02 2.000369520960028000e-02 1.999568817290976741e-02 1.999433669868043786e-02 2.000484251235053537e-02 2.001088642784610433e-02 1.999967302584520004e-02 2.000066751504965545e-02 2.000579450547352103e-02 1.999763874419510645e-02 1.998308488371940833e-02 2.000292132748232934e-02 2.001231931315781629e-02 2.000811120736754878e-02 2.000263652902349587e-02 1.999496158416652625e-02 2.000007663410092312e-02 1.999544407158461781e-02 1.998724806883037108e-02 2.001218889335116755e-02 2.001227196007928505e-02 2.000490017208668425e-02 1.999290223084432966e-02 1.999233949071496305e-02 1.999463204597535723e-02 2.000576599687241622e-02 2.001944354157252776e-02 2.001823939344249750e-02 1.999821964093964274e-02 1.997190357976102310e-02 1.999450083203785714e-02 1.998949582758350468e-02 2.000248962823503521e-02 1.999493241750284478e-02 1.999001078589902544e-02 2.000070949709855175e-02 2.000124279034381711e-02 2.001115402194860587e-02 1.999683758334723158e-02 1.999814610028320672e-02
2.000000000000000000e+00 1.019999994270259086e-01 7.472143043460895140e-04 1.019999999999999934e-01 1.019823160302149034e-01 1.019625352058589618e-01 1.020484356980076446e-01 1.019879421047092116e-01 1.020746644012339860e-01 1.019912198819232368e-01 1.020955281871876730e-01 1.019366292411583580e-01 1.020300097280165269e-01 1.020371144454878115e-01 1.020186597581137083e-01 1.020293945293044707e-01 1.020198105509905334e-01 1.021117073274001447e-01 1.019977218651874767e-01 1.019660754905463707e-01 1.020372591414114016e-01 1.019397298533008395e-01 1.019799879361428241e-01 1.019733363846312135e-01 1.019603295272299842e-01 1.019952860221853552e-01 1.019671380904202673e-01 1.020159573916868678e-01 1.020582862894144904e-01 1.020383507266444945e-01 1.020204914485305370e-01 1.019958611502828211e-01 1.020584646007934304e-01 1.019512640926481251e-01 1.018972541533871290e-01 1.018826218494144620e-01 1.020038433598823707e-01 1.019872560192982419e-01 1.019102586295374674e-01 1.019740655322257661e-01 1.019546913460312176e-01 1.019499536207434665e-01 1.020024416994259053e-01 1.019483032231041780e-01 1.019233081620397330e-01 1.020654995718199981e-01 1.020726359897542179e-01 1.020546885524855618e-01 1.019461290730009906e-01 1.019900731025851909e-01 1.019399984542262300e-01 1.020451845055041218e-01 1.020337714098250304e-01 1.019787596507278488e-01 1.019614036407140434e-01 1.019899112525882307e-01 1.019506074806823259e-01 1.019630775409825219e-01 1.019283885231192649e-01 1.019271704053694022e-01 1.020331606965473453e-01 1.020415331515111268e-01 1.019699737306741516e-01 1.019686698174980116e-01 1.019937963746897491e-01 1.019741262863956138e-01 1.020157197292214241e-01 1.020211872305406414e-01 1.019497066543139097e-01 1.018297918951963921e-01 1.019901244188466394e-01 1.019963689916634358e-01 1.019906214758009855e-01 1.020122033782622367e-01 1.019849191140804051e-01 1.019669394780205463e-01 1.019244127659301169e-01 1.020550752847616260e-01 1.020285646957756753e-01 1.020457901878829704e-01 1.019277366806917995e-01 1.019665878599811670e-01 1.019538128282127948e-01 1.019275597716445686e-01 1.018863832956894699e-01 1.020314040709485448e-01 1.020593620581856376e-01 1.020141392548480908e-01 1.020684381703915733e-01 1.021066920239839387e-01 1.020379701768413527e-01 1.020475856758903954e-01 1.019658154118533583e-01 1.019198964594212053e-01 1.019905250054715801e-01 1.019694802669195155e-01 1.020343906413559709e-01 1.020939406197117760e-01 1.019815621570148573e-01 1.020519351344753162e-01 1.020467495089079357e-01 1.020545307532283313e-01 1.020819105426587353e-01 1.020421200547104584e-01 1.020260616621125327e-01 1.019377537021138314e-01 1.020291393242606648e-01 1.020097176274205875e-01 1.019625727141750260e-01 1.020097690154621456e-01 1.019852016694564045e-01 1.020507132652088006e-01 1.020326779441860093e-01 1.020385352041179028e-01 1.020196709727393680e-01 1.020153293431688424e-01 1.019776864842691644e-01 1.019271423418227351e-01 1.020476572544671973e-01 1.020652152549491182e-01 1.019926777254976796e-01 1.020186587171401094e-01 1.019436831818276989e-01 1.019683094196939532e-01 1.019478671706149642e-01 1.019981468931936697e-01 1.020528754256397330e-01 1.020820005085775473e-01 1.021196016105309634e-01 1.020706484357837007e-01 1.020301330645458360e-01 1.020134578623262261e-01 1.018943564802502477e-01 1.020203335738368022e-01 1.019813199523854630e-01 1.018886030489787181e-01 1.019922849260078979e-01 1.020960000019405373e-01 1.019876936041409082e-01 1.019795537323441581e-01 1.020200515391153917e-01 1.019835507192239088e-01 1.019415039629512076e-01 1.020394557905253269e-01 1.020326106465596905e-01 1.020638649792475483e-01 1.020545023319255479e-01 1.019730064308135148e-01 1.020145106476097324e-01 1.019381945174052534e-01 1.019593779567761760e-01 1.019299091748262914e-01 1.020370454115073350e-01 1.020155570156819624e-01 1.019252584858972577e-01 1.020227308241038328e-01 1.019870497301645917e-01 1.020035486089777288e-01 1.020354046490684202e-01 1.020881720895542022e-01 1.019902800746332050e-01 1.019859936977407094e-01 1.019126229617900309e-01 1.019565348020047418e-01 1.019995448285628548e-01 1.019491576503699093e-01 1.019812966769320650e-01 1.019542609707211334e-01 1.019471756607325114e-01 1.020416716125254891e-01 1.019638493795412965e-01 1.019636424674655734e-01 1.020566999294118260e-01 1.019803717168692864e-01 1.020191584609130286e-01 1.019950402289482722e-01 1.020156622370776006e-01 1.019799750238071234e-01 1.019641110655181981e-01 1.019888613820596063e-01 1.020564561488624261e-01 1.020586202582722118e-01 1.020275916740970290e-01 1.020985047703556331e-01 1.020362268149948987e-01 1.020337414501337331e-01 1.020234027455286241e-01 1.020657677745186731e-01 1.020186589641828012e-01 1.020286172297263649e-01 1.020188455689614165e-01 1.019780096818398152e-01 1.019711171632702307e-01 1.020246968129877307e-01 1.020555207820151439e-01 1.019983324318105150e-01 1.020034043267532414e-01 1.020295519779149673e-01 1.019879575953950429e-01 1.019137329069689790e-01 1.020148987701598731e-01 1.020628284971048516e-01 1.020413671575745029e-01 1.020134462980198248e-01 1.019743040792492755e-01 1.020003908339147114e-01 1.019767647650815373e-01 1.019349651510348814e-01 1.020621633560909597e-01 1.020625869964043447e-01 1.020249908776420800e-01 1.019638013773060681e-01 1.019609314026463098e-01 1.019726234344743299e-01 1.020294065840493258e-01 1.020991620620198825e-01 1.020930209065567390e-01 1.019909201687921874e-01 1.018567082567812254e-01 1.019719542433930731e-01 1.019464287206758718e-01 1.020126971039986563e-01 1.019741553292645014e-01 1.019490550080850433e-01 1.020036184352026143e-01 1.020063382307534738e-01 1.020568855119378809e-01 1.019838716750708640e-01 1.019905451114443556e-01
3.000000000000000000e+00 4.713049921889237992e-01 1.215068609032325317e-02 4.719999999999999751e-01 4.709183416689335377e-01 4.718266335016218505e-01 4.722241338182314729e-01 4.719442026806152102e-01 4.703440418488232799e-01 4.719593704339977158e-01 4.704401789017471081e-01 4.717067549198700749e-01 4.721388685453313805e-01 4.721717452771592716e-01 4.700859812383670899e-01 4.701354453801284694e-01 4.720916723536032200e-01 4.705147298419418700e-01 4.719894580428283248e-01 4.718430159954694614e-01 4.701716842790525375e-01 4.717211028505686188e-01 4.719073951554844104e-01 4.718766154269208868e-01 4.718164268318877919e-01 4.699782787296775677e-01 4.718479331242977359e-01 4.720738420478058917e-01 4.702685740786746171e-01 4.701767141325775556e-01 4.700944213804837957e-01 4.719808476758185489e-01 4.702693957095384070e-01 4.717744769777442726e-01 4.715245486313600076e-01 4.714568383619963110e-01 4.720177849594556774e-01 4.719410278540075443e-01 4.715847262072714319e-01 4.718799895216721496e-01 4.717903364247718612e-01 4.717684128332442772e-01 4.720112988444021829e-01 4.717607756990703227e-01 4.716451122792427730e-01 4.703018117525039066e-01 4.703346952469066866e-01 4.722530685958155061e-01 4.717507149260438126e-01 4.719540637688255935e-01 4.717223457881841719e-01 4.702082031135974005e-01 4.701556133589976927e-01 4.719017113249366902e-01 4.718213972393826561e-01 4.719533148158985281e-01 4.717714385380593622e-01 4.718291431308211381e-01 4.716686214011009404e-01 4.716629846209250965e-01 4.721534494977485119e-01 4.701913782471591197e-01 4.718610549105706764e-01 4.718550211162653163e-01 4.719712930279761909e-01 4.718802706586149864e-01 4.700724340464124684e-01 4.700976274348441231e-01 4.717672700081976811e-01 4.712123703385558415e-01 4.699544948711559811e-01 4.699832688831550587e-01 4.719566013390006365e-01 4.720564705347037315e-01 4.719302139396661655e-01 4.718470140551538350e-01 4.716502237795981989e-01 4.702537782729211968e-01 4.721321817294717449e-01 4.702109940029901569e-01 4.716656050322209359e-01 4.718453869599128492e-01 4.717862711266317954e-01 4.716647863942768359e-01 4.714742442702493097e-01 4.721453207988992040e-01 4.722746950143492661e-01 4.700651514684176524e-01 4.703153523537650926e-01 4.704916201105142082e-01 4.701749606187787811e-01 4.702192673300831793e-01 4.718418124940665370e-01 4.716293247926157672e-01 4.719561549272802692e-01 4.718587714312354464e-01 4.701584666807578916e-01 4.704328636398484309e-01 4.719146797854020803e-01 4.702393089529744996e-01 4.702154144037914429e-01 4.702512691570324699e-01 4.703774309318589086e-01 4.721949084884640713e-01 4.701200880509107116e-01 4.717119583078208667e-01 4.721348407946180381e-01 4.720449678445344799e-01 4.718268070695158523e-01 4.720452056401777674e-01 4.719315214508179590e-01 4.702336787710601484e-01 4.721512155848607839e-01 4.721783197680750055e-01 4.700906407567402301e-01 4.720709357840754405e-01 4.718967452997553380e-01 4.716628547582385478e-01 4.702195971529370966e-01 4.703005016649616232e-01 4.719661165336755393e-01 4.720863422989228231e-01 4.717393966845360165e-01 4.718533533930935331e-01 4.717587578875515608e-01 4.719914248390923439e-01 4.702436416671633701e-01 4.703778454807004406e-01 4.705511054602897203e-01 4.703255369099836880e-01 4.701388484346719632e-01 4.700620117185619895e-01 4.715111397909619306e-01 4.720940926161859563e-01 4.719135589953523113e-01 4.714845160697839210e-01 4.719642988732914990e-01 4.704423529501181589e-01 4.719430527564167366e-01 4.719053858986906325e-01 4.700923943469043076e-01 4.719238817595459157e-01 4.717293124560095752e-01 4.721825797365485911e-01 4.721509041683938923e-01 4.702942798063367014e-01 4.702511381961275161e-01 4.718750885818037144e-01 4.720671473105078064e-01 4.717139981589733577e-01 4.718120234862583917e-01 4.716756581423334205e-01 4.721714258257986296e-01 4.720719893274694101e-01 4.716541373072892784e-01 4.721051857742843971e-01 4.719400732611537252e-01 4.700163514335248260e-01 4.701631390692368462e-01 4.704062831577497938e-01 4.719550215218320521e-01 4.719351865228785803e-01 4.715956670388715133e-01 4.717988669269239099e-01 4.699979026414171090e-01 4.717647295193588275e-01 4.719134512893327082e-01 4.717883448841213578e-01 4.717555579594681081e-01 4.721928333442356185e-01 4.718327147759165952e-01 4.718317573004289223e-01 4.702612643806231008e-01 4.719091710819833807e-01 4.700882791826384577e-01 4.719770489025841287e-01 4.700721691316320783e-01 4.719073354042839230e-01 4.718339257149469779e-01 4.719484565914915386e-01 4.702601410780915536e-01 4.702701129547837144e-01 4.721276791193509403e-01 4.704538945300700825e-01 4.701669274808588650e-01 4.701554753094397410e-01 4.701078361803769923e-01 4.703030475884684147e-01 4.700859775800579898e-01 4.701318637056018934e-01 4.700868374256065296e-01 4.718982408806705053e-01 4.718663460888583572e-01 4.701137990402375344e-01 4.702558310543835107e-01 4.719922834099467002e-01 4.700156866036668823e-01 4.721367503291751255e-01 4.719442743630045123e-01 4.716008032557780227e-01 4.700686511958347413e-01 4.702895038592086463e-01 4.701906133731373894e-01 4.720622220849544637e-01 4.718810933863299972e-01 4.720018085647817996e-01 4.718924800893969373e-01 4.716990544243967465e-01 4.702864389937524980e-01 4.702883910618632091e-01 4.721156440612457317e-01 4.718324926479262049e-01 4.718192119808731211e-01 4.718733162850184404e-01 4.701355009265018037e-01 4.704569232269543710e-01 4.704286257458987208e-01 4.719579835261756284e-01 4.713369244823601978e-01 4.718702196360934353e-01 4.717521015309706911e-01 4.720587552263467712e-01 4.718804050530671090e-01 4.717642545472169879e-01 4.700166731818159471e-01 4.720293298521140990e-01 4.702621195157922207e-01 4.719253669669946638e-01 4.719562479666836730e-01
4.000000000000000000e+00 1.827105712180287611e+00 8.802753845839755842e-03 1.828000000000000069e+00 1.827683075521890466e+00 1.827328572120687999e+00 1.826867093966293876e+00 1.827783903602043569e+00 1.827336639182875144e+00 1.827842646511330216e+00 1.827710141860830140e+00 1.826864296596445891e+00 1.826537232974099867e+00 1.826664421347654166e+00 1.826334046257996224e+00 1.826526219710882248e+00 1.826354647706948109e+00 1.825997589854685188e+00 1.827959172250614772e+00 1.827392019575674098e+00 1.826667011688404063e+00 1.826919864429744633e+00 1.827641352424206778e+00 1.827522146187312346e+00 1.827289042899768789e+00 1.827915518123086391e+00 1.827411063032237770e+00 1.826285668600198253e+00 1.827043438867361314e+00 1.826686553204439623e+00 1.826366837108007291e+00 1.827925825320754871e+00 1.827046630990674547e+00 1.827126576091772314e+00 1.826158633258741837e+00 1.827894097886553437e+00 1.828068879037891836e+00 1.827771607875266380e+00 1.828389934235819414e+00 1.827535213655967494e+00 1.827187997848480849e+00 1.827103090379598616e+00 1.828043759083828768e+00 1.827073512665043697e+00 1.826625561962829991e+00 1.827172570766110837e+00 1.827300326640109995e+00 1.826979032321947249e+00 1.827034548484762766e+00 1.825822289071770133e+00 1.826924678179662642e+00 1.826808891245593536e+00 1.826604574454318453e+00 1.827619339622847949e+00 1.827308292698287095e+00 1.827819193820894972e+00 1.827114808575365457e+00 1.827338291616824151e+00 1.826716610002568908e+00 1.826694779421718318e+00 1.826593641489171027e+00 1.826743524849601119e+00 1.827461882153651018e+00 1.827438513984180002e+00 1.825888942942975657e+00 1.827536302465991858e+00 1.826281413976062140e+00 1.826379292970266910e+00 1.827098664353782542e+00 1.826946266354994020e+00 1.827823014094623666e+00 1.827934926634909640e+00 1.827831922134943277e+00 1.828218703681013579e+00 1.827729726868029037e+00 1.827407503586485404e+00 1.826645358197257485e+00 1.826985955587987487e+00 1.826511364063591936e+00 1.826819734147787200e+00 1.826704927963770819e+00 1.827401202039662387e+00 1.827172253431107674e+00 1.826701757476139942e+00 1.827961582657958051e+00 1.826562194446588849e+00 1.827062697237715305e+00 1.826253120385809892e+00 1.827225177442500126e+00 1.827909996429359474e+00 1.826679740616787395e+00 1.826851876903684779e+00 1.827387358557528874e+00 1.826564418900215259e+00 1.827830193235314260e+00 1.827453038509106786e+00 1.826615659912901979e+00 1.827681721290134398e+00 1.827669564931599711e+00 1.826929740740705022e+00 1.826836907875155624e+00 1.826976207405832664e+00 1.827466359322498235e+00 1.826754031567659808e+00 1.826466554853112711e+00 1.826884448700628161e+00 1.826521651040196037e+00 1.828174155126714107e+00 1.827329244328548707e+00 1.826174884531704734e+00 1.827734790703591683e+00 1.826907866885012499e+00 1.826584999275330023e+00 1.826689855712934296e+00 1.826352148982569368e+00 1.826274425300258075e+00 1.827600106796509971e+00 1.826694276478940893e+00 1.826853158300559832e+00 1.827167480936638277e+00 1.825868916929007657e+00 1.828334393479726705e+00 1.826990714278245553e+00 1.827432055090201235e+00 1.827065697920432941e+00 1.827966789419196658e+00 1.826946573796256024e+00 1.827467969888848964e+00 1.828141103341466067e+00 1.827264745526873124e+00 1.826539440939810577e+00 1.826240922123604671e+00 1.828104630969195510e+00 1.826364010841431407e+00 1.827665224244711784e+00 1.828001407643441878e+00 1.827861733771984465e+00 1.827718588270033528e+00 1.827779450082054780e+00 1.827633570811030506e+00 1.826358961866908936e+00 1.827705203085699281e+00 1.826951659257596283e+00 1.826706336014698451e+00 1.826583794515862724e+00 1.827143308353980533e+00 1.826975698608784837e+00 1.827516232897324233e+00 1.826259769044464409e+00 1.826892348802125587e+00 1.827271989264577012e+00 1.826743862466494672e+00 1.826663185504042941e+00 1.826278501084659389e+00 1.826660514825688253e+00 1.826406926321701985e+00 1.827767910850400579e+00 1.828063596639326382e+00 1.826633812639204990e+00 1.827578453289470328e+00 1.827825803690485529e+00 1.827748985092843448e+00 1.826434066413256563e+00 1.827221035471222166e+00 1.827991842613851947e+00 1.827088825341923517e+00 1.827664807112076684e+00 1.827180284847825797e+00 1.827053304978617954e+00 1.826746003573250565e+00 1.827352124174524306e+00 1.827348415985559527e+00 1.827015039912804006e+00 1.827648230376833993e+00 1.826342974015952914e+00 1.827911113122719922e+00 1.826280384753957930e+00 1.827641121014896175e+00 1.827356813997718099e+00 1.827800378494166322e+00 1.827010675762968495e+00 1.827049417564755585e+00 1.826493945067658498e+00 1.827763428535974510e+00 1.826648531021379362e+00 1.826604038117099815e+00 1.826418955032698577e+00 1.827177372120305066e+00 1.826334032045076272e+00 1.826512304524317010e+00 1.826337372636505307e+00 1.827605899003952761e+00 1.827482374259391751e+00 1.826442121377603867e+00 1.826993930862349513e+00 1.825970147259666554e+00 1.828061010875538406e+00 1.826529038349732570e+00 1.827784181219432869e+00 1.826453958371953901e+00 1.826266717199136691e+00 1.827124753291308412e+00 1.826740553232657494e+00 1.826240715099845202e+00 1.827539488792820466e+00 1.828007004356824394e+00 1.827583588142833726e+00 1.826834473491095512e+00 1.827112845962961751e+00 1.827120429955238823e+00 1.826447385711514215e+00 1.827351263899172018e+00 1.827299829451347613e+00 1.827509369002147777e+00 1.826526435514451929e+00 1.827775195345571646e+00 1.827665256621300083e+00 1.827837275181883436e+00 1.827429177548133721e+00 1.827497376048260236e+00 1.827039918641132132e+00 1.826227303057858631e+00 1.827536822959760165e+00 1.827086985831170907e+00 1.826064777085097734e+00 1.826113466758390480e+00 1.827018362203907564e+00 1.827710955117936908e+00 1.825830738955856791e+00
5.000000000000000000e+00 5.092597467080938856e+00 1.794109816685017511e-02 5.091999999999999638e+00 5.095116494999755830e+00 5.092128964104368549e+00 5.090416086582969513e+00 5.093397814523418887e+00 5.093725900022362474e+00 5.093561510573695550e+00 5.090763297647416863e+00 5.090835189749614464e+00 5.091497544270628950e+00 5.089851355869038585e+00 5.094931890272855313e+00 5.093467421011944829e+00 5.092988973780821382e+00 5.091570033991737354e+00 5.093886227267304001e+00 5.092305770086698047e+00 5.093860034784968960e+00 5.092988856200206804e+00 5.093000573987367829e+00 5.092668387679522901e+00 5.094018032066314206e+00 5.095764485971142399e+00 5.092358837574518127e+00 5.090796305134178468e+00 5.092908600128624563e+00 5.093314302839492491e+00 5.095023367047200935e+00 5.091793382129805146e+00 5.094918644580785916e+00 5.091566071450485786e+00 5.092864722293799495e+00 5.090135695535451532e+00 5.092191866554127699e+00 5.093363550610835233e+00 5.091516450746303768e+00 5.090705310687191343e+00 5.093736344111520431e+00 5.091500624941835085e+00 5.092121893465457738e+00 5.093417188479793190e+00 5.092168415625044631e+00 5.093268557064350333e+00 5.091623254077151550e+00 5.090727993676926744e+00 5.091309622528108925e+00 5.093504239064401418e+00 5.091003452214004632e+00 5.092254795421724545e+00 5.093685921753225543e+00 5.092939231968702352e+00 5.092072452409778016e+00 5.093496156085142168e+00 5.091533279476428753e+00 5.092156048958480952e+00 5.092422234449174745e+00 5.092361376331004941e+00 5.091654783778686522e+00 5.094073400073477309e+00 5.092500452784845422e+00 5.092435333826812460e+00 5.093690183653624359e+00 5.092707836302933444e+00 5.094785061771117007e+00 5.093057699783460457e+00 5.093487305003761456e+00 5.091489594759819326e+00 5.093506801858869615e+00 5.093818663171897576e+00 5.093531625467943691e+00 5.092609211785405599e+00 5.093246842814956210e+00 5.094348270392084821e+00 5.092223602501763757e+00 5.092748364700359076e+00 5.091425434328413324e+00 5.090284122313221360e+00 5.092389667890249605e+00 5.092331358419059484e+00 5.091693358303097661e+00 5.091181681613292653e+00 5.092321392562989324e+00 5.093567740483039508e+00 5.090961119137730861e+00 5.094706131021530915e+00 5.089412515045211194e+00 5.093322049196375545e+00 5.091894786275711127e+00 5.094375551584645834e+00 5.092292781450794337e+00 5.091997964286377076e+00 5.091526993410404600e+00 5.092475808624392641e+00 5.092916565031793574e+00 5.090684137175040647e+00 5.093079192429741830e+00 5.090590646707944700e+00 5.094333808817246734e+00 5.092721191509139267e+00 5.092085890598506026e+00 5.092101873318394034e+00 5.093301039053696577e+00 5.090891346652625771e+00 5.091454109416537754e+00 5.091735047751029697e+00 5.092130837313800562e+00 5.092487684575815798e+00 5.092161113552599261e+00 5.092530691371694118e+00 5.091630693489282322e+00 5.089922226652469739e+00 5.092982005815577473e+00 5.092765264857017193e+00 5.092885636773206492e+00 5.090361402835736016e+00 5.094379124899480082e+00 5.093254369095009615e+00 5.093634316996913824e+00 5.092931472428210427e+00 5.091187471845395329e+00 5.092417335136479650e+00 5.093395402955430029e+00 5.091907490001394976e+00 5.092638587416726814e+00 5.090088770457111167e+00 5.091963664619219898e+00 5.093525495471951103e+00 5.095504880694083027e+00 5.092671837597697149e+00 5.092719895454075996e+00 5.093015083901735629e+00 5.093067096445603070e+00 5.092432336702877649e+00 5.091614851404237641e+00 5.090786823626172186e+00 5.093385404112684256e+00 5.092978889338835025e+00 5.095001397453469139e+00 5.093178503565946258e+00 5.091078639090916624e+00 5.091968921311509355e+00 5.091627335205773264e+00 5.093186987689901635e+00 5.092719773230402147e+00 5.092651909397686971e+00 5.094724678812980301e+00 5.092912149614678086e+00 5.091971287370763655e+00 5.094496833071220365e+00 5.091848638672277438e+00 5.090776325586481299e+00 5.092265855334631830e+00 5.093134758395458483e+00 5.091353502215667071e+00 5.092177152126613926e+00 5.093767455618199769e+00 5.092398231290704125e+00 5.093514575491975727e+00 5.093300508787169001e+00 5.091634574640019117e+00 5.093828444617805928e+00 5.093977268202933395e+00 5.091460873244944452e+00 5.093065934042077636e+00 5.091715739067191215e+00 5.091361890350700747e+00 5.092079495174066217e+00 5.090195304319845349e+00 5.092184262051662635e+00 5.092829437653982438e+00 5.091020125316650713e+00 5.092956420421265840e+00 5.091752400449064631e+00 5.092781883443128876e+00 5.091000321776723681e+00 5.094206960685105479e+00 5.093443724315800836e+00 5.092817272526565908e+00 5.092925265829466142e+00 5.093377419651980986e+00 5.090911718255184404e+00 5.093808499430921621e+00 5.093684426118440634e+00 5.093168301766977990e+00 5.093281940904902605e+00 5.094931850623011016e+00 5.093428616997712766e+00 5.094941169885190746e+00 5.092901777640117977e+00 5.092557557153907233e+00 5.093232903644445919e+00 5.092770595886833895e+00 5.093916719682772154e+00 5.094170016083147345e+00 5.093475281093558849e+00 5.091398824272074464e+00 5.093688336860076937e+00 5.094744062109748839e+00 5.093135265198664108e+00 5.094065113395777722e+00 5.092671260289382218e+00 5.092716715487213719e+00 5.094019518705504623e+00 5.092839605032601469e+00 5.090752083131095063e+00 5.093102073357872683e+00 5.092172630921887766e+00 5.091247093796060774e+00 5.092192198196050512e+00 5.092048868285100838e+00 5.092632782109923539e+00 5.093468022803717687e+00 5.090944492621893858e+00 5.090638277752427499e+00 5.091546720583233210e+00 5.090838222481084863e+00 5.092599361920042256e+00 5.093323536868276769e+00 5.092633859348639547e+00 5.092709286737973962e+00 5.092155397545708340e+00 5.094180708911000721e+00 5.094316538700570440e+00 5.092838698585920199e+00 5.091194848720205002e+00 5.093527811742132982e+00
6.000000000000000000e+00 3.048557017678630177e-03 2.668702064609397933e-05 3.062106159979424008e-03 3.048048482510288051e-03 3.047459062071330473e-03 3.049803347908093196e-03 3.048045803326474446e-03 3.050848229595335900e-03 3.048257458847736679e-03 3.051311728395061842e-03 3.046711569787380162e-03 3.049658671982167189e-03 3.049543467078189105e-03 3.049112118484225125e-03 3.049597050754458173e-03 3.049039780521262122e-03 3.052021712105624281e-03 3.048262817215363456e-03 3.047582304526748938e-03 3.049444337277091785e-03 3.046684777949245412e-03 3.047960069444444284e-03 3.047783243312757184e-03 3.047298311042524136e-03 3.048120820473251055e-03 3.047531400034293476e-03 3.048627186213991643e-03 3.050352580589849299e-03 3.049374678497942387e-03 3.049039780521262122e-03 3.048485189471879242e-03 3.050240054869684386e-03 3.047051826131687204e-03 3.045315715020575995e-03 3.044988854595336112e-03 3.048753107853223714e-03 3.047997578017832589e-03 3.045698838305898552e-03 3.047743055555555709e-03 3.046963413065843437e-03 3.047051826131687204e-03 3.048793295610425190e-03 3.046711569787380162e-03 3.046574931412894538e-03 3.050068587105624063e-03 3.050714270404663881e-03 3.050202546296296082e-03 3.046730324074074098e-03 3.048420889060356621e-03 3.046475801611796784e-03 3.049806027091906801e-03 3.049605088305898555e-03 3.047740376371742103e-03 3.047274198388202991e-03 3.048426247427983397e-03 3.047105409807956272e-03 3.047268840020576214e-03 3.046467764060356836e-03 3.046277542009602143e-03 3.049479166666666484e-03 3.049878365054869804e-03 3.047367969821673534e-03 3.047638567386831178e-03 3.048241383744855915e-03 3.047678755144033087e-03 3.049018347050754581e-03 3.049144268689986219e-03 3.047212577160493974e-03 3.043207197359396217e-03 3.048380701303155145e-03 3.048000257201646194e-03 3.048254779663923074e-03 3.048975480109739501e-03 3.047783243312757184e-03 3.047429591049382550e-03 3.046534743655692629e-03 3.050242734053497991e-03 3.049455054012345772e-03 3.050274884259259085e-03 3.046154299554183677e-03 3.047400120027434628e-03 3.047022355109739282e-03 3.046513310185185088e-03 3.045082626028806656e-03 3.049128193587105455e-03 3.050416881001371920e-03 3.048913858882030051e-03 3.050791966735253661e-03 3.051627872085048172e-03 3.049642596879286859e-03 3.049570258916323856e-03 3.047579625342935333e-03 3.045977473422496577e-03 3.048131537208504608e-03 3.047708226165981010e-03 3.049385395233196374e-03 3.051635909636488554e-03 3.047582304526748938e-03 3.050478502229080936e-03 3.049864969135802645e-03 3.050039116083676140e-03 3.051370670438957686e-03 3.049562221364883474e-03 3.049224644204389604e-03 3.046877679183813276e-03 3.049393432784636322e-03 3.048632544581618854e-03 3.047346536351165994e-03 3.048991555212619831e-03 3.048008294753086576e-03 3.050023040980795810e-03 3.049575617283950633e-03 3.049296982167352607e-03 3.048771862139917650e-03 3.049130872770919060e-03 3.047842185356653029e-03 3.046317729766804053e-03 3.049937307098765649e-03 3.050207904663923292e-03 3.048557527434842245e-03 3.049047818072702504e-03 3.046912508573388408e-03 3.047485853909465223e-03 3.046730324074074098e-03 3.048434284979423779e-03 3.050357938957476076e-03 3.050933963477366062e-03 3.052104766803840838e-03 3.050733024691357816e-03 3.049299661351165779e-03 3.048876350308642180e-03 3.045323752572016377e-03 3.049211248285322445e-03 3.047844864540466200e-03 3.045227301954732662e-03 3.048254779663923074e-03 3.051322445130315395e-03 3.048037765775034498e-03 3.048163687414266135e-03 3.048988876028806659e-03 3.047981502914951825e-03 3.046470443244170007e-03 3.049599729938271778e-03 3.049345207475994465e-03 3.050457068758573396e-03 3.050304355281207008e-03 3.047542116769547463e-03 3.048868312757201798e-03 3.046545460390946616e-03 3.047437628600822932e-03 3.046341842421124765e-03 3.049615805041152108e-03 3.049104080932784743e-03 3.046191808127571982e-03 3.049101401748971138e-03 3.048600394375857326e-03 3.048605752743484103e-03 3.049221965020575999e-03 3.051373349622770858e-03 3.048174404149519689e-03 3.047938635973936744e-03 3.045500578703703911e-03 3.047365290637859929e-03 3.048726316015088963e-03 3.046848208161865353e-03 3.047761809842249644e-03 3.047268840020576214e-03 3.046877679183813276e-03 3.050127529149519907e-03 3.047078617969821521e-03 3.046877679183813276e-03 3.050532085905350004e-03 3.047989540466392207e-03 3.048994234396433436e-03 3.048570923353909404e-03 3.048795974794238795e-03 3.048013653120713352e-03 3.047351894718792770e-03 3.048037765775034498e-03 3.050368655692729629e-03 3.050513331618655635e-03 3.049334490740740911e-03 3.051566250857338722e-03 3.049680105452674730e-03 3.049492562585734076e-03 3.049246077674897144e-03 3.050419560185185092e-03 3.048978159293552672e-03 3.049398791152263533e-03 3.048873671124828575e-03 3.048043124142661275e-03 3.047954711076817508e-03 3.048996913580247041e-03 3.050325788751714548e-03 3.048069915980795592e-03 3.048562885802469022e-03 3.049393432784636322e-03 3.048019011488340129e-03 3.045889060356652810e-03 3.048814729080932730e-03 3.050593707133059020e-03 3.049806027091906801e-03 3.049018347050754581e-03 3.047761809842249644e-03 3.048586998456790167e-03 3.047930598422496362e-03 3.046400784465020609e-03 3.050443672839506237e-03 3.050465106310013778e-03 3.049704218106995875e-03 3.047579625342935333e-03 3.047191143689986434e-03 3.047448345336076919e-03 3.049425582990397850e-03 3.051705568415637952e-03 3.051199202674896929e-03 3.048386059670781922e-03 3.043732317386831174e-03 3.047657321673525547e-03 3.046915187757201580e-03 3.048734353566529345e-03 3.047531400034293476e-03 3.047161672668038512e-03 3.048386059670781922e-03 3.048463756001371702e-03 3.049910515260630898e-03 3.048166366598079741e-03 3.048313721707818919e-03
