# vvf statistics with RF=500
# gcat file: /disk2/salam/Abacus/AbacusCosmos_720box_products/GCAT_derivative/AbacusCosmos_720box_16_rockstar_halos_z0.100_Mr21_hod-default_real-9.gcat.rsd_zz.1pz0.100by100
# stats order in row: stdvvf,p2.5,p16,p50,p84,p97.5,rho
# columns: numbers, mean, sigma,All, jnrealizations
0.000000000000000000e+00 1.410862742991545460e+00 5.403240940104300956e-03 1.410863007332836982e+00 1.411423003494474582e+00 1.410327354680156242e+00 1.410676779397912251e+00 1.410858724276504494e+00 1.411379347528136874e+00 1.410918529592293247e+00 1.411148939586432949e+00 1.409653866187876803e+00 1.409304309366268937e+00 1.410649021331732200e+00 1.411456469721670937e+00 1.411370338523763257e+00 1.410996982772165786e+00 1.410607392356765244e+00 1.411218449871349812e+00 1.410818949276690271e+00 1.411244533062702367e+00 1.410996672281099151e+00 1.411089648367630289e+00 1.411172614887343357e+00 1.410867091352938196e+00 1.411427229177266041e+00 1.410756564667118518e+00 1.411047303490798654e+00 1.410909752125719230e+00 1.411136781817979857e+00 1.411473227602718650e+00 1.410615527768547928e+00 1.411366572941287201e+00 1.410576232705637700e+00 1.410660253830125388e+00 1.410350221319088604e+00 1.410995929381088976e+00 1.410924000383994237e+00 1.410248924736708709e+00 1.410208614108524605e+00 1.410940457330774223e+00 1.410734337948116535e+00 1.410781180128101608e+00 1.411194440958433383e+00 1.410831562245709048e+00 1.410743527956021648e+00 1.411115522210739437e+00 1.410685457254997610e+00 1.410394170811519743e+00 1.410951518337711486e+00 1.410562038691757447e+00 1.411238855597272135e+00 1.411014240204351955e+00 1.410879619273660124e+00 1.410313981727643107e+00 1.410713315599612327e+00 1.410528009257272952e+00 1.411060285233304512e+00 1.410304121276823031e+00 1.410651458692979698e+00 1.410742696755795667e+00 1.410887605048584348e+00 1.411095329795422959e+00 1.410395078201817753e+00 1.411128709681837456e+00 1.411078359361150447e+00 1.411210598736529764e+00 1.410951890024856104e+00 1.411007568862414852e+00 1.410177341519492478e+00 1.411702821468007407e+00 1.411455000335796184e+00 1.411255135664975624e+00 1.410238732851731625e+00 1.410954447018628155e+00 1.411431940883370206e+00 1.410349988809941779e+00 1.410411749529331571e+00 1.410932571288490367e+00 1.411103340016852004e+00 1.410702795327746450e+00 1.410615318983227784e+00 1.410679390393708932e+00 1.410623808526815015e+00 1.410325853104174909e+00 1.410903659804927157e+00 1.409850139251162204e+00 1.410692012389877181e+00 1.410415844124934148e+00 1.411284192639720825e+00 1.410852962193901439e+00 1.411133458887394054e+00 1.410482172191735772e+00 1.410548498061430012e+00 1.410924603874691208e+00 1.410757160366497232e+00 1.410931595693396989e+00 1.411110794557844939e+00 1.410282268615375534e+00 1.410726280409467570e+00 1.411195908502336893e+00 1.410942405702691804e+00 1.411089527861395965e+00 1.410742631210644138e+00 1.410993890407689966e+00 1.410549740678612274e+00 1.410599518580695877e+00 1.410708278510287794e+00 1.410984765904834015e+00 1.411057217674798414e+00 1.410790167611664536e+00 1.410765293207824511e+00 1.410777891888564950e+00 1.411078496843832353e+00 1.411299340831302374e+00 1.410960272307045793e+00 1.411071570368821693e+00 1.410405899609699532e+00 1.411487095847506756e+00 1.411178172304790479e+00 1.411055387053530064e+00 1.411050354372068494e+00 1.410275671247338103e+00 1.410992404938035572e+00 1.410838034432214450e+00 1.410748041189043400e+00 1.410858408645999207e+00 1.410494265974447936e+00 1.410837367100560291e+00 1.411051122279597170e+00 1.411258185560083867e+00 1.411309260626544715e+00 1.410632379527900548e+00 1.410735927332788853e+00 1.411104816196840028e+00 1.410668368883536417e+00 1.411005977566896163e+00 1.410883953268243340e+00 1.411100548652918674e+00 1.410975266017798102e+00 1.411119874852806655e+00 1.410562146009121332e+00 1.410112853462651250e+00 1.410135306433552005e+00 1.410827520334634766e+00 1.411318461651389855e+00 1.411141989067450808e+00 1.411090545195253565e+00 1.411259101479765077e+00 1.410856001050139863e+00 1.410572589107613073e+00 1.410992733943846833e+00 1.410679679708758405e+00 1.410591157551124297e+00 1.410533775890156827e+00 1.410848336591809193e+00 1.409956307350886728e+00 1.411068387460442830e+00 1.411033813224062294e+00 1.411370251336997894e+00 1.410882614029564275e+00 1.411308683470111847e+00 1.410399524317120790e+00 1.410851944812130165e+00 1.411270456650552951e+00 1.410919927136900398e+00 1.411136996872180527e+00 1.410788746590208920e+00 1.410622648097983545e+00 1.410220174963712436e+00 1.410228041476025540e+00 1.410638441353602390e+00 1.411016148009537119e+00 1.410847462247515338e+00 1.411232011993623914e+00 1.410839769129699661e+00 1.411319974116760578e+00 1.410547958046597605e+00 1.411002259536704440e+00 1.411259712152659995e+00 1.411239121902916782e+00 1.410796991498655562e+00 1.410937627169355890e+00 1.411175797232670837e+00 1.411181606426709978e+00 1.411049935841288683e+00 1.411005389302625312e+00 1.411561521444552048e+00 1.411337589394845438e+00 1.411342485658093393e+00 1.411300632472310967e+00 1.410812271547594587e+00 1.410113173760041860e+00 1.411240644506150499e+00 1.411169491426651490e+00 1.411159624482307917e+00 1.411007566816031567e+00 1.410717561945809218e+00 1.410462325255071869e+00 1.410958248677568694e+00 1.411110865191608443e+00 1.410898270082096451e+00 1.411358801918735972e+00 1.410733548538415594e+00 1.410924278862773384e+00 1.410876776117524711e+00 1.410733454935402031e+00 1.410588156265405901e+00 1.410954298003164409e+00 1.410967609586801119e+00 1.410712751953886013e+00 1.410876185174264164e+00 1.410519205555490041e+00 1.410808273184686046e+00 1.411192760860233042e+00 1.410652692476156211e+00 1.410596534211005393e+00 1.410461383149653081e+00 1.410226587648800045e+00 1.410842172758893120e+00 1.411011038718895216e+00 1.410685224092982359e+00 1.411156280219316494e+00 1.410706238853144168e+00 1.411679935874981195e+00 1.411123792941536781e+00 1.411043996939308709e+00 1.410343861793238451e+00 1.410936202697347097e+00
1.000000000000000000e+00 2.199999987441210447e-02 1.708321563414723679e-04 2.199999999999999872e-02 2.199818728465386883e-02 2.199323732250882402e-02 2.200911836029220692e-02 2.199718311616371408e-02 2.201421896619284307e-02 2.199570395411697132e-02 2.202278168508969500e-02 2.198686946883238180e-02 2.200666025215878424e-02 2.200712952379537887e-02 2.200594329966846022e-02 2.201042734303637963e-02 2.200525005634533515e-02 2.202676226308781030e-02 2.199652867466205669e-02 2.199212568986094393e-02 2.200628404417089359e-02 2.198886258070551283e-02 2.199571034342312839e-02 2.199236614961942726e-02 2.199126509096005141e-02 2.199877639310787725e-02 2.199069327101700957e-02 2.200577763900076270e-02 2.201209307498636775e-02 2.200608450115348197e-02 2.200820620260568461e-02 2.200007262907185956e-02 2.201266239713068479e-02 2.198907247462203451e-02 2.197518135752988405e-02 2.197512534895842973e-02 2.200083848762894589e-02 2.199740243401686682e-02 2.197615093916869752e-02 2.199537304170149851e-02 2.198722049310926005e-02 2.198552901673790985e-02 2.200008829492126894e-02 2.198569995985356906e-02 2.198483111747799590e-02 2.201490720358482284e-02 2.201636319718866877e-02 2.201120229997245714e-02 2.198504379139805398e-02 2.199822667024181957e-02 2.198555594738904606e-02 2.200970677775605788e-02 2.200874682978190208e-02 2.199777024719082666e-02 2.199012109062421783e-02 2.199754080149181681e-02 2.198645951774977694e-02 2.198939085360124279e-02 2.198554553267387593e-02 2.198095654866534868e-02 2.200456193979294373e-02 2.201040245918009855e-02 2.199422552373448900e-02 2.199197392504891047e-02 2.199762470630320030e-02 2.199436168829865465e-02 2.200399516627212643e-02 2.200239949723152913e-02 2.199045575845486739e-02 2.195884612626776075e-02 2.200000368100589465e-02 2.199826923639616044e-02 2.199777246409124337e-02 2.200461952362298135e-02 2.199427230009338291e-02 2.199179081627066629e-02 2.198548032891421006e-02 2.201139159376324511e-02 2.200608743277984378e-02 2.200941684399292456e-02 2.198503271733050560e-02 2.199285032494650849e-02 2.198903216101813149e-02 2.198359511034573069e-02 2.197288075054575421e-02 2.200306891155457897e-02 2.201391360399973518e-02 2.200070473691656883e-02 2.201460296829165983e-02 2.202078274120952694e-02 2.200954513000639989e-02 2.200914688032198224e-02 2.199398279254056662e-02 2.197879295947494441e-02 2.199696897371737278e-02 2.199153260708378368e-02 2.201006323325960246e-02 2.201942391930187051e-02 2.199808395448540205e-02 2.201469152901224663e-02 2.201230420484279193e-02 2.201270555818330560e-02 2.201702288074771502e-02 2.200784230285359605e-02 2.200442894841330918e-02 2.198675824221460462e-02 2.200550226043086061e-02 2.200143613770472531e-02 2.199102144813825169e-02 2.200172624093589199e-02 2.199842829936456134e-02 2.201166874319494121e-02 2.200663098534548848e-02 2.201013792970027763e-02 2.200356154042184750e-02 2.200604978594922212e-02 2.199503385290756466e-02 2.198430975483511851e-02 2.201038629503375074e-02 2.201810796672024409e-02 2.199859201007546214e-02 2.200549364542106479e-02 2.198696096563397887e-02 2.199233951703931031e-02 2.199170800584050386e-02 2.199867901879271753e-02 2.201435667824760967e-02 2.201988250730802302e-02 2.202806735833076623e-02 2.201654780662707853e-02 2.200880102843223718e-02 2.200325235593059148e-02 2.197590743225988352e-02 2.200418343421712067e-02 2.199523307897625901e-02 2.197640780513086464e-02 2.199809545488345605e-02 2.202058629903447945e-02 2.199795811791643158e-02 2.199522557398099487e-02 2.200408246063885465e-02 2.199746952462659777e-02 2.198615198794183836e-02 2.201163395551838237e-02 2.200802323639586278e-02 2.201608090990433281e-02 2.201385396891654411e-02 2.199239180845762726e-02 2.200555887481425027e-02 2.198794421665814861e-02 2.199325019382443805e-02 2.198134853099662292e-02 2.200862163601396276e-02 2.200294473446475288e-02 2.198227657698480220e-02 2.200737939985773425e-02 2.199760559429251097e-02 2.200251695333949042e-02 2.200623804150694460e-02 2.202059324803062532e-02 2.199752178291426719e-02 2.199716998951473101e-02 2.197724401690043239e-02 2.198914742845900841e-02 2.199685446068988873e-02 2.198816023593209296e-02 2.199906724740187738e-02 2.199075253136220306e-02 2.198992183939711340e-02 2.201083075358403404e-02 2.199110465966994804e-02 2.199211909925606265e-02 2.201221784301628584e-02 2.199670206975067044e-02 2.200683109359944517e-02 2.199858399571958181e-02 2.200269987152058890e-02 2.199542696747658344e-02 2.198938728628150804e-02 2.199797642885549173e-02 2.201248109912936832e-02 2.201379934574750410e-02 2.200850041498399884e-02 2.201846875296991496e-02 2.200814840626641108e-02 2.200833536903241613e-02 2.200619085008361647e-02 2.201894188192691018e-02 2.200456606639625279e-02 2.200361676072200637e-02 2.200261510146477376e-02 2.199335438816228325e-02 2.199341557481256093e-02 2.200551704907682468e-02 2.201313196564395891e-02 2.200273451782362721e-02 2.200384220474135150e-02 2.200801256258828539e-02 2.199729103202002073e-02 2.198397694882829254e-02 2.200274385631710572e-02 2.201513295429446612e-02 2.201116136254814906e-02 2.199972596640081823e-02 2.199607656201058373e-02 2.199747523844980401e-02 2.199139243503877433e-02 2.198836777633539699e-02 2.201172237232301709e-02 2.201282403476014990e-02 2.200627677588333150e-02 2.199384902683627560e-02 2.199157776592193178e-02 2.199205596364740833e-02 2.200526463076103376e-02 2.202103469703799513e-02 2.202115080471011427e-02 2.199586077358591657e-02 2.196890227465103998e-02 2.199139946638031459e-02 2.199245109186472730e-02 2.200086945762780993e-02 2.199613032045754854e-02 2.199017638224874671e-02 2.200047898639564264e-02 2.200172814201927993e-02 2.201272575530614783e-02 2.199520832580371260e-02 2.199656232926233343e-02
2.000000000000000000e+00 1.079999993834776101e-01 8.386305856763239929e-04 1.079999999999999849e-01 1.079911012155735373e-01 1.079668014014069644e-01 1.080447628596162835e-01 1.079861716611673073e-01 1.080698021976739531e-01 1.079789103202105777e-01 1.081118373631675955e-01 1.079355410288135170e-01 1.080326957833249446e-01 1.080349994804500335e-01 1.080291761983724341e-01 1.080511887749058680e-01 1.080257730038770847e-01 1.081313783824310731e-01 1.079829589483410068e-01 1.079613442956809943e-01 1.080308489441116626e-01 1.079453253961907000e-01 1.079789416858953494e-01 1.079625247344953715e-01 1.079571195374402492e-01 1.079939932025295868e-01 1.079543124213562244e-01 1.080283629550946589e-01 1.080593660044785326e-01 1.080298693692989254e-01 1.080402849946097282e-01 1.080003565427164053e-01 1.080621608586415650e-01 1.079463557845081745e-01 1.078781630278739800e-01 1.078778880767050086e-01 1.080041162119966536e-01 1.079872483124464377e-01 1.078829227922827039e-01 1.079772858410800868e-01 1.079372642389000159e-01 1.079289606276224722e-01 1.080004334477953215e-01 1.079297998029175171e-01 1.079255345767101415e-01 1.080731808175982300e-01 1.080803284225625438e-01 1.080549931089556936e-01 1.079265786123177334e-01 1.079912945630052967e-01 1.079290928326371440e-01 1.080476514544388283e-01 1.080429389825657005e-01 1.079890539407549754e-01 1.079515035357916097e-01 1.079879275709598324e-01 1.079335285416807289e-01 1.079479187358606540e-01 1.079290417058535734e-01 1.079065139661753575e-01 1.080223949771653563e-01 1.080510666177932066e-01 1.079716525710602282e-01 1.079605992684219140e-01 1.079883394673066266e-01 1.079723210152843116e-01 1.080196126344268037e-01 1.080117793500456891e-01 1.079531464505966293e-01 1.077979718925871910e-01 1.080000180703925977e-01 1.079915035241266197e-01 1.079890648237206430e-01 1.080226776614219147e-01 1.079718822004584328e-01 1.079597003707832847e-01 1.079287216146697509e-01 1.080559223693832033e-01 1.080298837609192375e-01 1.080462281432379712e-01 1.079265242487134069e-01 1.079649015951919394e-01 1.079461578813617345e-01 1.079194669053335776e-01 1.078668691390427814e-01 1.080150655658133896e-01 1.080683031469077821e-01 1.080034596175904194e-01 1.080716872988863320e-01 1.081020243659376878e-01 1.080468579109404997e-01 1.080449028670351919e-01 1.079704609815627936e-01 1.078958927101497101e-01 1.079851204164307271e-01 1.079584327984113024e-01 1.080494013269107795e-01 1.080953537856637336e-01 1.079905939583828967e-01 1.080721220515146602e-01 1.080604024601373447e-01 1.080623727401725936e-01 1.080835668691251528e-01 1.080384985776449286e-01 1.080217421103926156e-01 1.079349950072353431e-01 1.080270110966606023e-01 1.080070501305504665e-01 1.079559234726786970e-01 1.080084742736852760e-01 1.079922843786987607e-01 1.080572829211388086e-01 1.080325521098778468e-01 1.080497680185286413e-01 1.080174839257072583e-01 1.080296989492052634e-01 1.079756207324553130e-01 1.079229751600996601e-01 1.080509872665293275e-01 1.080888936548084767e-01 1.079930880494613665e-01 1.080269688047943155e-01 1.079359901949304285e-01 1.079623939927384368e-01 1.079592938468533769e-01 1.079935151831642459e-01 1.080704782386700813e-01 1.080976050358757462e-01 1.081377852136237577e-01 1.080812346870783924e-01 1.080432050486673512e-01 1.080159661109319907e-01 1.078817273947303285e-01 1.080205368588840475e-01 1.079765987513379988e-01 1.078841837706424334e-01 1.079906504148823998e-01 1.081010600134419963e-01 1.079899762152261161e-01 1.079765619086339723e-01 1.080200411704089203e-01 1.079875776663487413e-01 1.079320188498962968e-01 1.080571121452720273e-01 1.080393867968524185e-01 1.080789426486212929e-01 1.080680103928630259e-01 1.079626506960647131e-01 1.080272890218154092e-01 1.079408170635945546e-01 1.079668645878654187e-01 1.079084382430743339e-01 1.080423243949776430e-01 1.080144559691905981e-01 1.079129941051981262e-01 1.080362261447561506e-01 1.079882456447086997e-01 1.080123559527575161e-01 1.080306231128522754e-01 1.081010941266958014e-01 1.079878342070336866e-01 1.079861072212541240e-01 1.078882888102384863e-01 1.079467237397078588e-01 1.079845582615685529e-01 1.079418775218484589e-01 1.079954210327001285e-01 1.079546033357780821e-01 1.079505253934040093e-01 1.080531691539579897e-01 1.079563319656524772e-01 1.079613119418024736e-01 1.080599785020799480e-01 1.079838101605942041e-01 1.080335344594881841e-01 1.079930487062597533e-01 1.080132539147374421e-01 1.079775505676123237e-01 1.079479012235637914e-01 1.079900661052906052e-01 1.080612708502714514e-01 1.080677422427604728e-01 1.080417293099214526e-01 1.080906647873068616e-01 1.080400012671260124e-01 1.080409190843409639e-01 1.080303914458650011e-01 1.080929874203684637e-01 1.080224152350361538e-01 1.080177550071807629e-01 1.080128377708270693e-01 1.079673760873421234e-01 1.079676764581707499e-01 1.080270836954680541e-01 1.080644660131612478e-01 1.080134239965887255e-01 1.080188617323666334e-01 1.080393343981606719e-01 1.079867014299164540e-01 1.079213413851570769e-01 1.080134698401021554e-01 1.080742890483546575e-01 1.080547921434181907e-01 1.079986547441494776e-01 1.079807394862337677e-01 1.079876057160263081e-01 1.079577446810994351e-01 1.079428963565555732e-01 1.080575461914038971e-01 1.080629543524589120e-01 1.080308132634272555e-01 1.079698043135599028e-01 1.079586544872531140e-01 1.079610020033600071e-01 1.080258445510087068e-01 1.081032612400047166e-01 1.081038312231223930e-01 1.079796801612399604e-01 1.078473384391960138e-01 1.079577791985942697e-01 1.079629417236995792e-01 1.080042682465365278e-01 1.079810033913370521e-01 1.079517749674029498e-01 1.080023513877604174e-01 1.080084836062764619e-01 1.080624718896847081e-01 1.079764772357636737e-01 1.079831241618332827e-01
3.000000000000000000e+00 4.910792572581412219e-01 1.233836948557760944e-02 4.919999999999999929e-01 4.899596258854725384e-01 4.918487619397428068e-01 4.902030907519627778e-01 4.919370042342067206e-01 4.903166951561133136e-01 4.919039247920704017e-01 4.905074102588159457e-01 4.917063535757060233e-01 4.921489474573691458e-01 4.921594420776057577e-01 4.901323734926156805e-01 4.902322453676284941e-01 4.901169330731460216e-01 4.905960685869558136e-01 4.899226841174730285e-01 4.918239017914356470e-01 4.901399628019880717e-01 4.917509268048687598e-01 4.919040676801899603e-01 4.918292793460344869e-01 4.918046556705611416e-01 4.899727469374027256e-01 4.917918676972894421e-01 4.901286837777442673e-01 4.902693457610600158e-01 4.901355184347821470e-01 4.901827745125811320e-01 4.920016242501525361e-01 4.902820261179107186e-01 4.917556207960927517e-01 4.914449649047592517e-01 4.914437123494339588e-01 4.920187516324291965e-01 4.919419089789226485e-01 4.914666482759545429e-01 4.918965243871426529e-01 4.917142037549889211e-01 4.916763761925023735e-01 4.920019745955120372e-01 4.916801991021798046e-01 4.916607686272351785e-01 4.903320240798438312e-01 4.903644530282930680e-01 4.902495057721137917e-01 4.916655247894474168e-01 4.919603418981352005e-01 4.916769784597914139e-01 4.902161964136576011e-01 4.901948157542332929e-01 4.919501346189948943e-01 4.917790716630507375e-01 4.919450033788170251e-01 4.916971855787677370e-01 4.917627409078096368e-01 4.916767455488885163e-01 4.915741191792432629e-01 4.921020215626421557e-01 4.902316911362840091e-01 4.918708617126076876e-01 4.918205077783665558e-01 4.919468797955079409e-01 4.918739068474062837e-01 4.900889832487883013e-01 4.900534433474295071e-01 4.917865560527179825e-01 4.910796497328971943e-01 4.900000819860405032e-01 4.899614511742781398e-01 4.899503867002140134e-01 4.921033093464776131e-01 4.918719078020883928e-01 4.918164128002349145e-01 4.916752873557177494e-01 4.902537218610904524e-01 4.901355837300965246e-01 4.902097387980242083e-01 4.916652771330277116e-01 4.918401072669855156e-01 4.917547192373145637e-01 4.916331270131863440e-01 4.913935149667505442e-01 4.920686320220387655e-01 4.903098939072668139e-01 4.900156964131417436e-01 4.903252479301324351e-01 4.904628883269395168e-01 4.902125960774152413e-01 4.902037259708078021e-01 4.918654333604526863e-01 4.915257334573487347e-01 4.919322152304066997e-01 4.918106383038737262e-01 4.902241356498729941e-01 4.904326236571780462e-01 4.919571502548553688e-01 4.903272204189091377e-01 4.902740481987712395e-01 4.902829874322645609e-01 4.903791459802900321e-01 4.921753824092713336e-01 4.900986447601146656e-01 4.917038661440720770e-01 4.921230505514538334e-01 4.920321172613965621e-01 4.917992069310918035e-01 4.920386050245662557e-01 4.919648510585165613e-01 4.902598947347963643e-01 4.921482929449990662e-01 4.902257993433243866e-01 4.900793252184866278e-01 4.901347452325053866e-01 4.898893903602139499e-01 4.916491090626762817e-01 4.902313311166608401e-01 4.904033138042235840e-01 4.919685122253239506e-01 4.901223584661964505e-01 4.917083997769052806e-01 4.918286837446972926e-01 4.918145608578876060e-01 4.919704580566371388e-01 4.903197623791512583e-01 4.904428376627696373e-01 4.906251366173670636e-01 4.903685647839667872e-01 4.901960229059907359e-01 4.900724388366359263e-01 4.914612025759937386e-01 4.920935568015828987e-01 4.918933943116508556e-01 4.914723927329266440e-01 4.919574074455754786e-01 4.904585130239497714e-01 4.899545217172296407e-01 4.918932264726658676e-01 4.900909275324108472e-01 4.919434093689220577e-01 4.916903080939720172e-01 4.902591199183639059e-01 4.901786993560896533e-01 4.903581657205965949e-01 4.903085656713230267e-01 4.918298531709615062e-01 4.901238113026810672e-01 4.917303888452640992e-01 4.918490497891646607e-01 4.915828853295608480e-01 4.901920273475837697e-01 4.920658549707571661e-01 4.916036398125692153e-01 4.901643593604677052e-01 4.919464523814507384e-01 4.900560594152887361e-01 4.901389381972001136e-01 4.904586677970457220e-01 4.919445780542645585e-01 4.919367106746021512e-01 4.914910934688642152e-01 4.917572970364469387e-01 4.899299402608202625e-01 4.917352198217540549e-01 4.899792250557690743e-01 4.917931929741001795e-01 4.917746156810627323e-01 4.902412304207353078e-01 4.918010678435279504e-01 4.918237544015446328e-01 4.902721246853626869e-01 4.919262462871513697e-01 4.901521470847148843e-01 4.919683329951833328e-01 4.900601335020495219e-01 4.918977303635672649e-01 4.917626611295682904e-01 4.899549295517814373e-01 4.902779881169723186e-01 4.903073490643762300e-01 4.901893274246436061e-01 4.904113494979663312e-01 4.901814872304791626e-01 4.901856514011764809e-01 4.901378871154986050e-01 4.904218873701902681e-01 4.901016987515529055e-01 4.900805551251719572e-01 4.900582454417154454e-01 4.918513799534474651e-01 4.918527483094445318e-01 4.901228797294384099e-01 4.902924846893427779e-01 4.900609051697080720e-01 4.900855763783301122e-01 4.901784616212844781e-01 4.919394176251749573e-01 4.916416663101599860e-01 4.900611131634264317e-01 4.903370521638312773e-01 4.902485939840269813e-01 4.919938716122365108e-01 4.919122576595094110e-01 4.919435371507865362e-01 4.918075035472307399e-01 4.917398611798642905e-01 4.902610892017398858e-01 4.902856262287488276e-01 4.901398009174014470e-01 4.918624418728839709e-01 4.918116482197086858e-01 4.918223424597510940e-01 4.901172576851320906e-01 4.904685000703917219e-01 4.904710861049070836e-01 4.919074318456486683e-01 4.913045417785595892e-01 4.918076607935961131e-01 4.918311789635202991e-01 4.920194442342219476e-01 4.919134598938688097e-01 4.917803081848356461e-01 4.900106683333574908e-01 4.920386475397038883e-01 4.902834372772732485e-01 4.918928407407012204e-01 4.919231211816849081e-01
4.000000000000000000e+00 1.831636734873313355e+00 9.143091126719607789e-03 1.832000000000000073e+00 1.831849050249358513e+00 1.831436853401644083e+00 1.830758481787942538e+00 1.831765430400541961e+00 1.831182759460586507e+00 1.831642256542831415e+00 1.831895021987006267e+00 1.830906584859132824e+00 1.832554617361585869e+00 1.832593694890597202e+00 1.832494914772391681e+00 1.830867365352571774e+00 1.832437186510211369e+00 1.832226133702304249e+00 1.831710933271858410e+00 1.831344284719329529e+00 1.832523289496412300e+00 1.831072556720568123e+00 1.831642788597780402e+00 1.831364308459217716e+00 1.831272620301763965e+00 1.831898106916983071e+00 1.831225003295598119e+00 1.832481119756790955e+00 1.831005923964775128e+00 1.832506673005144693e+00 1.832683352871527838e+00 1.832006048020893063e+00 1.831053281215870632e+00 1.831090035159434803e+00 1.831931027714082116e+00 1.831926358635898033e+00 1.832069823151647014e+00 1.831783693596313656e+00 1.832011855565245373e+00 1.831614700563506615e+00 1.830935815608007555e+00 1.830794961757447492e+00 1.832007352558898461e+00 1.830809196656896898e+00 1.830736845782713118e+00 1.831240008298192112e+00 1.831361120493421035e+00 1.830931827679527002e+00 1.830754555720056187e+00 1.831852329994682282e+00 1.830797204346215290e+00 1.830807427422435740e+00 1.830727577204585454e+00 1.831814322402435913e+00 1.831177356273798518e+00 1.831795215833318613e+00 1.830872447114435975e+00 1.831116547445339915e+00 1.830796337084479308e+00 1.832412468647829584e+00 1.832379885168212263e+00 1.830865295468162790e+00 1.831519143612799549e+00 1.831331646849527539e+00 1.831802202815793867e+00 1.831530482407415228e+00 1.832332688391387965e+00 1.832199812678553030e+00 1.831205224976787171e+00 1.830569263435230631e+00 1.832000306527400424e+00 1.831855874594443989e+00 1.831814507009779769e+00 1.832384680330786608e+00 1.831523038807776338e+00 1.831316398882175900e+00 1.830790907389583166e+00 1.830947573481215285e+00 1.832506917129666846e+00 1.830783310204865844e+00 1.830753633552249404e+00 1.831404627059181944e+00 1.831086678135691814e+00 1.832632428744275899e+00 1.831739240750041686e+00 1.832255556634908578e+00 1.831157358878159780e+00 1.832058685365052231e+00 1.831214701453351745e+00 1.831728746200610658e+00 1.832794849007805649e+00 1.832761685670448726e+00 1.831498930724287266e+00 1.832232103985320215e+00 1.831747598175009983e+00 1.831294897098976859e+00 1.832837992878708633e+00 1.831615716923746584e+00 1.831840445664420836e+00 1.831222068095109679e+00 1.831023486130104905e+00 1.831056871430702282e+00 1.831415994171287309e+00 1.832653049946717516e+00 1.832368810613326682e+00 1.830897322715325348e+00 1.832458188232242602e+00 1.832119591103411604e+00 1.831252331499512609e+00 1.832143748790661331e+00 1.831869120201630619e+00 1.830970627274851825e+00 1.830551577417374620e+00 1.830843291425068520e+00 1.832296579184219398e+00 1.832503782175407769e+00 1.831586455387575363e+00 1.830693430493542273e+00 1.830863950905080362e+00 1.831506253595365674e+00 1.831882752839011141e+00 1.832457470836881486e+00 1.830914204047338512e+00 1.831362090691637023e+00 1.831309503031809172e+00 1.831889998292193455e+00 1.833195519752255365e+00 1.831653863107894686e+00 1.832334693897513800e+00 1.831376476642161633e+00 1.832732885640357301e+00 1.832270832548402062e+00 1.831991555943846661e+00 1.832348365976625759e+00 1.831603045485659553e+00 1.832033268845909557e+00 1.831841403333931417e+00 1.831712405783322950e+00 1.831829966910131891e+00 1.831602420524235608e+00 1.832339957631381022e+00 1.831789280414360288e+00 1.830846838268611387e+00 1.832968791204985237e+00 1.830667387391110346e+00 1.831337639323860733e+00 1.831152398323512509e+00 1.831366445140653276e+00 1.832462902666350368e+00 1.830996082041715045e+00 1.831437925231198527e+00 1.830446841308445816e+00 1.832717947144435700e+00 1.832245216069974036e+00 1.830524122228916362e+00 1.832614502751789498e+00 1.831800611306540150e+00 1.832209593568997930e+00 1.832519458729123807e+00 1.831712983813456486e+00 1.831793632104497194e+00 1.831764337308681156e+00 1.832102978499790424e+00 1.831096276769859088e+00 1.831738062362903596e+00 1.831014070555799567e+00 1.831922327147283758e+00 1.831229938066161633e+00 1.831160764080705050e+00 1.830900921775399315e+00 1.831259260750697226e+00 1.831343735901686642e+00 1.831016302396354600e+00 1.831725372353783188e+00 1.832568843794280866e+00 1.831882085461739695e+00 1.832224825664805490e+00 1.831619191109868261e+00 1.831116250384896560e+00 1.831831491711966464e+00 1.831038200518488424e+00 1.831147854668996766e+00 1.830707079973669105e+00 1.831536264451588458e+00 1.832678540012730117e+00 1.832694108912153563e+00 1.830514966166045809e+00 1.831575620178465647e+00 1.830379813704779313e+00 1.832301177529214176e+00 1.832217766631066613e+00 1.831446601777877436e+00 1.831451696957118846e+00 1.832459419723124761e+00 1.831092340778565752e+00 1.832227710756949346e+00 1.832319950867552727e+00 1.832667227939169807e+00 1.831774416848212628e+00 1.830665716829701362e+00 1.832228488398769839e+00 1.831258786652676163e+00 1.830928422430141644e+00 1.831977180474831712e+00 1.831673284618335895e+00 1.831789756220001841e+00 1.831283224590501524e+00 1.831031353011201901e+00 1.830975088243232740e+00 1.831066726527776023e+00 1.832522684246284950e+00 1.831487791689275335e+00 1.831298657598590118e+00 1.831338478427365857e+00 1.832438400161555014e+00 1.831749704344524332e+00 1.831759362391796042e+00 1.831655315327699984e+00 1.831407580532272927e+00 1.831283810109488153e+00 1.831371381831644607e+00 1.832072402107915998e+00 1.831677761230828594e+00 1.831181960558168509e+00 1.832039886503491921e+00 1.832143907099059943e+00 1.831058551464102235e+00 1.831600984221472883e+00 1.831713735782208863e+00
5.000000000000000000e+00 4.967453905646483925e+00 1.937085033869795359e-02 4.967999999999999972e+00 4.969590491124078468e+00 4.966472864464720693e+00 4.968058262600504094e+00 4.967363896413696800e+00 4.969209608459712157e+00 4.967029874729687045e+00 4.969140376581147933e+00 4.965034887325421309e+00 4.965502795078009513e+00 4.967209198334329834e+00 4.969342105125131859e+00 4.968353735705393959e+00 4.967185080900495819e+00 4.968036106792805384e+00 4.967216111623685926e+00 4.966221837601326072e+00 4.969419051429136758e+00 4.965684866975459855e+00 4.969030927582406498e+00 4.968275443800388658e+00 4.966027498722251465e+00 4.967723687316360603e+00 4.965898371382386323e+00 4.967304170694445631e+00 4.966728637465106289e+00 4.967373437851281714e+00 4.969853109752047082e+00 4.968016400964954116e+00 4.968858248370499275e+00 4.967531372675977330e+00 4.966390986801753726e+00 4.964380590196517673e+00 4.968189345751845565e+00 4.967413422372536580e+00 4.964612280348564610e+00 4.964955569322256679e+00 4.967112993216046490e+00 4.966730873326700824e+00 4.968019938598584595e+00 4.968768190926906136e+00 4.966573211539347277e+00 4.967363607208866938e+00 4.967692132311116282e+00 4.968528664621055135e+00 4.966621256511287719e+00 4.967599549898243261e+00 4.964738270301308098e+00 4.968191084469844476e+00 4.967974398031678618e+00 4.967496481274729092e+00 4.965769162646414436e+00 4.967444668264151986e+00 4.966941081964381333e+00 4.967603297381735672e+00 4.966734604426780386e+00 4.965697911221218064e+00 4.967029754227806571e+00 4.968348118740379959e+00 4.966696018268770274e+00 4.966187566347408655e+00 4.967463615496104268e+00 4.966726766703078333e+00 4.968902181183633360e+00 4.968541850102101698e+00 4.967843869069122675e+00 4.964695483275265886e+00 4.970000831572696676e+00 4.969609004767677973e+00 4.969496779387885255e+00 4.967042752468715072e+00 4.966706581221087546e+00 4.968145470766600624e+00 4.964721194274808624e+00 4.966570357792760682e+00 4.967374099599305204e+00 4.968125638512220554e+00 4.966618754778755473e+00 4.966385473378829296e+00 4.967522265466368658e+00 4.966293986291740126e+00 4.965871049623340916e+00 4.968693016027415865e+00 4.967139415011576631e+00 4.968159142409159124e+00 4.967294960663627634e+00 4.968689342152913468e+00 4.968154596164171544e+00 4.968064700349043683e+00 4.966641205151888450e+00 4.966008365589049234e+00 4.967315539155812587e+00 4.966087908726919409e+00 4.968271546198508304e+00 4.968382742518840267e+00 4.967567322085613135e+00 4.967314943182581821e+00 4.968777394602240882e+00 4.968867990997194894e+00 4.967840980910530391e+00 4.965769508698420154e+00 4.969000137078060320e+00 4.967008566536663672e+00 4.965241510035400374e+00 4.966324175447348388e+00 4.967971663511232094e+00 4.968389816589523278e+00 4.967645081420142716e+00 4.968633953577548112e+00 4.967496794237531432e+00 4.968288407222344993e+00 4.968804260582533772e+00 4.967365601682901755e+00 4.966878553692944287e+00 4.964456857364584863e+00 4.968344470051709649e+00 4.968085815763603641e+00 4.967682050275223027e+00 4.967240065598227616e+00 4.965055548966799570e+00 4.968269427258426241e+00 4.966127516955255672e+00 4.965701818514755672e+00 4.969240693826255217e+00 4.966484409148291590e+00 4.970333016670632986e+00 4.967733786913491656e+00 4.967986632145204418e+00 4.968734441102871990e+00 4.966555079690733621e+00 4.966944315196465176e+00 4.966923542561548111e+00 4.966668163959575999e+00 4.967569919084591668e+00 4.968645017654870877e+00 4.967538905900401147e+00 4.966921847797163281e+00 4.968921893838810888e+00 4.967428572652042185e+00 4.966871608185043030e+00 4.966625043417874252e+00 4.967811063270084482e+00 4.969629899935679163e+00 4.969127218619979303e+00 4.968281240365200802e+00 4.967254789651253333e+00 4.965277584925349430e+00 4.966475771041809040e+00 4.967784768005236273e+00 4.967946138383879884e+00 4.966664706879634572e+00 4.965996117618839634e+00 4.967665731804250306e+00 4.965459517329845696e+00 4.968568373826845352e+00 4.967408096096522563e+00 4.970648457714548663e+00 4.967440373523549724e+00 4.967360932177689925e+00 4.964859216545233878e+00 4.967548305429149380e+00 4.969289394074034583e+00 4.967325289662841037e+00 4.967789367504205522e+00 4.967760975817607338e+00 4.965724168096584457e+00 4.968444796468105551e+00 4.964191998220539581e+00 4.966220349322914451e+00 4.968757900382676063e+00 4.967255267387333362e+00 4.969542585136456303e+00 4.967680240487949206e+00 4.968609680077922697e+00 4.964967741840395909e+00 4.967602491491777350e+00 4.967543040843367841e+00 4.968817324467111440e+00 4.969114888681004594e+00 4.967918775491388494e+00 4.968167222261030247e+00 4.969840058287796403e+00 4.967881520118861971e+00 4.967397443705237059e+00 4.970275699347682874e+00 4.969031100811663215e+00 4.968816730330315679e+00 4.968590537458045020e+00 4.966499300017737539e+00 4.964513715659962578e+00 4.967245348441614361e+00 4.966963048975300943e+00 4.968617503843081096e+00 4.968867639688865800e+00 4.967808653900609883e+00 4.967388265776157219e+00 4.967679300259595365e+00 4.968619612644698869e+00 4.967414544778078422e+00 4.968519423927914680e+00 4.965938143143021399e+00 4.967114016366753759e+00 4.967429862937210672e+00 4.968055472824667973e+00 4.965373232401556258e+00 4.968646059134368187e+00 4.966893568570426964e+00 4.967416839501664683e+00 4.966610998423755419e+00 4.966098106413643798e+00 4.966206092154560103e+00 4.969188849346400261e+00 4.968746192549845730e+00 4.968772390662772764e+00 4.967065287417037567e+00 4.964971914071134584e+00 4.966057843135336825e+00 4.966295319290180643e+00 4.966196260299077458e+00 4.967126156001504533e+00 4.967780755444376695e+00 4.970108207381197296e+00 4.968390245888716805e+00 4.968872550038651248e+00 4.964918388451874165e+00 4.968073578625094022e+00
6.000000000000000000e+00 2.497918949900305562e-03 2.280597733884176653e-05 2.509020811899862705e-03 2.497599451303155089e-03 2.497141310871056358e-03 2.499011381172839587e-03 2.497569980281207167e-03 2.499413258744856078e-03 2.497497642318244164e-03 2.500447423696844796e-03 2.496275934499313925e-03 2.498813121570644512e-03 2.498630937071330636e-03 2.498529128086419710e-03 2.499233753429355373e-03 2.498387131344307309e-03 2.501058277606309915e-03 2.497454775377229083e-03 2.497015389231824287e-03 2.498454110939643535e-03 2.496562607167352333e-03 2.497371720679012527e-03 2.497015389231824287e-03 2.496894825960219427e-03 2.497513717421124928e-03 2.496798375342935711e-03 2.498432677469135995e-03 2.499295374657064389e-03 2.498255851337448461e-03 2.498831875857338881e-03 2.497955782750342895e-03 2.499381108539094551e-03 2.496353630829904139e-03 2.495003322187928658e-03 2.495121206275720347e-03 2.498121892146776442e-03 2.497468171296296242e-03 2.495164073216735428e-03 2.497202932098765375e-03 2.496321480624142611e-03 2.496254501028806385e-03 2.498014724794238740e-03 2.496184842249656987e-03 2.496492948388202935e-03 2.499287337105624007e-03 2.499799061213991806e-03 2.499206961591221056e-03 2.496131258573388353e-03 2.497904878257887432e-03 2.496058920610425350e-03 2.498864026063099975e-03 2.498925647290809425e-03 2.497369041495198921e-03 2.496948409636488495e-03 2.497808427640603717e-03 2.496401856138545997e-03 2.496672453703703640e-03 2.496141975308641906e-03 2.495691872427983557e-03 2.498649691358024571e-03 2.499075681584362208e-03 2.496937692901234507e-03 2.497015389231824287e-03 2.497521754972565310e-03 2.497160065157750294e-03 2.498400527263374468e-03 2.498170117455418299e-03 2.497010030864197511e-03 2.492851937585733799e-03 2.497947745198902513e-03 2.497503000685870941e-03 2.497685185185185251e-03 2.498419281550068403e-03 2.496964484739368825e-03 2.496908221879286585e-03 2.496267896947873977e-03 2.499279299554183625e-03 2.498563957475994409e-03 2.499397183641975315e-03 2.495951753257887647e-03 2.497010030864197511e-03 2.496551890432098780e-03 2.496032128772290599e-03 2.494746120541838173e-03 2.498226380315500539e-03 2.499448088134430777e-03 2.497813786008230494e-03 2.499525784465020557e-03 2.500361689814814634e-03 2.498920288923182648e-03 2.498842592592592435e-03 2.497052897805212592e-03 2.495565950788751920e-03 2.497446737825788701e-03 2.497154706790123517e-03 2.498861346879286804e-03 2.500249164094650155e-03 2.497253836591220837e-03 2.499965170610425353e-03 2.499225715877914991e-03 2.499204282407407451e-03 2.500230409807956220e-03 2.498697916666666862e-03 2.498269247256515620e-03 2.496452760631001459e-03 2.498547882373113645e-03 2.497982574588477212e-03 2.496675132887517246e-03 2.498156721536351141e-03 2.497460133744855860e-03 2.499281978737997231e-03 2.498813121570644512e-03 2.498920288923182648e-03 2.498234417866940921e-03 2.498534486454046487e-03 2.497336891289437394e-03 2.496112504286693984e-03 2.499295374657064389e-03 2.499721364883402026e-03 2.497862011316872351e-03 2.498494298696845011e-03 2.496265217764060372e-03 2.497007351680383905e-03 2.497031464334705051e-03 2.497671789266118093e-03 2.499667781207132958e-03 2.499946416323730984e-03 2.501119898834019365e-03 2.499721364883402026e-03 2.498724708504801179e-03 2.498172796639231905e-03 2.495059585048010897e-03 2.498298718278463542e-03 2.497371720679012527e-03 2.495137281378600677e-03 2.497666430898490882e-03 2.500297389403292013e-03 2.497588734567901102e-03 2.497320816186557064e-03 2.498330868484225070e-03 2.497361003943758540e-03 2.496294688786008294e-03 2.498955118312757347e-03 2.498810442386831341e-03 2.499595443244169955e-03 2.499616876714677496e-03 2.497106481481481659e-03 2.498371056241426545e-03 2.496369705932784469e-03 2.497312778635116682e-03 2.495734739368998638e-03 2.498936364026062978e-03 2.498261209705075238e-03 2.495796360596707654e-03 2.498730066872427956e-03 2.497915594993141419e-03 2.498097779492455296e-03 2.498443394204389548e-03 2.500554591049382932e-03 2.497377079046639303e-03 2.497395833333333239e-03 2.495156035665295046e-03 2.496709962277091945e-03 2.497607488854595471e-03 2.496613511659807796e-03 2.497728052126200332e-03 2.496902863511659808e-03 2.496594757373113860e-03 2.499306091392318376e-03 2.496884109224965873e-03 2.496436685528120696e-03 2.499774948559670661e-03 2.497548546810699627e-03 2.498534486454046487e-03 2.497875407235939510e-03 2.498127250514403219e-03 2.497146669238683135e-03 2.496865354938271504e-03 2.497473529663923018e-03 2.499300733024691166e-03 2.499512388545953399e-03 2.498751500342935496e-03 2.500144675925926058e-03 2.498936364026062978e-03 2.498663087277091729e-03 2.498740783607681943e-03 2.499849965706447269e-03 2.498199588477366222e-03 2.498304076646090319e-03 2.498215663580246985e-03 2.497058256172839368e-03 2.497449417009602306e-03 2.498263888888888843e-03 2.499442729766804001e-03 2.497824502743484047e-03 2.498513052983538946e-03 2.498797046467764182e-03 2.497350287208504986e-03 2.496074995713306113e-03 2.498004008058984753e-03 2.499632951817558259e-03 2.499217678326474609e-03 2.498030799897119503e-03 2.497438700274348319e-03 2.497551225994513232e-03 2.497023426783264669e-03 2.496492948388202935e-03 2.499233753429355373e-03 2.499343599965706247e-03 2.498922968106995820e-03 2.497205611282578980e-03 2.496795696159122106e-03 2.497015389231824287e-03 2.498505015432098565e-03 2.500412594307270097e-03 2.500211655521261851e-03 2.497516396604938099e-03 2.494210283779149662e-03 2.496750150034293420e-03 2.497007351680383905e-03 2.497953103566529290e-03 2.497326174554183841e-03 2.496902863511659808e-03 2.497840577846364811e-03 2.497864690500685957e-03 2.499105152606310130e-03 2.497454775377229083e-03 2.497599451303155089e-03
