# vvf statistics with RF=500
# gcat file: /disk2/salam/Abacus/AbacusCosmos_720box_products/GCAT_derivative/AbacusCosmos_720box_37_rockstar_halos_z0.100_Mr21_hod-default_real-9.gcat.rsd_zz.1pz0.100by100
# stats order in row: stdvvf,p2.5,p16,p50,p84,p97.5,rho
# columns: numbers, mean, sigma,All, jnrealizations
0.000000000000000000e+00 1.402829969850356795e+00 5.203004459807939776e-03 1.402830223509176300e+00 1.403352402295197754e+00 1.402389205104478620e+00 1.402562697375335343e+00 1.402828502197650762e+00 1.403181519898076379e+00 1.402958113280437180e+00 1.402992272789304495e+00 1.401889628821267664e+00 1.401639579799641933e+00 1.402897191766964591e+00 1.403347764801233133e+00 1.403266117119829959e+00 1.402859674422993086e+00 1.402888045478805523e+00 1.403080811388965232e+00 1.402871472565527133e+00 1.403068805543965736e+00 1.403068727848579611e+00 1.403189459391534166e+00 1.402983848823461166e+00 1.402769859591039614e+00 1.403465639296607392e+00 1.402872227926323934e+00 1.402856326421660693e+00 1.402713443624907574e+00 1.403232489521454740e+00 1.403236785682033139e+00 1.402748695497519016e+00 1.403428484461936243e+00 1.402544640697724443e+00 1.402715906308507732e+00 1.402310939901225684e+00 1.402987008137792202e+00 1.403006187781944192e+00 1.402345985375399007e+00 1.402308365845317484e+00 1.403005438725533072e+00 1.402765628029455369e+00 1.402736539707155394e+00 1.403177120722118421e+00 1.402696789775191188e+00 1.402917769884627797e+00 1.402961958041272661e+00 1.402639614649593636e+00 1.402307708982027945e+00 1.403063861185569028e+00 1.402740751445797018e+00 1.403234503594573024e+00 1.403009083817889913e+00 1.402826222277401502e+00 1.402133020359884741e+00 1.402909699024295298e+00 1.402563981299424389e+00 1.402960674839145216e+00 1.402038300540797477e+00 1.402468319370957284e+00 1.402653671979021022e+00 1.403042480375016110e+00 1.402987550911318104e+00 1.402440463798307668e+00 1.403020947129169027e+00 1.402843783038036474e+00 1.403117700832950732e+00 1.402957101124916228e+00 1.403016054232286480e+00 1.402089727329299595e+00 1.403520449148607074e+00 1.403301506086946260e+00 1.403261688507910554e+00 1.402789994627544390e+00 1.402847491535789137e+00 1.403284643767478412e+00 1.402316656631310998e+00 1.402899526683961451e+00 1.402796382480693271e+00 1.402807206298900544e+00 1.402720261488660913e+00 1.402652223326819714e+00 1.402714063875108996e+00 1.402432162386978654e+00 1.402548969323745176e+00 1.402811328391928347e+00 1.401701520831595271e+00 1.402950371214803038e+00 1.402634739574507794e+00 1.403429831671509254e+00 1.402622150028070003e+00 1.403131099598892595e+00 1.402526337160702630e+00 1.402382131779401409e+00 1.403113342235815963e+00 1.402714401168838609e+00 1.402907775678056579e+00 1.403328713632514324e+00 1.402666196025581957e+00 1.402648708315991311e+00 1.403242630909426136e+00 1.402922000766295474e+00 1.402903999375236577e+00 1.402537031199652118e+00 1.402867703840651181e+00 1.402475942786622909e+00 1.402462147560917582e+00 1.402455478271415368e+00 1.403031141456031028e+00 1.403104671733554909e+00 1.402742277278154814e+00 1.402989308875962626e+00 1.402660525838479888e+00 1.402846716671921401e+00 1.403087556174409833e+00 1.403034428357308627e+00 1.402983853745380927e+00 1.402327479739598814e+00 1.403113902284712777e+00 1.403204336847227118e+00 1.402914191054877024e+00 1.402993140400610850e+00 1.402361994456489569e+00 1.402981588799826040e+00 1.402789209480022281e+00 1.402536306170796498e+00 1.402998489830709961e+00 1.402648069600913594e+00 1.402646898803142417e+00 1.403191967535822871e+00 1.403242851339755459e+00 1.403100103267157506e+00 1.402712555726050025e+00 1.402805851991841601e+00 1.402998919065788330e+00 1.402460341210905126e+00 1.402704470183504082e+00 1.402719897354673728e+00 1.402915966752369403e+00 1.403175925270897739e+00 1.403355729381001726e+00 1.402270723763717530e+00 1.401799555973929579e+00 1.401844834558722663e+00 1.403043844409844976e+00 1.403248680653301106e+00 1.403057198745017331e+00 1.402880133834559784e+00 1.403295800993033415e+00 1.402796145968469244e+00 1.402585247986928518e+00 1.402940345731307437e+00 1.402520574508323348e+00 1.402842664504272419e+00 1.402361156175547796e+00 1.402716957294374289e+00 1.402026983222449008e+00 1.403033486384187123e+00 1.402890369952796146e+00 1.403296186352984032e+00 1.402899165589828412e+00 1.403045315373539159e+00 1.402313231151916639e+00 1.402793583293368007e+00 1.403273871028706488e+00 1.403082053907491744e+00 1.403075504547695918e+00 1.402876707432762604e+00 1.402619846271830006e+00 1.402362608488164852e+00 1.402153352844202505e+00 1.402475568354055513e+00 1.402915704042546619e+00 1.402839079413980228e+00 1.403137838126099490e+00 1.402722846940228196e+00 1.403351022054359021e+00 1.402526458534470777e+00 1.402868798076715162e+00 1.402983893897693735e+00 1.403382315544001280e+00 1.402691424301219403e+00 1.402703099070608861e+00 1.403271225030759073e+00 1.403146304066608563e+00 1.402943087782488218e+00 1.403091507474232724e+00 1.403296030795603500e+00 1.403347347605979234e+00 1.403364992222488894e+00 1.403027694647129398e+00 1.402745397020405127e+00 1.402170190732310751e+00 1.403191163286450216e+00 1.402675227609413655e+00 1.403231531238195551e+00 1.403195337607997306e+00 1.402544444958257142e+00 1.402350726145069393e+00 1.402855389866099811e+00 1.403136323928114049e+00 1.402877416629831453e+00 1.403182251880657816e+00 1.402789388979310159e+00 1.402857103380312553e+00 1.402930285168861424e+00 1.402768515302680985e+00 1.402489450103745483e+00 1.402691766165051979e+00 1.403064703252069112e+00 1.402703114631578263e+00 1.402844588255762970e+00 1.402629633234482087e+00 1.402591583173706136e+00 1.402911350521743872e+00 1.402642960000403338e+00 1.402711696497028759e+00 1.402433307013079000e+00 1.402254434889807611e+00 1.402704547202039409e+00 1.403007078911260752e+00 1.402842356713954741e+00 1.403060264450135097e+00 1.402813107960860339e+00 1.403647511050454710e+00 1.403352507658266912e+00 1.402919550383279423e+00 1.402293463646375971e+00 1.402706155621398665e+00
1.000000000000000000e+00 2.200420171730400540e-02 9.496221496036995552e-04 2.199999999999999872e-02 2.199314471220488454e-02 2.199437962503644067e-02 2.200902632809774440e-02 2.199652239227089384e-02 2.201494889524783019e-02 2.199409511792042859e-02 2.202028921592338873e-02 2.198592317223079309e-02 2.200847666641542535e-02 2.200642116648263494e-02 2.200454678448129572e-02 2.200777766726252915e-02 2.200619912488524163e-02 2.202575981575593395e-02 2.199974242485110143e-02 2.199181673902105699e-02 2.200463643041323386e-02 2.198994368549976250e-02 2.199992560217356452e-02 2.199141530577415279e-02 2.198914714310086158e-02 2.200006305903807330e-02 2.199148539712521278e-02 2.200291554490113252e-02 2.201376126086568297e-02 2.200765077770092115e-02 2.200756152798316947e-02 2.200076764816371808e-02 2.201404520371348650e-02 2.199001125005416862e-02 2.197657639765542015e-02 2.197376295119135917e-02 2.200089699724757167e-02 2.199702655738272269e-02 2.197591186952915776e-02 2.199390329359736732e-02 2.198967500761712934e-02 2.198621284178742599e-02 2.199964339924147250e-02 2.198885959132931833e-02 2.198253311302567417e-02 2.201286119629811827e-02 2.201917746663567543e-02 2.201100684386926229e-02 2.198348023546381480e-02 2.199619511092496676e-02 2.198351137299776187e-02 2.200995103389564653e-02 2.200511335464476123e-02 2.199633813287604767e-02 2.199145821806176848e-02 2.199943548166754387e-02 2.198592927908439576e-02 2.199204651846121267e-02 2.198389530451434412e-02 2.198204456636590476e-02 2.200548107844535820e-02 2.200801021571030525e-02 2.199278575707724198e-02 2.199456814541556754e-02 2.199984642458031187e-02 2.199254393223043155e-02 2.200349173321964474e-02 2.200183337839861988e-02 2.198861786278244815e-02 2.195956744552418280e-02 2.199986399091787698e-02 2.199869279427922250e-02 2.199729752801685145e-02 2.200258983532068016e-02 2.199497404794308400e-02 2.199412570449385887e-02 2.198742565512422018e-02 2.201250180645464294e-02 2.200620951254052271e-02 2.200995276851370683e-02 2.198504072870818490e-02 2.199318397925440621e-02 2.198891121109563737e-02 2.198147475846082277e-02 2.197569489843813340e-02 2.200466326558022170e-02 2.201254683958336206e-02 2.199930160491337175e-02 2.201361461085709140e-02 2.202381581790927370e-02 2.200845500765312088e-02 2.201024921858385150e-02 2.199479876086398236e-02 2.197848514809695730e-02 2.199752511415755535e-02 2.199173661678396896e-02 2.200494729026031271e-02 2.202239831499501477e-02 2.199665018875104558e-02 2.201392370825768288e-02 2.201260538651758983e-02 2.201513643417903759e-02 2.201952030658287790e-02 2.201026165493897083e-02 2.200748384868695187e-02 2.198730758528319798e-02 2.200778129907855415e-02 2.200219638003039074e-02 2.199197394949725312e-02 2.200355309585320940e-02 2.199862492733873839e-02 2.201087586418873365e-02 2.200857915065345533e-02 2.201134685222288015e-02 2.200526816301563715e-02 2.200126409903598382e-02 2.199829742559849047e-02 2.197996691003774317e-02 2.201230737972661305e-02 2.201380251392342016e-02 2.199833231429458927e-02 2.200367232151773447e-02 2.198629842183725397e-02 2.199195668503612158e-02 2.199081079299924565e-02 2.199904874205744348e-02 2.201433648885794264e-02 2.201788834634507003e-02 2.202857247574950550e-02 2.201649675390347088e-02 2.200848367557643737e-02 2.200055994444287052e-02 2.197577386709742217e-02 2.200367518668601419e-02 2.199763394333949587e-02 2.197762838701041582e-02 2.199681984532666362e-02 2.202029089679628793e-02 2.199906025960578562e-02 2.199610202144469326e-02 2.200637061351196078e-02 2.199752423512548252e-02 2.198934103017846989e-02 2.200762165046685898e-02 2.200881567710880754e-02 2.201474496139202777e-02 2.201308298729548127e-02 2.199050797407919519e-02 2.200087800622690590e-02 2.199104914144166950e-02 2.199242211795925453e-02 2.198087082944068932e-02 2.201338340594301973e-02 2.200169364956142126e-02 2.198427809823004855e-02 2.200663442942421555e-02 2.199644484640227160e-02 2.200354124600920752e-02 2.200933567773766600e-02 2.201877191341830922e-02 2.199975036898744324e-02 2.199734816479344962e-02 2.198264463041396666e-02 2.198955847659093618e-02 2.199538637270716593e-02 2.198975725217724997e-02 2.200040562524459634e-02 2.199179616403851636e-02 2.198678743618849227e-02 2.201004263722085297e-02 2.199148439348817471e-02 2.199284000484227897e-02 2.201176504341932974e-02 2.199722296612675182e-02 2.200635630172096888e-02 2.199912962185257212e-02 2.200239283361734091e-02 2.199239015802754993e-02 2.199333961686693664e-02 2.199611279328179264e-02 2.201049540293499585e-02 2.200760369208489345e-02 2.200555603833149326e-02 2.201947095864572462e-02 2.201075615300204444e-02 2.200589904858583565e-02 2.200565958094000130e-02 2.201930378906301333e-02 2.200395472621046247e-02 2.200432808534058537e-02 2.200692767862440571e-02 2.199341037351196584e-02 2.294063559071071387e-02 2.200447438101838654e-02 2.201140396792679310e-02 2.200189451880816757e-02 2.200401756105010292e-02 2.200500670557012720e-02 2.199867264763611177e-02 2.198471479486655000e-02 2.200262039694118876e-02 2.201665442514165807e-02 2.201265102039588403e-02 2.199982368967199134e-02 2.199548474182998897e-02 2.199866944853877057e-02 2.199207744772361389e-02 2.198478536733590102e-02 2.201583655065773165e-02 2.201537386443046945e-02 2.200494762776619359e-02 2.199535737162496701e-02 2.199097614235771131e-02 2.199144339911113244e-02 2.200515624402677936e-02 2.202077450795968810e-02 2.201841909838474914e-02 2.199751654493879022e-02 2.197011098765625295e-02 2.199233215474298217e-02 2.198668933145184537e-02 2.200279331168122562e-02 2.199456057691030753e-02 2.198968881639050757e-02 2.200324909365451720e-02 2.200137943720423955e-02 2.201289316956573858e-02 2.199414082250752620e-02 2.199593635621396176e-02
2.000000000000000000e+00 1.079999994731242335e-01 8.338437494793579348e-04 1.079999999999999988e-01 1.079663467690057943e-01 1.079724090683606974e-01 1.080443110652071076e-01 1.079829281075116582e-01 1.080733854857620774e-01 1.079710123970639285e-01 1.080996016054421027e-01 1.079308955727693448e-01 1.080416127260393488e-01 1.080315220900056605e-01 1.080223205783627238e-01 1.080381812756524146e-01 1.080304320676184621e-01 1.081264572773473209e-01 1.079987355401781368e-01 1.079598276279215424e-01 1.080227606583922251e-01 1.079506326379079256e-01 1.079996347743065882e-01 1.079578569556185613e-01 1.079467223388587693e-01 1.080003095625505505e-01 1.079582010404328829e-01 1.080143126749691929e-01 1.080675552806133477e-01 1.080375583632590675e-01 1.080371202282810056e-01 1.080037684546218818e-01 1.080689491818662140e-01 1.079509643184477369e-01 1.078850114066720600e-01 1.078711999422121287e-01 1.080044034410335418e-01 1.079854030998788211e-01 1.078817491776885851e-01 1.079700707140234389e-01 1.079493136737568054e-01 1.079323175869564416e-01 1.079982494144581390e-01 1.079453107210711915e-01 1.079142534639442319e-01 1.080631367818271349e-01 1.080941439271205784e-01 1.080540335971763716e-01 1.079189029740950934e-01 1.079813214536316512e-01 1.079190558310799131e-01 1.080488505300331720e-01 1.080251019228015558e-01 1.079820235613914992e-01 1.079580676159395819e-01 1.079972287281861371e-01 1.079309255518688532e-01 1.079609556360823230e-01 1.079209405857976811e-01 1.079118551439780804e-01 1.080269071123681202e-01 1.080393228771233116e-01 1.079645846256519076e-01 1.079733345320400689e-01 1.079992460843033353e-01 1.079633974854948553e-01 1.080171412358055250e-01 1.080090002212295841e-01 1.079441240536592878e-01 1.078015129143914397e-01 1.079993323190513999e-01 1.079935828082798227e-01 1.079867333193554463e-01 1.080127137370287954e-01 1.079753271444478802e-01 1.079711625493334909e-01 1.079382713978825348e-01 1.080613725044136941e-01 1.080304830615625711e-01 1.080488590454309339e-01 1.079265635772947290e-01 1.079665395345216217e-01 1.079455641271967609e-01 1.079090579051713017e-01 1.078806840468781031e-01 1.080228923946665448e-01 1.080615935761365110e-01 1.079965715150292688e-01 1.080668353623893546e-01 1.081169140151909680e-01 1.080415064012062304e-01 1.080503143457752641e-01 1.079744666442413736e-01 1.078943816361123409e-01 1.079878505604098260e-01 1.079594343005758628e-01 1.080242866976415389e-01 1.081099553645209765e-01 1.079835554720505880e-01 1.080683527496286295e-01 1.080618809883590742e-01 1.080743061314243664e-01 1.080958269595886784e-01 1.080503753969731251e-01 1.080367388935541406e-01 1.079376917822993248e-01 1.080381991045674395e-01 1.080107822292400988e-01 1.079605993884410614e-01 1.080174424705521163e-01 1.079932496432992745e-01 1.080533906060174160e-01 1.080421158304806090e-01 1.080557027290941358e-01 1.080258618911676960e-01 1.080062055770857482e-01 1.079916419074835043e-01 1.079016557401852872e-01 1.080604180459306535e-01 1.080677577956240532e-01 1.079918131792643454e-01 1.080180277601779787e-01 1.079327377072010624e-01 1.079605146356318740e-01 1.079548893474508442e-01 1.079953301882820016e-01 1.080703791271208081e-01 1.080878155184212402e-01 1.081402648809521166e-01 1.080809840646170389e-01 1.080416471346479640e-01 1.080027488181740936e-01 1.078810717112055340e-01 1.080180418255495267e-01 1.079883848127575208e-01 1.078901757180511234e-01 1.079843883316036202e-01 1.080996098569999564e-01 1.079953867289738800e-01 1.079808644689103092e-01 1.080312739208768996e-01 1.079878462451614729e-01 1.079476741481488478e-01 1.080374153750191385e-01 1.080432769603523330e-01 1.080723843559245057e-01 1.080642255739960034e-01 1.079534027818433300e-01 1.080043102123866283e-01 1.079560594216227437e-01 1.079627994881636188e-01 1.079060931627088271e-01 1.080657003564475527e-01 1.080083142796651602e-01 1.079228197549475105e-01 1.080325690171733966e-01 1.079825474277929798e-01 1.080173842985906740e-01 1.080458296907121918e-01 1.080921530295080590e-01 1.079987745386656456e-01 1.079869818998951125e-01 1.079148009129412833e-01 1.079487416123555005e-01 1.079773512841988165e-01 1.079497174197792397e-01 1.080019912512007602e-01 1.079597266234618158e-01 1.079351383231071382e-01 1.080493002190841823e-01 1.079581961134873924e-01 1.079648509328620942e-01 1.080577556676949047e-01 1.079863672882586112e-01 1.080312036629938466e-01 1.079957272345489910e-01 1.080117466377578522e-01 1.079626425939534257e-01 1.079673035737104131e-01 1.079809173488378848e-01 1.080515228871354455e-01 1.080373272156894826e-01 1.080272750972636892e-01 1.080955847060790093e-01 1.080528029329191342e-01 1.080289589657850158e-01 1.080277833973418145e-01 1.080947640554002220e-01 1.080194141104877104e-01 1.080212469643992423e-01 1.080340086041561842e-01 1.079676509245132837e-01 1.079559321915592868e-01 1.080219651431811728e-01 1.080559831152769906e-01 1.080093003650582917e-01 1.080197225724277843e-01 1.080245783727988018e-01 1.079934839065772589e-01 1.079249635384357808e-01 1.080128637668022057e-01 1.080817580870590544e-01 1.080621050092161611e-01 1.079991344765715983e-01 1.079778341871653891e-01 1.079934682019176029e-01 1.079611074706432056e-01 1.079253099851035097e-01 1.080777430668652256e-01 1.080754716981132124e-01 1.080242883544885873e-01 1.079772089152498393e-01 1.079557010624833113e-01 1.079579948683637436e-01 1.080253124706769124e-01 1.081019839481657252e-01 1.080904210284341915e-01 1.079878084933358906e-01 1.078532721212216161e-01 1.079623578505564535e-01 1.079346567180363287e-01 1.080137126209805704e-01 1.079732973775597016e-01 1.079493814622806691e-01 1.080159500961221791e-01 1.080067717826389828e-01 1.080632937415045292e-01 1.079712367650369348e-01 1.079800512032321747e-01
3.000000000000000000e+00 4.936767620050857563e-01 9.211037219269115062e-03 4.939999999999999947e-01 4.938460676286005602e-01 4.938737970349091344e-01 4.942026820945584209e-01 4.939219118991737267e-01 4.923343116573605793e-01 4.938674085569405570e-01 4.924537406470139711e-01 4.936839112310005273e-01 4.941903396913281954e-01 4.941441843746555151e-01 4.941020959788072764e-01 4.931742904527466331e-01 4.941391985315140567e-01 4.925760831523600114e-01 4.939942162671110970e-01 4.938162485943818902e-01 4.941041089374608175e-01 4.937741900289492336e-01 4.939983294306246053e-01 4.938072345932923435e-01 4.937563040314466023e-01 4.920014102293969183e-01 4.938088084627206831e-01 4.940654672355072052e-01 4.923077518339052383e-01 4.941717947356479290e-01 4.921691032621690609e-01 4.940172371905852677e-01 4.923141018285016046e-01 4.937757071603072201e-01 4.934740336564443774e-01 4.934108589949332546e-01 4.940201416654682043e-01 4.939332326975938714e-01 4.934591119794274339e-01 4.938631012289590450e-01 4.937681569892209410e-01 4.936904156292267198e-01 4.939919926920585125e-01 4.937498471871219485e-01 4.936077889924856410e-01 4.922876231172124695e-01 4.924288778902159991e-01 4.942471536759734385e-01 4.936290561963238011e-01 4.939145629453151609e-01 4.936297553754951939e-01 4.942234459429294957e-01 4.941148180542960233e-01 4.939177744382166613e-01 4.938081981692051259e-01 4.939873239974439945e-01 4.936840483576223626e-01 4.938214081872653871e-01 4.936383763831856952e-01 4.935968188993071215e-01 4.941230751250912379e-01 4.941798657527677885e-01 4.938380074543707865e-01 4.938780301743314061e-01 4.939965515337579327e-01 4.938325773873560864e-01 4.940784052822956296e-01 4.940411676785871897e-01 4.937444192824786415e-01 4.930921053676793897e-01 4.939969459778832950e-01 4.939706472897243961e-01 4.939393172200147175e-01 4.940581535749279940e-01 4.938871445310856201e-01 4.938680953645439575e-01 4.937176488014256570e-01 4.942807223812997197e-01 4.941394317815917536e-01 4.942234848929896174e-01 4.936640963628110557e-01 4.938469493523489073e-01 4.937510062855111070e-01 4.935840241218020785e-01 4.934542399922016709e-01 4.941047115089376995e-01 4.942817335797354827e-01 4.939843178557820624e-01 4.943057098983364983e-01 4.925326082914255887e-01 4.941898533536654980e-01 4.922292097974206859e-01 4.938832085394003757e-01 4.935168937799953581e-01 4.939444275633560477e-01 4.938144494859673106e-01 4.941110891540270167e-01 4.925009077717067418e-01 4.939247815110462403e-01 4.943126505399679793e-01 4.922819022803024414e-01 4.923385057098221274e-01 4.924365450381261722e-01 4.942304207972659791e-01 4.941680464205160939e-01 4.937149975968135873e-01 4.941747255338547751e-01 4.940493187152278920e-01 4.938197786841656001e-01 4.940797831523402461e-01 4.939691233684244120e-01 4.942442125867833602e-01 4.941926409283094457e-01 4.942547884090046639e-01 4.941182942058965910e-01 4.940283847692625852e-01 4.939617694657115754e-01 4.935501660708475624e-01 4.942763566174976364e-01 4.923086744022873718e-01 4.939625528755239303e-01 4.940824603104436719e-01 4.936923372903455620e-01 4.938193910185383895e-01 4.937936605337103213e-01 4.939786399352898982e-01 4.923206160235503170e-01 4.944016746861120137e-01 4.926389844576707366e-01 4.923689274054776077e-01 4.921897258356184857e-01 4.940125732979444573e-01 4.934560131975512243e-01 4.940825246464950471e-01 4.939468712731686639e-01 4.934976555992338643e-01 4.939285910723351103e-01 4.924537782374442396e-01 4.939788985566026525e-01 4.939124726633490337e-01 4.921424700839947541e-01 4.939444078250904147e-01 4.937606576776438216e-01 4.941711406968467557e-01 4.941979520223523381e-01 4.923297509547671647e-01 4.922925831704262345e-01 4.937868608725056174e-01 4.940197152307314044e-01 4.937990125396448104e-01 4.938298421032669139e-01 4.935704631701682277e-01 4.943005182970842126e-01 4.940380301310609568e-01 4.936469718420747332e-01 4.941489730970710093e-01 4.939201706419419358e-01 4.940795170694795568e-01 4.942096284001094575e-01 4.924198082455367165e-01 4.939943946490817361e-01 4.939404542458165071e-01 4.936102930647499609e-01 4.937655403379964669e-01 4.938964030962427199e-01 4.937700037534346609e-01 4.940091081304923137e-01 4.938157865925012491e-01 4.937033178853234006e-01 4.942255028539591644e-01 4.938087859265071766e-01 4.938392255632765848e-01 4.942641787022340472e-01 4.939376429666643697e-01 4.941427278659162869e-01 4.939804560543259448e-01 4.940537299912257097e-01 4.938291244575276906e-01 4.938504441241939324e-01 4.939127145400547536e-01 4.922347153747281268e-01 4.941707374495425964e-01 4.941247583152617029e-01 4.924354414388044110e-01 4.922405466944093644e-01 4.941324604546092347e-01 4.941270833174709054e-01 4.924317029190455330e-01 4.940888015794531185e-01 4.940971851890113564e-01 4.941555578745661648e-01 4.938520329324959102e-01 4.937984305799100748e-01 4.941004701919583519e-01 4.942560709161744059e-01 4.940425405586925112e-01 4.940902125072159645e-01 4.941124232978019171e-01 4.939701949060109065e-01 4.936567776665488627e-01 4.940588398222249267e-01 4.923724535077134701e-01 4.922829228197624918e-01 4.939960410317256745e-01 4.938986119301824185e-01 4.939701230717342129e-01 4.938221026897939292e-01 4.936583623392697406e-01 4.923541628601638132e-01 4.923438155136268257e-01 4.941110967325681447e-01 4.938957518901242461e-01 4.937973733783958541e-01 4.938078654164045345e-01 4.941157811158740087e-01 4.924645935416438469e-01 4.924119180184224898e-01 4.939442351454437774e-01 4.933288558137359225e-01 4.938278220201378632e-01 4.937011149880550231e-01 4.940627225441148185e-01 4.938778602269859874e-01 4.937684670589504443e-01 4.940729569211514405e-01 4.940309746354041853e-01 4.922883381557428550e-01 4.938684348326689566e-01 4.939087527258952948e-01
4.000000000000000000e+00 1.833183913115366437e+00 8.639964664503370709e-03 1.834000000000000075e+00 1.833428518281079889e+00 1.833531465105310510e+00 1.832751646957957448e+00 1.833710093973855315e+00 1.833244835277001217e+00 1.833507747557548528e+00 1.833689538344165815e+00 1.832826504448694216e+00 1.832705875130593576e+00 1.832534708045281180e+00 1.832378623144078844e+00 1.832647667564770488e+00 1.832516218035898481e+00 1.834145090112039744e+00 1.833978527598950858e+00 1.833317813607482583e+00 1.832386088205320451e+00 1.833161669054843790e+00 1.833993797926650959e+00 1.833284348672263420e+00 1.833095266383953481e+00 1.834005256830719466e+00 1.833290191742165565e+00 1.832242785375403304e+00 1.833145937722996832e+00 1.832637101124912959e+00 1.832629669057507460e+00 1.834063993942375292e+00 1.833169582418323174e+00 1.833167301481788414e+00 1.834045193913425020e+00 1.833810399017606230e+00 1.832074695407161391e+00 1.833752123010905288e+00 1.833989736020706030e+00 1.833491756384435067e+00 1.833139271089536892e+00 1.832850652356278864e+00 1.833970272464038986e+00 1.833071295022634883e+00 1.832543896785867599e+00 1.833070986891734311e+00 1.833596959948934346e+00 1.832916569907658610e+00 1.832622852356392773e+00 1.833682810610745006e+00 1.832625448094449716e+00 1.832828649731673920e+00 1.832425802986781926e+00 1.833694733440666802e+00 1.833287925996603729e+00 1.833952939699012630e+00 1.832827013538217198e+00 1.833336968857175453e+00 1.832657454021786592e+00 1.832503169759775785e+00 1.832456424350540791e+00 1.832667032508239924e+00 1.833398594476348453e+00 1.833547180849643299e+00 1.833987197394558732e+00 1.833378435077755109e+00 1.832290766148108485e+00 1.832152670419376017e+00 1.833051143651954984e+00 1.832625719544654475e+00 1.833988661788335861e+00 1.833891026577640471e+00 1.833774712108313665e+00 1.834215898089915031e+00 1.833581018360346260e+00 1.833510297365533503e+00 1.832951756886264771e+00 1.833041059519313842e+00 1.832517083044283179e+00 1.832828794178050558e+00 1.832752940747764070e+00 1.833431791725117277e+00 1.833075598234063630e+00 1.832455668500779344e+00 1.833971628796927877e+00 1.832388322842862127e+00 1.833044809550760101e+00 1.833941779245960024e+00 1.833133725776826761e+00 1.833983208109536189e+00 1.832704071546387148e+00 1.832853480383891620e+00 1.833566405792024900e+00 1.834204487813909878e+00 1.833793684516588973e+00 1.833311134326445435e+00 1.834092352145595184e+00 1.833865168775948629e+00 1.833720747553155395e+00 1.833159465160367096e+00 1.833049684913646615e+00 1.833260452155272446e+00 1.833625509166356027e+00 1.832854515993099787e+00 1.832623200490658855e+00 1.832941914154971874e+00 1.832647969995995885e+00 1.832182898555258177e+00 1.833330919244452906e+00 1.832295875981958089e+00 1.833885368942693050e+00 1.832905662872443608e+00 1.832714409272596878e+00 1.832944883330559716e+00 1.832438694302029436e+00 1.832105264974269287e+00 1.833858067206710629e+00 1.832329968773146689e+00 1.833024869075416285e+00 1.833149372977623148e+00 1.833860975655285275e+00 1.832305804228204105e+00 1.832857786620432750e+00 1.833329480016193003e+00 1.833233954289118950e+00 1.833920699678788901e+00 1.833193838526715913e+00 1.833489611386553086e+00 1.834379307980595009e+00 1.833373729688688947e+00 1.832706458802546789e+00 1.834046679004919245e+00 1.833978219090494077e+00 1.832306042818580893e+00 1.833802756912937815e+00 1.834132987206869236e+00 1.833734890742231949e+00 1.833689678315036264e+00 1.833921659823500860e+00 1.833675050333162249e+00 1.832530498361541582e+00 1.833793611237279020e+00 1.833111429515786872e+00 1.832634675620695042e+00 1.832734105475606334e+00 1.833227853148645226e+00 1.833089456032969355e+00 1.833208710202783864e+00 1.832073113973076817e+00 1.833253823882001088e+00 1.833368280197148703e+00 1.832405322781555768e+00 1.833114472713073706e+00 1.834141188786165610e+00 1.832689365097905032e+00 1.832552467032052768e+00 1.833703629468262264e+00 1.834295211144586046e+00 1.832777407346154908e+00 1.833563188426470036e+00 1.833979189851044467e+00 1.833778933374144771e+00 1.832553193280873405e+00 1.833129556639444324e+00 1.833615391252042759e+00 1.833146127295139927e+00 1.834033814395390483e+00 1.833316098402120176e+00 1.832898552634986133e+00 1.832836277790391044e+00 1.833290108075332325e+00 1.833403116767306162e+00 1.832979707252009760e+00 1.833768496358021194e+00 1.832529306579673500e+00 1.833927442112618822e+00 1.832199257781225832e+00 1.833365615901023871e+00 1.833444766242452673e+00 1.833675948312672999e+00 1.832873980826223326e+00 1.832633180177251075e+00 1.832462666464695022e+00 1.833621399829044041e+00 1.832895694195443070e+00 1.832491229864056770e+00 1.832471288740094462e+00 1.833607479161974751e+00 1.832329320837162046e+00 1.832360411470179695e+00 1.832576886692723228e+00 1.833450664773679240e+00 1.833251663327034597e+00 1.832372593910258418e+00 1.832949639510994988e+00 1.832157761748025804e+00 1.832334553265626775e+00 1.832416922027475970e+00 1.833889347080210452e+00 1.832725769717511444e+00 1.832218207599830118e+00 1.833386859402705404e+00 1.833053484971148173e+00 1.833985302129928829e+00 1.833623591659827134e+00 1.833889080391822635e+00 1.833339547232959665e+00 1.832731652895183583e+00 1.833318752763861914e+00 1.833280223619846216e+00 1.832412002457620925e+00 1.833612973616372210e+00 1.833247738412910888e+00 1.833286690634991611e+00 1.832429374502593467e+00 1.833729949935551495e+00 1.833533808556402356e+00 1.833792970155351920e+00 1.833505626060767391e+00 1.833360780536301249e+00 1.832890374267394540e+00 1.834232860619244176e+00 1.833546549911522883e+00 1.833140422239099454e+00 1.832270560889776245e+00 1.832114869498098209e+00 1.833073649392928939e+00 1.833511557658127344e+00 1.833661239877109272e+00
5.000000000000000000e+00 4.951570019185576932e+00 1.758118589578647542e-02 4.951999999999999957e+00 4.954455690622154407e+00 4.950734904690020421e+00 4.952030923821991948e+00 4.951217222114793870e+00 4.951362142440284941e+00 4.952670327917172877e+00 4.950561384634412754e+00 4.948831434040313226e+00 4.949906479337433218e+00 4.949444178716185583e+00 4.953023439852335841e+00 4.953750682194729471e+00 4.951394803099179676e+00 4.951791274942220156e+00 4.951942022175574998e+00 4.950158022346920816e+00 4.953043618336651299e+00 4.951735500816628388e+00 4.951983253725613210e+00 4.950067663372436755e+00 4.951556133950984595e+00 4.952014194016206794e+00 4.952082666243559750e+00 4.950655997602754432e+00 4.951095032671063656e+00 4.951721424982706843e+00 4.953702031207847689e+00 4.950172720836837570e+00 4.953160170835534615e+00 4.951750715125833757e+00 4.952721171798889266e+00 4.950089508459289966e+00 4.952201905925908143e+00 4.951330705098147433e+00 4.950573601153932302e+00 4.950627686813370509e+00 4.953674060806839918e+00 4.950895382646131715e+00 4.951919732411080410e+00 4.953490369755822798e+00 4.950066774633145705e+00 4.952893769167077131e+00 4.952313186586969174e+00 4.952476539870583672e+00 4.950280049385805903e+00 4.951843432994412098e+00 4.950287060992313748e+00 4.952238982626520070e+00 4.953150969645493618e+00 4.951175747000099214e+00 4.950077322538266600e+00 4.951872932055349175e+00 4.952830250324648631e+00 4.952209020566220588e+00 4.950373515389275170e+00 4.949956762808031208e+00 4.949232744370346992e+00 4.951802298534818902e+00 4.952375483661847433e+00 4.950777338913540326e+00 4.951965431569168352e+00 4.950321706927504728e+00 4.952785957404712391e+00 4.952412676810452830e+00 4.951436949646557117e+00 4.950884296809088703e+00 4.953969373227598894e+00 4.953705641039057639e+00 4.953391452445249143e+00 4.950582712947153574e+00 4.950868703882461475e+00 4.952677215457390147e+00 4.951168486158426418e+00 4.950811769924435168e+00 4.951397140321617485e+00 4.952239372915584248e+00 4.952630084158080592e+00 4.950465775693992043e+00 4.953501998281362617e+00 4.949828452427950332e+00 4.950524723484517331e+00 4.953049658688784440e+00 4.950821898284476497e+00 4.953842734124583203e+00 4.951062049750949434e+00 4.951354228880876285e+00 4.951902376721951882e+00 4.952306074181366924e+00 4.952828775514553250e+00 4.951153290634932702e+00 4.951442925695827668e+00 4.950139987559737165e+00 4.951113140308570415e+00 4.953037584663424475e+00 4.949246292468985509e+00 4.951131568566318641e+00 4.952836211966457292e+00 4.951404321650812790e+00 4.952390294407821969e+00 4.950307939483546527e+00 4.951683865954564112e+00 4.951091927823303429e+00 4.949750084901848979e+00 4.950494185506838285e+00 4.952192679354972427e+00 4.950799446566971795e+00 4.951690483644610730e+00 4.952447069442464489e+00 4.949929528974241322e+00 4.950552010218127741e+00 4.951185336678518567e+00 4.952284537201190773e+00 4.951616765980169532e+00 4.949488912378499528e+00 4.952769160438488250e+00 4.953105565632768936e+00 4.950374713863361364e+00 4.952826606188900804e+00 4.949915276516358986e+00 4.952188791712225147e+00 4.949931593042375511e+00 4.949785966962925166e+00 4.953225709993036574e+00 4.950021625501031863e+00 4.950421014550252075e+00 4.951710269923380814e+00 4.953909598247932422e+00 4.952126038403686259e+00 4.952540310594046424e+00 4.948826582896472814e+00 4.953467207059266464e+00 4.952958251945347001e+00 4.951284176093529332e+00 4.952563607152183245e+00 4.951788472980356737e+00 4.952572343551100431e+00 4.953433967186874121e+00 4.949442952903233994e+00 4.950350399418927516e+00 4.951714871355044068e+00 4.951983527349481662e+00 4.953317616313205995e+00 4.950942482779002063e+00 4.951862568344924220e+00 4.952197631219801721e+00 4.951984429395547060e+00 4.950294287642464930e+00 4.951690719577639399e+00 4.951010049663912227e+00 4.950381071151319645e+00 4.950459713574166365e+00 4.951492746620448138e+00 4.949200090440511346e+00 4.950796780352072268e+00 4.952100527490975068e+00 4.952221973981536074e+00 4.951943810328446993e+00 4.951403096002597870e+00 4.950091886321398960e+00 4.951648758774158665e+00 4.952961095017785809e+00 4.951693519422095235e+00 4.952091302555056807e+00 4.952152645302128064e+00 4.951024770858081681e+00 4.951509251012059742e+00 4.948083988534839328e+00 4.950388350180861430e+00 4.950646065219947545e+00 4.951374914920894987e+00 4.953430745732829266e+00 4.951804085791542853e+00 4.952538605094230384e+00 4.950287093752383072e+00 4.952500202816309205e+00 4.951125025105974409e+00 4.952361465660374051e+00 4.951710830719100898e+00 4.951250108624585700e+00 4.952379195608138218e+00 4.952420134425460141e+00 4.951327285931813371e+00 4.951273405711499542e+00 4.952341597649263072e+00 4.952890172917918221e+00 4.952974212663935560e+00 4.951558727690491324e+00 4.951766360572642967e+00 4.949979409375941053e+00 4.953007142491047787e+00 4.950564856059171959e+00 4.952426438960820576e+00 4.952904316469096457e+00 4.951126508753278088e+00 4.949701345718125367e+00 4.952556660152664492e+00 4.952589827529672029e+00 4.951745731618223623e+00 4.952846479589073425e+00 4.951960314147986431e+00 4.952983245955715930e+00 4.951700504961999094e+00 4.952215985273762833e+00 4.950573941353729523e+00 4.951561784211565787e+00 4.951457721872816187e+00 4.951113216247393645e+00 4.950954986558492976e+00 4.951967991329095042e+00 4.952073209054388414e+00 4.951160154906024680e+00 4.950670487107663220e+00 4.952142622673077810e+00 4.951440996842586095e+00 4.951264103490895963e+00 4.950274037740329369e+00 4.951002679455110744e+00 4.950628495128276185e+00 4.950775635311811307e+00 4.951678108927207944e+00 4.954731636816567253e+00 4.952310498774334491e+00 4.950899791045967113e+00 4.948681685064193481e+00 4.951085310725978239e+00
6.000000000000000000e+00 2.462366121421938597e-03 2.234597188765959493e-05 2.473309970850480228e-03 2.461591220850480217e-03 2.461620691872428140e-03 2.463413065843621588e-03 2.461896647805212560e-03 2.463881923010973873e-03 2.461698388203017920e-03 2.464691036522633633e-03 2.460747277949245759e-03 2.463233560528120883e-03 2.463204089506172961e-03 2.462839720507544773e-03 2.463386274005486837e-03 2.462917416838134553e-03 2.465342078189300228e-03 2.462228866598079654e-03 2.461548353909465137e-03 2.462837041323731168e-03 2.460964291838134334e-03 2.462319958847736592e-03 2.461524241255143991e-03 2.461208097565157661e-03 2.462038644547324961e-03 2.461395640432098748e-03 2.462571802126200301e-03 2.463849772805212779e-03 2.462904020919067394e-03 2.463096922153635258e-03 2.462504822530864074e-03 2.463865847908093109e-03 2.460961612654321163e-03 2.459498778292181203e-03 2.459536286865569073e-03 2.462400334362139977e-03 2.461979702503429551e-03 2.459442515432098963e-03 2.461835026577503544e-03 2.460859803669410237e-03 2.460749957133058930e-03 2.462429805384087900e-03 2.460747277949245759e-03 2.460816936728395157e-03 2.463557741769547161e-03 2.464399005486968448e-03 2.463659550754458086e-03 2.460457926097393746e-03 2.461920760459533706e-03 2.460321287722908121e-03 2.463450574417009459e-03 2.463102280521262035e-03 2.461821630658436386e-03 2.461272397976680282e-03 2.462370863340192055e-03 2.460953575102880781e-03 2.461245606138545965e-03 2.460575810185185001e-03 2.460372192215363584e-03 2.463088884602194877e-03 2.463297860939643504e-03 2.461390282064471972e-03 2.461655521262002839e-03 2.462435163751714676e-03 2.461285793895747441e-03 2.462810249485596851e-03 2.462593235596707841e-03 2.461025913065843784e-03 2.457577803497942512e-03 2.462384259259259214e-03 2.462044002914952172e-03 2.462006494341563868e-03 2.462812928669410022e-03 2.461540316358024755e-03 2.461639446159122075e-03 2.460918745713306082e-03 2.463670267489712074e-03 2.463204089506172961e-03 2.463839056069958792e-03 2.460465963648834128e-03 2.461409036351165907e-03 2.460891953875171331e-03 2.460313250171467740e-03 2.459584512174211365e-03 2.462700402949245543e-03 2.463970336076817640e-03 2.462271733539094735e-03 2.464042674039780643e-03 2.464940200617283736e-03 2.463362161351166126e-03 2.463179976851851815e-03 2.461837705761316716e-03 2.459860468106995785e-03 2.462113661694101570e-03 2.461701067386831091e-03 2.462845078875171550e-03 2.464980388374485645e-03 2.461746613511659777e-03 2.464265046296296429e-03 2.463780114026062947e-03 2.463871206275720319e-03 2.464685678155006856e-03 2.463356802983538915e-03 2.463048696844992967e-03 2.460996442043895862e-03 2.463252314814814818e-03 2.462555727023319537e-03 2.461403677983539130e-03 2.462791495198902482e-03 2.461907364540466547e-03 2.463547025034293608e-03 2.463332690329218203e-03 2.463445216049382682e-03 2.462764703360768165e-03 2.462644140089163304e-03 2.461800197187928845e-03 2.460219478737997196e-03 2.463648834019204533e-03 2.463822980967078028e-03 2.462132415980795505e-03 2.462759344993141388e-03 2.460833011831275920e-03 2.461363490226337655e-03 2.461114326131687118e-03 2.462271733539094735e-03 2.463946223422496494e-03 2.464254329561042442e-03 2.465478716563785852e-03 2.464265046296296429e-03 2.462992433984910728e-03 2.462400334362139977e-03 2.459755979938271688e-03 2.462700402949245543e-03 2.462038644547324961e-03 2.459694358710562238e-03 2.462041323731138567e-03 2.464696394890260843e-03 2.462094907407407201e-03 2.461987740054869499e-03 2.463179976851851815e-03 2.462001135973937091e-03 2.460953575102880781e-03 2.463091563786008048e-03 2.463284465020576346e-03 2.463855131172839556e-03 2.463895318930041031e-03 2.461208097565157661e-03 2.462488747427983744e-03 2.461117005315500723e-03 2.461564429012345467e-03 2.460208762002743643e-03 2.463758680555555407e-03 2.462555727023319537e-03 2.460527584876543144e-03 2.462786136831275705e-03 2.462327996399176974e-03 2.462807570301783246e-03 2.463311256858710663e-03 2.464704432441700791e-03 2.462196716392318126e-03 2.461864497599451466e-03 2.460203403635116432e-03 2.461267039609053506e-03 2.461835026577503544e-03 2.461175947359396567e-03 2.462204753943758508e-03 2.461577824931413059e-03 2.460749957133058930e-03 2.463820301783264857e-03 2.461216135116598043e-03 2.460985725308641875e-03 2.464168595679012280e-03 2.462065436385459712e-03 2.462713798868312702e-03 2.462338713134430528e-03 2.462654856824416857e-03 2.461427790637860276e-03 2.461580504115226230e-03 2.461746613511659777e-03 2.463447895233196287e-03 2.463370198902606507e-03 2.462952246227709252e-03 2.464642811213991775e-03 2.463418424211248365e-03 2.463016546639231873e-03 2.463072809499314113e-03 2.464385609567901290e-03 2.462646819272976476e-03 2.462791495198902482e-03 2.462979038065843569e-03 2.461784122085048081e-03 2.461687671467763933e-03 2.462577160493827078e-03 2.463793509945130106e-03 2.462344071502057738e-03 2.462729873971193466e-03 2.462874549897119472e-03 2.462060078017832502e-03 2.460549018347050684e-03 2.462437842935528282e-03 2.464144483024691568e-03 2.463876564643347096e-03 2.462496784979423693e-03 2.461577824931413059e-03 2.462252979252400366e-03 2.461323302469135745e-03 2.460565093449931448e-03 2.463964977709190863e-03 2.464050711591221025e-03 2.463201410322359355e-03 2.461786801268861253e-03 2.461283114711934270e-03 2.461194701646090503e-03 2.462879908264746249e-03 2.464875900205761115e-03 2.464404363854595225e-03 2.462065436385459712e-03 2.458928112139917559e-03 2.461443865740740606e-03 2.460808899176954775e-03 2.462603952331961395e-03 2.461652842078189234e-03 2.461414394718792684e-03 2.462469993141289375e-03 2.462287808641975499e-03 2.463782793209876552e-03 2.461757330246913764e-03 2.461896647805212560e-03
