# vvf statistics with RF=1000
# gcat file: /disk2/salam/Abacus/AbacusCosmos_720box_products/GCAT/AbacusCosmos_720box_25_rockstar_halos_z0.100_Mr21.gcat.rsd_zz.1pz0.100by100
# stats order in row: stdvvf,p2.5,p16,p50,p84,p97.5,rho
# columns: numbers, mean, sigma,All, jnrealizations
0.000000000000000000e+00 1.360095439603026701e+00 4.429740824039175157e-03 1.360095633991477593e+00 1.360497466449152482e+00 1.359824338742118277e+00 1.360192220219941017e+00 1.359954024128853911e+00 1.360464767785763973e+00 1.360125352332121951e+00 1.360312305128336785e+00 1.359296841138403433e+00 1.358687832298246523e+00 1.360040627529579771e+00 1.360480793103516994e+00 1.360329101425401976e+00 1.360212265302886303e+00 1.359941764254841035e+00 1.360297792409223661e+00 1.360291256182180497e+00 1.360419810242449401e+00 1.360006943944565672e+00 1.360423614446724772e+00 1.360410388699312412e+00 1.360098852932565716e+00 1.360649782262010721e+00 1.360130573331504777e+00 1.360061630283092571e+00 1.359911531909421045e+00 1.360553472605042558e+00 1.360477815552130876e+00 1.359899773865607564e+00 1.360503510372998104e+00 1.359928516110832097e+00 1.360054335816315074e+00 1.359634750427220817e+00 1.360026552441214731e+00 1.360084535275138728e+00 1.359644448723577925e+00 1.359473883348068846e+00 1.360000604592466411e+00 1.360157392285957778e+00 1.359978137634080486e+00 1.360399272817318872e+00 1.360075587594819391e+00 1.360240636706823159e+00 1.360429098443251883e+00 1.359813274153981455e+00 1.359730670901042160e+00 1.360134719270273296e+00 1.359767998700795344e+00 1.360447253975860527e+00 1.360150073360713030e+00 1.359861123925133697e+00 1.359714758402693402e+00 1.360127150919434369e+00 1.359985801510913639e+00 1.360245887999923520e+00 1.359630337875343598e+00 1.359755288769241011e+00 1.360088865949768078e+00 1.360080532261073616e+00 1.360199550915530908e+00 1.359711998889637563e+00 1.360333178127586917e+00 1.360436697780059045e+00 1.360275805169292029e+00 1.360010269731709132e+00 1.359977388245767305e+00 1.359644866456029666e+00 1.360633818705542009e+00 1.360571627251892401e+00 1.360271244974507354e+00 1.360117207765379588e+00 1.360200706476681232e+00 1.360520753452697518e+00 1.359691089246668705e+00 1.360130811986292265e+00 1.359880351909916518e+00 1.360180630705616345e+00 1.360190043476891208e+00 1.359843346213114534e+00 1.359959043922390087e+00 1.359741782354071615e+00 1.359690705079952711e+00 1.360227806312586107e+00 1.359218146223637236e+00 1.359985994061763126e+00 1.359578263934114739e+00 1.360481002406237039e+00 1.360013584854186774e+00 1.360410340012662589e+00 1.359967507155317445e+00 1.359776308714664816e+00 1.360164767162836519e+00 1.360196136413577506e+00 1.360189020545669258e+00 1.360473828400565521e+00 1.359821162767967273e+00 1.359936547054490186e+00 1.360470981116664646e+00 1.360340820382666793e+00 1.360229188825154534e+00 1.360010961009307850e+00 1.359904594176224668e+00 1.359897608882988385e+00 1.359838839237359265e+00 1.359946478659114444e+00 1.360188243256620577e+00 1.360106126784341729e+00 1.359989230655923587e+00 1.360230476017421530e+00 1.359859370772806164e+00 1.360057696419795459e+00 1.360544090907894965e+00 1.359900335717589615e+00 1.360182719972863996e+00 1.359708194856212637e+00 1.360374396387353579e+00 1.360464577646531170e+00 1.360273406704025856e+00 1.360026757798068253e+00 1.359602319049157515e+00 1.360129587652378902e+00 1.360003093559901011e+00 1.359962515213980261e+00 1.360015197246179364e+00 1.359851961506459928e+00 1.360008597292867494e+00 1.360106926149929230e+00 1.360519032238998172e+00 1.360504887390631135e+00 1.359959666873507000e+00 1.360194967169564784e+00 1.360268894659722116e+00 1.359956936421690576e+00 1.360135853297279152e+00 1.360016024204725893e+00 1.360018234439999585e+00 1.360193096721107997e+00 1.360536176571633282e+00 1.359712345613220741e+00 1.359485280351093728e+00 1.359552015737244934e+00 1.360030524793085727e+00 1.360579325627610414e+00 1.360412434847668717e+00 1.360374053861184374e+00 1.360178473335269977e+00 1.360144459980378917e+00 1.359859667975431785e+00 1.360134851373474341e+00 1.359844946366493224e+00 1.359989399032360602e+00 1.359815427293156187e+00 1.360102391593197790e+00 1.359316263688856941e+00 1.360370433797103429e+00 1.360238562970137011e+00 1.360604597609951005e+00 1.360292518877816548e+00 1.360361799527788351e+00 1.359701731690153403e+00 1.360214943543980537e+00 1.360519141800885734e+00 1.360308747311962607e+00 1.360033980174593093e+00 1.360236232056388994e+00 1.359916092562962975e+00 1.359938159181646622e+00 1.359565712794222891e+00 1.359930341972906076e+00 1.360136896865523637e+00 1.359913188616992397e+00 1.360273884358400132e+00 1.360028693903431396e+00 1.360463224214411460e+00 1.360065349733543316e+00 1.360126576726723657e+00 1.360237375648289282e+00 1.360684491244389838e+00 1.360162579369227798e+00 1.360025710353404582e+00 1.360450850542470169e+00 1.360235250416711450e+00 1.360180965975315903e+00 1.360371824403287855e+00 1.360418204366265815e+00 1.360539890740681157e+00 1.360343956918099506e+00 1.360533873587343567e+00 1.360233879972581938e+00 1.359410287782165438e+00 1.360325875361741321e+00 1.360058084460742167e+00 1.360318187473586127e+00 1.360378934290641384e+00 1.359753261985340300e+00 1.359757900682067699e+00 1.359934625470425873e+00 1.360227916649592306e+00 1.360088671905716140e+00 1.360289884834139151e+00 1.359879861566557269e+00 1.360223508259463143e+00 1.360124136693760200e+00 1.359955607510536346e+00 1.359929026106293737e+00 1.359961187380931191e+00 1.360340179855257681e+00 1.359952829255546058e+00 1.360254128522736305e+00 1.359884927264017662e+00 1.360067198236640351e+00 1.360293469235785091e+00 1.360176326849900530e+00 1.359867138916195151e+00 1.359650862174988983e+00 1.359728015320506467e+00 1.360141974273692655e+00 1.360322407802974087e+00 1.359859785141477984e+00 1.360274164794231577e+00 1.360195214524345220e+00 1.360599880290871866e+00 1.360627103048453801e+00 1.360367613849606583e+00 1.359654832727553053e+00 1.360066842719316327e+00
1.000000000000000000e+00 2.999999990049777299e-02 2.014090601749299488e-04 2.999999999999999889e-02 2.999761108340188651e-02 2.999099298120677659e-02 3.000926656941914697e-02 2.999396250094655408e-02 3.001857119604742219e-02 2.999661910983690907e-02 3.002413967910987774e-02 2.998270763910375336e-02 3.000957366507142621e-02 3.000694353913640686e-02 3.000491907385271356e-02 3.000849565650300088e-02 3.000757822093767443e-02 3.003293513929821551e-02 2.999935763132798028e-02 2.999238226123588508e-02 3.001009834809267862e-02 2.998303508778919768e-02 2.999667383013317548e-02 2.999063032360396383e-02 2.998881672254049419e-02 2.999917875487608313e-02 2.998794645158228342e-02 3.000187466984611043e-02 3.001918450063805269e-02 3.001037068787128226e-02 3.000990112069889040e-02 2.999751678439879082e-02 3.001730909542350834e-02 2.998909420375706764e-02 2.997110053390580897e-02 2.996841062927323163e-02 3.000087021351312971e-02 2.999438464913275343e-02 2.997815045358714903e-02 2.998767422722808246e-02 2.999149621373493890e-02 2.998630397792274860e-02 3.000232570117616210e-02 2.998483488612093198e-02 2.998239672260242725e-02 3.001512191632146886e-02 3.002314106927705256e-02 3.001236304260048587e-02 2.998280694386100051e-02 2.999423663080664701e-02 2.998387184695196217e-02 3.001168978957097569e-02 3.000811175145148141e-02 2.999237037745317025e-02 2.999101063240474860e-02 2.999632735640386447e-02 2.998482662020963974e-02 2.998971824052867885e-02 2.997862242732982421e-02 2.998262208248521007e-02 3.000777871659168067e-02 3.000936852388109977e-02 2.999231656325696341e-02 2.998992825427075973e-02 2.999957660278861418e-02 2.999653582632532539e-02 3.000395935862415139e-02 3.000818323153232534e-02 2.998526643147387746e-02 2.995447738491595693e-02 3.000180582586715883e-02 2.999914459600364763e-02 2.999753176468392818e-02 3.000262019682905720e-02 2.999001214099064269e-02 2.999249612167202358e-02 2.998410344372250472e-02 3.001176776533835688e-02 3.000819366349457423e-02 3.001037196318613945e-02 2.998471041449235486e-02 2.999061504409918089e-02 2.999038835084551907e-02 2.997995416277489389e-02 2.996255263880242409e-02 3.000286708528121168e-02 3.001784563947059239e-02 3.000145761895271768e-02 3.001745058941129168e-02 3.002691760627973494e-02 3.000909613125801734e-02 3.001126076609049800e-02 2.999359576269070016e-02 2.997847261149962778e-02 2.999972304310908472e-02 2.999245749905036021e-02 3.000544085253683060e-02 3.002738863179245030e-02 2.999500259535462648e-02 3.001597386167144388e-02 3.001390947608936766e-02 3.001614809776965986e-02 3.002699383040410841e-02 3.000893659940242694e-02 3.000444230118158931e-02 2.999017418695202469e-02 3.000569141475902327e-02 3.000097288805808615e-02 2.999553589033885498e-02 3.000363460364112445e-02 2.999431876038269329e-02 3.001343351952539401e-02 3.000823964225809992e-02 3.001069019973086338e-02 3.000620338067426507e-02 3.000431043246177404e-02 2.999418680192853306e-02 2.997349192538788232e-02 3.001139089562514586e-02 3.001741508885333656e-02 3.000196345212716512e-02 3.000476728362591258e-02 2.998274882259766710e-02 2.998852247242511648e-02 2.998607298264448218e-02 2.999735158319843248e-02 3.001548072346771345e-02 3.002280421397497331e-02 3.003671497382778138e-02 3.001704209816470625e-02 3.000867984502098018e-02 3.000353073373059759e-02 2.997534062508677710e-02 3.000563057890533181e-02 2.999445485695868135e-02 2.997884832850441009e-02 3.000087911923630946e-02 3.002443265567234648e-02 2.999521872024044425e-02 2.999590156884765144e-02 3.000620538667089082e-02 2.999437350656738305e-02 2.998385886977375167e-02 3.000861932353939693e-02 3.000970408624095004e-02 3.001855987046370133e-02 3.001531730790359814e-02 2.999352810547053008e-02 3.000631932481007472e-02 2.998501968604292550e-02 2.999016078609238051e-02 2.997776037777652794e-02 3.001298883115434760e-02 3.000364149803861485e-02 2.997873500882458631e-02 3.000931980892061063e-02 2.999780925298548701e-02 3.000180173448289619e-02 3.001129467034339277e-02 3.002104505562537551e-02 2.999576160645971157e-02 2.999747677433092785e-02 2.997376955685485123e-02 2.998754323036714742e-02 2.999895115817070856e-02 2.998792000621231663e-02 2.999719495729638932e-02 2.998961846607724538e-02 2.998423513554389699e-02 3.001186784613060765e-02 2.999011903924136274e-02 2.998872236937222616e-02 3.001474555792957299e-02 2.999617242530513289e-02 3.000564081937373909e-02 2.999869495758701946e-02 3.000315964355750389e-02 2.999452924417494309e-02 2.998901554326634245e-02 2.999435042685460323e-02 3.001548074055467377e-02 3.001372983799550920e-02 3.000975937839613777e-02 3.002325020972289316e-02 3.001022884418350078e-02 3.000883279934487419e-02 3.000764424374122163e-02 3.001945346236158108e-02 3.000605502994749263e-02 3.000911579307700972e-02 3.000627009641731319e-02 2.999588010647008529e-02 2.999022185639407465e-02 3.000432054933399248e-02 3.001571084072948009e-02 3.000233128472493474e-02 3.000027540575808324e-02 3.000653991280140959e-02 2.999381907775237194e-02 2.997700497411280585e-02 3.000732987733920054e-02 3.001613079135598966e-02 3.001256683218646998e-02 3.000174973756014954e-02 2.998913763637259949e-02 3.000119542413368437e-02 2.999169202216032948e-02 2.998309773113841045e-02 3.001530078702541182e-02 3.001627349747726728e-02 3.000940060573037069e-02 2.999304340825847959e-02 2.999167102524357559e-02 2.999233296818924061e-02 3.000646052595928870e-02 3.002428950310529962e-02 3.002251542777507193e-02 2.999466622012902234e-02 2.996429454540265255e-02 2.999275737116596091e-02 2.998494160698798525e-02 3.000278943011685379e-02 2.999179486420326668e-02 2.999051408668119284e-02 2.999942031503226303e-02 3.000397378967600837e-02 3.001403038925345990e-02 2.999070460595693738e-02 2.999683646909253459e-02
2.000000000000000000e+00 1.227476745289742960e-01 6.062465837866938545e-03 1.229999999999999982e-01 1.229902054419477475e-01 1.229630712229477785e-01 1.230379929346185064e-01 1.229752462538808849e-01 1.220755228639261863e-01 1.229861383503313282e-01 1.220981680283801940e-01 1.229291013203253902e-01 1.230392520267928474e-01 1.230284685104592740e-01 1.220200042336677115e-01 1.230348321916622800e-01 1.230310707058444586e-01 1.221339362331460843e-01 1.219973877007337754e-01 1.229687672710671337e-01 1.220410666155769125e-01 1.229304438599357202e-01 1.229863627035460288e-01 1.219618966493227902e-01 1.229541485624160158e-01 1.219966602698294156e-01 1.229505804514873513e-01 1.230076861463690607e-01 1.220780169692614048e-01 1.220421741306765562e-01 1.220402645575088124e-01 1.229898188160350458e-01 1.230709672912363856e-01 1.229552862354039711e-01 1.228815121890138168e-01 1.228704835800202566e-01 1.230035678754038408e-01 1.229769770614442953e-01 1.229104168597072860e-01 1.229494643316351304e-01 1.229651344763132564e-01 1.229438463094832679e-01 1.230095353748222597e-01 1.229378230330958333e-01 1.229278265626699562e-01 1.220614957930406391e-01 1.220941070150600022e-01 1.230506884746619956e-01 1.229295084698300983e-01 1.229763701863072489e-01 1.229338745725030435e-01 1.230479281372409972e-01 1.230332581809510661e-01 1.229687185475579897e-01 1.229631435928594529e-01 1.229849421612558419e-01 1.229377891428595354e-01 1.229578447861675999e-01 1.229123519520522734e-01 1.229287505381893575e-01 1.230318927380258942e-01 1.230384109479125132e-01 1.229684979093535468e-01 1.229587058425101048e-01 1.229982640714333136e-01 1.229857968879338459e-01 1.230162333703590100e-01 1.230335512492825301e-01 1.229395923690429077e-01 1.228133572781554272e-01 1.220073436918597681e-01 1.219965213570814999e-01 1.229898802352041021e-01 1.230107428069991404e-01 1.229590497780616298e-01 1.229692340988552957e-01 1.229348241192622648e-01 1.220478555790426578e-01 1.230335940203277495e-01 1.220421793169569613e-01 1.229373126994186549e-01 1.229615216808066236e-01 1.229605922384666289e-01 1.229178120673770636e-01 1.228464658190899228e-01 1.230117550496529766e-01 1.230731671218294188e-01 1.230059762377061494e-01 1.230715474165862966e-01 1.221094649322042452e-01 1.230372941381578933e-01 1.220457937821013555e-01 1.229737426270318679e-01 1.229117377071484718e-01 1.229988644767472522e-01 1.229690757461064793e-01 1.220221261336497803e-01 1.221113804359559574e-01 1.229795106409539707e-01 1.220649603707972264e-01 1.220565652027634229e-01 1.220656689309299464e-01 1.221097749103100261e-01 1.230366400575499536e-01 1.230182134348445228e-01 1.229597141665032950e-01 1.230233348005119881e-01 1.230039888410381504e-01 1.229816971503893130e-01 1.230149018749285977e-01 1.229767069175690258e-01 1.220546296460699454e-01 1.230337825332582236e-01 1.230438298188965274e-01 1.230254338607644493e-01 1.230176727730932784e-01 1.229761658879069963e-01 1.228913168940903300e-01 1.230467026720630935e-01 1.220708213613369009e-01 1.230080501537213766e-01 1.230195458628662308e-01 1.229292701726504289e-01 1.229529421369429665e-01 1.229428992288423839e-01 1.229891414911135905e-01 1.220629549421020504e-01 1.230934972772973895e-01 1.221493075602329698e-01 1.220693045325364767e-01 1.230355873645860160e-01 1.220143583171711121e-01 1.228988965628557833e-01 1.230230853735118646e-01 1.229772649135305873e-01 1.229132781468680741e-01 1.230036043888688702e-01 1.220993594664008808e-01 1.229803967529858183e-01 1.229831964322753712e-01 1.220252352391282963e-01 1.229769313769262518e-01 1.229338213660723933e-01 1.230353392265115253e-01 1.230397867535878986e-01 1.220754768065523826e-01 1.220622903854746283e-01 1.229734652324291633e-01 1.230259092317212977e-01 1.229385807127760105e-01 1.229596592229787455e-01 1.229088175488837614e-01 1.230532542077328317e-01 1.230149301419583147e-01 1.229128135361808039e-01 1.220379005562771679e-01 1.229910179372405155e-01 1.220073270535637772e-01 1.220459316593964644e-01 1.220855832262098539e-01 1.229826225864848188e-01 1.229896547747567903e-01 1.228924551831048761e-01 1.229489272445052905e-01 1.219957347098942213e-01 1.229504720254704780e-01 1.229884993249151931e-01 1.229574357109166904e-01 1.229353640557299815e-01 1.220482625742644739e-01 1.229594880608895907e-01 1.229537617144261241e-01 1.230604567875112354e-01 1.229843069437510372e-01 1.230231273594323271e-01 1.229946493261067780e-01 1.230129545385857670e-01 1.229775699011172452e-01 1.229549637273920082e-01 1.229768367501038601e-01 1.220629550115890083e-01 1.230562923357815808e-01 1.230400134514241656e-01 1.220945508528731016e-01 1.220415972996795745e-01 1.230362144773139849e-01 1.230313413993390226e-01 1.220791107469370862e-01 1.220246237884531348e-01 1.220370708918464969e-01 1.220254983920970870e-01 1.229831084365273358e-01 1.229599096112157092e-01 1.230177142522693723e-01 1.230644144469908718e-01 1.230095582673722265e-01 1.230011291636081416e-01 1.230268136424857855e-01 1.229746582187847270e-01 1.229057203938625081e-01 1.230300524970907167e-01 1.220655985515143593e-01 1.220511051175583173e-01 1.230071739239965989e-01 1.229554643091276545e-01 1.230049012389481111e-01 1.229659372908573634e-01 1.229307006976674832e-01 1.220622232005700025e-01 1.220661788897408895e-01 1.230385424834945229e-01 1.229714779738597663e-01 1.229658512034986773e-01 1.229685651695758830e-01 1.220262728055677703e-01 1.220987773126282205e-01 1.220915627396186309e-01 1.229781315025289812e-01 1.228536076361508717e-01 1.229703052217804432e-01 1.229382605886507468e-01 1.230114366634791068e-01 1.229663589432334059e-01 1.229611077553928872e-01 1.219976426144645382e-01 1.230162925376716426e-01 1.220570569162974239e-01 1.229618888844234426e-01 1.229870295232793898e-01
3.000000000000000000e+00 5.140309043457634841e-01 3.607950553979181064e-03 5.140000000000000124e-01 5.139590698956190140e-01 5.138456797446760982e-01 5.141587672227146966e-01 5.138965575162176558e-01 5.143181864922792279e-01 5.139420740818724243e-01 5.144135931687492391e-01 5.147031478046144581e-01 5.141640287948904264e-01 5.141189659705370785e-01 5.140842801320097966e-01 5.141455589147513328e-01 5.141298401853988675e-01 5.145642887199761706e-01 5.139889940834193593e-01 5.138694827425082101e-01 5.141730183639879881e-01 5.137093345041215953e-01 5.139430116229484202e-01 5.138394662110812305e-01 5.138083931795270898e-01 5.139859293335435897e-01 5.137934825371097691e-01 5.140321193433633473e-01 5.143286944442653219e-01 5.141776844521946943e-01 5.141696392013076489e-01 5.139574542393660073e-01 5.142965625015893938e-01 5.138131473577044472e-01 5.145038924987164197e-01 5.144577158025238628e-01 5.140149096581916321e-01 5.139037903218078851e-01 5.146249161199126787e-01 5.137888184265078095e-01 5.138543017953253189e-01 5.137653414884097991e-01 5.140398470134849296e-01 5.137401710488720408e-01 5.136983971805882954e-01 5.142590888329744425e-01 5.143964836536134566e-01 5.142118201298883085e-01 5.137054256381518025e-01 5.139012542744871848e-01 5.137236709777769361e-01 5.142002850613160980e-01 5.141389813415353505e-01 5.138692791336976207e-01 5.138459821685347206e-01 5.139370753730528874e-01 5.137400294262585154e-01 5.138238391877247846e-01 5.136337309215842639e-01 5.137022583465798986e-01 5.141332753442707793e-01 5.141605140424961862e-01 5.138683571171359654e-01 5.138274374231722730e-01 5.139927457944448719e-01 5.139406471577072644e-01 5.140678370110938200e-01 5.141402060335871216e-01 5.137475648592524369e-01 5.142185284410573098e-01 5.140309398165239241e-01 5.139853440781958493e-01 5.139577109015845968e-01 5.140448927056712192e-01 5.138288746823063136e-01 5.138714335513140385e-01 5.147271091172362922e-01 5.142016210461304304e-01 5.141403847678737149e-01 5.141777063025891881e-01 5.137380384349690132e-01 5.138392044222326316e-01 5.138353204111532069e-01 5.136565479888764996e-01 5.143571536327750104e-01 5.140491227278181086e-01 5.143057552895962115e-01 5.140249738713899008e-01 5.142989867652467684e-01 5.134602910673834453e-01 5.141558470488873933e-01 5.141929344590171480e-01 5.138902740674339276e-01 5.136311640770269138e-01 5.139952548052689751e-01 5.138707718170628658e-01 5.140932199401310188e-01 5.134683456036508442e-01 5.139143778004092722e-01 5.142736854966374338e-01 5.142383156903311825e-01 5.142766707417868455e-01 5.144624942942569445e-01 5.141531137364282467e-01 5.140761114269112309e-01 5.138316510697780171e-01 5.140975129062045346e-01 5.140166688153952057e-01 5.139235149211389686e-01 5.140622728757179294e-01 5.139026614278900951e-01 5.142301609678684438e-01 5.141411725373554731e-01 5.141831587553887806e-01 5.141062845888856314e-01 5.140738520761782837e-01 5.139004005397088681e-01 5.145449447191586811e-01 5.141951640117108369e-01 5.142983785223538273e-01 5.140336404797787306e-01 5.140816794594572636e-01 5.147038547879265735e-01 5.138033516942169809e-01 5.137613837693087993e-01 5.139546237921330807e-01 5.142652363954135497e-01 5.143907121994378828e-01 5.136278260524550499e-01 5.142919879485553514e-01 5.141487146780261419e-01 5.140604932379175818e-01 5.135775027098201662e-01 5.140964705852446581e-01 5.139049932158921141e-01 5.136376013617088843e-01 5.140150622429154881e-01 5.144186128338528174e-01 5.139180807401195761e-01 5.139297802129230153e-01 5.141063189582946169e-01 5.139035994125210616e-01 5.137234486354569363e-01 5.141476777433083845e-01 5.141662633442616315e-01 5.143179924472780495e-01 5.142624365420815913e-01 5.138891148737283476e-01 5.141082710984126170e-01 5.137433372875355175e-01 5.138314214683827874e-01 5.136189611392378840e-01 5.142225419737778136e-01 5.140623909997281693e-01 5.146349509848220372e-01 5.141596793928399078e-01 5.139624652011514083e-01 5.140308697174735819e-01 5.141935153518834012e-01 5.133598704511939115e-01 5.139273821906764628e-01 5.139567687335365731e-01 5.145497107260083025e-01 5.137865740136238202e-01 5.139820298433248613e-01 5.137930294397708986e-01 5.139519402683447868e-01 5.138221297187901548e-01 5.137298953223188303e-01 5.142033357637044721e-01 5.138307062056687302e-01 5.138067765952440968e-01 5.142526405591933969e-01 5.139344208868946717e-01 5.140966460386033887e-01 5.139776402733242655e-01 5.140541352262852914e-01 5.139062677168639848e-01 5.138117996412966404e-01 5.139032039801088025e-01 5.142652366881700354e-01 5.142352378909897936e-01 5.141672106831871591e-01 5.143983535932522555e-01 5.141752541970106005e-01 5.141513352954422134e-01 5.141309713760995326e-01 5.133326542063829656e-01 5.141037428464336756e-01 5.141561839213860674e-01 5.141074276519499442e-01 5.139294124908541095e-01 5.138324678062184958e-01 5.140740254119223751e-01 5.142691790711650945e-01 5.140399426782872316e-01 5.140047186186551542e-01 5.141120505059975088e-01 5.138941001988239776e-01 5.136060185564660374e-01 5.141255852317448971e-01 5.142763742252326464e-01 5.142153117247948435e-01 5.140299788368638545e-01 5.138138915031837950e-01 5.140204816001571198e-01 5.138576566463469719e-01 5.137104077935047419e-01 5.142621534843686559e-01 5.142788192567772088e-01 5.141610637115137106e-01 5.138808103948285799e-01 5.138572968991733658e-01 5.138686381883089682e-01 5.141106903447690835e-01 5.144161601532041272e-01 5.143857643292129023e-01 5.139086145715439091e-01 5.143870563627455095e-01 5.138759096259768455e-01 5.137419995330607669e-01 5.140477922360021656e-01 5.138594186733493885e-01 5.138374746851377406e-01 5.139900680642194297e-01 5.140680842631156766e-01 5.142403873358760702e-01 5.138407389153955007e-01 5.139457981704520506e-01
4.000000000000000000e+00 1.821072367174167095e+00 5.184995379793372501e-03 1.821000000000000174e+00 1.820854992762494629e+00 1.821452973725291580e+00 1.820562171878095103e+00 1.820633523807456022e+00 1.821126652560210335e+00 1.820794779967100485e+00 1.821464473865999523e+00 1.820949777281567927e+00 1.821581121469835640e+00 1.821421472825579979e+00 1.821298587782859801e+00 1.821515686349731933e+00 1.821459998010916959e+00 1.820996967279448597e+00 1.820961008221608335e+00 1.821537349332392752e+00 1.820612633117622670e+00 1.820969664331730575e+00 1.820798101489084164e+00 1.821430948320214238e+00 1.821320802282292650e+00 1.820950150420978186e+00 1.821267947826097355e+00 1.821113792459658987e+00 1.821163859705375199e+00 1.820629155064191318e+00 1.821600998026422724e+00 1.820849268813006683e+00 1.821050085122359441e+00 1.821337654641512538e+00 1.821243875777009524e+00 1.821080419238836789e+00 1.821052821960247092e+00 1.821658961023995715e+00 1.821672275896312199e+00 1.821251414733652041e+00 1.821483536714168627e+00 1.821168194925841588e+00 1.821141170061392867e+00 1.821078972083744585e+00 1.820930894286054258e+00 1.820917396256835907e+00 1.821403891536141018e+00 1.820750024584429472e+00 1.820955808390491537e+00 1.820650163489963447e+00 1.821020483504882659e+00 1.820709180567305907e+00 1.820492112921389793e+00 1.820536881911407390e+00 1.821454045741381700e+00 1.820777070533714515e+00 1.821078470067398758e+00 1.821375554474775171e+00 1.820701668753164526e+00 1.820944581142935226e+00 1.820471908806561956e+00 1.821568669399582729e+00 1.820533615389697601e+00 1.821388309309377451e+00 1.820974299789268835e+00 1.820789724657947417e+00 1.821240333068485873e+00 1.821496722154012149e+00 1.821105181271513551e+00 1.821232225002890281e+00 1.821109613630136348e+00 1.820948076977421337e+00 1.820850178116314444e+00 1.821159045947523758e+00 1.821393404029498342e+00 1.821544264456214313e+00 1.821034549148746740e+00 1.820713911097193494e+00 1.821497355374120719e+00 1.821629578165398833e+00 1.821071412506835685e+00 1.820430333176819904e+00 1.821416252508017974e+00 1.820782549485861601e+00 1.820724448684560848e+00 1.821174032076569471e+00 1.821082635461216181e+00 1.821088477470429901e+00 1.821058669090951598e+00 1.820632104194094270e+00 1.821552135167361808e+00 1.820683153142823585e+00 1.821051168866455683e+00 1.821691852358793939e+00 1.820983188716721601e+00 1.821541918775658520e+00 1.821330259748985547e+00 1.820660664041015231e+00 1.820696657538026120e+00 1.820969080941401419e+00 1.820843841549421693e+00 1.820979651264692523e+00 1.821637625711182373e+00 1.820542153697080501e+00 1.821269647681722503e+00 1.820403573147987730e+00 1.821345468875872564e+00 1.821059054305125935e+00 1.820729028543568440e+00 1.821220620441016180e+00 1.820655148755229158e+00 1.820814966851207251e+00 1.821500146285067068e+00 1.821648895123663348e+00 1.820376338427571739e+00 1.821261643250429385e+00 1.821646945103792881e+00 1.821389192666070134e+00 1.820691047667925666e+00 1.821056515390435671e+00 1.821119181544118781e+00 1.821289374116092707e+00 1.820952278492431686e+00 1.821302931491951771e+00 1.821154165812608250e+00 1.820839241100144834e+00 1.820939163890374912e+00 1.821383455647815008e+00 1.821226151246424507e+00 1.821033887288658892e+00 1.821526866592773519e+00 1.821214315537447392e+00 1.821501531984439870e+00 1.821341776139553614e+00 1.820663409817391942e+00 1.821714683428784509e+00 1.821053362537643938e+00 1.821482247777455488e+00 1.820709776318594875e+00 1.820751225229052306e+00 1.821376666970923042e+00 1.820658471848639826e+00 1.821019695357592560e+00 1.821523192938841351e+00 1.820588714565284372e+00 1.821125965474797770e+00 1.820929250012818246e+00 1.820607156002060911e+00 1.821383583015971475e+00 1.821090195599007089e+00 1.821402431742010553e+00 1.820649313610294584e+00 1.820787989090030479e+00 1.821221038930943781e+00 1.820708506202613375e+00 1.821565712401481241e+00 1.820867021656219054e+00 1.821109365283111625e+00 1.821685586489843800e+00 1.821276733374606049e+00 1.820742729512104585e+00 1.820846840201887362e+00 1.821406063404880094e+00 1.821243458857631392e+00 1.820936335300962217e+00 1.821266341710627845e+00 1.820829733907890935e+00 1.821369494839757852e+00 1.821042547232032849e+00 1.821720378260127671e+00 1.821399896316592049e+00 1.821315071899873184e+00 1.820894563847727632e+00 1.820767666216021707e+00 1.821342397735985941e+00 1.820920783925531694e+00 1.821191790363940521e+00 1.820667925121418840e+00 1.821332877327709543e+00 1.820657070910074227e+00 1.820939164926983489e+00 1.820832943505060975e+00 1.820592068956032428e+00 1.820409737716198073e+00 1.821620890841938456e+00 1.820535856493589399e+00 1.820463750786967427e+00 1.821180176716602706e+00 1.820367338483481312e+00 1.820553024780005247e+00 1.821380594852531010e+00 1.820749922462733927e+00 1.820406466683120339e+00 1.821262257344573365e+00 1.820953124337588491e+00 1.821141508982803581e+00 1.821016717129515516e+00 1.821396972707045592e+00 1.820624818019568991e+00 1.821602668926921575e+00 1.821444923554489392e+00 1.820978601342263303e+00 1.820762387819312433e+00 1.821106209069901061e+00 1.821340292449029175e+00 1.821072562244914650e+00 1.821495428812537343e+00 1.820973468871139200e+00 1.820928247746208317e+00 1.820987258846954226e+00 1.820570303414309254e+00 1.820577734881289711e+00 1.820494431232285271e+00 1.821534355601359900e+00 1.821392153925728730e+00 1.821473563188388045e+00 1.821365935951687831e+00 1.821676061769169408e+00 1.820830298542301051e+00 1.821560131008812755e+00 1.821085453597736992e+00 1.821169318408093041e+00 1.820501948257138514e+00 1.821423888864437846e+00 1.820964813122458281e+00 1.820241076573677841e+00 1.820851176948043548e+00 1.821435459735117890e+00 1.820807973673916891e+00
5.000000000000000000e+00 4.821165931293820428e+00 1.425051760216449782e-02 4.820999999999999730e+00 4.822615941841577047e+00 4.820552271845969017e+00 4.821488828820009509e+00 4.821029572652143713e+00 4.823308973352863127e+00 4.820456690950791767e+00 4.821876832465046725e+00 4.819220541191943319e+00 4.819537530610471521e+00 4.821115595287915667e+00 4.821790495168131407e+00 4.820364685622931411e+00 4.821217567497320111e+00 4.822288285533317342e+00 4.821896749942117033e+00 4.821075499278640208e+00 4.822622804538494456e+00 4.820272607613576454e+00 4.822465262757743787e+00 4.821493668358064255e+00 4.821202101760426295e+00 4.821867998533749144e+00 4.821062191199378510e+00 4.820301196955274925e+00 4.820080391319116586e+00 4.821666223851319266e+00 4.822591110096311695e+00 4.821600864479032467e+00 4.822780994664710441e+00 4.820247075017219274e+00 4.820352002536517411e+00 4.819919376208111395e+00 4.821139843311559758e+00 4.821097425937271197e+00 4.819487321255026657e+00 4.820018837456459870e+00 4.820633158087662906e+00 4.820798136184047067e+00 4.820373662655636160e+00 4.821561449688245737e+00 4.820169979770383861e+00 4.822429587888983349e+00 4.822717227094869941e+00 4.819985504641637775e+00 4.821235356572849184e+00 4.821073634458321600e+00 4.820407130594976941e+00 4.820952799089178065e+00 4.821303288066538073e+00 4.820773665335972957e+00 4.820555108981856129e+00 4.821409683752647446e+00 4.820560626309037033e+00 4.821347035802327596e+00 4.820562486314635464e+00 4.820206210127539137e+00 4.821249780465730161e+00 4.821505209503563094e+00 4.820765015600835923e+00 4.821380799011595109e+00 4.821931945954889720e+00 4.821968131194891427e+00 4.821636268930900471e+00 4.821314772532860005e+00 4.820631333299950860e+00 4.819675411232977602e+00 4.822515269954601891e+00 4.822862479550853010e+00 4.821603272310197141e+00 4.820420978290535174e+00 4.820394618128562847e+00 4.821793626494138785e+00 4.819444893520996587e+00 4.820890295372183942e+00 4.820316175479344878e+00 4.821666428751906430e+00 4.820541944303220916e+00 4.820491524754874746e+00 4.820455087592569576e+00 4.819777297568776930e+00 4.819975967828683316e+00 4.821460740604690542e+00 4.819865414844327844e+00 4.822234287953000020e+00 4.819801982973139332e+00 4.822322967568524632e+00 4.821461445088789155e+00 4.822809605110743192e+00 4.820970625589818148e+00 4.819539113508756856e+00 4.820955493027629934e+00 4.820787668680694082e+00 4.820874163640917587e+00 4.822398614265867245e+00 4.820196917073488407e+00 4.820565402184434411e+00 4.821234325509155205e+00 4.823044703263078326e+00 4.821334309368552340e+00 4.820435515750676636e+00 4.821713877799881587e+00 4.820420664316088732e+00 4.819914230924124077e+00 4.821156343110934550e+00 4.821932372051329629e+00 4.820583959651673744e+00 4.821086835418844529e+00 4.821157871019762453e+00 4.820323561201393048e+00 4.820717202416767044e+00 4.822997090053709357e+00 4.820692542815524284e+00 4.821065625296646395e+00 4.818738385204858865e+00 4.821830137230439739e+00 4.822798024275769535e+00 4.822315592205239199e+00 4.820765943569229606e+00 4.819227160752197925e+00 4.821154796150210586e+00 4.820760999843145100e+00 4.819574487700547749e+00 4.822187081429865074e+00 4.820661596623915024e+00 4.821893977131820108e+00 4.821737529035190484e+00 4.822394851094871093e+00 4.821567388910507290e+00 4.821033950534790335e+00 4.820904646344122746e+00 4.821108710675158449e+00 4.819599516279225782e+00 4.821141274461274939e+00 4.821923884500978197e+00 4.821231488966647660e+00 4.821341245499445982e+00 4.822997412484234303e+00 4.820095822505377825e+00 4.819405582334967519e+00 4.821384837981996796e+00 4.821559123189379292e+00 4.822981952521168125e+00 4.820459959649317838e+00 4.821959535089479054e+00 4.822015515496978821e+00 4.820591664859501080e+00 4.820418510351248464e+00 4.821423127425725319e+00 4.820086006283387903e+00 4.820210021832811442e+00 4.819581298252033186e+00 4.821497382633245010e+00 4.818648093004568977e+00 4.822289598789217813e+00 4.822815053524182716e+00 4.822380537435289050e+00 4.822318607598506723e+00 4.821594433527457646e+00 4.818783019090364661e+00 4.820997366668691164e+00 4.821831416156639349e+00 4.822057536998939575e+00 4.821549136136106029e+00 4.821330995396351682e+00 4.821465009795458556e+00 4.819905976088575628e+00 4.818412458971446100e+00 4.820187308837096118e+00 4.822369119640685042e+00 4.821384781160712230e+00 4.821906479673359947e+00 4.821790236182819989e+00 4.822507860041143068e+00 4.821120667180385233e+00 4.821234065505786148e+00 4.821091925276429713e+00 4.822487238982450464e+00 4.821205469643345509e+00 4.821568006795646788e+00 4.821733983681496305e+00 4.821643434298815478e+00 4.820418842001432225e+00 4.821228175161089702e+00 4.822124874504014613e+00 4.821973043312562268e+00 4.821464604087705830e+00 4.822807771696879797e+00 4.821337795779958135e+00 4.819428652322527817e+00 4.821694312277972294e+00 4.821523684715845803e+00 4.821374637455297041e+00 4.822044266885516350e+00 4.821050745990093311e+00 4.821006519764064358e+00 4.820302399837339102e+00 4.822177911288409113e+00 4.822591680477861686e+00 4.821018652143552963e+00 4.820281124501330616e+00 4.821253694007501700e+00 4.822192144505754285e+00 4.821664354095975824e+00 4.820282678576018220e+00 4.821457816422515030e+00 4.821614066144764621e+00 4.820510050633822097e+00 4.821881611934355050e+00 4.820661256124151528e+00 4.820767652420284044e+00 4.822713351883538557e+00 4.820900084548608078e+00 4.821615977700676403e+00 4.820142861574733928e+00 4.819257372718926291e+00 4.821785638775449634e+00 4.821578610403667753e+00 4.820448168438774772e+00 4.821680887668412296e+00 4.821474981335446053e+00 4.822281818056790570e+00 4.822638720460590278e+00 4.822254215873390315e+00 4.820505920330811378e+00 4.821491515132139583e+00
6.000000000000000000e+00 3.223091024629902695e-03 2.635374889906845066e-05 3.237415873628257841e-03 3.222648212448559878e-03 3.222023962620027600e-03 3.224188743141289618e-03 3.222133809156378474e-03 3.225062157064471999e-03 3.222725908779149658e-03 3.225831082818929850e-03 3.221099644204389757e-03 3.224086934156378693e-03 3.223920824759945146e-03 3.223572530864197722e-03 3.224180705589849236e-03 3.223674339849108214e-03 3.226530349794238736e-03 3.222991147976680525e-03 3.222278485082304481e-03 3.224049425582990389e-03 3.221169302983539155e-03 3.222811642661179820e-03 3.222042716906721536e-03 3.221817665466392144e-03 3.222487461419753108e-03 3.221721214849108429e-03 3.223248349622771011e-03 3.225016610939643313e-03 3.223888674554183618e-03 3.224065500685871152e-03 3.222760738168724357e-03 3.225086269718792711e-03 3.221750685871056352e-03 3.219912765775034217e-03 3.219738618827160288e-03 3.223192086762688771e-03 3.222246334876543387e-03 3.220670974794238514e-03 3.221978416495198914e-03 3.221758723422496733e-03 3.221654235253772203e-03 3.223390346364883412e-03 3.221137152777777627e-03 3.221324695644718714e-03 3.224577224794238518e-03 3.225297925240054944e-03 3.224542395404663819e-03 3.221091606652949375e-03 3.222618741426611956e-03 3.221091606652949375e-03 3.224124442729766997e-03 3.224204818244169948e-03 3.222176676097393555e-03 3.221916795267489898e-03 3.222838434499314137e-03 3.221536351165980947e-03 3.221956983024691374e-03 3.220713841735253595e-03 3.221244320130315329e-03 3.223805619855967062e-03 3.224349494170095955e-03 3.221868569958847607e-03 3.222015925068587219e-03 3.222779492455418292e-03 3.222468707133059173e-03 3.223701131687242965e-03 3.223813657407407444e-03 3.221322016460905543e-03 3.218160579561042678e-03 3.223358196159121884e-03 3.222712512860082500e-03 3.222752700617283975e-03 3.223526984739369036e-03 3.221839098936899685e-03 3.222289201817558468e-03 3.221249678497942540e-03 3.224470057441700815e-03 3.223733281893004059e-03 3.224662958676268679e-03 3.221297903806584397e-03 3.221898040980795529e-03 3.221873928326474817e-03 3.220952289094650145e-03 3.218800904492455286e-03 3.223138503086419703e-03 3.224866576646090530e-03 3.223020618998628448e-03 3.225072873799725553e-03 3.225991833847736620e-03 3.224089613340191864e-03 3.224127121913580168e-03 3.222433877743484040e-03 3.220826367455418508e-03 3.223036694101508778e-03 3.222425840192044092e-03 3.223492155349794337e-03 3.226270468964334646e-03 3.222168638545953173e-03 3.225142532578875385e-03 3.224523641117969883e-03 3.224620091735253598e-03 3.226200810185185248e-03 3.223931541495198699e-03 3.223476080246913573e-03 3.221739969135802364e-03 3.223743998628258046e-03 3.223095636145404622e-03 3.222348143861453879e-03 3.223457325960219638e-03 3.222466027949245568e-03 3.224362890089163113e-03 3.224210176611797159e-03 3.224153913751714486e-03 3.223639510459533515e-03 3.223738640260630835e-03 3.222374935699588629e-03 3.220204796810699401e-03 3.224282514574760162e-03 3.224882651748971294e-03 3.223374271262002648e-03 3.223585926783264881e-03 3.221147869513031614e-03 3.221756044238683128e-03 3.221421146262002863e-03 3.222666966735253814e-03 3.224700467249656984e-03 3.225257737482853035e-03 3.226795588991769603e-03 3.224930877057613152e-03 3.223733281893004059e-03 3.223336762688614344e-03 3.220526298868312941e-03 3.223588605967078052e-03 3.222516932441701031e-03 3.220614711934156275e-03 3.223090277777777846e-03 3.225664973422496737e-03 3.222522290809327807e-03 3.222616062242798351e-03 3.223867241083676078e-03 3.222348143861453879e-03 3.221327374828532319e-03 3.224022633744856071e-03 3.223961012517146622e-03 3.225161286865569320e-03 3.224850501543209767e-03 3.222214184670781859e-03 3.223827053326474602e-03 3.221086248285322164e-03 3.222168638545953173e-03 3.220654899691358184e-03 3.224421832133058958e-03 3.223315329218106803e-03 3.220901384602194682e-03 3.223521626371742260e-03 3.223154578189300467e-03 3.223360875342935489e-03 3.223899391289437606e-03 3.225595314643346905e-03 3.222117734053498144e-03 3.222680362654320972e-03 3.220102987825788909e-03 3.221742648319615970e-03 3.222902734910836758e-03 3.221841778120713290e-03 3.222492819787379885e-03 3.222163280178326396e-03 3.221348808299039860e-03 3.224491490912208356e-03 3.221951624657064597e-03 3.221340770747599478e-03 3.225172003600822873e-03 3.222589270404664034e-03 3.223623435356652751e-03 3.223151899005486862e-03 3.223328725137174396e-03 3.222407085905349723e-03 3.221806948731138591e-03 3.222495498971193490e-03 3.224754050925926051e-03 3.224641525205761139e-03 3.223982445987654162e-03 3.225675690157750290e-03 3.224183384773662408e-03 3.223768111282578758e-03 3.223856524348422525e-03 3.224925518689986375e-03 3.223500192901234719e-03 3.223867241083676078e-03 3.223618076989025975e-03 3.222776813271605121e-03 3.222348143861453879e-03 3.223205482681755930e-03 3.224721900720164524e-03 3.222980431241426538e-03 3.223154578189300467e-03 3.223693094135802583e-03 3.222238297325103005e-03 3.220491469478737809e-03 3.223658264746227884e-03 3.224912122770919216e-03 3.224408436213991799e-03 3.223224236968449865e-03 3.222048075274348312e-03 3.223017939814814842e-03 3.222195430384087924e-03 3.221142511145404837e-03 3.224625450102880809e-03 3.225126457475994621e-03 3.224330739883402019e-03 3.222283843449931257e-03 3.222029320987654377e-03 3.222192751200274319e-03 3.223738640260630835e-03 3.225766782407407229e-03 3.225603352194787287e-03 3.222672325102880590e-03 3.218991126543209978e-03 3.222208826303155083e-03 3.221464013203017944e-03 3.223267103909464946e-03 3.222040037722907931e-03 3.222131129972565303e-03 3.222806284293552610e-03 3.223242991255144234e-03 3.224384323559670654e-03 3.222160600994513225e-03 3.222779492455418292e-03
