# vvf statistics with RF=500
# gcat file: /disk2/salam/Abacus/AbacusCosmos_720box_products/GCAT_derivative/AbacusCosmos_720box_planck_rockstar_halos_z0.100_Mr21_hod-sigma-neg_real-9.gcat.rsd_zz.1pz0.100by100
# stats order in row: stdvvf,p2.5,p16,p50,p84,p97.5,rho
# columns: numbers, mean, sigma,All, jnrealizations
0.000000000000000000e+00 1.482286679293683740e+00 5.369866329369899459e-03 1.482286941783674816e+00 1.482648631215395252e+00 1.482111007029813132e+00 1.482044872988818485e+00 1.482352659553709984e+00 1.482802676237563677e+00 1.482233206071241316e+00 1.482512355410309235e+00 1.481257413761301045e+00 1.481104780974037416e+00 1.482050485954885977e+00 1.482921890588875691e+00 1.482631832316622322e+00 1.482502692806190847e+00 1.482176709466498155e+00 1.482569578248927433e+00 1.482400655630937925e+00 1.482576236512809897e+00 1.482402132864714117e+00 1.482715137185623533e+00 1.482492078026742099e+00 1.482581983393522318e+00 1.482893802979310838e+00 1.482152424239016719e+00 1.482426071201545126e+00 1.482037358381473657e+00 1.482834090248933645e+00 1.482624413858493639e+00 1.482009625754238336e+00 1.482595092944332782e+00 1.482064295593443326e+00 1.482196296911599154e+00 1.481630130426560443e+00 1.482573116607761143e+00 1.482435765828461927e+00 1.482000547277857683e+00 1.481552956804867538e+00 1.482400791682370711e+00 1.482341318258011853e+00 1.481901603015341129e+00 1.482727856564144853e+00 1.482224434733858009e+00 1.482258659306813664e+00 1.482476242182465320e+00 1.481998202858822111e+00 1.481892157641767183e+00 1.482442445871087866e+00 1.481776232068730659e+00 1.482661836758465856e+00 1.482371716817463936e+00 1.482012616949944794e+00 1.481569082655922021e+00 1.482313982032720023e+00 1.481890891405187372e+00 1.482280826401501939e+00 1.481600970593487610e+00 1.482038816850506091e+00 1.481950149716372511e+00 1.482251595708615977e+00 1.482354847377598928e+00 1.481651721322206239e+00 1.482600838039576097e+00 1.482653831824518154e+00 1.482704834283022910e+00 1.482548259830061665e+00 1.482256928764066783e+00 1.481518838179543662e+00 1.483027166577185252e+00 1.482737968645356563e+00 1.482598253362208851e+00 1.482196796239758640e+00 1.482452224146334041e+00 1.482728250726580654e+00 1.481958124435907465e+00 1.482077696686368240e+00 1.482291588502083757e+00 1.482418203435238446e+00 1.482264232309004282e+00 1.481978987522574620e+00 1.482267258952850053e+00 1.481880709494866055e+00 1.481894809779958688e+00 1.482417211189633210e+00 1.480812835814276029e+00 1.482615500661196739e+00 1.481991372521292982e+00 1.482665045862942677e+00 1.482173623062993384e+00 1.482568298524563843e+00 1.482209753560736587e+00 1.482089203209558947e+00 1.482320434612188542e+00 1.482297679037992921e+00 1.482376691341724229e+00 1.482613714912025316e+00 1.481923681917497904e+00 1.482031215985145423e+00 1.482748325574032799e+00 1.482306891613548894e+00 1.482245902944131055e+00 1.481960749906454433e+00 1.482310194097432587e+00 1.481718380993659823e+00 1.482164339941833830e+00 1.481938127486942536e+00 1.482278470030031325e+00 1.482484037319774739e+00 1.482535713626513818e+00 1.482345287702194314e+00 1.481993978316518579e+00 1.482172570623435437e+00 1.482535887796149865e+00 1.482247439185701676e+00 1.482584165389333686e+00 1.481761447312207602e+00 1.482776851427251019e+00 1.482639744488841060e+00 1.482607648736099071e+00 1.482505341333875348e+00 1.481629838965207391e+00 1.482193581448187913e+00 1.482278382257599114e+00 1.481981583376151379e+00 1.482551666702538906e+00 1.482116301306330985e+00 1.482113648233567504e+00 1.482573341910016440e+00 1.482762274837862382e+00 1.482572289666896026e+00 1.482123131030931296e+00 1.482284196147639399e+00 1.482437803977544988e+00 1.481831318367415440e+00 1.482298321286101839e+00 1.482319677485169240e+00 1.482510929716132964e+00 1.482432237932107544e+00 1.482735358889466060e+00 1.481971946703426246e+00 1.481369543449118309e+00 1.481597403874687746e+00 1.482276189255036902e+00 1.482541348098105116e+00 1.482493126939185002e+00 1.482524228723544057e+00 1.482731205627385807e+00 1.482160737733482225e+00 1.482062226439453179e+00 1.482546873945296051e+00 1.482002009953431232e+00 1.482054952654207947e+00 1.482024878995102934e+00 1.482277129060061371e+00 1.481484461959824195e+00 1.482536338969899559e+00 1.482457397244199893e+00 1.482812354662739196e+00 1.482759357379879184e+00 1.482629819405373750e+00 1.481718620164982569e+00 1.482548879733529335e+00 1.482589805681715722e+00 1.482472451320078655e+00 1.482491419469072147e+00 1.482172888017140089e+00 1.481974237700833807e+00 1.481879561659319000e+00 1.481748040353784157e+00 1.482135464761417332e+00 1.482530176380977061e+00 1.482266251964864168e+00 1.482422256757853996e+00 1.481809027680267787e+00 1.482929333585938592e+00 1.482124079375975567e+00 1.482379966145888517e+00 1.482584486930550449e+00 1.482883359474713503e+00 1.482629961927202977e+00 1.482268020572530265e+00 1.482731146831039348e+00 1.482664109622803927e+00 1.482578653801734703e+00 1.482448440899357234e+00 1.482836674947974664e+00 1.482754761041698011e+00 1.482668617379243159e+00 1.482570713144377494e+00 1.482278922926937970e+00 1.481558885494878464e+00 1.482546165663101601e+00 1.482138917859755933e+00 1.482543038197627450e+00 1.482603363272618102e+00 1.482154098325285219e+00 1.481816728279156337e+00 1.482350332631932499e+00 1.482544063044890947e+00 1.482457561089097986e+00 1.482522371165660546e+00 1.481938977060957452e+00 1.482507339124407020e+00 1.482231652901628172e+00 1.482346674780048223e+00 1.482155379672819295e+00 1.482292860425347358e+00 1.482506671199243176e+00 1.482119656092247606e+00 1.482039872032398620e+00 1.482099500622132915e+00 1.482059336647505221e+00 1.482258991497648948e+00 1.482239804341288991e+00 1.482288380346013623e+00 1.481895528763518488e+00 1.481613071493186329e+00 1.482438524948901604e+00 1.482428943846636260e+00 1.482197014799719881e+00 1.482659681114242289e+00 1.482234727830614718e+00 1.482978923931894455e+00 1.482779563045952154e+00 1.482473012656772671e+00 1.481833294653160493e+00 1.481972361005790439e+00
1.000000000000000000e+00 1.999999982838603779e-02 1.528955255938778878e-04 2.000000000000000042e-02 1.999458966027463369e-02 1.999443999398855393e-02 2.000720065422363636e-02 1.999806967338033092e-02 2.001149904438449464e-02 1.999558072355147806e-02 2.001845415746479617e-02 1.998986790173626349e-02 2.000622204221535680e-02 2.000510299661184890e-02 2.000692916807421395e-02 2.000756714977722575e-02 2.000617941761691915e-02 2.002360437959656986e-02 1.999639191881979333e-02 1.999320495898991232e-02 2.000551690539001393e-02 1.998714861905913701e-02 1.999793477588684629e-02 1.999341543676558253e-02 1.999219608228675754e-02 2.000004094503215687e-02 1.999161321977532477e-02 2.000368173537876715e-02 2.001524595171624149e-02 2.000486647967019554e-02 2.000628764850475444e-02 1.999982908309585680e-02 2.000975977679552917e-02 1.999100183127499458e-02 1.997725420800798221e-02 1.997512434283251620e-02 2.000023031113614194e-02 1.999815689911081662e-02 1.997996952984038357e-02 1.999492548659802249e-02 1.998971923432275866e-02 1.998922329882033347e-02 1.999922035647281118e-02 1.998909978749360480e-02 1.998671953835892690e-02 2.001091367774619420e-02 2.001316681719253823e-02 2.000971418598675167e-02 1.998645031975723046e-02 1.999550998924952416e-02 1.998437367811291970e-02 2.000883491760832578e-02 2.000516485983945547e-02 1.999502857394773112e-02 1.999356256937777354e-02 1.999915765405485199e-02 1.998816355394194069e-02 1.999122082934927380e-02 1.998368664129887909e-02 1.998185817384052348e-02 2.000439722460051195e-02 2.001017844343528154e-02 1.999370908228563851e-02 1.999540517780244372e-02 1.999866758050559967e-02 1.999504531869631882e-02 2.000286036646897747e-02 2.000525885556267772e-02 1.999083482895323838e-02 1.996268651431576044e-02 1.999928452748915911e-02 1.999947538974103378e-02 2.000008585909141337e-02 2.000247609725697498e-02 1.999763376562213243e-02 1.999545353512353907e-02 1.998622265670402243e-02 2.001170422759806361e-02 2.000711022328204025e-02 2.000794446379073471e-02 1.998900815895727004e-02 1.999363607009338809e-02 1.999098875065513994e-02 1.998302419331148341e-02 1.997690553423680723e-02 2.000427127199076033e-02 2.001277521540874987e-02 2.000163175482962477e-02 2.001193815641835044e-02 2.002052709797446164e-02 2.000775284980586474e-02 2.000829682616788591e-02 1.999409939644251205e-02 1.998236862234691394e-02 1.999852208768282749e-02 1.999307304998017981e-02 2.000725825096304894e-02 2.001989121400902724e-02 1.999379349164601138e-02 2.000954705020844757e-02 2.001064823312139959e-02 2.001229072943540299e-02 2.001722476125634975e-02 2.000903230253492024e-02 2.000469017498941043e-02 1.998960969793132578e-02 2.000699345755667727e-02 2.000077014272716794e-02 1.999198466832528831e-02 1.999995978595368873e-02 1.999738810346292361e-02 2.000916516987319774e-02 2.000646363227434263e-02 2.000931127499995868e-02 2.000304585502007612e-02 2.000326209404553260e-02 1.999563879806399644e-02 1.998178088614943615e-02 2.000856944544471966e-02 2.001552848262894840e-02 2.000226883840443282e-02 2.000346021976917230e-02 1.998926080352287499e-02 1.999451605871378768e-02 1.999062329488977829e-02 2.000284325398716742e-02 2.001139212981766988e-02 2.001848840774263227e-02 2.002401251222122106e-02 2.001432737270882056e-02 2.000363053350269135e-02 2.000343385156472947e-02 1.997669859221644015e-02 2.000418499678531872e-02 1.999459034094069540e-02 1.997974723234764716e-02 1.999653738394998465e-02 2.001722101948336455e-02 1.999692719040338171e-02 1.999691377741520323e-02 2.000424742904015341e-02 1.999621380884088542e-02 1.998918137339770681e-02 2.000971462897707318e-02 2.000934259761056808e-02 2.001295264772382995e-02 2.001177410596103462e-02 1.999361611221748408e-02 2.000648213966818231e-02 1.999101617333681746e-02 1.999447062781449860e-02 1.998269115036018298e-02 2.001057608964040141e-02 2.000391347248184695e-02 1.998564989424648705e-02 2.000503547523035594e-02 1.999488777652400073e-02 2.000041969977373046e-02 2.000715203668471803e-02 2.001781558832342253e-02 1.999745244558223320e-02 1.999798680829902378e-02 1.998112488932449540e-02 1.999241257849532216e-02 1.999880626928472391e-02 1.998937703282760089e-02 1.999653857618710270e-02 1.999559069004181941e-02 1.998946907200147699e-02 2.001059897208229410e-02 1.999203695817588014e-02 1.999211824011711339e-02 2.001066565509035389e-02 1.999784358270417436e-02 2.000453330186052758e-02 2.000240852448281065e-02 2.000307033662291831e-02 1.999703441557411712e-02 1.999288165982433460e-02 1.999725191001373859e-02 2.001162150062267900e-02 2.001054239552198244e-02 2.000469165577034927e-02 2.001713816725621611e-02 2.000827023662355222e-02 2.000464699094199605e-02 2.000318236874913669e-02 2.001482175227928609e-02 2.000383704856946790e-02 2.000360992075419023e-02 2.000462703231744091e-02 1.999518311447627539e-02 1.999452023610646251e-02 2.000422397219207837e-02 2.001231911749585743e-02 2.000429476137979140e-02 2.000148957605499614e-02 2.000780442040267851e-02 1.999818310836408777e-02 1.998573658751727489e-02 2.000224421674992245e-02 2.001306061915523321e-02 2.001105015675823037e-02 2.000019310719669194e-02 1.999513359262983236e-02 1.999977175970541268e-02 1.999510778943615688e-02 1.998675210236148386e-02 2.001156423164274223e-02 2.001456483076088227e-02 2.000475223756340362e-02 1.999516064317187133e-02 1.999234027222889648e-02 1.999301542765182307e-02 2.000514116196194445e-02 2.002209753130205355e-02 2.001740520971391143e-02 1.999806494250224581e-02 1.997181148304207413e-02 1.999419882653127520e-02 1.998827635089404225e-02 2.000231973019394802e-02 1.999584481053616122e-02 1.999036428265102069e-02 2.000087417644336521e-02 1.999924100179806957e-02 2.001006109560007212e-02 1.999576995561763715e-02 1.999661050633035758e-02
2.000000000000000000e+00 9.610609961523546019e-02 6.438848883384627221e-03 9.600000000000000200e-02 9.597403036931824449e-02 9.597331197114507273e-02 9.603456314027346286e-02 9.599073443222558288e-02 9.605519541304556597e-02 9.597878747304709746e-02 9.608857995583101885e-02 9.795035271850768832e-02 9.602986580263372929e-02 9.602449438373686363e-02 9.603326000675622975e-02 9.603632231893068083e-02 9.602966120456120358e-02 9.611330102206354364e-02 9.598268121033499967e-02 9.596738380315159023e-02 9.602648114587206130e-02 9.593831337148386873e-02 9.599008692425685385e-02 9.596839409647479890e-02 9.596254119497640844e-02 9.600019653615435300e-02 9.595974345492155888e-02 9.601767232981808786e-02 9.607318056823795083e-02 9.602335910241693862e-02 9.603018071282282131e-02 9.599917959886011820e-02 9.604684692861853446e-02 9.595680879011997400e-02 9.589082019843830906e-02 9.787810927987933285e-02 9.600110549345348965e-02 9.599115311573191978e-02 9.590385374323381895e-02 9.597564233567050518e-02 9.595065232474925265e-02 9.594827183433760065e-02 9.599625771106948258e-02 9.594767897996930861e-02 9.593625378412284910e-02 9.605238565318173494e-02 9.606320072252418074e-02 9.604662809273639690e-02 9.593496153483470346e-02 9.597844794839772986e-02 9.592499365494201735e-02 9.604240760451995818e-02 9.602479132722938071e-02 9.597613715494911213e-02 9.596910033301331300e-02 9.599595673946328955e-02 9.594318505892132642e-02 9.595785998087651147e-02 9.592169587823462518e-02 9.591291923443451273e-02 9.602110667808244626e-02 9.604885652848935140e-02 9.596980359497106483e-02 9.597794485345172155e-02 9.599360438642687288e-02 9.597621752974232201e-02 9.601372975905110574e-02 9.602524250670083084e-02 9.595600717897553866e-02 9.781716392014722095e-02 9.599656573194796649e-02 9.599748187075696215e-02 9.600041212363880083e-02 9.601188526683347713e-02 9.598864207498623846e-02 9.597817696859298198e-02 9.793249101784971822e-02 9.605618029247070533e-02 9.603412907175379321e-02 9.603813342619553495e-02 9.594723916299489896e-02 9.596945313644825171e-02 9.595674600314466063e-02 9.591851612789512038e-02 9.788683711776036134e-02 9.602050210555565513e-02 9.606132103396200494e-02 9.600783242318219890e-02 9.605730315080807102e-02 9.609853007027742422e-02 9.603721367906815909e-02 9.603982476560585235e-02 9.597167710292406340e-02 9.591536938726517858e-02 9.599290602087756641e-02 9.596675063990486865e-02 9.603483960462264046e-02 9.609547782724332798e-02 9.597020875990086575e-02 9.604582584100054832e-02 9.605111151898272637e-02 9.605899550128993436e-02 9.608267885403048991e-02 9.604335505216761437e-02 9.602251283994917008e-02 9.595012655007037483e-02 9.603356859627205921e-02 9.600369668509040055e-02 9.596152640796139222e-02 9.599980697257770590e-02 9.598746289662202225e-02 9.604399281539134636e-02 9.603102543491685850e-02 9.604469411999981554e-02 9.601462010409636538e-02 9.601565805141855370e-02 9.597906623070717735e-02 9.791072634213222881e-02 9.604113333813464604e-02 9.607453671661896066e-02 9.601089042434127196e-02 9.601660905489202424e-02 9.794737793726208952e-02 9.597367708182617807e-02 9.595499181547091638e-02 9.601364761913840085e-02 9.605468222312479876e-02 9.608874435716463491e-02 9.611526005866186106e-02 9.606877138900234148e-02 9.601742656081291294e-02 9.601648248751069870e-02 9.588815324263889883e-02 9.602008798456952710e-02 9.597403363651534070e-02 9.590278671526870913e-02 9.598337944295992630e-02 9.608266089352014705e-02 9.598525051393623497e-02 9.598518613159295887e-02 9.602038765939273357e-02 9.598182628243624726e-02 9.594807059230898993e-02 9.604663021908996234e-02 9.604484446853073232e-02 9.606217270907438377e-02 9.605651570861296895e-02 9.596935733864392359e-02 9.603111427040728065e-02 9.595687763201671272e-02 9.597345901350959330e-02 9.591691752172887275e-02 9.605076523027392121e-02 9.601878466791285982e-02 9.792968448180779106e-02 9.602417028110571406e-02 9.597546132731520074e-02 9.600201455891391178e-02 9.603432977608665488e-02 9.608551482395243093e-02 9.598777173879471936e-02 9.599033667983530860e-02 9.790751195769002713e-02 9.596358037677756025e-02 9.599427009256668308e-02 9.594900975757247874e-02 9.598338516569809853e-02 9.597883531220073594e-02 9.594945154560709233e-02 9.605087506599500891e-02 9.796098109506179430e-02 9.596216755256214981e-02 9.605119514443370698e-02 9.598964919698005360e-02 9.602175984893053517e-02 9.601156091751750221e-02 9.601473761579000510e-02 9.598576519475576774e-02 9.596583196715680053e-02 9.598680916806594243e-02 9.605578320298885364e-02 9.605060349850552681e-02 9.602251994769767096e-02 9.608226320282985122e-02 9.603969713579305068e-02 9.602230555652158106e-02 9.601527536999586443e-02 9.607114441094057045e-02 9.601841783313344592e-02 9.601732761962011864e-02 9.602220975512372469e-02 9.597687894948611631e-02 9.797314915692167947e-02 9.602027506652198452e-02 9.605913176398012121e-02 9.602061485462300150e-02 9.600714996506398702e-02 9.603746121793285684e-02 9.599127892014761021e-02 9.593153562008291391e-02 9.601077224039961111e-02 9.606269097194512774e-02 9.605304075243950579e-02 9.600092691454412130e-02 9.597664124462321200e-02 9.599890444658597255e-02 9.597651738929355303e-02 9.593641009133511977e-02 9.605550831188515437e-02 9.606991118765223492e-02 9.602281074030433183e-02 9.597677108722499351e-02 9.596323330669870311e-02 9.596647405272874798e-02 9.602467757741731114e-02 9.610606815024985705e-02 9.608354500662677489e-02 9.599071172401077434e-02 9.786187626690615038e-02 9.597215436735011262e-02 9.594372648429140560e-02 9.601113470493097268e-02 9.598005509057358497e-02 9.595374855672489378e-02 9.600419604692815578e-02 9.599635680863073672e-02 9.604829325888034064e-02 9.597969578696466386e-02 9.598373043038570251e-02
3.000000000000000000e+00 4.600088291000091201e-01 3.592033156249406761e-03 4.600000000000000200e-01 4.598755621863165888e-01 4.598721198617367611e-01 4.601656150471436502e-01 4.599556024877475835e-01 4.602644780208433595e-01 4.598983566416839919e-01 4.604244456216903258e-01 4.597669617399340325e-01 4.601431069709532307e-01 4.601173689220725005e-01 4.601593708657069626e-01 4.601740444448761402e-01 4.601421266051891057e-01 4.605429007307211275e-01 4.599170141328552397e-01 4.598437140567679937e-01 4.601268888239702926e-01 4.597044182383601685e-01 4.599524998453974334e-01 4.598485550456083981e-01 4.598205098925953749e-01 4.600009417357396324e-01 4.598071040548324939e-01 4.600846799137116583e-01 4.603506568894735196e-01 4.601119290324144906e-01 4.601446159156093452e-01 4.599960689112047585e-01 4.602244748662971396e-01 4.597930421193248685e-01 4.594768467841835458e-01 4.594278598851478934e-01 4.600052971561313098e-01 4.599576086795487684e-01 4.595392991863287979e-01 4.598832861917545589e-01 4.597635423894234630e-01 4.597521358728676732e-01 4.599820681988746052e-01 4.597492951123529070e-01 4.596945493822552908e-01 4.602510145881624770e-01 4.603028367954283828e-01 4.602234262776952467e-01 4.596883573544163215e-01 4.598967297527391529e-01 4.596405945965971740e-01 4.602032031049914651e-01 4.601187917763074342e-01 4.598856572007978261e-01 4.598519390956887776e-01 4.599806260432616201e-01 4.597277617406645978e-01 4.597980790750332836e-01 4.596247927498742225e-01 4.595827379983319916e-01 4.601011361658117749e-01 4.602341041990115067e-01 4.598553088925697030e-01 4.598943190894561606e-01 4.599693543516287786e-01 4.598860423300153433e-01 4.600657884287865929e-01 4.601209536779415354e-01 4.597892010659244688e-01 4.611380584806940575e-01 4.599835441322506768e-01 4.599879339640438047e-01 4.600019747591024832e-01 4.600569502369104002e-01 4.599455766093090703e-01 4.598954313078413847e-01 4.596831211041925713e-01 4.602691972347554561e-01 4.601635351354869119e-01 4.601827226671869608e-01 4.597471876560171866e-01 4.598536296121478739e-01 4.597927412650681944e-01 4.596095564461640803e-01 4.594688272874465906e-01 4.600982392557875222e-01 4.602938299544012679e-01 4.600375303610813593e-01 4.602745775976220255e-01 4.604721232534126352e-01 4.601783155455348995e-01 4.601908270018614244e-01 4.598642861181778119e-01 4.595944783139789824e-01 4.599660080167050635e-01 4.598406801495441565e-01 4.601669397721501742e-01 4.604574979222076370e-01 4.598572503078582896e-01 4.602195821547943044e-01 4.602449093617921871e-01 4.602826867770142827e-01 4.603961695088960582e-01 4.602077429583031343e-01 4.601078740247564469e-01 4.597610230524205033e-01 4.601608495238035945e-01 4.600177132827248383e-01 4.598156473714816728e-01 4.599990750769348269e-01 4.599399263796472015e-01 4.602107989070834959e-01 4.601486635423099325e-01 4.602141593249990947e-01 4.600700546654617473e-01 4.600750281630472394e-01 4.598996923554719007e-01 4.595809603814370314e-01 4.601970972452285036e-01 4.603571551004658202e-01 4.600521832833019409e-01 4.600795850546909871e-01 4.597529984810261316e-01 4.598738693504171304e-01 4.597843357824648036e-01 4.600653948417048333e-01 4.602620189858063759e-01 4.604252333780805007e-01 4.605522877810880877e-01 4.603295295723028313e-01 4.600835022705619393e-01 4.600789785859887293e-01 4.594640676209780783e-01 4.600962549260623202e-01 4.598755778416360185e-01 4.595341863439958985e-01 4.599203598308496677e-01 4.603960834481173880e-01 4.599293253792778313e-01 4.599290168805497125e-01 4.600976908679235144e-01 4.599129176033403543e-01 4.597511715881472671e-01 4.602234364664727351e-01 4.602148797450430484e-01 4.602979108976480993e-01 4.602708044371038310e-01 4.598531705810021131e-01 4.601490892123681897e-01 4.597933719867467461e-01 4.598728244397334297e-01 4.596018964582841981e-01 4.602432500617292255e-01 4.600900098670824834e-01 4.596699475676692126e-01 4.601158159302982109e-01 4.598824188600519891e-01 4.600096530947958007e-01 4.601644968437485494e-01 4.604097585314387286e-01 4.599414062483913601e-01 4.599536965908775366e-01 4.595658724544633977e-01 4.598254893053924652e-01 4.599725441935486603e-01 4.597556717550347893e-01 4.599203872523033865e-01 4.598985858709618846e-01 4.597577886560339500e-01 4.602437763578927088e-01 4.598168500380452328e-01 4.598187195226935975e-01 4.602453100670781949e-01 4.599504024021960347e-01 4.601042659427921344e-01 4.600553960631046935e-01 4.600706177423271037e-01 4.599317915582046834e-01 4.598362781759596785e-01 4.599367939303159458e-01 4.602672945143215788e-01 4.602424750970056100e-01 4.601079080827180645e-01 4.603941778468930157e-01 4.601902154423416769e-01 4.601068807916658954e-01 4.600731944812301855e-01 4.603409003024235835e-01 4.600882521170977513e-01 4.600830281773464203e-01 4.601064217433011860e-01 4.598892116329543200e-01 4.598739654304486169e-01 4.600971513604178442e-01 4.602833397024047590e-01 4.600987795117352230e-01 4.600342602492649147e-01 4.601795016692615814e-01 4.599582114923739806e-01 4.596719415128973085e-01 4.600516169852482129e-01 4.603003942405703985e-01 4.602541536054393090e-01 4.600044414655238834e-01 4.598880726304861444e-01 4.599947504732244674e-01 4.598874791570315979e-01 4.596952983543141635e-01 4.602659773277830157e-01 4.603349911075003131e-01 4.601093014639582313e-01 4.598886947929530788e-01 4.598238262612646121e-01 4.598393548359919203e-01 4.601182467251246910e-01 4.605082432199472109e-01 4.604003198234200012e-01 4.599554936775516745e-01 4.593516641099676945e-01 4.598665730102193261e-01 4.597303560705630066e-01 4.600533537944608287e-01 4.599044306423317185e-01 4.597783785009734725e-01 4.600201060581974311e-01 4.599825430413556071e-01 4.602314051988016241e-01 4.599027089792056544e-01 4.599220416455981342e-01
4.000000000000000000e+00 1.827959925399603724e+00 9.158447272833835501e-03 1.828000000000000291e+00 1.827505494949101195e+00 1.827491815450553947e+00 1.828658139796040416e+00 1.827823568146962119e+00 1.829051012656742747e+00 1.827596078132605051e+00 1.827684864576536006e+00 1.829072913008867873e+00 1.828568694658483373e+00 1.828466413890322828e+00 1.828633325961983580e+00 1.828691637489638255e+00 1.828564798770186073e+00 1.828155079857166854e+00 1.827670221380128801e+00 1.827378933251678106e+00 1.828504245152647201e+00 1.828824098643911045e+00 1.827811238516057646e+00 1.827398170920374154e+00 1.827286721921009605e+00 1.828003742375939211e+00 1.827233448287465034e+00 1.828336510613619348e+00 1.827391955391692857e+00 1.828444796241855741e+00 1.828574691073334701e+00 1.827984378194961401e+00 1.828892043599111172e+00 1.827177567378534206e+00 1.827918760032730239e+00 1.827723877369175298e+00 1.828021050437843575e+00 1.827831540578728653e+00 1.828167211980395113e+00 1.827536189475059469e+00 1.827060338017100216e+00 1.828054449123754477e+00 1.827928740581614919e+00 1.827003720576915402e+00 1.828784837759841686e+00 1.826996418778227493e+00 1.827202130409678826e+00 1.828887876599189166e+00 1.828760204257786626e+00 1.827589613017406966e+00 1.828570191547332247e+00 1.826806627977640041e+00 1.828472068189326061e+00 1.827545611658822677e+00 1.827411618841128460e+00 1.827923009580613378e+00 1.828916965185687360e+00 1.827197583802523617e+00 1.828507327678847494e+00 1.828340022906407736e+00 1.828401906328486426e+00 1.828930309729984494e+00 1.827425010120907523e+00 1.827580033251143377e+00 1.827878216858211724e+00 1.827547142128843394e+00 1.828261437495264818e+00 1.828480659398428632e+00 1.827162303366326013e+00 1.826585816059892231e+00 1.827934605812509217e+00 1.827952050622330571e+00 1.828007847520955131e+00 1.828226315289287474e+00 1.827783726177863111e+00 1.827584453110291385e+00 1.826740750822747783e+00 1.829069766402463104e+00 1.828649874407978437e+00 1.828726123990473518e+00 1.826995345728694708e+00 1.827418336806535537e+00 1.827176371809879463e+00 1.828446713688000713e+00 1.827886856382667791e+00 1.828390394259955531e+00 1.827166377166818734e+00 1.828149142391427562e+00 1.829091147496637149e+00 1.827874124045068438e+00 1.828708610472256080e+00 1.828758329911744918e+00 1.827460684834845805e+00 1.828386728944742412e+00 1.827864918814210426e+00 1.827366876768188320e+00 1.828663404138022752e+00 1.827816067839024505e+00 1.827432725136445502e+00 1.828872600389052083e+00 1.826972183683983841e+00 1.827122143597452286e+00 1.827572620702704764e+00 1.828825552451691649e+00 1.828428681994032079e+00 1.827050326390923241e+00 1.828639202020680310e+00 1.828070391045262921e+00 1.827267398684931488e+00 1.827996324436166997e+00 1.827761272656510894e+00 1.828837696526410150e+00 1.828590775989874739e+00 1.828851050534996414e+00 1.828278391148834947e+00 1.828298155395761793e+00 1.827601386143049123e+00 1.828332951082673574e+00 1.826782390369102727e+00 1.827417750464022994e+00 1.828207371830165240e+00 1.828316264086902398e+00 1.827018437441990883e+00 1.827498767766440269e+00 1.827142969152925289e+00 1.828259873414427084e+00 1.829041240665334911e+00 1.827687991626901987e+00 1.828192342365797529e+00 1.827308089128315327e+00 1.828331830762146115e+00 1.828313854033016161e+00 1.827867921187804168e+00 1.828382508706178022e+00 1.827505557161979599e+00 1.828146871759809722e+00 1.827683516893028770e+00 1.827572279078831352e+00 1.827719145202868933e+00 1.827717919255749557e+00 1.828388215014269846e+00 1.827653942128056874e+00 1.829010095665890123e+00 1.828887917088504622e+00 1.826852979161844637e+00 1.829183872001958200e+00 1.829076153284838746e+00 1.827416512656677927e+00 1.828592467565671953e+00 1.827178878242984972e+00 1.827494615382245335e+00 1.828416240257956682e+00 1.828966654593132679e+00 1.828357691384840722e+00 1.828686965323553570e+00 1.828460242436054539e+00 1.827532742774293339e+00 1.828038360559319120e+00 1.828653696152983343e+00 1.827626563213928357e+00 1.827767153526216104e+00 1.827815994278530809e+00 1.828272927373191248e+00 1.827306509674472501e+00 1.827890893012623863e+00 1.827029060800442473e+00 1.827683625863501193e+00 1.827596989069822486e+00 1.827037473180934901e+00 1.828968746048321492e+00 1.827272177977275369e+00 1.827279607146703899e+00 1.826973774309749388e+00 1.827802903459161632e+00 1.828414343790052410e+00 1.828220139137729072e+00 1.828280628767334770e+00 1.827728945583474207e+00 1.827349383707944197e+00 1.827748824575255560e+00 1.827061043006850571e+00 1.826962520711157056e+00 1.828428817337409917e+00 1.827564714670492751e+00 1.828755899627392489e+00 1.828424734972098342e+00 1.828290868503671174e+00 1.827353225983098906e+00 1.828350706239249224e+00 1.828329946756933166e+00 1.828422910753814135e+00 1.827559736663131318e+00 1.827499149580130711e+00 1.828386071058356155e+00 1.827124735427371860e+00 1.828392541190112741e+00 1.828136147251426369e+00 1.828713324024804798e+00 1.827833936104477530e+00 1.828694897757830562e+00 1.828205121410942935e+00 1.827192434528873033e+00 1.829009984327702343e+00 1.828017649997777605e+00 1.827555210366366589e+00 1.827979138837074524e+00 1.827552851954464597e+00 1.828787817366075874e+00 1.827055814348982121e+00 1.827329769048468666e+00 1.828434354513295057e+00 1.827557682785909243e+00 1.827299900881721229e+00 1.827361610087376409e+00 1.828469902203321507e+00 1.828017504607877264e+00 1.827589095646880102e+00 1.827823135744705452e+00 1.827420750698349527e+00 1.827469772744958476e+00 1.826928458471715366e+00 1.828212023339726988e+00 1.827620215683005256e+00 1.829118331862568336e+00 1.828079899726923641e+00 1.827930627564343657e+00 1.828919584137846499e+00 1.827613373943452135e+00 1.827690200278594634e+00
5.000000000000000000e+00 5.165103729600474480e+00 1.590590114862399165e-02 5.166000000000000369e+00 5.164602509248937601e+00 5.164563850447243532e+00 5.165859208920543288e+00 5.165501396634139653e+00 5.166969053260076272e+00 5.164858500893346971e+00 5.164761172625917496e+00 5.163382879018476146e+00 5.165606531300005244e+00 5.163317083425518206e+00 5.165789111196762207e+00 5.164653346207696671e+00 5.165595525628687845e+00 5.164087569497955776e+00 5.165068032631152661e+00 5.164244840907095124e+00 5.165424464971701823e+00 5.164679203164880938e+00 5.167466346089161000e+00 5.164299207316549456e+00 5.165983467662897510e+00 5.166010576101806251e+00 5.163833694667967045e+00 5.164950624074797325e+00 5.165934980137961929e+00 5.165256525050843983e+00 5.165623470843927478e+00 5.165955852163659046e+00 5.166519974368605439e+00 5.163675773018330695e+00 5.164120212770063389e+00 5.163569642622205080e+00 5.166059489366466195e+00 5.165523927040323926e+00 5.162824126510755285e+00 5.162689760639609382e+00 5.165343450149000759e+00 5.165215300415174404e+00 5.163798696041279612e+00 5.165183385088347734e+00 5.164568328711946599e+00 5.166817911594067780e+00 5.167399672199113780e+00 5.164507231403180576e+00 5.162650015970597472e+00 5.164840230223152417e+00 5.163962158424379112e+00 5.166281175726469499e+00 5.165333566810547339e+00 5.164715880650699198e+00 5.164337211670278371e+00 5.163782506276962891e+00 5.164941462338597411e+00 5.165731462303852162e+00 5.163784628111630859e+00 5.165310337937775387e+00 5.163134923669391974e+00 5.166628074094989920e+00 5.166374426862609504e+00 5.164813157426371149e+00 5.165655836044596327e+00 5.166719710351128647e+00 5.166738832658937852e+00 5.165807954830486715e+00 5.163632636318621572e+00 5.162350732602055459e+00 5.165815193450449705e+00 5.167864440709083240e+00 5.166022177403312376e+00 5.164639328311751321e+00 5.165388801660196982e+00 5.164825648122409518e+00 5.164439934492319750e+00 5.165020861143060138e+00 5.165835859651422446e+00 5.166051260550768909e+00 5.165159708274558170e+00 5.164356196905122154e+00 5.163672394294222201e+00 5.163613451551687383e+00 5.164030080600214845e+00 5.165102842428014540e+00 5.165297283096998093e+00 5.166421482272491872e+00 5.165081238171575606e+00 5.167298043987209155e+00 5.166001785819874570e+00 5.166142240516548689e+00 5.164475874101101205e+00 5.165442288876676891e+00 5.165618255248474178e+00 5.164210768809880392e+00 5.163873354573563113e+00 5.166182977503112284e+00 5.164396858892165376e+00 5.164464093658800437e+00 5.166749373791944322e+00 5.165172237267277922e+00 5.164443988404138430e+00 5.164331237284262244e+00 5.165211003182265337e+00 5.165315145945455377e+00 5.165805710741134149e+00 5.164198850852153910e+00 5.165928838295254621e+00 5.163989616733242194e+00 5.165325347124472444e+00 5.164365530344271704e+00 5.165668909853235569e+00 5.164403240077489521e+00 5.166786744351685279e+00 5.164842272682556690e+00 5.164873501539929634e+00 5.163292180981014390e+00 5.166212630813825868e+00 5.166007901366532096e+00 5.166586040959865400e+00 5.165943610405984820e+00 5.163226065549959110e+00 5.164583497965771208e+00 5.163727926744646979e+00 5.164734128179486738e+00 5.166941447918921959e+00 5.164770009197598988e+00 5.166195228153075192e+00 5.165697894896146281e+00 5.166937766803745724e+00 5.164886620474012702e+00 5.163976586087949627e+00 5.165080566169969245e+00 5.164602685064981991e+00 5.163066381047162423e+00 5.165105606274281058e+00 5.164443023026707991e+00 5.165206293281193517e+00 5.165202828706346949e+00 5.167097110921071490e+00 5.163822253995116185e+00 5.163205548748627471e+00 5.164507345738982735e+00 5.164411324443287654e+00 5.167344373642293043e+00 5.165038896748542996e+00 5.164351041785775642e+00 5.165673688462324442e+00 5.163679477572899579e+00 5.164571763164484963e+00 5.165525662368106730e+00 5.164729688736187541e+00 5.165010458594812448e+00 5.163192721929015683e+00 5.165300159704478311e+00 5.162680023898497339e+00 5.166108408451554723e+00 5.165846655871994209e+00 5.166598203346275398e+00 5.165341966693890896e+00 5.165479992583637880e+00 5.165120783890381873e+00 5.166039410283191913e+00 5.165691659356244081e+00 5.165255025282651680e+00 5.165105914229128459e+00 5.164861075237801913e+00 5.165278808205181704e+00 5.164735594694439769e+00 5.163943146296829489e+00 5.163964141422250798e+00 5.164752805578820549e+00 5.165442997412488246e+00 5.165170498540388344e+00 5.164621881021462357e+00 5.166793067949699392e+00 5.165233989542794113e+00 5.164161332732625453e+00 5.165290168356547973e+00 5.164999509310713499e+00 5.164720992284223655e+00 5.165211385519904219e+00 5.166423360968829925e+00 5.166135375096200910e+00 5.165199853061223756e+00 5.166021878553105573e+00 5.167826976438511188e+00 5.166991109645493019e+00 5.166932442530807634e+00 5.165194699744363405e+00 5.164755798469221837e+00 5.164584576986299247e+00 5.167091052017213748e+00 5.165179564225680586e+00 5.165108907388262338e+00 5.166384757495005253e+00 5.164014320905931044e+00 5.163530878579607020e+00 5.166312907873215288e+00 5.164579456764830212e+00 5.165370945803966052e+00 5.166853150474975287e+00 5.164049860278185911e+00 5.164743006976285855e+00 5.165941045531908138e+00 5.164736342011359227e+00 5.164576743250207436e+00 5.164984728186991170e+00 5.165759182819384066e+00 5.165227027738870547e+00 5.164749994131295097e+00 5.164021492316724249e+00 5.164195884962465399e+00 5.165327448018573797e+00 5.165701163075928193e+00 5.164490544106189240e+00 5.163500368154080533e+00 5.162713268366375452e+00 5.164501556893028145e+00 5.165920052197641610e+00 5.164598954336077519e+00 5.164926714561490328e+00 5.165510130637024133e+00 5.166225799775321370e+00 5.165803950764441765e+00 5.164596768774377900e+00 5.164907379536035847e+00 5.165124493785130610e+00
6.000000000000000000e+00 2.667521065497650661e-03 2.429782410028026316e-05 2.679376714677640658e-03 2.666765796467763898e-03 2.666816700960219361e-03 2.668515303497942266e-03 2.667036394032921975e-03 2.669010952503429301e-03 2.666859567901234442e-03 2.670141568072702167e-03 2.665833440500685672e-03 2.668507265946501884e-03 2.668252743484225004e-03 2.668180405521262000e-03 2.668753750857338815e-03 2.668242026748971017e-03 2.670693479938271442e-03 2.666969414437585749e-03 2.666669345850480183e-03 2.668038408779149599e-03 2.665557484567901252e-03 2.667253407921810551e-03 2.666618441358024720e-03 2.666580932784636416e-03 2.667081940157750228e-03 2.666315693587105549e-03 2.667874978566529658e-03 2.669367283950617106e-03 2.668161651234568065e-03 2.668207197359396318e-03 2.667296274862825632e-03 2.669193137002743611e-03 2.666023662551440365e-03 2.664268797153635220e-03 2.664279513888888774e-03 2.667684756515774965e-03 2.667162315672153613e-03 2.664807313100137336e-03 2.666768475651577503e-03 2.665948645404663756e-03 2.666066529492455445e-03 2.667521326303155024e-03 2.666007587448559601e-03 2.665763781721536274e-03 2.668718921467764117e-03 2.669313700274348472e-03 2.668855559842249741e-03 2.665568201303154805e-03 2.667098015260630992e-03 2.665104702503429297e-03 2.668633187585733955e-03 2.668429569615912104e-03 2.666650591563785814e-03 2.666642554012345866e-03 2.667411479766803716e-03 2.666096000514403368e-03 2.666120113168724080e-03 2.665439600480109562e-03 2.665010931069958754e-03 2.668325081447188007e-03 2.668885030864197663e-03 2.666404106652949316e-03 2.666872963820301600e-03 2.667063185871056293e-03 2.666669345850480183e-03 2.668019654492455230e-03 2.668016975308642059e-03 2.666323731138545931e-03 2.662219221536351287e-03 2.667582947530864040e-03 2.667213220164609076e-03 2.667365933641975464e-03 2.668199159807955936e-03 2.666827417695473348e-03 2.666682741769547341e-03 2.665868269890260805e-03 2.669110082304526621e-03 2.668351873285322324e-03 2.669201174554183993e-03 2.665745027434842339e-03 2.666492519718793083e-03 2.666181734396433529e-03 2.665428883744856009e-03 2.664295588991769537e-03 2.667966070816186596e-03 2.669123478223593780e-03 2.667719585905349664e-03 2.669187778635116401e-03 2.670334469307270031e-03 2.668534057784636634e-03 2.668501907578875107e-03 2.666698816872428105e-03 2.665104702503429297e-03 2.667181069958847548e-03 2.666706854423868487e-03 2.668306327160493638e-03 2.670235339506172711e-03 2.666291580932784837e-03 2.669375321502057488e-03 2.668981481481481378e-03 2.669032385973936841e-03 2.669964741941015067e-03 2.668528699417009424e-03 2.667941958161865450e-03 2.665962041323731348e-03 2.668448323902606473e-03 2.667518647119341418e-03 2.666291580932784837e-03 2.667582947530864040e-03 2.667124807098765309e-03 2.668651941872427890e-03 2.668526020233196253e-03 2.668560849622770952e-03 2.667719585905349664e-03 2.667813357338820208e-03 2.666805984224965807e-03 2.665160965363511537e-03 2.668807334533607883e-03 2.669273512517146563e-03 2.667821394890260590e-03 2.667984825102880531e-03 2.665927211934156216e-03 2.666736325445815976e-03 2.666211205418381452e-03 2.667639210390946713e-03 2.669120799039780608e-03 2.669881687242798510e-03 2.670752421982167286e-03 2.669498563957475954e-03 2.667939278978052279e-03 2.667866941015089276e-03 2.664448302469135926e-03 2.667990183470507742e-03 2.666784550754458267e-03 2.664702824931412806e-03 2.667103373628257768e-03 2.669828103566529443e-03 2.666907793209876733e-03 2.667258766289437762e-03 2.668150934499314078e-03 2.666712212791495264e-03 2.665887024176954740e-03 2.668678733710562207e-03 2.668558170438957346e-03 2.669069894547325145e-03 2.669270833333333391e-03 2.666645233196159037e-03 2.668169688786008447e-03 2.666144225823045225e-03 2.666889038923182364e-03 2.665190436385459459e-03 2.669040423525377223e-03 2.668100030006858615e-03 2.665420846193415627e-03 2.668003579389574900e-03 2.667253407921810551e-03 2.667623135288065949e-03 2.668196480624142764e-03 2.670042438271604847e-03 2.667071223422496674e-03 2.667108731995884979e-03 2.664568865740740786e-03 2.666765796467763898e-03 2.667240012002743393e-03 2.666173696844993148e-03 2.666907793209876733e-03 2.666814021776406189e-03 2.665820044581618514e-03 2.669077932098765527e-03 2.666304976851851995e-03 2.665854873971193213e-03 2.669439621913580109e-03 2.667146240569272849e-03 2.668097350823045444e-03 2.667708869170096111e-03 2.667781207133059114e-03 2.667057827503429516e-03 2.666513953189300623e-03 2.667186428326474758e-03 2.668943972908093074e-03 2.669195816186556783e-03 2.668105388374485392e-03 2.670050475823045229e-03 2.668638545953360731e-03 2.668185763888888777e-03 2.668083954903977852e-03 2.669289587620027326e-03 2.667735661008230428e-03 2.668057163065843534e-03 2.668132180212620143e-03 2.666902434842249522e-03 2.667127486282578914e-03 2.667891053669409988e-03 2.669327096193415631e-03 2.667628493655692726e-03 2.667770490397805127e-03 2.668394740226337405e-03 2.667009602194787225e-03 2.665415487825788850e-03 2.667620456104252344e-03 2.669426225994512951e-03 2.668855559842249741e-03 2.667732981824416823e-03 2.666572895233196034e-03 2.667411479766803716e-03 2.666805984224965807e-03 2.665627143347050650e-03 2.668968085562414220e-03 2.669487847222222401e-03 2.668566207990397728e-03 2.666803305041152202e-03 2.666337127057613089e-03 2.666479123799725490e-03 2.668153613683127683e-03 2.670495220336076801e-03 2.670063871742112387e-03 2.667215899348422681e-03 2.663521304869684476e-03 2.666580932784636416e-03 2.665954003772290967e-03 2.667885695301783211e-03 2.666669345850480183e-03 2.666310335219478772e-03 2.667481138545953548e-03 2.667087298525377438e-03 2.668815372085047832e-03 2.666988168724279684e-03 2.666990847908093289e-03
